Timestamp,Acc.X,Acc.Y,Acc.Z,Comp.X,Comp.Y,Comp.Z,Comp.TrueHeading,Comp.MagneticHeading,Comp.HeadingAccuracy,Gyro.X,Gyro.Y,Gyro.Z,Motion.Yaw,Motion.Pitch,Motion.Roll,Motion.X,Motion.Y,Motion.Z,Motion.W
634795915355890000,0.1173021,0.03128055,-0.9892473,0,0,0,0,0,0,0,0,0,0,0,0,0,0,0,0
634795915356090000,0.113392,0.03910068,-0.9931574,0,0,0,0,0,0,0,0,0,0,0,0,0,0,0,0
634795915356290000,0.113392,0.04692082,-0.9892473,0,0,0,0,0,0,0,0,0,0,0,0,0,0,0,0
634795915356490000,0.113392,0.03519062,-0.9853373,0,0,0,0,0,0,0,0,0,0,0,0,0,0,0,0
634795915356690000,0.1212121,0.02737048,-1.000978,0,0,0,0,0,0,0,0,0,0,0,0,0,0,0,0
634795915356900000,0.1251222,0.03519062,-1.004888,0,0,0,0,0,0,0,0,0,0,0,0,0,0,0,0
634795915357090000,0.1290323,0.03519062,-1.012708,0,0,0,0,0,0,-0.03042894,-0.1209328,-0.08986242,0,0,0,0,0,0,0
634795915357290000,0.1251222,0.03910068,-1.024438,0,0,0,0,0,0,-0.03042894,-0.1209328,-0.08986242,0,0,0,0,0,0,0
634795915357490000,0.1212121,0.03910068,-1.020528,-2.4,-11.64,-35.52,207,109,5,0.06322692,-0.03366507,-0.08024118,0,0,0,0,0,0,0
634795915357690000,0.1212121,0.03910068,-1.000978,-2.4,-11.64,-35.52,207,109,5,-0.03362374,-0.05173998,-0.06417511,0,0,0,0,0,0,0
634795915357890000,0.1251222,0.03519062,-0.9970675,-21.6,-11.94,3.3,113,15,5,-0.1177006,-0.07726255,-0.09180581,0,0,0,0,0,0,0
634795915358090000,0.1290323,0.03910068,-1.016618,-3.66,-18.78,-42.3,151,53,5,-0.08258002,-0.05915997,-0.1375107,0,0,0,0,0,0,0
634795915358290000,0.1329423,0.05474096,-1.032258,-3.66,-18.78,-42.3,150,52,5,-0.01766824,0.03020142,-0.1257361,0,0,0,0,0,0,0
634795915358490000,0.1329423,0.05865103,-1.012708,-3.66,-18.78,-42.3,150,52,5,-0.01977509,0.02589535,-0.06076129,0,0,0,0,0,0,0
634795915358690000,0.1290323,0.04301075,-0.9853373,-3.66,-18.78,-42.3,151,53,5,-0.003802345,-0.09224781,-0.03835531,0,0,0,0,0,0,0
634795915358890000,0.1290323,0.03519062,-0.9892473,-3.66,-18.78,-42.3,151,53,5,-0.03892902,-0.1262732,-0.07132713,0,0,0,0,0,0,0
634795915359090000,0.1290323,0.05474096,-1.008798,-1.98,-19.08,-41.4,154,56,5,-0.01657347,-0.1294533,-0.1213524,0,0,0,0,0,0,0
634795915359290000,0.1290323,0.06647116,-1.012708,-1.98,-19.08,-41.4,154,56,5,0.03342404,-0.03576926,-0.09155923,3.933834,-0.0448637,0.1197778,0.04656557,0.04374405,-0.9201611,0.3862922
634795915359490000,0.1368524,0.06256109,-1.000978,-1.98,-19.08,-41.4,155,57,5,0.01530582,0.01744338,-0.03940112,3.889263,-0.0458045,0.121662,0.04823246,0.0434744,-0.9284597,0.3657134
634795915359690000,0.1368524,0.05474096,-0.9853373,-1.98,-19.08,-41.4,156,58,5,-0.04001367,-0.07942027,0.005266534,3.860913,-0.0473752,0.1226276,0.04901817,0.04368839,-0.9334849,0.3525545
634795915359890000,0.1251222,0.04301075,-0.9736071,-1.98,-19.08,-41.4,154,56,5,-0.1304139,-0.09854876,-0.01709401,3.827295,-0.05034208,0.1237801,0.04978768,0.04444411,-0.9391756,0.3368899
634795915360090000,0.1251222,0.04301075,-0.9892473,-0.3,-18.54,-41.16,157,59,5,-0.1154668,-0.3018157,-0.04685964,3.771596,-0.05663418,0.1211301,0.04877084,0.04561592,-0.9481412,0.3107553
634795915360310000,0.1251222,0.05083089,-1.024438,-0.3,-18.54,-41.16,157,59,5,0.2261493,-0.1592096,-0.08406995,3.742587,-0.05290055,0.1173514,0.0481799,0.04257032,-0.9527532,0.2968636
634795915360490000,0.1368524,0.05474096,-1.040078,-0.3,-18.54,-41.16,158,60,5,0.1590879,-0.07829304,-0.03406999,3.723857,-0.0490005,0.1164333,0.04869879,0.04012306,-0.9556007,0.2878302
634795915360690000,0.1524927,0.04692082,-1.028348,-0.3,-18.54,-41.16,160,62,5,0.07071864,0.02919264,-0.0192099,3.700019,-0.04756021,0.1167201,0.04951015,0.03888845,-0.9589822,0.2763856
634795915360890000,0.1446725,0.04692082,-1.012708,-0.3,-18.54,-41.16,159,61,5,0.09622173,0.02810425,-0.02772562,3.679545,-0.04723048,0.1188924,0.05099504,0.03850761,-0.9616996,0.2665536
634795915361090000,0.1251222,0.04692082,-1.004888,-0.3,-18.54,-41.16,159,61,5,0.06107006,0.006794107,-0.03942486,3.66345,-0.04653215,0.1216164,0.05434459,0.03843234,-0.9654479,0.251953
634795915361290000,0.1212121,0.03910068,-1.008798,-0.3,-18.54,-41.16,157,59,5,-0.0474791,0.04825419,-0.0968679,3.638925,-0.04822779,0.1261424,0.05515061,0.03883116,-0.9666589,0.2470235
634795915361490000,0.1251222,0.04692082,-1.012708,-1.32,-18.72,-40.92,157,59,5,-0.02298256,0.06522741,-0.135094,3.626056,-0.04851484,0.1273986,0.05597332,0.0387639,-0.9681805,0.2408117
634795915361690000,0.1212121,0.06256109,-1.008798,-1.32,-18.72,-40.92,157,59,5,-0.1389648,0.08116312,-0.2701908,3.614016,-0.04947114,0.1276456,0.05621318,0.03891851,-0.9695863,0.2350067
634795915361890000,0.1212121,0.04692082,-0.9970675,-1.32,-18.72,-40.92,157,59,5,-0.08786219,0.1002959,-0.242521,3.602199,-0.05100417,0.1281803,0.05652619,0.03939032,-0.9709098,0.22932
634795915362090000,0.1329423,0.03519062,-0.9775171,-1.32,-18.72,-40.92,157,59,5,-0.08358815,0.159841,-0.09242093,3.592534,-0.05416011,0.1298941,0.05719488,0.04084009,-0.9718844,0.224725
634795915362290000,0.1368524,0.04692082,-0.969697,-1.32,-18.72,-40.92,157,59,5,-0.2761792,-0.02644665,-0.1125898,3.587829,-0.05508947,0.1303649,0.05741649,0.04120886,-0.9723752,0.2224675
634795915362490000,0.1212121,0.06256109,-0.9931574,-1.32,-18.72,-40.92,157,59,5,-0.2953352,-0.2531266,-0.2636306,3.579592,-0.06221628,0.1247524,0.05407336,0.04383724,-0.9733246,0.2186182
634795915362690000,0.1094819,0.07820137,-1.020528,-1.32,-18.72,-40.92,157,59,5,-0.02819204,-0.1403188,-0.09652682,3.572161,-0.06550907,0.1214818,0.05228737,0.04489457,-0.9741665,0.215059
634795915362890000,0.1212121,0.08211143,-1.024438,-0.12,-19.08,-40.56,158,60,5,0.2601925,0.0299411,0.04927703,3.562912,-0.06464052,0.119378,0.05155923,0.04401137,-0.9752391,0.2105089
634795915363090000,0.1329423,0.0742913,-1.008798,-0.12,-19.08,-40.56,162,64,5,0.3453304,0.077791,0.08756753,3.556952,-0.06129646,0.119676,0.05218272,0.04225615,-0.9759241,0.2075172
634795915363290000,0.1329423,0.04692082,-1.000978,-0.12,-19.08,-40.56,160,62,5,0.2442291,-0.05736719,0.1003349,3.550245,-0.05840206,0.1213032,0.05341485,0.04083079,-0.9766216,0.2041808
634795915363490000,0.1212121,0.03128055,-1.000978,-0.12,-19.08,-40.56,160,62,5,0.1047888,-0.1808086,0.05459209,3.543411,-0.05458879,0.1200581,0.05332797,0.03866168,-0.9774296,0.2007308
634795915363710000,0.1212121,0.04692082,-1.012708,0.06,-18.9,-40.5,159,61,5,0.06752574,-0.2052857,0.01842131,3.540949,-0.05179286,0.1176475,0.05247518,0.03699246,-0.9778051,0.1994363
634795915363890000,0.1212121,0.05865103,-1.024438,0.06,-18.9,-40.5,160,62,5,0.1036912,-0.1456892,0.05242118,3.537365,-0.04785728,0.1146242,0.05145067,0.03467891,-0.9783248,0.1975621
634795915364090000,0.1251222,0.06256109,-1.024438,0.06,-18.9,-40.5,161,63,5,0.2281948,-0.06053517,0.1013508,3.533771,-0.04506063,0.113746,0.05135671,0.03313309,-0.9787526,0.1957266
634795915364290000,0.1290323,0.05083089,-1.008798,0.06,-18.9,-40.5,161,63,5,0.380379,0.08524143,0.1332537,3.53052,-0.04109215,0.1151856,0.05250066,0.03124476,-0.9790898,0.1940397
634795915364490000,0.1212121,0.02737048,-0.9892473,0.06,-18.9,-40.5,161,63,5,0.295241,0.1032817,0.1119178,3.528445,-0.03776693,0.1179525,0.05420922,0.02982594,-0.9792566,0.1929461
634795915364690000,0.1094819,0.01564027,-0.9853373,0.18,-19.14,-39.9,161,63,5,0.05790249,-0.05529536,0.06609179,3.523375,-0.03769946,0.1191289,0.05486772,0.02976618,-0.9797079,0.1904653
634795915364900000,0.113392,0.03128055,-1.000978,0.18,-19.14,-39.9,160,62,5,-0.1176758,-0.125535,-0.01480784,3.519839,-0.03880239,0.1170475,0.05379578,0.03001544,-0.9800905,0.1887546
634795915365090000,0.1251222,0.04692082,-1.000978,0.18,-19.14,-39.9,161,63,5,0.01003727,0.08942181,0.02461021,3.517286,-0.03838587,0.116966,0.05383309,0.02973505,-0.980339,0.1874924
634795915365290000,0.1251222,0.04301075,-0.9892473,0.18,-19.14,-39.9,161,63,5,-0.009114636,0.07344737,0.06184074,3.514325,-0.03689647,0.1181487,0.05459571,0.0290337,-0.9806012,0.1860048
634795915365490000,0.1212121,0.03128055,-0.9775171,0.18,-19.14,-39.9,161,63,5,-0.06338065,-0.01489333,0.03733313,3.5121,-0.03714681,0.1195861,0.05530999,0.0292271,-0.9807595,0.184926
634795915365690000,0.1173021,0.02737048,-0.9775171,0.18,-19.14,-39.9,160,62,5,-0.1133758,-0.06598465,-0.005279298,3.509833,-0.03864407,0.1198437,0.05533185,0.02992224,-0.9809382,0.1838566
634795915365890000,0.1173021,0.03519062,-0.9853373,0.12,-19.32,-40.14,160,62,5,-0.1867618,-0.04151715,-0.03400742,3.505377,-0.0417993,0.1183888,0.0543975,0.03121652,-0.9813428,0.1817505
634795915366090000,0.1251222,0.04692082,-0.9892473,0.12,-19.32,-40.14,160,62,5,-0.2836063,0.02337973,-0.06590938,3.502211,-0.04536676,0.1184461,0.0541535,0.03288639,-0.9815702,0.1802939
634795915366290000,0.1290323,0.05865103,-1.000978,0.12,-19.32,-40.14,160,62,5,-0.2165601,-0.08623654,0.004316394,3.499396,-0.04929352,0.1181922,0.05372369,0.03471535,-0.981765,0.1790164
634795915366490000,0.1329423,0.06256109,-1.016618,0.12,-19.32,-40.14,160,62,5,0.02077689,-0.01703274,0.04895298,3.49863,-0.05094885,0.1175309,0.05326428,0.03544931,-0.9818251,0.1786801
634795915366690000,0.1329423,0.05083089,-1.020528,0.12,-19.32,-40.14,160,62,5,0.1154537,0.07023053,0.04464287,3.497445,-0.05095291,0.119036,0.05402422,0.03555152,-0.9818833,0.1781094
634795915366890000,0.1407625,0.03910068,-1.012708,-0.36,-19.26,-40.2,159,61,5,0.0483913,0.04042127,0.08931743,3.497166,-0.0507853,0.1225462,0.05576831,0.0357688,-0.9817988,0.1779931
634795915367110000,0.1290323,0.03128055,-1.008798,-0.36,-19.26,-40.2,159,61,5,-0.04630888,-0.04258448,0.04250048,3.497237,-0.05159426,0.122418,0.05563212,0.03615663,-0.9817825,0.1780493
634795915367290000,0.1212121,0.03128055,-1.012708,-0.36,-19.26,-40.2,159,61,5,-0.09736529,-0.04574681,-0.01603021,3.497309,-0.05242181,0.1223091,0.05550356,0.03655537,-0.9817643,0.1781072
634795915367490000,0.1251222,0.03910068,-1.004888,-0.36,-19.26,-40.2,159,61,5,-0.04519251,0.0351707,0.006325653,3.496996,-0.05227041,0.1228439,0.0557854,0.03651917,-0.9817774,0.1779532
634795915367690000,0.1290323,0.04301075,-0.9853373,-0.36,-19.26,-40.2,159,61,5,0.04632415,-0.02441847,0.02223316,3.497206,-0.05085849,0.123336,0.05614896,0.03587497,-0.9817683,0.1780201
634795915367890000,0.1290323,0.03910068,-0.9814272,-0.36,-19.26,-40.2,159,61,5,0.07185481,-0.09996431,0.006229447,3.49751,-0.04910612,0.1230749,0.05617142,0.03500037,-0.9817811,0.1781186
634795915368090000,0.1329423,0.03910068,-1.004888,-0.66,-19.44,-41.22,158,60,5,0.01437856,-0.1435927,-0.009756705,3.497912,-0.04544687,0.1200774,0.05501823,0.03295243,-0.9819034,0.1781955
634795915368300000,0.1368524,0.03519062,-1.032258,-0.66,-19.44,-41.22,158,60,5,0.02608866,-0.02866483,-0.0225538,3.498274,-0.04471707,0.1195011,0.0547943,0.03255344,-0.9819008,0.1783495
634795915368490000,0.1407625,0.04692082,-1.024438,-0.66,-19.44,-41.22,158,60,5,0.1527067,-0.1627587,0.03167411,3.499562,-0.04209614,0.1180328,0.05428667,0.03117252,-0.9818729,0.1789028
634795915368690000,0.1564027,0.04692082,-0.9736071,-0.66,-19.44,-41.22,158,60,5,0.1218311,0.2852585,0.09760605,3.500819,-0.03842139,0.1192297,0.05518457,0.02950882,-0.9817793,0.179425
634795915368890000,0.1524927,0.02346041,-0.9462366,-0.66,-19.44,-41.22,158,60,5,-0.7859393,-0.2351428,0.04537494,3.508586,-0.05312324,0.1210047,0.05459215,0.03709404,-0.9807739,0.1836494
634795915369090000,0.1368524,0.03519062,-0.9814272,-0.78,-19.56,-41.64,153,55,5,-0.7859393,-0.2351428,0.04537494,3.508586,-0.05312324,0.1210047,0.05459215,0.03709404,-0.9807739,0.1836494
634795915369290000,0.1290323,0.06256109,-1.004888,-0.78,-19.56,-41.64,153,55,5,-0.6412047,-0.07763176,-0.009987962,3.514894,-0.07033061,0.1219518,0.05333058,0.04578439,-0.9798014,0.1872146
634795915369490000,0.1642229,0.06256109,-1.024438,-0.78,-19.56,-41.64,156,58,5,-0.1516498,0.04899582,0.04000784,3.51575,-0.07123113,0.1230957,0.05378731,0.04635331,-0.9796625,0.1876715
634795915369690000,0.1798632,0.05865103,-1.040078,-0.78,-19.56,-41.64,158,60,5,0.4027884,0.1383795,0.02933122,3.516146,-0.06641865,0.1245433,0.05493965,0.04413959,-0.9796852,0.1877508
634795915369890000,0.1603128,0.06256109,-1.012708,-0.78,-19.56,-41.64,156,58,5,0.8242215,0.2916279,0.1463704,3.518262,-0.05439115,0.130746,0.05906747,0.03888045,-0.9795244,0.188499
634795915370090000,0.1368524,0.03519062,-0.8954057,-0.78,-19.56,-41.64,155,57,5,0.6433033,0.06703423,0.2474717,3.526138,-0.02836466,0.1407932,0.06633204,0.0273257,-0.9788524,0.1915768
634795915370290000,0.1407625,-0.03519062,-0.8680352,-0.78,-19.56,-41.64,155,57,5,0.6433033,0.06703423,0.2474717,3.531711,-0.02354598,0.139397,0.06604034,0.02501887,-0.9784274,0.1941452
634795915370490000,0.1290323,-0.08602151,-0.9266862,-0.36,-19.02,-41.52,154,56,5,-0.6603751,-0.3799409,0.03569731,3.537588,-0.03032923,0.1317899,0.06157699,0.02778665,-0.9780261,0.197236
634795915370690000,0.1055719,-0.0742913,-0.9775171,-0.36,-19.02,-41.52,149,51,5,-0.560338,-0.2181786,-0.1547706,3.541747,-0.03956151,0.1249341,0.05724572,0.03175155,-0.9777032,0.1995285
634795915370890000,0.09775171,-0.05865103,-1.000978,-0.36,-19.02,-41.52,150,52,5,-0.1676316,-0.1319762,-0.1366302,3.543485,-0.04113626,0.1194549,0.05438069,0.03202872,-0.9776789,0.2004014
634795915371090000,0.09775171,-0.05865103,-1.008798,-0.36,-19.02,-41.52,150,52,5,0.03137604,-0.2277564,-0.1844633,3.543521,-0.03467083,0.1159134,0.05329557,0.02851789,-0.9778821,0.2002328
634795915371290000,0.1094819,-0.05083089,-1.012708,-0.36,-19.02,-41.52,156,58,5,0.04415749,-0.1128205,-0.2323534,3.540584,-0.02482605,0.1094294,0.05114242,0.02298519,-0.9784903,0.1985285
634795915371490000,0.1251222,-0.05083089,-1.012708,-0.48,-18.72,-41.64,158,60,5,-0.1686299,0.004275385,-0.1919129,3.534169,-0.01221895,0.1041682,0.04986996,0.01613712,-0.9793866,0.1950739
634795915371700000,0.1251222,-0.06256109,-1.008798,-0.48,-18.72,-41.64,157,59,5,-0.2654743,0.05535064,-0.1759028,3.533134,-0.01113653,0.1052633,0.05052006,0.01568745,-0.9794676,0.1945375
634795915371890000,0.1016618,-0.07038123,-0.9892473,-0.48,-18.72,-41.64,157,59,5,-0.08767457,0.1617329,-0.1374911,3.533173,-0.007759809,0.1082483,0.05231008,0.0143244,-0.9794096,0.1944611
634795915372090000,0.1016618,-0.06647116,-0.9501466,-0.48,-18.72,-41.64,155,57,5,0.05706324,0.1734002,-0.1406486,3.533591,-0.003305435,0.1108103,0.05399512,0.01240301,-0.9793296,0.1945371
634795915372290000,0.1173021,-0.06647116,-0.9384164,-0.48,-18.72,-41.64,155,57,5,0.09853057,-0.04156101,-0.1140487,3.532913,0.004932642,0.1116066,0.05518874,0.008427803,-0.9794168,0.193976
634795915372490000,0.1016618,-0.05474096,-0.9618768,-0.48,-18.72,-41.64,155,57,5,0.1708602,-0.1255618,-0.0842281,3.532911,0.01302075,0.108912,0.05465327,0.004204912,-0.9795139,0.1937732
634795915372690000,0.07820137,-0.05083089,-0.9931574,-0.48,-18.48,-40.92,153,55,5,0.1836309,-0.07018527,-0.05438413,3.534629,0.02404785,0.1044585,0.05354142,-0.001583471,-0.9794663,0.1943597
634795915372890000,0.0742913,-0.06647116,-1.016618,-0.48,-18.48,-40.92,157,59,5,-0.09949449,-0.1063455,-0.09477191,3.533642,0.02527142,0.1025679,0.05273354,-0.002393575,-0.9796072,0.1938647
634795915373090000,0.0742913,-0.08602151,-1.040078,-0.48,-18.48,-40.92,161,63,5,-0.2580557,-0.1158465,-0.1968983,3.529682,0.02458715,0.09912633,0.05097697,-0.002495096,-0.980071,0.1919802
634795915373290000,0.07038123,-0.07820137,-1.055718,-0.48,-18.48,-40.92,161,63,5,-0.3878912,-0.1488375,-0.2575591,3.523536,0.02187252,0.09446906,0.04842928,-0.00176335,-0.9807646,0.1890827
634795915373490000,0.07038123,-0.06256109,-1.051808,-0.48,-18.48,-40.92,161,63,5,-0.3719278,-0.1253968,-0.2511737,3.518164,0.02054882,0.08971763,0.04597007,-0.001689293,-0.9813731,0.1865244
634795915373690000,0.08993158,-0.05865103,-1.032258,-0.3,-17.82,-40.98,163,65,5,-0.3102028,-0.03703507,-0.2362746,3.508084,0.01371527,0.08738672,0.04419555,0.001222845,-0.9823508,0.181749
634795915373890000,0.1055719,-0.0742913,-0.9970675,-0.3,-17.82,-40.98,163,65,5,-0.161201,0.07894845,-0.04142847,3.504668,0.01193404,0.08731306,0.04400104,0.00201582,-0.98266,0.1801106
634795915374090000,0.09775171,-0.09384164,-0.9423265,-0.3,-17.82,-40.98,163,65,5,-0.07178249,0.1406612,0.001175974,3.505425,0.01410675,0.08896648,0.04500849,0.001114763,-0.9825582,0.1804226
634795915374290000,0.08993158,-0.1173021,-0.8836755,-0.3,-17.82,-40.98,160,62,5,-0.02494413,0.1161693,-0.02645408,3.508111,0.01881695,0.09169722,0.04677586,-0.000889214,-0.9822571,0.1816113
634795915374490000,0.09384164,-0.1329423,-0.8484849,-0.3,-17.82,-40.98,154,56,5,-0.1185676,0.02676171,-0.1105097,3.510155,0.02363586,0.09338533,0.04804527,-0.003052586,-0.9820291,0.1824852
634795915374690000,0.09384164,-0.1368524,-0.856305,-0.3,-17.82,-40.98,152,54,5,-0.2526454,-0.06157792,-0.1668938,3.51099,0.02337289,0.09292066,0.04779442,-0.002946183,-0.9819636,0.1829059
634795915374890000,0.08993158,-0.1212121,-0.8719453,-0.3,-17.82,-40.98,152,54,5,-0.2239113,-0.04882691,-0.1775026,3.516719,0.02102136,0.08870876,0.04551771,-0.002048576,-0.9815281,0.1858139
634795915375100000,0.08993158,-0.09384164,-0.8875855,-0.06,-17.82,-41.28,148,50,5,-0.1313057,0.003291817,-0.1593536,3.518575,0.02157521,0.08749496,0.04497582,-0.002392045,-0.9813795,0.1867236
634795915375290000,0.09384164,-0.08993158,-0.8954057,-0.06,-17.82,-41.28,148,50,5,-0.1046802,-0.004174259,-0.1167076,3.520201,0.0224719,0.0862546,0.04445336,-0.002912277,-0.9812514,0.1875132
634795915375490000,0.08602151,-0.1055719,-0.911046,-0.06,-17.82,-41.28,154,56,5,-0.0663476,-0.0403576,-0.08372302,3.521243,0.02327347,0.08511793,0.04397271,-0.003389754,-0.9811754,0.1880172
634795915375690000,0.07038123,-0.1094819,-0.9227762,-0.06,-17.82,-41.28,154,56,5,-0.06632078,-0.1957639,-0.0273277,3.522047,0.02474356,0.08341348,0.04327657,-0.004254669,-0.9811299,0.1883966
634795915375890000,0.07038123,-0.1173021,-0.9501466,-0.06,-17.82,-41.28,154,56,5,0.00499401,-0.3075076,0.009928693,3.522893,0.02584672,0.08094537,0.04217209,-0.005011689,-0.9810944,0.188813
634795915376090000,0.08211143,-0.1173021,-1.004888,0.42,-17.1,-41.64,156,58,5,0.162484,-0.3841318,0.06418417,3.523638,0.03591632,0.0673567,0.03646168,-0.01122856,-0.9812106,0.1891313
634795915376290000,0.07820137,-0.1094819,-1.079179,0.42,-17.1,-41.64,160,62,5,0.1741905,-0.2862231,0.112037,3.524418,0.04331112,0.06243169,0.03475114,-0.01531167,-0.9811568,0.1894452
634795915376490000,0.05474096,-0.1094819,-1.13392,0.42,-17.1,-41.64,160,62,5,0.1731263,-0.1776721,0.1588197,3.525995,0.05074668,0.05783701,0.0332172,-0.01937165,-0.9810004,0.1901584
634795915376690000,0.06256109,-0.1055719,-1.16129,0.42,-17.1,-41.64,160,62,5,0.2369798,-0.07870653,0.1449579,3.526706,0.0558269,0.05495023,0.03229245,-0.02212847,-0.9809123,0.1904693
634795915376890000,0.08211143,-0.08602151,-1.216031,0.42,-17.1,-41.64,163,65,5,0.1848328,-0.1883186,0.1853888,3.525044,0.06129002,0.05249464,0.0315879,-0.02506988,-0.9810314,0.1896085
634795915377090000,0.08993158,-0.06647116,-1.305963,0.42,-17.1,-41.64,167,69,5,0.07623814,-0.1840617,0.1875172,3.524091,0.06609916,0.04610836,0.02889894,-0.02805304,-0.9811153,0.1891834
634795915377290000,0.1016618,-0.04301075,-1.341154,0.42,-17.1,-41.64,167,69,5,0.1283364,0.1362289,0.1587746,3.523749,0.06764268,0.04724932,0.02959951,-0.02870648,-0.9811165,0.1889715
634795915377490000,0.1173021,0.007820137,-1.309873,0.42,-16.68,-41.94,166,68,5,0.3869432,0.2649806,0.09064496,3.522434,0.0721712,0.05134368,0.03201493,-0.03055874,-0.9811369,0.1881773
634795915377690000,0.1446725,0.06256109,-1.251222,0.42,-16.68,-41.94,166,68,5,0.5093291,0.3011643,0.1502001,3.521736,0.07942462,0.05732775,0.03561936,-0.03356048,-0.9810288,0.1875854
634795915377890000,0.1915933,0.08211143,-1.196481,0.42,-16.68,-41.94,165,67,5,0.3039336,0.1925897,0.197026,3.522272,0.08395243,0.06242656,0.03855302,-0.03528684,-0.9808456,0.1876475
634795915378090000,0.2228739,0.08993158,-1.196481,0.42,-16.68,-41.94,165,67,5,-0.0515289,-0.06071388,0.1618893,3.523105,0.08221888,0.06380474,0.03908018,-0.0342893,-0.9807815,0.1880577
634795915378290000,0.2111437,0.1173021,-1.219941,0.42,-16.56,-41.94,159,61,5,-0.3888727,-0.07347703,0.08098732,3.526263,0.06225705,0.06484294,0.03774886,-0.02434028,-0.9807627,0.189968
634795915378510000,0.1798632,0.1564027,-1.180841,0.42,-16.56,-41.94,157,59,5,-0.1600464,-0.048989,0.3278773,3.529997,0.0514276,0.06607413,0.0373585,-0.01884153,-0.9805064,0.1919815
634795915378690000,0.1681329,0.1642229,-1.106549,0.42,-16.56,-41.94,159,61,5,-0.1600464,-0.048989,0.3278773,3.534791,0.04684424,0.06654048,0.0371866,-0.01646029,-0.980077,0.1944097
634795915378890000,0.1524927,0.1407625,-1.020528,0.42,-16.56,-41.94,161,63,5,0.1602335,-0.278863,0.4438779,3.540235,0.04383898,0.06570947,0.03652821,-0.01496961,-0.97958,0.1971437
634795915379090000,0.1407625,0.1016618,-0.9931574,0.42,-16.56,-41.94,161,63,5,-0.06327412,-0.321432,0.3512903,3.545251,0.04149127,0.06267381,0.03484554,-0.01403362,-0.9791405,0.1996831
634795915379290000,0.1368524,0.0742913,-1.008798,0.42,-16.56,-41.94,160,62,5,-0.4091473,-0.2182022,0.1416298,3.547956,0.01355576,0.06407726,0.03274043,-0.0001712352,-0.9789482,0.2014659
634795915379490000,0.1251222,0.08602151,-1.000978,-0.06,-15.9,-42.18,157,59,5,-0.520891,-0.06283221,0.002223808,3.546868,-0.002965689,0.06710696,0.03256248,0.008203124,-0.9789763,0.2011891
634795915379700000,0.1094819,0.1094819,-0.9345064,-0.06,-15.9,-42.18,157,59,5,-0.4346887,-0.04154984,0.04055677,3.545693,-0.01715279,0.07053936,0.03282377,0.01547276,-0.9789512,0.2008425
634795915379890000,0.1016618,0.1094819,-0.8445748,-0.06,-15.9,-42.18,157,59,5,-0.2920825,-0.1149546,0.1267687,3.545296,-0.02762485,0.07165097,0.0315051,0.02256641,-0.9788155,0.2010436
634795915380090000,0.1094819,0.08602151,-0.7585533,-0.06,-15.9,-42.18,158,60,5,-0.08027596,-0.1191956,0.1586701,3.545629,-0.03159332,0.07080816,0.0315051,0.02256641,-0.9788155,0.2010436
634795915380290000,0.1094819,0.03910068,-0.7194526,-0.06,-15.9,-42.18,159,61,5,-0.1121769,-0.08408459,0.09264454,3.545376,-0.03536987,0.07019257,0.03082713,0.02434925,-0.9788085,0.2009757
634795915380490000,0.09775171,0.01564027,-0.7155425,-0.06,-15.9,-42.18,159,61,5,-0.3324526,-0.1287877,0.005393922,3.544271,-0.0485816,0.06734764,0.02812313,0.03051521,-0.9787918,0.2006106
634795915380690000,0.09775171,0.007820137,-0.7116324,-0.06,-15.9,-42.18,159,61,5,-0.3250031,-0.2745865,-0.07223098,3.544686,-0.05269051,0.06279981,0.02547788,0.0320788,-0.97877,0.2008268
634795915380890000,0.1173021,0.03519062,-0.7155425,-0.9,-15.3,-42.78,144,46,5,-0.06104733,-0.4246423,-0.05197165,3.546626,-0.05361819,0.05541218,0.0217371,0.03181796,-0.9786865,0.201713
634795915381090000,0.09775171,0.03910068,-0.7390029,-0.9,-15.3,-42.78,144,46,5,0.1581705,-0.2969352,0.01189995,3.549741,-0.05126286,0.05038285,0.01946571,0.03019191,-0.9784859,0.203162
634795915381290000,0.0742913,0.007820137,-0.742913,-0.9,-15.3,-42.78,147,49,5,0.1762623,0.01487346,0.0895853,3.553695,-0.04931784,0.0506357,0.01972908,0.02930486,-0.9781072,0.2050796
634795915381490000,0.07038123,-0.01955034,-0.7507331,-0.9,-15.3,-42.78,147,49,5,0.1379403,0.003124408,0.0277766,3.554396,-0.048769,0.05126357,0.02008233,0.02910752,-0.9780341,0.2054227
634795915381690000,0.08211143,-0.01564027,-0.8367546,-1.08,-14.88,-43.08,148,50,5,0.2411702,-0.3214642,-0.1211841,3.55315,-0.04020834,0.04206717,0.01647743,0.02397095,-0.9784017,0.204657
634795915381890000,0.09384164,0.01173021,-0.9462366,-1.08,-14.88,-43.08,148,50,5,0.1166426,0.06164562,0.005551109,3.552312,-0.03690076,0.03765642,0.01466684,0.02189701,-0.9785767,0.2041885
634795915382090000,0.08211143,0.02737048,-0.9814272,-1.08,-14.88,-43.08,149,51,5,0.1378881,0.1637408,0.1555323,3.554749,-0.03429055,0.03975093,0.01593297,0.02085245,-0.9783323,0.2053744
634795915382290000,0.05474096,-0.007820137,-1.016618,-1.08,-14.88,-43.08,149,51,5,0.1378881,0.1637408,0.1555323,3.555967,-0.03336978,0.04073894,0.01649836,0.02051316,-0.9782045,0.2059694
634795915382490000,0.03910068,-0.03519062,-1.13392,-1.08,-14.88,-43.08,157,59,5,0.39009,-0.3077352,-0.2638569,3.557245,-0.02718806,0.03837323,0.01596655,0.01725694,-0.9781573,0.2065313
634795915382690000,0.05865103,-0.003910068,-1.255132,-1.56,-14.1,-43.74,158,60,5,0.2826033,0.04132371,-0.1936181,3.551956,-0.01866197,0.03252279,0.01401806,0.0124468,-0.9788214,0.2038576
634795915382890000,0.09384164,0.03128055,-1.305963,-1.56,-14.1,-43.74,162,64,5,0.1548778,0.2200888,-0.04674992,3.54359,-0.007679939,0.03467381,0.01622036,0.007223175,-0.9797,0.1996816
634795915383110000,0.07820137,0.04301075,-1.325513,-1.56,-14.1,-43.74,162,64,5,0.2634135,0.251988,0.07880024,3.543616,-0.005496502,0.03740132,0.01777433,0.006426002,-0.9796797,0.1996754
634795915383290000,0.02737048,0.07038123,-1.329423,-1.56,-14.1,-43.74,162,64,5,0.08461902,0.3669243,0.0458066,3.544879,-0.001220703,0.04309547,0.02098731,0.004913145,-0.9795082,0.2002461
634795915383490000,0.03128055,0.08211143,-1.313783,-1.56,-14.1,-43.74,162,64,5,-0.2207839,0.3828877,-0.08507138,3.543856,-0.002404451,0.05032194,0.02441101,0.006203717,-0.9795244,0.1997443
634795915383690000,0.1173021,0.08993158,-1.309873,-1.56,-14.1,-43.74,167,69,5,-0.3463625,-0.08431616,-0.2808847,3.53705,-0.008680343,0.05520236,0.02620745,0.009675223,-0.9801092,0.1964833
634795915383890000,0.1681329,0.1524927,-1.337243,-1.56,-14.1,-43.74,167,69,5,-0.09518832,-0.4025195,-0.1904255,3.526776,-0.01709723,0.04763937,0.02174052,0.01294663,-0.9811586,0.1915419
634795915384090000,0.1407625,0.2150538,-1.348974,-1.74,-14.34,-44.52,166,68,5,0.06019133,-0.2343719,0.01495961,3.527872,-0.01807618,0.04460049,0.02014858,0.01314754,-0.9810841,0.1920833
634795915384290000,0.09775171,0.2111437,-1.286412,-1.74,-14.34,-44.52,159,61,5,-0.006859755,0.09125459,0.1245029,3.530621,-0.02089953,0.04729784,0.02118028,0.01482002,-0.9807663,0.1934673
634795915384490000,0.08211143,0.1837732,-1.180841,-1.74,-14.34,-44.52,161,63,5,-0.2090191,0.04649276,-0.3001678,3.528938,-0.02640796,0.05066729,0.02231473,0.01782752,-0.9808392,0.192714
634795915384690000,0.08211143,0.1798632,-1.090909,-1.74,-14.34,-44.52,161,63,5,-0.2090191,0.04649276,-0.3001678,3.521603,-0.03346682,0.0525819,0.02265212,0.02139,-0.9814436,0.1892041
634795915384890000,0.09384164,0.1876833,-1.020528,-1.74,-14.34,-44.52,163,65,5,-0.4644332,0.01138099,-0.471508,3.513341,-0.04065442,0.05325842,0.02240701,0.02488827,-0.9821237,0.1852338
634795915385090000,0.1094819,0.1876833,-0.9579667,-0.9,-14.46,-43.8,163,65,5,-0.3037351,-0.05673453,-0.3523148,3.493029,-0.0653491,0.05529177,0.02149333,0.03698313,-0.9835415,0.1755444
634795915385290000,0.1212121,0.1837732,-0.8836755,-0.9,-14.46,-43.8,163,65,5,-0.2100834,0.01670009,-0.1980022,3.487413,-0.07771111,0.05750918,0.02161988,0.04319355,-0.9837459,0.1729489
634795915385490000,0.1251222,0.1564027,-0.8093842,-0.9,-14.46,-43.8,163,65,5,-0.1068204,0.217808,-0.1064875,3.484815,-0.08455538,0.06110441,0.02285755,0.04683679,-0.9837506,0.1718101
634795915385690000,0.1212121,0.1055719,-0.7155425,-0.9,-14.46,-43.8,155,57,5,-0.08444667,0.1677711,-0.05115559,3.482977,-0.08966373,0.06627262,0.02500737,0.04976334,-0.9836847,0.1710639
634795915385890000,0.113392,0.06256109,-0.6412512,-0.9,-14.46,-43.8,151,53,5,-0.05037721,0.01556094,-0.09691855,3.482561,-0.0938108,0.06929815,0.02615208,0.05205163,-0.9835522,0.1709719
634795915386090000,0.1055719,0.05083089,-0.6529814,-0.54,-14.46,-43.68,146,48,5,-0.02268893,-0.08126407,-0.1703379,3.481164,-0.09912849,0.06824934,0.02521954,0.05456103,-0.9835523,0.1703313
634795915386290000,0.1055719,0.05474096,-0.6686217,-0.54,-14.46,-43.68,146,48,5,-0.02904513,0.0464372,-0.1660358,3.481164,-0.09912849,0.06824934,0.02521954,0.05456103,-0.9835523,0.1703313
634795915386510000,0.1055719,0.05083089,-0.6686217,-0.54,-14.46,-43.68,141,43,5,0.061417,0.1059862,-0.06805283,3.482854,-0.09973716,0.07100212,0.02647568,0.05511255,-0.9833329,0.1712295
634795915386690000,0.08602151,0.03128055,-0.6764418,-0.54,-14.46,-43.68,142,44,5,0.1912302,0.07189123,0.04264671,3.486428,-0.09673142,0.07254039,0.02739365,0.05381274,-0.9830729,0.1729789
634795915386890000,0.05474096,0.007820137,-0.7038123,-0.54,-14.46,-43.68,142,44,5,0.2784967,0.08564964,-0.03077866,3.489914,-0.09099316,0.0740875,0.0285617,0.05117299,-0.9828864,0.1746426
634795915387090000,0.03910068,-0.007820137,-0.7624633,-0.54,-14.46,-43.68,142,44,5,0.1231078,-0.04313428,-0.1179935,3.491301,-0.08714341,0.07499588,0.02931023,0.04937926,-0.9828418,0.1752855
634795915387290000,0.04692082,-0.007820137,-0.8758553,0.12,-15.24,-43.44,157,59,5,0.01454543,-0.2495867,-0.121171,3.48717,-0.07995772,0.07090318,0.02802109,0.04543737,-0.9834607,0.1730801
634795915387490000,0.05865103,0.007820137,-1.047898,0.12,-15.24,-43.44,163,65,5,0.06668522,-0.3187613,-0.07007028,3.484514,-0.07758546,0.0643003,0.02503563,0.04367503,-0.983874,0.1716338
634795915387700000,0.05474096,0.03910068,-1.176931,0.12,-15.24,-43.44,164,66,5,0.286969,-0.1250637,0.04383767,3.48351,-0.07368326,0.0611223,0.02382712,0.04147437,-0.9841023,0.1710415
634795915387890000,0.04692082,0.05865103,-1.231672,0.12,-15.24,-43.44,164,66,5,0.5764382,0.1696775,0.2045215,3.484453,-0.06162715,0.06074297,0.02465418,0.03552091,-0.9842602,0.1713541
634795915388090000,0.05474096,0.04692082,-1.270772,0.12,-15.24,-43.44,165,67,5,0.4678873,0.1323592,0.1853655,3.485402,-0.05070471,0.0640713,0.02721387,0.03044047,-0.9842999,0.1717163
634795915388290000,0.07038123,0.03910068,-1.325513,0.12,-15.24,-43.44,168,70,5,0.2678129,-0.03262347,0.1023025,3.485109,-0.04328108,0.06564999,0.02863224,0.02691688,-0.9844033,0.1714826
634795915388490000,0.09384164,0.07038123,-1.337243,0.06,-14.46,-43.26,168,70,5,0.4423459,-0.0805103,0.07349976,3.483295,-0.03147149,0.06368458,0.02869557,0.02091039,-0.9847337,0.1704076
634795915388690000,0.1016618,0.1173021,-1.329423,0.06,-14.46,-43.26,167,69,5,0.5743098,-0.1922457,0.1308995,3.483931,-0.02029824,0.05999184,0.02782369,0.01510446,-0.9848407,0.1705491
634795915388890000,0.113392,0.1407625,-1.368524,0.06,-14.46,-43.26,167,69,5,0.2337577,-0.2316221,0.06696137,3.483502,-0.01693606,0.05615246,0.02622231,0.01311682,-0.9849592,0.1702841
634795915389090000,0.1485826,0.1642229,-1.427175,0.06,-14.46,-43.26,166,68,5,-0.09296568,-0.19331,-0.1320692,3.479924,-0.01962972,0.05322599,0.02457695,0.01415102,-0.985285,0.16855
634795915389290000,0.1798632,0.2150538,-1.384164,0.06,-14.46,-43.26,166,68,5,0.219925,0.1621352,0.1999667,3.477668,-0.02193332,0.05322349,0.02439875,0.01525815,-0.9854576,0.1674662
634795915389490000,0.1837732,0.230694,-1.212121,-0.66,-14.64,-42.66,163,65,5,0.4125498,0.1024754,0.3925915,3.478279,-0.02144003,0.05614066,0.02587288,0.01526641,-0.9853685,0.16777
634795915389690000,0.1642229,0.1837732,-1.024438,-0.66,-14.64,-42.66,163,65,5,0.2561087,-0.1454983,0.3457656,3.491037,-0.01435089,0.06014263,0.02836145,0.01228944,-0.9842666,0.1739641
634795915389890000,0.1524927,0.1251222,-0.9305963,-0.66,-14.64,-42.66,162,64,5,-0.1387193,-0.4019765,0.1818749,3.495857,-0.01777101,0.05559909,0.02579493,0.01364062,-0.9838904,0.1763756
634795915390090000,0.1564027,0.1094819,-0.9227762,-0.66,-14.64,-42.66,159,61,5,-0.4388308,-0.4413529,-0.0192962,3.497393,-0.02325964,0.05115831,0.02311366,0.01596803,-0.9837765,0.1771861
634795915390290000,0.1564027,0.1251222,-0.9618768,-0.66,-14.64,-42.66,150,52,5,-0.6442263,-0.2912971,-0.07997215,3.497766,-0.03332448,0.04945123,0.0213781,0.02077198,-0.9836738,0.1774736
634795915390490000,0.1446725,0.1368524,-0.9736071,-0.66,-14.64,-42.66,150,52,5,-0.8623924,-0.003956009,-0.03422356,3.498113,-0.05734086,0.04829609,0.01867173,0.03248371,-0.9833398,0.1778741
634795915390690000,0.1212121,0.1329423,-0.9071358,-2.1,-14.4,-42.6,149,51,5,-0.643162,0.1481955,0.04981916,3.502218,-0.09082054,0.06053269,0.02160318,0.05005977,-0.9820771,0.1804216
634795915390890000,0.1094819,0.1055719,-0.797654,-2.1,-14.4,-42.6,151,53,5,-0.482464,0.1524146,0.09664719,3.504112,-0.09785747,0.06403434,0.02263734,0.05384713,-0.9816547,0.1815007
634795915391090000,0.1173021,0.07038123,-0.7155425,-2.1,-14.4,-42.6,151,53,5,-0.3941333,0.1417231,0.008328421,3.504112,-0.09785747,0.06403434,0.02263734,0.05384713,-0.9816547,0.1815007
634795915391290000,0.1251222,0.06256109,-0.6920821,-2.1,-14.4,-42.6,151,53,5,-0.2770685,0.05226371,0.03062649,3.506856,-0.1142461,0.06930816,0.02365265,0.06239105,-0.9808162,0.1831582
634795915391490000,0.1329423,0.06647116,-0.6764418,-2.1,-14.4,-42.6,151,53,5,-0.01100257,0.01287887,0.1795772,3.510521,-0.1197202,0.07055509,0.02364359,0.06523053,-0.9802763,0.1850514
634795915391690000,0.1173021,0.06256109,-0.6529814,-4.5,-13.62,-43.08,129,31,5,0.1305322,0.01180613,0.2785501,3.517399,-0.1203463,0.07149351,0.02382018,0.0657046,-0.9795922,0.1884533
634795915391890000,0.09384164,0.03910068,-0.6334311,-4.5,-13.62,-43.08,129,31,5,0.2614319,-0.1957109,0.3126053,3.535609,-0.1160128,0.07090568,0.02336088,0.06374308,-0.9779903,0.1972991
634795915392090000,0.07820137,0.01955034,-0.6529814,-4.5,-13.62,-43.08,129,31,5,0.332735,-0.2265734,0.1859625,3.545552,-0.1106803,0.06739497,0.02186589,0.06090518,-0.9772425,0.2020137
634795915392290000,0.07820137,0.01955034,-0.6920821,-4.5,-13.62,-43.08,128,30,5,0.2784595,-0.08396158,0.07202038,3.552952,-0.1050808,0.06514621,0.02111705,0.05802426,-0.9767035,0.205517
634795915392490000,0.08602151,0.03519062,-0.7468231,-4.5,-13.62,-43.08,129,31,5,0.07625708,0.03095485,-0.069542,3.557098,-0.1023269,0.06534421,0.02137921,0.05674373,-0.9763505,0.2075164
634795915392690000,0.09384164,0.04692082,-0.856305,-4.5,-13.62,-43.08,131,33,5,-0.00353916,-0.2127505,-0.02056827,3.561189,-0.1018495,0.06340158,0.02036447,0.05635409,-0.975978,0.2094661
634795915392890000,0.1016618,0.05083089,-1.024438,-4.5,-13.62,-43.08,131,33,5,0.2901657,-0.4319809,-0.09712075,3.569099,-0.09674072,0.05163753,0.01494549,0.05270524,-0.9755085,0.2130303
634795915393090000,0.08602151,0.06647116,-1.188661,-6.12,-14.4,-42.6,132,34,5,0.2976153,-0.007354074,-0.1917794,3.571648,-0.09119319,0.04554629,0.01250038,0.04937334,-0.9754807,0.2141113
634795915393290000,0.08602151,0.09775171,-1.247312,-6.12,-14.4,-42.6,137,39,5,0.3593403,0.2256827,-0.09487768,3.572393,-0.08472371,0.04820251,0.01447188,0.04650483,-0.9755133,0.2144815
634795915393490000,0.1290323,0.1055719,-1.231672,-6.12,-14.4,-42.6,149,51,5,0.3401843,0.1798879,0.1530415,3.574816,-0.0779295,0.05200267,0.0170022,0.04361503,-0.9753426,0.215675
634795915393690000,0.1329423,0.06256109,-1.286412,-6.12,-14.4,-42.6,149,51,5,0.06880219,0.06491001,0.1902894,3.580481,-0.07309246,0.05508077,0.01890772,0.04163872,-0.9747782,0.2184413
634795915393890000,0.08602151,0.03910068,-1.376344,-6.12,-14.4,-42.6,151,53,5,0.07411139,0.004226719,0.06783479,3.5864,-0.07255864,0.0565232,0.01954637,0.0415927,-0.9741133,0.221341
634795915394090000,0.05083089,0.1016618,-1.415445,-7.02,-15,-43.08,146,48,5,0.2166938,-0.1660389,-0.07902434,3.591861,-0.06828427,0.05366492,0.01851937,0.03924787,-0.9736408,0.2239194
634795915394290000,0.07038123,0.1642229,-1.434995,-7.02,-15,-43.08,155,57,5,0.2762904,-0.2032868,-0.1470879,3.592373,-0.06398821,0.05006623,0.0172381,0.03676095,-0.9737239,0.2240828
634795915394490000,0.09775171,0.1876833,-1.427175,-7.02,-15,-43.08,155,57,5,0.04640493,-0.09473941,-0.2045561,3.590472,-0.06348205,0.04833853,0.01648791,0.03630653,-0.9739727,0.2231309
634795915394690000,0.07038123,0.2072336,-1.352884,-7.02,-15,-43.08,156,58,5,-0.03233209,0.1468113,-0.09916194,3.58985,-0.06476664,0.05079746,0.017554,0.03719913,-0.9739801,0.2228702
634795915394890000,0.02346041,0.2033236,-1.212121,-7.02,-15,-43.08,155,57,5,0.3028877,-0.01926041,-0.07151911,3.591277,-0.06300902,0.05492675,0.01973523,0.03681413,-0.9737854,0.2236012
634795915395090000,0.01173021,0.1642229,-1.079179,-7.92,-15.78,-42.48,155,57,5,0.0815284,-0.2278321,-0.3482114,3.591239,-0.06022906,0.05554903,0.02034983,0.03552913,-0.9738293,0.223562
634795915395290000,0.03128055,0.1485826,-1.024438,-7.92,-15.78,-42.48,155,57,5,-0.3899234,-0.3619244,-0.4056795,3.58066,-0.06525683,0.04689228,0.01576675,0.03693367,-0.9750451,0.2183451
634795915395490000,0.03910068,0.1564027,-1.008798,-7.92,-15.78,-42.48,154,56,5,-0.426107,-0.3736309,-0.2918074,3.575699,-0.07518816,0.03997707,0.01141197,0.04099725,-0.9754897,0.2158915
634795915395690000,0.02346041,0.1290323,-0.9775171,-7.92,-15.78,-42.48,154,56,5,-0.2611521,-0.1544005,-0.2428531,3.572478,-0.08430981,0.03550827,0.008319594,0.0449536,-0.9757004,0.2142872
634795915395890000,0.03910068,0.06256109,-0.8641251,-7.92,-15.78,-42.48,151,53,5,-0.1280567,0.2904155,-0.3216058,3.567987,-0.08981419,0.03889716,0.009491172,0.04797802,-0.9760051,0.2121856
634795915396090000,0.07038123,0.03519062,-0.7663734,-7.92,-15.78,-42.48,151,53,5,-0.1226681,0.2414611,-0.355661,3.564325,-0.09275459,0.04208362,0.01082579,0.04972828,-0.9762738,0.2104775
634795915396290000,0.1173021,0.02346041,-0.6725318,-7.2,-16.2,-41.7,145,47,5,-0.08854809,0.02967628,-0.3545967,3.55977,-0.0954039,0.04445052,0.01181944,0.05124148,-0.9766467,0.2083179
634795915396490000,0.1290323,0.02346041,-0.684262,-7.2,-16.2,-41.7,135,37,5,-0.008644993,-0.03507873,-0.2705229,3.556986,-0.09776688,0.04087698,0.009899982,0.0520131,-0.9769296,0.2068943
634795915396690000,0.1329423,0.02346041,-0.6999022,-7.2,-16.2,-41.7,124,26,5,0.08929352,0.07245164,-0.2077337,3.558484,-0.09838151,0.04078615,0.009752837,0.05231128,-0.9767592,0.2076274
634795915396890000,0.1290323,0.02737048,-0.6803519,-7.2,-16.2,-41.7,123,25,5,0.203167,0.2075645,-0.1342788,3.561046,-0.09700441,0.04316807,0.01099315,0.05189784,-0.9764928,0.2089225
634795915397100000,0.113392,0.01955034,-0.6490713,-7.2,-16.2,-41.7,123,25,5,0.2478645,0.133002,-0.08208602,3.563379,-0.09517502,0.04574167,0.01238154,0.0512853,-0.9762543,0.2101052
634795915397290000,0.1094819,0.007820137,-0.6647117,-7.2,-16.2,-41.7,124,26,5,0.2702132,-0.06385559,-0.0947967,3.567403,-0.09167694,0.04802597,0.0137644,0.049843,-0.9758806,0.2120928
634795915397490000,0.113392,0.007820137,-0.7311828,-6.3,-15.6,-41.52,123,25,5,0.2393506,-0.1542843,-0.03837233,3.576593,-0.08387351,0.04453683,0.01267824,0.04572723,-0.9751382,0.2164575
634795915397690000,0.09775171,0.01173021,-0.8250244,-6.3,-15.6,-41.52,123,25,5,0.2872408,-0.157477,-0.009675393,3.582064,-0.07913374,0.04234337,0.01200303,0.04321365,-0.9746809,0.219057
634795915397890000,0.05865103,0.007820137,-0.914956,-6.3,-15.6,-41.52,123,25,5,0.2936261,0.0437248,0.0115526,3.58709,-0.07416201,0.04337072,0.01294558,0.04093501,-0.974217,0.2214911
634795915398090000,0.03910068,0.003910068,-0.9736071,-6.3,-15.6,-41.52,127,29,5,0.2616994,0.2395464,-0.0129598,3.589626,-0.07099652,0.04594814,0.01450184,0.03969492,-0.9739608,0.2227442
634795915398290000,0.07038123,0.003910068,-1.020528,-6.3,-15.6,-41.52,134,36,5,0.278727,-0.1616219,-0.0087509,3.591837,-0.06538486,0.048702,0.01642716,0.03728472,-0.9737795,0.2238159
634795915398490000,0.09384164,0.02346041,-1.12219,-6.9,-15,-41.22,143,45,5,0.1393143,-0.1435301,-0.01621591,3.593811,-0.05753278,0.04681277,0.01635265,0.03326745,-0.973725,0.2246895
634795915398690000,0.07820137,0.04692082,-1.255132,-6.9,-15,-41.22,143,45,5,0.04888021,0.03209123,0.02949225,3.601167,-0.04984784,0.04340171,0.01544724,0.02920147,-0.9730603,0.2281724
634795915398890000,0.07038123,0.03910068,-1.337243,-6.9,-15,-41.22,141,43,5,0.1989259,0.2427862,0.08689463,3.605447,-0.04775,0.04684138,0.01729932,0.02860849,-0.972553,0.2302688
634795915399090000,0.08993158,0.04692082,-1.302053,-6.9,-15,-41.22,143,45,5,0.4639179,0.2449147,0.08365524,3.608233,-0.04347277,0.05030023,0.01943662,0.02695206,-0.9722408,0.2316128
634795915399290000,0.1290323,0.0742913,-1.262952,-6.9,-15,-41.22,149,51,5,0.2734216,-0.06901421,0.09214319,3.61227,-0.03545284,0.0522201,0.0212518,0.02331749,-0.9718432,0.2335065
634795915399490000,0.1603128,0.09384164,-1.341154,-6.9,-15,-41.22,149,51,5,-0.2651038,-0.3276209,-0.01959227,3.616129,-0.03298759,0.04975557,0.02029954,0.02187214,-0.9714545,0.2353422
634795915399690000,0.1681329,0.1212121,-1.462366,-6.18,-15.3,-41.22,149,51,5,-0.5290316,-0.4042451,-0.1153269,3.619448,-0.04974627,0.03782344,0.01248285,0.02863372,-0.9710068,0.2370024
634795915399890000,0.1485826,0.1759531,-1.462366,-6.18,-15.3,-41.22,149,51,5,-0.2576542,-0.2084277,0.03689712,3.623864,-0.05286741,0.03600109,0.01116196,0.02995866,-0.9704576,0.2391455
634795915400100000,0.1290323,0.1915933,-1.305963,-6.18,-15.3,-41.22,152,54,5,0.280843,0.1012524,0.4657835,3.629291,-0.05039382,0.03830802,0.01249858,0.02906715,-0.9698135,0.2417872
634795915400290000,0.1055719,0.1407625,-1.11828,-6.18,-15.3,-41.22,153,55,5,0.04030021,-0.3787026,0.368939,3.638483,-0.04645586,0.04092621,0.01411812,0.02753816,-0.968715,0.2462398
634795915400490000,0.09384164,0.0742913,-1.028348,-6.18,-15.3,-41.22,153,55,5,-0.1682839,-0.5479144,0.1199146,3.645788,-0.04702234,0.03543353,0.01128806,0.02718007,-0.9678678,0.2497312
634795915400690000,0.08993158,0.07038123,-1.000978,-7.08,-16.02,-40.86,149,51,5,-0.2736422,-0.4148862,-0.03329704,3.649312,-0.05097342,0.02679098,0.006562039,0.02802801,-0.9674638,0.251368
634795915400890000,0.08993158,0.09775171,-0.9423265,-7.08,-16.02,-40.86,145,47,5,-0.4503036,-0.2286468,-0.08326199,3.650972,-0.06627369,0.0197165,0.00118815,0.03454278,-0.9670811,0.2521104
634795915401090000,0.08211143,0.1173021,-0.8523949,-7.08,-16.02,-40.86,144,46,5,-0.5088359,-0.3169775,0.06472331,3.651593,-0.07322478,0.01871657,-0.0001834108,0.03777795,-0.9668861,0.2523969
634795915401290000,0.0742913,0.1055719,-0.7702835,-7.08,-16.02,-40.86,144,46,5,-0.4790376,-0.3169775,0.06472331,3.653706,-0.08350921,0.01563048,-0.003017926,0.04235783,-0.966441,0.2533549
634795915401490000,0.06256109,0.08211143,-0.7546432,-7.08,-16.02,-40.86,143,45,5,-0.4087988,-0.4319138,0.09236593,3.656467,-0.0925877,0.009518266,-0.007184834,0.04596215,-0.9659427,0.2545402
634795915401690000,0.05474096,0.04301075,-0.7624633,-7.08,-16.02,-40.86,140,42,5,-0.1980822,-0.4255285,0.03062511,3.658593,-0.09857273,0.002628207,-0.01132511,0.04796505,-0.9655833,0.2553825
634795915401910000,0.07038123,0.04301075,-0.7663734,-7.62,-16.2,-40.74,138,40,5,-0.04272734,-0.1818209,-0.03001518,3.659529,-0.1002769,-0.001871109,-0.01373747,0.048207,-0.9654517,0.2557159
634795915402090000,0.08602151,0.04692082,-0.7194526,-7.62,-16.2,-40.74,138,40,5,-0.271549,0.2555875,0.01578002,3.662212,-0.1076219,0.004281521,-0.0117775,0.05252304,-0.9648799,0.2571178
634795915402290000,0.08602151,0.03128055,-0.6608016,-7.62,-16.2,-40.74,137,39,5,-0.1832039,0.1619154,0.2573521,3.668129,-0.1113765,0.008025407,-0.01061616,0.05478396,-0.963982,0.2600478
634795915402490000,0.07038123,0.01173021,-0.6764418,-7.62,-16.2,-40.74,131,33,5,0.1988596,-0.2733578,0.3297194,3.676713,-0.1082396,0.004383326,-0.01219055,0.05274715,-0.9629734,0.2641056
634795915402690000,0.03519062,0.01173021,-0.7390029,-7.62,-16.2,-40.74,127,29,5,0.3042178,0.08741795,0.101953,3.684,-0.09953761,0.0009225607,-0.01288323,0.0480534,-0.9622501,0.2675815
634795915402890000,0.01955034,0.01173021,-0.7585533,-7.68,-16.26,-40.5,128,30,5,0.1360656,0.1523045,0.07638669,3.688699,-0.09352207,0.002239704,-0.01155104,0.0453081,-0.9617499,0.2699088
634795915403100000,0.03128055,0.01173021,-0.7820137,-7.68,-16.26,-40.5,128,30,5,0.1977822,-0.1307463,-0.01943678,3.690302,-0.09137677,0.00398159,-0.01045948,0.04450303,-0.9615693,0.27073
634795915403290000,0.03910068,0.01173021,-0.8954057,-7.68,-16.26,-40.5,136,38,5,0.2775991,-0.07112128,-0.09606291,3.691087,-0.0827446,-5.257129E-05,-0.01124655,0.03980207,-0.9616705,0.2710705
634795915403490000,0.04692082,0.01955034,-1.012708,-7.68,-16.26,-40.5,138,40,5,0.1956538,0.01510203,-0.0364381,3.690967,-0.07818294,-0.0003170967,-0.01075323,0.03757339,-0.9617764,0.2710328
634795915403690000,0.05083089,0.01955034,-1.11437,-7.68,-16.26,-40.5,141,43,5,0.2424718,-0.3105451,0.04231361,3.693196,-0.07354116,-0.003790021,-0.01183316,0.03485721,-0.9615739,0.2720669
634795915403890000,0.03910068,0.02346041,-1.227762,-7.68,-16.26,-40.5,141,43,5,0.5713174,-0.06682586,-0.1886023,3.693551,-0.06727672,-0.006669402,-0.01237103,0.03145107,-0.96164,0.2722257
634795915404090000,0.04301075,0.05083089,-1.290323,-7.68,-16.26,-40.5,145,47,5,0.1977744,0.3354527,-0.1002661,3.691371,-0.05717611,-0.008119941,-0.01166477,0.02640917,-0.9620858,0.2712154
634795915404290000,0.06647116,0.06256109,-1.274682,-8.4,-16.26,-40.62,145,47,5,0.07429688,0.1906928,0.08913643,3.68988,-0.0526824,-0.003238916,-0.00868877,0.02491634,-0.9623337,0.2705875
634795915404490000,0.05865103,0.04301075,-1.278592,-8.4,-16.26,-40.62,151,53,5,0.4350479,-0.4106108,0.2136303,3.697356,-0.04334068,-0.007216811,-0.009413267,0.01984763,-0.9614282,0.2741778
634795915404690000,0.007820137,0.03519062,-1.356794,-8.4,-16.26,-40.62,151,53,5,0.4073781,-0.5276756,0.01141351,3.698909,-0.03840327,-0.01370847,-0.01186983,0.01657434,-0.9612618,0.2748821
634795915404890000,-0.003910068,0.04301075,-1.411535,-8.4,-16.26,-40.62,149,51,5,0.07958236,-0.1754171,-0.3206102,3.69633,-0.03505611,-0.01885533,-0.01386498,0.01427545,-0.9616342,0.2736128
634795915405090000,0.04692082,0.08993158,-1.384164,-8.4,-16.26,-40.62,149,51,5,-0.3450305,0.2023301,-0.551547,3.687044,-0.03973794,-0.01706493,-0.01356672,0.01683489,-0.9628609,0.2691313
634795915405310000,0.08993158,0.1564027,-1.262952,-8.22,-17.52,-41.04,155,57,5,0.01151079,0.2672479,-0.1045215,3.67534,-0.04713416,-0.008306265,-0.01021941,0.02163561,-0.9643497,0.2635472
634795915405490000,0.08602151,0.1642229,-1.1652,-8.22,-17.52,-41.04,155,57,5,0.01151079,0.2672479,-0.1045215,3.674468,-0.04607916,-0.004747152,-0.008354892,0.02159984,-0.9644707,0.2631729
634795915405690000,0.07038123,0.1368524,-1.079179,-8.22,-17.52,-41.04,152,54,5,0.08596324,-0.09353449,-0.07466187,3.672831,-0.04667329,-0.006119608,-0.009077117,0.02171308,-0.9646818,0.262365
634795915405890000,0.07038123,0.1251222,-1.067449,-8.22,-17.52,-41.04,151,53,5,-0.3280114,-0.3095722,-0.3322043,3.66726,-0.05370473,-0.01110017,-0.01233332,0.02448516,-0.9653334,0.2595765
634795915406090000,0.09384164,0.1485826,-1.059628,-8.22,-17.52,-41.04,150,52,5,-0.5727832,-0.1712229,-0.2683508,3.660487,-0.0646174,-0.01603866,-0.01603379,0.02916475,-0.966063,0.256154
634795915406290000,0.08602151,0.1642229,-1.016618,-8.94,-18.9,-41.22,148,50,5,-0.3524886,0.06927504,-0.007599724,3.657265,-0.07220363,-0.01822746,-0.01800975,0.03257702,-0.9663581,0.2544939
634795915406500000,0.05474096,0.08993158,-0.8993157,-8.94,-18.9,-41.22,148,50,5,-0.1587879,0.2767731,-0.008679593,3.656703,-0.08779811,-0.01092219,-0.01645394,0.0410471,-0.9661304,0.2542362
634795915406690000,0.05865103,0.02346041,-0.7937439,-8.94,-18.9,-41.22,148,50,5,-0.2204995,0.09261744,-0.109781,3.655556,-0.09271383,-0.006609678,-0.01497077,0.04397933,-0.9661565,0.2537398
634795915406890000,0.08602151,-0.003910068,-0.7390029,-8.94,-18.9,-41.22,145,47,5,-0.1736586,-0.2372882,-0.1661428,3.653954,-0.0967176,-0.009693384,-0.01693162,0.0455352,-0.9662821,0.2528621
634795915407090000,0.09775171,0.007820137,-0.742913,-8.94,-18.9,-41.22,137,39,5,0.01473848,-0.1893981,-0.1501196,3.65359,-0.09789203,-0.01435554,-0.01932395,0.0455155,-0.9663165,0.2525624
634795915407290000,0.08993158,0.01564027,-0.7390029,-8.94,-18.9,-41.22,137,39,5,0.07007883,0.1298595,-0.08195086,3.654244,-0.09724403,-0.01495731,-0.01954753,0.04511977,-0.9662499,0.2528699
634795915407490000,0.0742913,0.01564027,-0.688172,-8.52,-20.28,-41.64,132,34,5,-0.008652443,0.4023011,-0.0169947,3.655636,-0.09667253,-0.009616136,-0.01692688,0.04550895,-0.9660699,0.2536766
634795915407690000,0.06256109,0.003910068,-0.6608016,-8.52,-20.28,-41.64,133,35,5,0.09141547,0.04471496,0.02769786,3.6598,-0.09416723,-0.004536509,-0.01424911,0.04491451,-0.9655738,0.2558265
634795915407890000,0.04301075,-0.003910068,-0.7116324,-8.52,-20.28,-41.64,132,34,5,0.3298019,-0.2500705,0.01065099,3.66162,-0.08733439,-0.008358479,-0.01525781,0.04111217,-0.9655038,0.2566702
634795915408090000,0.03128055,0.003910068,-0.7663734,-8.52,-20.28,-41.64,131,33,5,0.127598,0.2735183,-0.06382369,3.661911,-0.08283018,-0.008540511,-0.01477322,0.03891209,-0.9655572,0.2568408
634795915408290000,0.01955034,0.007820137,-0.7898338,-8.52,-20.28,-41.64,131,33,5,-0.01924978,0.2447842,0.002173376,3.661649,-0.07983207,-0.00394988,-0.01216702,0.03805649,-0.9656314,0.2568265
634795915408490000,0.007820137,-0.003910068,-0.8406647,-8.52,-20.28,-41.64,140,42,5,0.07439575,0.03721174,0.0383614,3.662112,-0.07944083,-0.0002282858,-0.01032883,0.0383433,-0.9655622,0.2571244
634795915408710000,0.003910068,-0.01173021,-0.9266862,-6.9,-20.46,-41.58,148,50,5,0.3180886,-0.1277288,0.06281994,3.663095,-0.07750773,0.000192523,-0.009895549,0.03745929,-0.9654702,0.2576165
634795915408890000,0.003910068,-0.003910068,-1.012708,-6.9,-20.46,-41.58,148,50,5,0.485172,-0.2086099,0.091517,3.665062,-0.06555939,-0.004858017,-0.0108254,0.03102933,-0.9654416,0.2585396
634795915409090000,0,-0.003910068,-1.086999,-6.9,-20.46,-41.58,150,52,5,0.5107133,-0.1053689,0.1127804,3.6664,-0.05432677,-0.00770402,-0.01076412,0.02523131,-0.9654332,0.2592039
634795915409290000,-0.01564027,-0.01955034,-1.192571,-6.9,-20.46,-41.58,153,55,5,0.2936114,-0.05107265,0.006363336,3.666386,-0.04611325,-0.008933186,-0.01029278,0.02110694,-0.9655315,0.259225
634795915409490000,-0.03128055,-0.02346041,-1.302053,-6.9,-20.46,-41.58,156,58,5,0.1541802,0.03406622,-0.1542941,3.663171,-0.04203963,-0.009160638,-0.009843834,0.01912667,-0.9659884,0.2576901
634795915409690000,-0.003910068,0,-1.305963,-5.76,-19.56,-40.92,160,62,5,0.2616515,0.2011032,-0.04679067,3.66036,-0.03795385,-0.006834507,-0.008169348,0.01746463,-0.9663854,0.2563746
634795915409900000,0.03910068,0.03910068,-1.231672,-5.76,-19.56,-40.92,160,62,5,0.5670841,0.107437,0.1543182,3.659546,-0.03252888,-0.004329801,-0.006257428,0.01516701,-0.9665314,0.256023
634795915410090000,0.05474096,0.03910068,-1.216031,-5.76,-19.56,-40.92,162,64,5,0.1754493,-0.084146,0.11493,3.661712,-0.01882625,-0.005011559,-0.004841813,0.008452114,-0.9663351,0.2571032
634795915410290000,0.06256109,0.03910068,-1.309873,-5.76,-19.56,-40.92,161,63,5,-0.3811402,-0.2405835,-0.1468473,3.657879,-0.02654767,-0.009518384,-0.007989583,0.01161868,-0.9667856,0.2551994
634795915410490000,0.07038123,0.1055719,-1.411535,-5.76,-19.56,-40.92,157,59,5,-0.6908297,-0.3448776,-0.2639121,3.652676,-0.03887725,-0.01553011,-0.01242441,0.01684322,-0.9673529,0.2525679
634795915410690000,0.0742913,0.1915933,-1.345064,-5.76,-19.56,-40.92,157,59,5,-0.281103,0.01376644,0.08408944,3.652554,-0.04309893,-0.01600623,-0.01318663,0.01882573,-0.9673304,0.2524765
634795915410890000,0.09384164,0.1915933,-1.14956,-5.76,-19.56,-40.92,158,60,5,0.1680125,-0.04585135,0.3075767,3.655751,-0.04471755,-0.01121724,-0.01110721,0.02019616,-0.9669117,0.2540682
634795915411100000,0.113392,0.1173021,-1.004888,-5.34,-19.56,-41.04,160,62,5,-0.07569448,-0.5768998,0.1692275,3.659504,-0.0430398,-0.008459091,-0.00959772,0.01971779,-0.9664487,0.2559219
634795915411290000,0.1212121,0.1055719,-1.012708,-5.34,-19.56,-41.04,151,53,5,-0.2523414,-0.6226614,0.01596541,3.662981,-0.05049157,-0.02340817,-0.01781077,0.02137281,-0.9659137,0.2573659
634795915411490000,0.1329423,0.1251222,-1.047898,-5.34,-19.56,-41.04,151,53,5,-0.463058,-0.2991369,-0.07341417,3.662098,-0.05675268,-0.02586376,-0.01979137,0.0240885,-0.9659498,0.2568448
634795915411690000,0.1212121,0.1564027,-1.020528,-5.34,-19.56,-41.04,151,53,5,-0.6886737,-0.0692393,0.02874538,3.660787,-0.07016539,-0.02640796,-0.02175612,0.03051017,-0.9659335,0.2560633
634795915411890000,0.09775171,0.1290323,-0.8758553,-4.92,-19.26,-41.04,152,54,5,-0.5088196,-0.1703202,0.2458365,3.662188,-0.08318543,-0.02678275,-0.02362928,0.03673298,-0.9655345,0.2565845
634795915412090000,0.07038123,0.07820137,-0.7741935,-4.92,-19.26,-41.04,153,55,5,-0.2236073,-0.3757157,0.3426811,3.666738,-0.09371543,-0.02663445,-0.02500344,0.04177832,-0.9647418,0.2586557
634795915412290000,0.05083089,0.03910068,-0.7702835,-4.92,-19.26,-41.04,148,50,5,-0.02671735,-0.30122,0.2437081,3.674133,-0.09849595,-0.03488064,-0.02975612,0.04290261,-0.9636691,0.2619477
634795915412490000,0.05083089,0.01955034,-0.801564,-4.92,-19.26,-41.04,148,50,5,-0.3353306,0.07338848,0.0585059,3.673995,-0.1047115,-0.03335416,-0.02983179,0.0461005,-0.9635509,0.2618296
634795915412690000,0.06647116,0.02346041,-0.7624633,-4.92,-19.26,-41.04,149,51,5,-0.5758455,0.4139229,0.06700832,3.673466,-0.1142623,-0.02666914,-0.02784982,0.0515893,-0.963387,0.2616266
634795915412890000,0.08211143,0.02346041,-0.6959922,-4.92,-19.26,-41.04,149,51,5,-0.3257526,0.2755736,0.2053363,3.674554,-0.1185217,-0.02278173,-0.02656477,0.05413769,-0.9631255,0.2622077
634795915413090000,0.0742913,0.007820137,-0.688172,-6.18,-19.02,-41.82,141,43,5,0.1627256,0.0446145,0.3224011,3.68009,-0.1175897,-0.02038777,-0.02543952,0.05393408,-0.962415,0.2649563
634795915413300000,0.05865103,-0.01564027,-0.7077224,-6.18,-19.02,-41.82,141,43,5,0.4138827,0.08394049,0.303245,3.686311,-0.1104586,-0.02007425,-0.02450088,0.05046796,-0.9617707,0.2680474
634795915413490000,0.05865103,-0.03128055,-0.7272727,-6.18,-19.02,-41.82,135,37,5,0.2521205,-0.008689666,0.160622,3.697106,-0.09657836,-0.01755726,-0.02166738,0.04401432,-0.9606314,0.2734613
634795915413690000,0.06256109,-0.02737048,-0.8132942,-6.18,-19.02,-41.82,137,39,5,0.2521205,-0.008689666,0.160622,3.698159,-0.09428143,-0.01861954,-0.02188597,0.04275387,-0.9605392,0.2739663
634795915413890000,0.06256109,0.003910068,-0.911046,-6.18,-19.02,-41.82,136,38,5,0.3425365,0.04669666,0.08288666,3.69927,-0.09120345,-0.0197947,-0.02205142,0.04110185,-0.9604538,0.2745056
634795915414090000,0.06647116,0.02737048,-0.9540567,-6.18,-19.02,-41.82,136,38,5,0.4542802,0.03073806,0.1179431,3.701348,-0.08466386,-0.01922035,-0.02091747,0.03801841,-0.9602962,0.2755872
634795915414290000,0.05083089,0.02346041,-0.9931574,-7.32,-19.08,-42.72,143,45,5,0.3191236,-0.07354419,0.1200297,3.703621,-0.07659935,-0.01862037,-0.01955689,0.03420674,-0.9601275,0.2767724
634795915414500000,0.03519062,0.007820137,-1.059628,-7.32,-19.08,-42.72,146,48,5,0.1658752,-0.03523358,-0.07046382,3.705808,-0.06993175,-0.01764131,-0.01819815,0.03112162,-0.9599324,0.2779033
634795915414690000,0.05474096,0.007820137,-1.11437,-7.32,-19.08,-42.72,148,50,5,0.001959582,0.2392988,-0.2513678,3.700826,-0.06464219,-0.01385689,-0.01557426,0.02914848,-0.9606982,0.2756211
634795915414890000,0.09384164,0.02346041,-1.14956,-7.32,-19.08,-42.72,150,52,5,-0.1501875,0.2488769,-0.2013493,3.696187,-0.06637168,-0.009640454,-0.01371657,0.03059305,-0.9613024,0.2734489
634795915415090000,0.08602151,0.06647116,-1.188661,-7.32,-19.08,-42.72,150,52,5,-0.07671975,0.1381243,0.03810577,3.695622,-0.0680263,-0.006523728,-0.01243596,0.03181843,-0.961345,0.2732189
634795915415290000,0.03128055,0.1173021,-1.247312,-7.32,-19.08,-42.72,150,52,5,-0.08307531,0.02424703,0.1636295,3.698392,-0.06951547,-0.005021811,-0.01196288,0.03272302,-0.9609369,0.2745668
634795915415490000,0,0.1329423,-1.309873,-7.68,-19.14,-42.66,151,53,5,-0.1085839,-0.02572866,-0.02582117,3.699676,-0.07079744,-0.005071163,-0.01218395,0.03332437,-0.9607393,0.2751746
634795915415690000,0.03519062,0.1329423,-1.356794,-7.68,-19.14,-42.66,157,59,5,-0.2586245,-0.1310335,-0.4483186,3.695585,-0.07390236,-0.0060426,-0.01300673,0.03470874,-0.9612509,0.2731723
634795915415890000,0.07038123,0.1798632,-1.376344,-7.68,-19.14,-42.66,157,59,5,-0.1053683,-0.05332828,-0.2876206,3.677012,-0.08469319,-0.01290369,-0.0174145,0.03912003,-0.963567,0.2640172
634795915416090000,0.05865103,0.230694,-1.302053,-7.68,-19.14,-42.66,159,61,5,0.2202531,0.1083956,-0.01727555,3.673605,-0.08433247,-0.0123105,-0.01701466,0.03905376,-0.9640209,0.2623911
634795915416290000,0.03519062,0.2111437,-1.15738,-7.68,-19.14,-42.66,158,60,5,0.1244568,-0.0980766,-0.1353614,3.672787,-0.08191275,-0.01081467,-0.01596062,0.03809046,-0.9641709,0.2620479
634795915416490000,0.03128055,0.1603128,-1.051808,-8.1,-19.14,-42.78,157,59,5,-0.3363358,-0.3130501,-0.3279862,3.66921,-0.08083725,-0.0120908,-0.01636792,0.03743387,-0.9646613,0.260306
634795915416690000,0.04692082,0.1329423,-1.024438,-8.1,-19.14,-42.78,157,59,5,-0.6758236,-0.501418,-0.5450882,3.662335,-0.08832835,-0.01796317,-0.02003574,0.04035009,-0.9654153,0.2567949
634795915416890000,0.05865103,0.1564027,-1.004888,-8.1,-19.14,-42.78,157,59,5,-0.4299876,-0.4067019,-0.4993265,3.644189,-0.1092811,-0.03410995,-0.03007212,0.04865588,-0.967236,0.2473523
634795915417090000,0.05083089,0.1564027,-0.9227762,-8.1,-19.14,-42.78,154,56,5,-0.2160783,-0.2247194,-0.3503349,3.639876,-0.1129875,-0.03617727,-0.03142131,0.05025865,-0.9676718,0.245149
634795915417290000,0.05865103,0.09384164,-0.801564,-8.1,-19.14,-42.78,152,54,5,-0.1904972,-0.01719059,-0.1481132,3.636126,-0.1176979,-0.03536677,-0.03150799,0.05269688,-0.9680098,0.2432846
634795915417490000,0.07038123,0.01955034,-0.742913,-8.34,-19.2,-43.14,143,45,5,-0.3480026,-0.2587631,-0.1278523,3.633996,-0.1237934,-0.03817737,-0.03354971,0.05533786,-0.9680994,0.242066
634795915417690000,0.05865103,-0.01173021,-0.7898338,-8.34,-19.2,-43.14,143,45,5,-0.4405901,-0.4354245,-0.2470267,3.631649,-0.1316423,-0.04531706,-0.03788374,0.05830843,-0.9681428,0.2405505
634795915417910000,0.03910068,0.01173021,-0.8445748,-8.34,-19.2,-43.14,134,36,5,-0.3384245,-0.05547758,-0.3694126,3.624293,-0.1426542,-0.05422079,-0.04328195,0.06271313,-0.9686529,0.2364426
634795915418090000,0.04301075,0.05474096,-0.8523949,-8.34,-19.2,-43.14,135,37,5,-0.3384245,-0.05547758,-0.3694126,3.620303,-0.1477325,-0.05620468,-0.04471225,0.06502353,-0.9689512,0.2343217
634795915418290000,0.05865103,0.07820137,-0.8211144,-8.34,-19.2,-43.14,144,46,5,-0.126606,0.07221315,-0.08309671,3.619772,-0.1494276,-0.05546593,-0.04453584,0.06594457,-0.9689609,0.2340559
634795915418490000,0.06256109,0.06256109,-0.7820137,-8.34,-19.2,-43.14,144,46,5,0.09368397,0.1296138,0.04890542,3.621161,-0.1472487,-0.05294204,-0.04310435,0.06515942,-0.968881,0.2348751
634795915418690000,0.03910068,0.03519062,-0.7741935,-7.98,-19.56,-43.56,144,46,5,0.3671899,0.08268183,0.06270108,3.623045,-0.1412151,-0.04934454,-0.04071297,0.06262697,-0.9688656,0.2360511
634795915418890000,0.02346041,0.01955034,-0.8172043,-7.98,-19.56,-43.56,141,43,5,0.2788592,0.1486691,0.08181105,3.624194,-0.1368401,-0.04777277,-0.03947055,0.06067293,-0.96887,0.2367533
634795915419100000,0.01564027,0.007820137,-0.8641251,-7.98,-19.56,-43.56,142,44,5,0.2990794,0.1901256,0.1073205,3.628248,-0.1250794,-0.04224634,-0.03551407,0.05556537,-0.9687464,0.2391276
634795915419290000,0.007820137,0.007820137,-0.914956,-7.98,-19.56,-43.56,142,44,5,0.3778321,0.04428202,0.1200647,3.630649,-0.1180735,-0.04083395,-0.03405515,0.05230137,-0.9686511,0.2404576
634795915419490000,0.003910068,0.01564027,-1.000978,-7.98,-19.56,-43.56,147,49,5,0.3214281,-0.01212723,0.1956008,3.632615,-0.1132562,-0.04072344,-0.03347148,0.04994863,-0.9685377,0.2414944
634795915419690000,0,0.01955034,-1.071359,-7.98,-19.56,-43.56,149,51,5,0.3075932,-0.001476889,0.2551974,3.637076,-0.1060128,-0.04064762,-0.03266348,0.04637706,-0.9681713,0.2437763
634795915419890000,-0.007820137,0.01955034,-1.11828,-8.04,-19.5,-44.46,151,53,5,0.4416856,0.03148824,0.2211422,3.641552,-0.09753942,-0.03936553,-0.03110484,0.04236289,-0.9678156,0.2461125
634795915420090000,-0.01955034,0.03910068,-1.180841,-8.04,-19.5,-44.46,151,53,5,0.5119244,0.02080532,0.1104316,3.64444,-0.08822965,-0.03867292,-0.02967853,0.03790035,-0.9676483,0.2476686
634795915420290000,-0.01955034,0.04301075,-1.262952,-8.04,-19.5,-44.46,153,55,5,0.3139786,-0.05478084,0.1295817,3.647531,-0.07528353,-0.03945267,-0.02850063,0.03149477,-0.9674854,0.249335
634795915420490000,0,0.05083089,-1.302053,-8.04,-19.5,-44.46,157,59,5,0.2394828,0.09630401,0.1327699,3.649203,-0.07090449,-0.0376035,-0.02708516,0.02958561,-0.9673524,0.2502419
634795915420690000,0.02346041,0.113392,-1.270772,-8.04,-19.5,-44.46,158,60,5,0.1319781,0.1643571,0.1508467,3.651105,-0.06842184,-0.03462505,-0.02536166,0.02879562,-0.9670613,0.2516367
634795915420890000,0.06256109,0.1603128,-1.266862,-8.46,-20.34,-45.66,157,59,5,-0.1606835,-0.3411613,-0.06303564,3.651903,-0.06854916,-0.034554,-0.02535478,0.02879562,-0.9670613,0.2516367
634795915421090000,0.1094819,0.1564027,-1.341154,-8.46,-20.34,-45.66,157,59,5,-0.1606835,-0.3411613,-0.06303564,3.651278,-0.07025003,-0.0378567,-0.02715601,0.02920898,-0.9671006,0.2512492
634795915421290000,0.1290323,0.1759531,-1.384164,-8.46,-20.34,-45.66,157,59,5,-0.1298059,-0.08573468,0.2402981,3.649956,-0.07630706,-0.04765308,-0.03263077,0.03092186,-0.9671193,0.2503192
634795915421490000,0.1055719,0.2111437,-1.262952,-8.46,-20.34,-45.66,154,56,5,0.1202858,0.2271463,0.5765933,3.661119,-0.08180165,-0.04714751,-0.03326133,0.03345734,-0.9656221,0.2556342
634795915421700000,0.07820137,0.1759531,-1.051808,-8.46,-20.34,-45.66,154,56,5,0.1894449,0.1387867,0.5734006,3.671257,-0.08022499,-0.0421853,-0.03083358,0.0331789,-0.9643668,0.2606621
634795915421890000,0.07820137,0.1251222,-0.9931574,-8.46,-20.34,-45.66,154,56,5,-0.04789777,-0.3709734,0.3488491,3.676366,-0.08033085,-0.04329872,-0.03146842,0.03300373,-0.9636909,0.2630984
634795915422090000,0.08211143,0.1016618,-0.9736071,-8.46,-20.34,-45.66,154,56,5,-0.2277347,-0.4880382,0.2168852,3.682734,-0.08305788,-0.04877424,-0.03457073,0.03348275,-0.9627721,0.265996
634795915422290000,0.0742913,0.1329423,-0.969697,-8.22,-22.02,-46.26,153,55,5,-0.2756248,-0.3135053,0.1508942,3.686938,-0.08906674,-0.0538075,-0.03786579,0.03562102,-0.9620741,0.2677888
634795915422500000,0.05083089,0.1407625,-0.9657869,-8.22,-22.02,-46.26,149,51,5,-0.3501206,-0.260294,0.1157593,3.689936,-0.09521651,-0.05624855,-0.03991952,0.03818964,-0.9615414,0.2690474
634795915422690000,0.02346041,0.1212121,-0.9384164,-8.22,-22.02,-46.26,149,51,5,-0.4075888,-0.2187892,0.1189385,3.692898,-0.1093121,-0.05810475,-0.04277223,0.04464989,-0.9608373,0.2701269
634795915422890000,0.01173021,0.08993158,-0.8758553,-8.22,-22.02,-46.26,150,52,5,-0.2830744,-0.1304532,0.1199812,3.694315,-0.1172884,-0.05902004,-0.04432264,0.04832502,-0.9604549,0.2706051
634795915423090000,0.02737048,0.06256109,-0.8054741,-8.22,-22.02,-46.26,150,52,5,-0.1297904,-0.07086064,0.08272713,3.694868,-0.1209409,-0.06034708,-0.04546714,0.04988462,-0.960282,0.2707453
634795915423290000,0.04301075,0.05083089,-0.7663734,-7.68,-23.28,-46.56,150,52,5,-0.0222857,-0.01021981,0.0423019,3.69423,-0.1218033,-0.06051576,-0.04564876,0.05029017,-0.9603456,0.270414
634795915423490000,0.04692082,0.05474096,-0.742913,-7.68,-23.28,-46.56,150,52,5,-0.04888292,-0.05917524,0.1370017,3.694557,-0.1225495,-0.0608958,-0.04594022,0.05058888,-0.9602799,0.2705414
634795915423690000,0.04692082,0.04692082,-0.7272727,-7.68,-23.28,-46.56,147,49,5,0.2086458,-0.0197856,0.2327819,3.699665,-0.1216168,-0.0625304,-0.0467254,0.04979784,-0.9595992,0.2729596
634795915423890000,0.04301075,0.03519062,-0.7233627,-7.68,-23.28,-46.56,145,47,5,0.3001692,0.1834216,0.2317177,3.70295,-0.1176243,-0.06124889,-0.045645,0.04798443,-0.9592552,0.2746699
634795915424090000,0.03910068,0.03128055,-0.7038123,-7.68,-23.28,-46.56,144,46,5,0.3257106,0.1812199,0.2349104,3.705982,-0.1122992,-0.05738353,-0.0431307,0.04590227,-0.9589863,0.2763646
634795915424290000,0.04301075,0.01564027,-0.684262,-7.68,-23.28,-46.56,144,46,5,0.3267748,0.02899816,0.2306535,3.709073,-0.1066339,-0.05448675,-0.04102705,0.04352686,-0.9587016,0.2780531
634795915424490000,0.03910068,0,-0.7233627,-6.6,-25.2,-46.86,148,50,5,0.3246464,-0.1604319,0.1603971,3.711274,-0.1028337,-0.05423176,-0.04042242,0.04169656,-0.9584775,0.2791925
634795915424690000,0.04301075,-0.007820137,-0.8211144,-6.6,-25.2,-46.86,146,48,5,0.2810132,-0.1668172,0.03692086,3.712805,-0.09168697,-0.05981243,-0.0415659,0.03553574,-0.9584405,0.2800022
634795915424890000,0.04692082,0.007820137,-0.9266862,-6.6,-25.2,-46.86,147,49,5,0.1543536,-0.08060618,-0.1194793,3.709791,-0.08846474,-0.06167782,-0.04195715,0.03379112,-0.9589018,0.278577
634795915425090000,0.04692082,0.05083089,-1.020528,-6.6,-25.2,-46.86,150,52,5,0.04258063,-0.1795756,-0.07367523,3.70744,-0.08709883,-0.06501495,-0.0433272,0.03271801,-0.9592209,0.2773934
634795915425290000,0.04692082,0.08211143,-1.13392,-6.6,-25.2,-46.86,150,52,5,0.1191744,-0.332824,-0.05236646,3.706316,-0.08578324,-0.06897747,-0.04502585,0.03155727,-0.9593582,0.2767828
634795915425490000,0.03910068,0.07820137,-1.231672,-4.92,-27,-46.56,160,62,5,0.3767169,-0.03909853,-0.1183119,3.702959,-0.07915854,-0.06975341,-0.04443321,0.02834557,-0.9599122,0.2753012
634795915425690000,0.05865103,0.0742913,-1.243402,-4.92,-27,-46.56,162,64,5,0.3713958,0.4302132,-0.2151375,3.696587,-0.07202125,-0.06467509,-0.04093267,0.0257559,-0.9609372,0.2725093
634795915425900000,0.07820137,0.1016618,-1.176931,-4.92,-27,-46.56,164,66,5,0.1840921,0.108808,0.1179739,3.690284,-0.06421542,-0.05294132,-0.03415858,0.02372399,-0.9619998,0.2698644
634795915426090000,0.05474096,0.1251222,-1.16911,-4.92,-27,-46.56,164,66,5,0.2192116,-0.1391142,0.0328237,3.690071,-0.0621469,-0.05309081,-0.03394894,0.02271236,-0.962051,0.2697949
634795915426290000,0.01173021,0.1446725,-1.231672,-4.92,-27,-46.56,163,65,5,0.1276761,0.0513936,-0.3566754,3.686363,-0.05858874,-0.05449724,-0.03410652,0.02087318,-0.962576,0.2680458
634795915426490000,0.01564027,0.1524927,-1.321603,-4.92,-27,-46.56,163,65,5,-0.07238687,0.1375823,-0.5737773,3.675588,-0.05769277,-0.05297136,-0.03314063,0.02082646,-0.9640297,0.2628976
634795915426690000,0.02737048,0.1994135,-1.348974,-3.06,-28.14,-45.6,169,71,5,-0.1851571,0.2429186,-0.3843452,3.662988,-0.06050777,-0.04994034,-0.03190738,0.02278551,-0.9656618,0.2568267
634795915426890000,0.01564027,0.2541544,-1.278592,-3.06,-28.14,-45.6,169,71,5,0.06493799,0.3493411,-0.02461392,3.656702,-0.06267524,-0.04697179,-0.0306767,0.02431187,-0.966462,0.2538098
634795915427100000,-0.003910068,0.226784,-1.11828,-3.06,-28.14,-45.6,169,71,5,0.192633,0.3610476,-0.06928296,3.647297,-0.06025004,-0.03266609,-0.02333993,0.02507488,-0.9677575,0.2495434
634795915427290000,0,0.1798632,-1.063539,-3.06,-28.14,-45.6,169,71,5,0.01702667,0.09707663,-0.2810414,3.638687,-0.06176066,-0.03124988,-0.02273127,0.0260813,-0.9688091,0.2453809
634795915427490000,0.02737048,0.1642229,-1.086999,-3.06,-28.14,-45.6,170,72,5,-0.3266875,-0.2871057,-0.4342898,3.631615,-0.06588888,-0.03418624,-0.02456144,0.02780628,-0.9696032,0.241854
634795915427690000,0.03910068,0.1798632,-1.098729,-3.06,-28.14,-45.6,170,72,5,-0.3277517,-0.2679496,-0.3289315,3.621461,-0.07373785,-0.0404309,-0.02837937,0.03099702,-0.9706725,0.2367047
634795915427890000,0.02346041,0.1876833,-1.047898,-1.44,-29.28,-45.06,171,73,5,-0.1170092,0.03853787,-0.11181,3.614746,-0.07804203,-0.04192543,-0.02950313,0.03300717,-0.9713847,0.2333512
634795915428090000,0.02737048,0.1290323,-0.9579667,-1.44,-29.28,-45.06,171,73,5,-0.03712887,0.2013328,0.01592274,3.611275,-0.07987737,-0.03877508,-0.02812825,0.0343174,-0.9717733,0.2317066
634795915428290000,0.05083089,0.07038123,-0.9032258,-1.44,-29.28,-45.06,169,71,5,-0.0360224,0.06402212,-0.04472458,3.604001,-0.08351636,-0.03565025,-0.02689938,0.03654788,-0.972559,0.2281895
634795915428490000,0.07038123,0.05865103,-0.8954057,-1.44,-29.28,-45.06,169,71,5,-0.05941396,-0.01146252,-0.1648775,3.598502,-0.08562946,-0.03728855,-0.02783389,0.03746397,-0.9731367,0.2254485
634795915428690000,0.07038123,0.08602151,-0.8680352,-1.44,-29.28,-45.06,169,71,5,0.01398618,0.1140843,-0.1265177,3.593455,-0.0863297,-0.03675711,-0.02755866,0.03793468,-0.9736916,0.2229947
634795915428890000,0.05865103,0.1016618,-0.8132942,1.14,-29.76,-44.82,169,71,5,0.04267173,0.1619156,0.07569643,3.590138,-0.08578514,-0.03419876,-0.02618986,0.03800033,-0.9740803,0.2214453
634795915429090000,0.06647116,0.07820137,-0.7820137,1.14,-29.76,-44.82,169,71,5,0.04052135,0.007548807,0.08420162,3.589473,-0.08546495,-0.03221798,-0.02517731,0.03807337,-0.9741663,0.2211706
634795915429300000,0.07038123,0.04301075,-0.7820137,1.14,-29.76,-44.82,168,70,5,0.07459497,-0.1435706,0.02780779,3.588309,-0.08529782,-0.03144038,-0.02475807,0.03809288,-0.9743004,0.2206234
634795915429490000,0.06256109,0.03519062,-0.8054741,1.14,-29.76,-44.82,168,70,5,0.1245945,-0.1723047,-0.06154327,3.582817,-0.08218169,-0.03671956,-0.02688644,0.03606295,-0.9749408,0.2178698
634795915429690000,0.06256109,0.03910068,-0.8328446,1.14,-29.76,-44.82,167,69,5,0.05431351,-0.1382495,-0.05298722,3.579607,-0.08093667,-0.03940069,-0.02800084,0.035207,-0.9752985,0.2162622
634795915429890000,0.04692082,0.05865103,-0.8641251,2.1,-30,-45,170,72,5,-0.04149336,-0.1393137,0.0087588,3.578169,-0.08134722,-0.04110312,-0.0288498,0.0352425,-0.9754373,0.215518
634795915430090000,0.03519062,0.06647116,-0.8914956,2.1,-30,-45,171,73,5,-0.007476048,-0.02968013,0.1619797,3.577662,-0.08203769,-0.04226506,-0.02948171,0.0354605,-0.975473,0.2152352
634795915430290000,0.03519062,0.05083089,-0.911046,2.1,-30,-45,171,73,5,0.2521512,0.04271113,0.2268974,3.578671,-0.07966947,-0.04164743,-0.02894303,0.03435783,-0.9754092,0.2157752
634795915430500000,0.04301075,0.03128055,-0.9345064,2.1,-30,-45,174,76,5,0.3947573,-0.1317966,0.2077413,3.580239,-0.0663476,-0.04418337,-0.0287634,0.0275619,-0.9754297,0.2166812
634795915430690000,0.04692082,0.03519062,-0.969697,2.1,-30,-45,174,76,5,0.3947573,-0.1317966,0.2077413,3.580743,-0.06193065,-0.04438341,-0.02838871,0.02537855,-0.9754316,0.2169867
634795915430890000,0.03128055,0.04301075,-1.004888,2.1,-30,-45,174,76,5,0.3053624,0.1788935,0.1970991,3.581034,-0.05594635,-0.04050433,-0.02585107,0.02287946,-0.9755002,0.217274
634795915431090000,0.01564027,0.04692082,-1.051808,2.82,-31.56,-44.4,175,77,5,0.260665,0.2054659,0.1790073,3.580868,-0.05090737,-0.03508389,-0.0226584,0.02101523,-0.9756079,0.2173358
634795915431290000,0.02737048,0.05865103,-1.075269,2.82,-31.56,-44.4,175,77,5,0.4767027,0.4118687,0.286494,3.581354,-0.04462838,-0.02980161,-0.01940395,0.01852356,-0.9756448,0.2177102
634795915431490000,0.07038123,0.07820137,-1.047898,2.82,-31.56,-44.4,177,79,5,0.5118221,0.4810433,0.2747875,3.582404,-0.03629303,-0.02221525,-0.01480372,0.01527752,-0.9756321,0.2183793
634795915431690000,0.09384164,0.07038123,-1.028348,2.82,-31.56,-44.4,176,78,5,0.3628306,0.1766678,0.2566957,3.583119,-0.03026652,-0.01598954,-0.01111333,0.01301449,-0.9756142,0.2188242
634795915431890000,0.07820137,0.06256109,-1.075269,2.82,-31.56,-44.4,173,75,5,0.04140403,-0.2628351,0.1822,3.585162,-0.02154732,-0.01181197,-0.008130759,0.009210272,-0.9754468,0.2198921
634795915432090000,0.08211143,0.05083089,-1.17302,2.82,-31.56,-44.4,173,75,5,-0.2618742,-0.2585783,-0.00193528,3.583683,-0.02504325,-0.015185,-0.01015235,0.01055181,-0.9755853,0.2191332
634795915432290000,0.09775171,0.08993158,-1.259042,3.6,-32.4,-43.5,174,76,5,-0.3810674,-0.07444835,-0.02321574,3.58001,-0.03163886,-0.01767814,-0.01206614,0.01351781,-0.9759403,0.2172851
634795915432490000,0.09775171,0.1603128,-1.196481,3.6,-32.4,-43.5,174,76,5,-0.332113,0.3235683,0.1800406,3.578725,-0.03635001,-0.01560235,-0.01155479,0.01604985,-0.9760493,0.2166492
634795915432690000,0.1094819,0.172043,-1.075269,3.6,-32.4,-43.5,174,76,5,-0.09261278,0.4065778,0.3918214,3.579899,-0.04177618,-0.007906913,-0.008398783,0.0195275,-0.9758796,0.2172733
634795915432890000,0.1329423,0.1329423,-1.008798,3.6,-32.4,-43.5,174,76,5,0.1010974,0.3395316,0.3769223,3.585482,-0.04113412,0.005322933,-0.001931408,0.02064678,-0.9752494,0.2201329
634795915433090000,0.1485826,0.1290323,-1.016618,3.6,-32.4,-43.5,174,76,5,-0.1053921,-0.1415153,0.1204207,3.585331,-0.04120564,0.008030295,-0.0006174681,0.02097959,-0.9752547,0.2200855
634795915433290000,0.1446725,0.1564027,-1.063539,3.6,-32.4,-43.5,172,74,5,-0.2841735,-0.1308656,0.235347,3.585071,-0.0445683,0.008097052,-0.0009519962,0.02262669,-0.9752464,0.2199583
634795915433490000,0.1251222,0.1915933,-1.067449,3.12,-33.9,-42.66,169,71,5,-0.1681665,0.1671136,0.3492191,3.586575,-0.05188251,0.009018778,-0.00132675,0.02629342,-0.974987,0.2206977
634795915433690000,0.1173021,0.1876833,-1.012708,3.12,-33.9,-42.66,169,71,5,-0.2852251,0.2565086,0.4939538,3.589897,-0.05606365,0.01320601,0.0002053015,0.02879353,-0.9745378,0.2223681
634795915433910000,0.1173021,0.1368524,-0.9618768,3.12,-33.9,-42.66,170,72,5,-0.6044926,-0.09677494,0.4684123,3.595367,-0.06238937,0.01887262,0.002174225,0.03251051,-0.973788,0.225113
634795915434090000,0.1055719,0.113392,-0.969697,3.12,-33.9,-42.66,171,73,5,-0.7875394,-0.328776,0.1725577,3.600503,-0.078058,0.01906264,0.0003999078,0.04016083,-0.9729199,0.2276258
634795915434290000,0.09775171,0.1564027,-1.012708,3.12,-33.9,-42.66,170,72,5,-0.6789885,-0.4096572,-0.06687962,3.59873,-0.1031823,0.01126516,-0.006205618,0.05150083,-0.9726145,0.2265615
634795915434490000,0.09775171,0.1994135,-1.055718,3.12,-33.9,-42.66,170,72,5,-0.308638,-0.1882983,-0.008327121,3.59536,-0.1115093,0.008048415,-0.008620011,0.05520103,-0.9727999,0.2248091
634795915434690000,0.1055719,0.2072336,-1.067449,3.12,-33.9,-42.66,170,72,5,-0.1766672,-0.1052652,0.06295883,3.593233,-0.116395,0.007291317,-0.009476268,0.05750239,-0.9729068,0.223732
634795915434890000,0.113392,0.2150538,-1.040078,3.48,-34.98,-41.94,173,75,5,0.1202151,-0.101001,0.1299667,3.592175,-0.1165502,0.006107926,-0.01003889,0.05745111,-0.9730304,0.223183
634795915435090000,0.1094819,0.2072336,-0.969697,3.48,-34.98,-41.94,173,75,5,0.7598145,-0.186123,0.1022682,3.591539,-0.1087644,0.003663778,-0.01034253,0.05339367,-0.9733349,0.2228474
634795915435290000,0.1329423,0.1485826,-0.911046,3.48,-34.98,-41.94,173,75,5,0.1574404,-0.1807911,0.08307365,3.588913,-0.08804369,0.01116097,-0.004324541,0.0441474,-0.9740778,0.2218213
634795915435490000,0.1407625,0.1016618,-0.9188661,3.48,-34.98,-41.94,173,75,5,-0.7705535,-0.3393606,0.04688744,3.587485,-0.09269786,0.007894158,-0.006398926,0.04605709,-0.9741551,0.2210428
634795915435690000,0.1016618,0.1016618,-0.9501466,3.48,-34.98,-41.94,172,74,5,-0.8088656,-0.142479,-0.0392998,3.585844,-0.108119,0.002842784,-0.01051921,0.0530183,-0.9739889,0.2200561
634795915435890000,0.07038123,0.1290323,-0.9423265,3.24,-34.68,-42.96,168,70,5,-0.3086797,0.3108881,-0.1222573,3.581709,-0.1200771,0.003750443,-0.01127098,0.05896402,-0.9741005,0.2180027
634795915436090000,0.0742913,0.1485826,-0.8954057,3.24,-34.68,-42.96,171,73,5,0.04041398,0.3683563,-0.09452564,3.576116,-0.1230845,0.01162684,-0.007591297,0.06130732,-0.9745491,0.215494
634795915436290000,0.08993158,0.1446725,-0.8758553,3.24,-34.68,-42.96,171,73,5,0.2064331,-0.1733486,-0.05083941,3.57143,-0.1211047,0.01523054,-0.005479215,0.06074249,-0.9750769,0.2133211
634795915436490000,0.09775171,0.1407625,-0.9188661,3.24,-34.68,-42.96,173,75,5,0.1564072,-0.307441,-0.07634548,3.56559,-0.1165836,0.00726974,-0.008710927,0.05771765,-0.9759014,0.2102621
634795915436690000,0.1055719,0.1329423,-0.9931574,2.1,-34.98,-44.1,170,72,5,0.01700379,-0.3138263,-0.09759635,3.561683,-0.1172197,0.001876593,-0.01129732,0.05748413,-0.9763306,0.2081997
634795915436890000,0.1055719,0.1290323,-1.043988,2.1,-34.98,-44.1,170,72,5,-0.2618025,-0.2308168,-0.1752372,3.556628,-0.1222417,-0.001848936,-0.01348792,0.0595822,-0.9767295,0.2055913
634795915437090000,0.09775171,0.1485826,-1.075269,2.1,-34.98,-44.1,170,72,5,-0.3001145,-0.0956673,-0.2209989,3.550074,-0.128942,-0.003326773,-0.01469262,0.06275056,-0.9772016,0.2022972
634795915437290000,0.1016618,0.1876833,-1.094819,2.1,-34.98,-44.1,170,72,5,0.1458062,0.03843454,-0.0634575,3.544421,-0.1335855,-0.005478024,-0.01602991,0.06484686,-0.9776329,0.1994293
634795915437490000,0.1173021,0.1798632,-1.071359,2.1,-34.98,-44.1,171,73,5,0.5023217,0.1927296,0.001482587,3.538847,-0.126018,-0.002427936,-0.01361273,0.06149019,-0.9784071,0.1968572
634795915437690000,0.1290323,0.1446725,-1.036168,2.1,-34.98,-44.1,171,73,5,0.3990918,0.1426889,0.0163563,3.536546,-0.1181729,0.000518918,-0.01133178,0.05795519,-0.9788505,0.1958683
634795915437890000,0.1251222,0.1173021,-1.012708,1.56,-34.68,-44.82,169,71,5,0.1021545,0.1117727,0.003574427,3.534407,-0.1151752,0.003004074,-0.009761116,0.05674189,-0.9791307,0.1949079
634795915438090000,0.1016618,0.113392,-1.000978,1.56,-34.68,-44.82,169,71,5,0.03084755,-0.003215085,-0.04749338,3.531939,-0.1148729,0.004547476,-0.008906006,0.05675514,-0.9793683,0.1937442
634795915438290000,0.08993158,0.1016618,-1.008798,1.56,-34.68,-44.82,168,70,5,0.05955481,0.006331976,-0.1262501,3.528253,-0.1141984,0.006079316,-0.007986216,0.05658782,-0.9797327,0.1919842
634795915438490000,0.1016618,0.08993158,-1.016618,1.56,-34.68,-44.82,169,71,5,0.008442736,0.06062544,-0.1485918,3.525202,-0.1141369,0.007567524,-0.007164684,0.05671123,-0.9800158,0.1905309
634795915438690000,0.1016618,0.08993158,-1.004888,1.56,-34.68,-44.82,170,72,5,0.1286639,0.02017871,-0.107057,3.517498,-0.1098864,0.01145685,-0.00464171,0.05501632,-0.9808321,0.1868721
634795915438890000,0.08602151,0.0742913,-0.9892473,1.56,-34.68,-44.82,170,72,5,-0.005445188,0.0382913,-0.1229546,3.514379,-0.1061184,0.01331115,-0.003296836,0.05334618,-0.9812091,0.1853975
634795915439090000,0.07820137,0.06256109,-0.9775171,0.96,-34.08,-44.76,168,70,5,0.009450451,-0.05214656,-0.1931614,3.510188,-0.1061838,0.01440799,-0.002652638,0.05348514,-0.9815844,0.1833688
634795915439290000,0.0742913,0.07820137,-0.9775171,0.96,-34.08,-44.76,168,70,5,0.3340328,-0.302237,-0.1026688,3.505755,-0.1037438,0.01286638,-0.003070142,0.05215385,-0.9820657,0.1811572
634795915439490000,0.08211143,0.08211143,-0.9775171,0.96,-34.08,-44.76,169,71,5,0.4830243,-0.2692461,0.02609311,3.504024,-0.09866023,0.009925961,-0.00401107,0.04939551,-0.9823732,0.1802443
634795915439690000,0.08602151,0.05083089,-0.9814272,0.96,-34.08,-44.76,169,71,5,0.3553173,-0.1936861,0.06118275,3.503046,-0.08992695,0.006311297,-0.004978052,0.04142844,-0.9828734,0.1794865
634795915439890000,0.07038123,0.03910068,-0.9775171,0.96,-34.08,-44.76,170,72,5,0.1275612,-0.05746449,-0.07928944,3.499858,-0.08063029,0.004235268,-0.005099174,0.04003619,-0.9831821,0.1781145
634795915440090000,0.06256109,0.05865103,-0.969697,0.96,-34.08,-44.76,169,71,5,0.1062583,-0.1201816,-0.1420449,3.496134,-0.07801937,0.003314018,-0.005247555,0.03868061,-0.9835672,0.1762727
634795915440290000,0.06256109,0.07038123,-0.9736071,0.9,-34.44,-44.28,169,71,5,0.1041317,-0.09561814,-0.07497635,3.493299,-0.07563447,0.002598285,-0.005336262,0.03745222,-0.9838648,0.174871
634795915440490000,0.07038123,0.05865103,-0.9931574,0.9,-34.44,-44.28,170,72,5,0.04454327,-0.07321662,-0.06325774,3.491542,-0.07485771,0.002280712,-0.005392083,0.03704709,-0.9840333,0.1740033
634795915440690000,0.07820137,0.05474096,-1.008798,0.9,-34.44,-44.28,170,72,5,0.1051071,-0.02852533,-0.1323967,3.48835,-0.07353472,0.002152323,-0.005282045,0.0363935,-0.9843347,0.1724336
634795915440890000,0.07820137,0.05865103,-1.008798,0.9,-34.44,-44.28,170,72,5,0.04655945,0.04385634,-0.09937786,3.484396,-0.07139349,0.00238657,-0.004912225,0.03536961,-0.9847111,0.1704967
634795915441090000,0.07038123,0.05865103,-0.9970675,1.14,-34.86,-43.56,170,72,5,0.08061242,0.01088963,-0.0950902,3.477573,-0.06865025,0.004881382,-0.003333158,0.03424307,-0.9853258,0.1671847
634795915441290000,0.06647116,0.05865103,-0.9931574,1.14,-34.86,-43.56,171,73,5,0.06144009,0.03751207,-0.08122441,3.474427,-0.06714582,0.006158113,-0.002525492,0.03361246,-0.9856072,0.1656576
634795915441490000,0.07820137,0.05865103,-0.9853373,1.14,-34.86,-43.56,171,73,5,-0.1131231,0.2152289,0.0220116,3.472961,-0.06654334,0.007996202,-0.001545165,0.0334687,-0.9857302,0.1649658
634795915441690000,0.08993158,0.04301075,-0.9853373,1.14,-34.86,-43.56,171,73,5,-0.1056845,0.07153684,0.03796934,3.471829,-0.06863856,0.01178956,0.0001713391,0.03481358,-0.9857675,0.1644689
634795915441890000,0.08602151,0.03128055,-1.000978,1.14,-34.86,-43.56,171,73,5,-0.1184694,0.08856891,0.04646887,3.471156,-0.07038975,0.01418197,0.001218565,0.03587258,-0.9857773,0.1641777
634795915442090000,0.07820137,0.03519062,-1.004888,1.14,-34.86,-43.56,170,72,5,-0.1205961,0.0459981,0.008143784,3.468953,-0.07345057,0.01810706,0.00294356,0.03769905,-0.9858742,0.1631615
634795915442290000,0.08211143,0.03519062,-1.004888,1.14,-34.86,-43.56,170,72,5,-0.09928259,-0.03911703,-0.03761609,3.466847,-0.07441878,0.01812994,0.002916066,0.03817516,-0.9860274,0.1621251
634795915442490000,0.1055719,0.03128055,-1.028348,1.44,-35.52,-42.96,171,73,5,-0.05027386,0.02158818,0.004982718,3.465357,-0.07483649,0.01827443,0.002982039,0.03839049,-0.9861386,0.161394
634795915442690000,0.1094819,0.02737048,-1.043988,1.44,-35.52,-42.96,170,72,5,0.06036491,0.1524893,0.04966879,3.464156,-0.07459711,0.01977801,0.003765875,0.03839099,-0.9862281,0.1608279
634795915442890000,0.09384164,0.02346041,-1.024438,1.44,-35.52,-42.96,169,71,5,0.1018147,0.1514208,0.0602954,3.463715,-0.072644,0.02347159,0.005752916,0.03772233,-0.986271,0.1606693
