Timestamp,Acc.X,Acc.Y,Acc.Z,Comp.X,Comp.Y,Comp.Z,Comp.TrueHeading,Comp.MagneticHeading,Comp.HeadingAccuracy,Gyro.X,Gyro.Y,Gyro.Z,Motion.Yaw,Motion.Pitch,Motion.Roll,Motion.X,Motion.Y,Motion.Z,Motion.W
634795915751290000,0.07038123,-0.01564027,-0.9853373,0,0,0,0,0,0,0,0,0,0,0,0,0,0,0,0
634795915751490000,0.07820137,-0.01564027,-0.969697,0,0,0,0,0,0,0,0,0,0,0,0,0,0,0,0
634795915751690000,0.08211143,-0.02346041,-0.9814272,0,0,0,0,0,0,0,0,0,0,0,0,0,0,0,0
634795915751890000,0.07820137,-0.03128055,-0.9931574,0,0,0,0,0,0,0,0,0,0,0,0,0,0,0,0
634795915752090000,0.0742913,-0.02346041,-0.9892473,0,0,0,0,0,0,0,0,0,0,0,0,0,0,0,0
634795915752290000,0.08211143,-0.003910068,-1.004888,0,0,0,0,0,0,0,0,0,0,0,0,0,0,0,0
634795915752490000,0.08993158,0.003910068,-1.036168,0,0,0,0,0,0,-0.1346156,-0.1293503,-0.02199826,0,0,0,0,0,0,0
634795915752690000,0.08993158,0.003910068,-1.036168,-22.5,-16.26,3.24,55,317,5,0.04736593,-0.004824104,-0.01560695,0,0,0,0,0,0,0
634795915752890000,0.08211143,-0.003910068,-1.004888,1.92,-24.84,-41.46,170,72,5,0.05480486,0.0653889,0.01313021,0,0,0,0,0,0,0
634795915753090000,0.07820137,-0.007820137,-0.9775171,1.92,-24.84,-41.46,170,72,5,-0.006911257,-0.01976923,0.05995261,0,0,0,0,0,0,0
634795915753290000,0.08211143,-0.01564027,-0.9775171,1.08,-24.54,-39.72,168,70,5,-0.04200695,-0.1187108,0.06315603,0,0,0,0,0,0,0
634795915753490000,0.08211143,-0.01564027,-0.9892473,1.08,-24.54,-39.72,168,70,5,-0.08349162,-0.1006026,0.01208217,0,0,0,0,0,0,0
634795915753690000,0.08211143,-0.003910068,-0.9931574,1.08,-24.54,-39.72,168,70,5,-0.1302891,-0.06866314,-0.04221865,0,0,0,0,0,0,0
634795915753910000,0.09384164,0.007820137,-1.004888,1.08,-24.54,-39.72,168,70,5,-0.06214688,-0.09203044,-0.007088786,0,0,0,0,0,0,0
634795915754090000,0.09775171,0.003910068,-1.004888,1.08,-24.54,-39.72,168,70,5,-0.06100455,-0.01432114,0.09509195,0,0,0,0,0,0,0
634795915754290000,0.09775171,-0.007820137,-0.9892473,1.38,-24.3,-41.16,168,70,5,-0.1875621,0.01863568,0.04828977,0,0,0,0,0,0,0
634795915754490000,0.09384164,-0.01173021,-0.9775171,1.38,-24.3,-41.16,167,69,5,-0.267379,-0.002660964,-0.01448057,3.336151,-0.004082441,0.08342838,0.04130677,0.006080166,-0.9943962,0.09712571
634795915754690000,0.09384164,0,-0.9775171,1.38,-24.3,-41.16,167,69,5,-0.3397463,-0.06011539,-0.008077557,3.337769,-0.005568981,0.08421194,0.04161856,0.006890886,-0.9942957,0.09796011
634795915754890000,0.1016618,0.01955034,-1.000978,1.38,-24.3,-41.16,167,69,5,-0.2492872,-0.1654538,0.06640969,3.340478,-0.007102251,0.08390176,0.04137891,0.007694113,-0.9941642,0.09933921
634795915755100000,0.1055719,0.02346041,-1.024438,1.38,-24.3,-41.16,167,69,5,-0.03001761,-0.1175541,0.1004492,3.343371,-0.008786677,0.08238721,0.04053002,0.008515053,-0.9940428,0.1008117
634795915755290000,0.1094819,0.01564027,-1.024438,1.38,-24.3,-41.16,167,69,5,-0.01401858,-0.05796183,0.1249111,3.348897,-0.01501846,0.08572173,0.04184038,0.01189517,-0.9936585,0.1036884
634795915755490000,0.08602151,0.007820137,-1.008798,1.38,-24.3,-41.16,167,69,5,-0.1469903,0.01011815,0.06849674,3.349973,-0.01778555,0.08764517,0.04264534,0.01339194,-0.9935436,0.1042852
634795915755690000,0.06647116,0.02346041,-0.9970675,1.92,-22.62,-42,168,70,5,-0.2523267,0.04520193,-0.0315434,3.349006,-0.02198863,0.08943414,0.04332231,0.01555143,-0.9935221,0.1039002
634795915755890000,0.0742913,0.03910068,-0.9931574,1.92,-22.62,-42,169,71,5,-0.4034467,-0.008016031,-0.00496555,3.344836,-0.02650833,0.08747709,0.04215193,0.01760818,-0.9937434,0.1019177
634795915756090000,0.08211143,0.02737048,-1.004888,1.92,-22.62,-42,169,71,5,-0.1224398,-0.04737183,0.03961729,3.33986,-0.03037548,0.08450222,0.04052456,0.01927903,-0.9940239,0.09950999
634795915756290000,0.07820137,0.01955034,-1.000978,1.92,-22.62,-42,171,73,5,-0.1202691,-0.0069417,-0.05723976,3.333225,-0.03543401,0.08210444,0.03915254,0.02154567,-0.9943485,0.09629777
634795915756490000,0.07820137,0.03128055,-0.9931574,1.92,-22.62,-42,171,73,5,-0.4065263,-0.04419373,-0.09021253,3.333225,-0.03543401,0.08210444,0.03915254,0.02154567,-0.9943485,0.09629777
634795915756690000,0.09775171,0.03910068,-1.004888,1.32,-23.1,-41.22,169,71,5,-0.4310035,-0.03889836,-0.0008305026,3.328098,-0.04501915,0.0796932,0.03755876,0.02610061,-0.9945298,0.09391246
634795915756890000,0.113392,0.02737048,-1.032258,1.32,-23.1,-41.22,169,71,5,-0.4554807,-0.06550442,-0.06683406,3.32799,-0.05053067,0.07886659,0.0368903,0.02880118,-0.994477,0.09395307
634795915757090000,0.1094819,0.03519062,-1.059628,1.32,-23.1,-41.22,167,69,5,-0.5629674,0.1122048,-0.1838847,3.328342,-0.05687714,0.08203399,0.03816133,0.03210887,-0.9942949,0.09428397
634795915757290000,0.08211143,0.08993158,-1.032258,1.32,-23.1,-41.22,166,68,5,-0.3554435,0.03767892,-0.1966554,3.328752,-0.05978775,0.08491468,0.03944961,0.03369622,-0.9941652,0.09457992
634795915757490000,0.07820137,0.1212121,-0.9931574,1.62,-22.08,-42.42,167,69,5,0.02983133,0.001476103,-0.09764604,3.328883,-0.06231665,0.08481847,0.03927981,0.03495137,-0.9941171,0.09469376
634795915757690000,0.09775171,0.08993158,-1.008798,1.62,-22.08,-42.42,167,69,5,0.4736132,-0.1507017,0.03858851,3.328119,-0.05695438,0.08071506,0.03750546,0.03208243,-0.9943341,0.094158
634795915757890000,0.1055719,0.05474096,-1.043988,1.62,-22.08,-42.42,170,72,5,0.4938335,-0.1805,0.09392779,3.329142,-0.05708838,0.08037686,0.03731456,0.03215253,-0.9942912,0.09466504
634795915758090000,0.09775171,0.04692082,-1.043988,1.62,-22.08,-42.42,168,70,5,0.1139058,0.06745977,0.04488776,3.331477,-0.05552053,0.08085262,0.03758864,0.03143903,-0.9941947,0.09580257
634795915758290000,0.08993158,0.05474096,-1.012708,1.62,-22.08,-42.42,168,70,5,-0.2308956,0.1280975,-0.05728733,3.333556,-0.05365491,0.08206438,0.03824868,0.03060813,-0.9940963,0.09681461
634795915758500000,0.08211143,0.0742913,-0.9775171,1.62,-22.08,-42.42,168,70,5,-0.4192635,0.01314384,-0.09984027,3.33338,-0.05735993,0.08419871,0.03913322,0.03254705,-0.9940007,0.09682377
634795915758690000,0.08211143,0.08211143,-0.9618768,1.62,-22.08,-42.42,168,70,5,-0.2479232,-0.2167288,0.01192424,3.330867,-0.06974864,0.08053695,0.0367609,0.03848493,-0.9939802,0.09575924
634795915758890000,0.07820137,0.08211143,-0.9618768,1.44,-21.24,-42.36,168,70,5,0.1501224,-0.217793,0.1353429,3.332063,-0.07023524,0.07841635,0.03566031,0.03864955,-0.993959,0.09632941
634795915759090000,0.07820137,0.08211143,-0.9775171,1.44,-21.24,-42.36,168,70,5,0.3672243,-0.335922,0.1682968,3.334295,-0.06735396,0.07427024,0.03369649,0.03706105,-0.9939915,0.09732549
634795915759290000,0.0742913,0.0742913,-0.9970675,1.44,-21.24,-42.36,168,70,5,0.5896474,-0.2752612,0.2800404,3.337918,-0.06018114,0.06954551,0.03163589,0.03332875,-0.9940316,0.09894226
634795915759490000,0.08211143,0.04692082,-1.020528,1.44,-21.24,-42.36,169,71,5,0.59284,-0.1177516,0.2310861,3.340893,-0.05254244,0.06828725,0.03134416,0.02951765,-0.994027,0.1002851
634795915759700000,0.0742913,0.02346041,-1.020528,1.44,-21.24,-42.36,169,71,5,0.2182328,0.0120678,0.1224975,3.341398,-0.04914331,0.0680828,0.03140586,0.02782595,-0.9940534,0.1004808
634795915759890000,0.07038123,0.02737048,-1.000978,1.44,-21.24,-42.36,169,71,5,-0.09889809,-0.01136984,0.1309605,3.34378,-0.04929399,0.06888019,0.03176135,0.02797813,-0.993916,0.1016756
634795915760090000,0.06256109,0.03128055,-0.9814272,1.44,-21.24,-42.36,169,71,5,-0.142523,-0.161411,0.1394198,3.345974,-0.04718756,0.0665338,0.03067269,0.02684766,-0.9938758,0.1027089
634795915760290000,0.05865103,0.02737048,-0.9970675,0.72,-21.78,-42.78,168,70,5,0.1607609,0.01746437,0.02759442,3.346927,-0.04368615,0.06572819,0.03044013,0.02508136,-0.9938868,0.1031209
634795915760490000,0.06256109,0.02346041,-1.008798,0.72,-21.78,-42.78,168,70,5,0.03409259,-0.04427207,0.04036193,3.347202,-0.03897262,0.06574523,0.03068838,0.02274403,-0.9939277,0.103186
634795915760690000,0.05865103,0.01955034,-1.012708,0.72,-21.78,-42.78,168,70,5,-0.05214658,-0.06875117,0.01588124,3.34701,-0.03674293,0.06451726,0.03019515,0.02157036,-0.9939846,0.1030467
634795915760890000,0.05474096,0.02346041,-1.008798,0.72,-21.78,-42.78,168,70,5,-0.01809669,0.07811563,-0.02561034,3.346466,-0.03593516,0.06298219,0.02947949,0.02108277,-0.9940467,0.1027528
634795915761090000,0.06647116,0.03128055,-0.9970675,0.96,-21.84,-42.9,170,72,5,-0.06061281,0.05574998,-0.01068107,3.343826,-0.03390002,0.06413901,0.03018563,0.02009024,-0.994184,0.1014187
634795915761290000,0.05865103,0.02346041,-0.9892473,0.96,-21.84,-42.9,170,72,5,-0.09567839,-0.04429432,-0.02129395,3.342309,-0.03416443,0.06305861,0.02965041,0.02014491,-0.9942755,0.1006613
634795915761490000,0.05474096,0.01564027,-0.9853373,0.96,-21.84,-42.9,169,71,5,0.01605823,-0.08468039,-0.07658194,3.339723,-0.03356075,0.06138027,0.02887185,0.01972389,-0.994439,0.09935503
634795915761690000,0.05474096,0.02346041,-0.9892473,0.96,-21.84,-42.9,169,71,5,0.1277344,-0.06761193,-0.09569404,3.338018,-0.03185725,0.06031251,0.0284415,0.01880011,-0.9945568,0.09847564
634795915761910000,0.05474096,0.03910068,-0.9970675,0.96,-21.84,-42.9,170,72,5,0.08723617,-0.008010739,-0.1073468,3.335032,-0.0283637,0.05898153,0.02797685,0.01695614,-0.9947529,0.09693344
634795915762090000,0.07038123,0.04301075,-1.000978,-0.06,-22.44,-42.06,168,70,5,-0.07344736,0.07921794,-0.03492849,3.331524,-0.02956843,0.05959892,0.02825633,0.01753549,-0.9949021,0.09520921
634795915762290000,0.08602151,0.03910068,-0.9970675,-0.06,-22.44,-42.06,168,70,5,-0.1234072,-0.05382445,0.0353457,3.332106,-0.031214,0.05887544,0.02781281,0.01832805,-0.9948713,0.09551704
634795915762490000,0.08602151,0.04301075,-1.004888,-0.06,-22.44,-42.06,166,68,5,0.02773661,-0.03360514,0.02365764,3.333547,-0.0316329,0.05897259,0.02782776,0.01856104,-0.9947978,0.09624019
634795915762690000,0.0742913,0.04301075,-1.004888,-0.06,-22.44,-42.06,166,68,5,0.06816684,0.006836272,0.01941436,3.335837,-0.03179026,0.06060409,0.02861024,0.01874986,-0.994658,0.09739184
634795915762890000,0.0742913,0.03519062,-0.9931574,-0.06,-22.44,-42.06,165,67,5,-0.02548529,0.02917159,0.01624201,3.338356,-0.03381968,0.06285214,0.02960447,0.01990482,-0.9944795,0.09868885
634795915763100000,0.07820137,0.03910068,-0.9892473,-0.06,-22.44,-42.06,166,68,5,-0.01910526,-0.03682495,-0.01142763,3.339464,-0.03558087,0.06370437,0.02992976,0.02083871,-0.9943917,0.09927259
634795915763290000,0.08602151,0.05083089,-0.9970675,-0.18,-23.1,-41.7,166,68,5,0.03617517,-0.03681537,0.0130587,3.340978,-0.03717828,0.06421625,0.03008866,0.02168088,-0.9942921,0.1000527
634795915763490000,0.08993158,0.05865103,-1.008798,-0.18,-23.1,-41.7,166,68,5,0.03617517,-0.03681537,0.0130587,3.346012,-0.03683162,0.06521451,0.03054797,0.02163471,-0.9940237,0.1025572
634795915763690000,0.08602151,0.05083089,-1.008798,-0.18,-23.1,-41.7,165,67,5,0.06377649,-0.00593252,0.0183347,3.348738,-0.03743338,0.06634319,0.03104813,0.0220334,-0.9938569,0.1039297
634795915763890000,0.08211143,0.04301075,-1.008798,-0.18,-23.1,-41.7,165,67,5,0.005261984,-0.01870365,-0.02319221,3.349993,-0.03801727,0.06731664,0.03148748,0.02239328,-0.9937663,0.1045699
634795915764090000,0.07820137,0.04692082,-1.008798,-0.18,-23.1,-41.7,165,67,5,-0.07984453,-0.04743411,0.009773012,3.351339,-0.0396471,0.06840812,0.03192909,0.02328099,-0.993659,0.1052732
634795915764290000,0.07038123,0.05083089,-1.012708,-0.18,-23.1,-41.7,165,67,5,-0.08513989,-0.0538102,0.04061745,3.353108,-0.04196858,0.06881559,0.03198764,0.0244838,-0.9935287,0.1061927
634795915764490000,0.06256109,0.04301075,-1.012708,0.06,-22.62,-41.34,166,68,5,0.01064579,0.01643259,-0.03280536,3.355257,-0.04454851,0.06959689,0.03221101,0.02584092,-0.9933678,0.1073086
634795915764690000,0.06647116,0.04301075,-1.000978,0.06,-22.62,-41.34,166,68,5,0.05108007,0.02812853,-0.06362224,3.354691,-0.04423427,0.07004738,0.03245895,0.0256995,-0.993394,0.1070262
634795915764890000,0.07820137,0.05083089,-0.9970675,0.06,-22.62,-41.34,168,70,5,0.02127336,-0.06765024,-0.01674365,3.354324,-0.04378438,0.06902301,0.03197879,0.02541602,-0.993438,0.1068274
634795915765090000,0.07820137,0.05083089,-0.9970675,0.06,-22.62,-41.34,168,70,5,-0.003213397,-0.02614472,-0.01245982,3.354243,-0.04378533,0.06787717,0.03141052,0.02535499,-0.9934633,0.1067771
634795915765290000,0.0742913,0.05474096,-0.9970675,0.06,-22.62,-41.34,167,69,5,-0.07771672,0.05152233,-0.01350276,3.354151,-0.04531479,0.06903373,0.03190461,0.02617404,-0.9934274,0.1067662
634795915765490000,0.0742913,0.05083089,-0.9892473,0.06,-22.62,-41.34,166,68,5,-0.1139015,0.004681088,0.02056266,3.35454,-0.04682755,0.06984042,0.03221935,0.02697413,-0.9933114,0.1073819
634795915765690000,0.07820137,0.04301075,-1.000978,0.06,-22.62,-41.34,166,68,5,-0.009568951,-0.10917,-0.0007092851,3.355528,-0.04867458,0.06821239,0.03129812,0.02782133,-0.9933245,0.107495
634795915765890000,0.08602151,0.04692082,-1.016618,0.48,-22.62,-41.64,167,69,5,0.07549318,-0.003796415,-0.004895521,3.355216,-0.04691672,0.0684334,0.03150659,0.02695493,-0.9933609,0.1073148
634795915766090000,0.08602151,0.05474096,-1.016618,0.48,-22.62,-41.64,167,69,5,-0.008548041,0.005777782,0.06748605,3.356062,-0.04635406,0.06901574,0.03181469,0.02671975,-0.9933107,0.1077316
634795915766290000,0.0742913,0.04301075,-1.000978,0.48,-22.62,-41.64,167,69,5,-0.03617639,0.01533293,0.05045398,3.35707,-0.0465784,0.0697211,0.03213948,0.0268848,-0.9932409,0.1082429
634795915766500000,0.06256109,0.02737048,-0.9892473,1.02,-22.44,-41.82,169,71,5,-0.01167771,0.001462242,0.01427469,3.358257,-0.04758573,0.07091892,0.03266361,0.02746832,-0.9931406,0.1088601
634795915766690000,0.06647116,0.03128055,-0.9892473,1.02,-22.44,-41.82,169,71,5,0.0245135,-0.01344882,-0.0229616,3.358326,-0.04767847,0.07141054,0.03290173,0.02754189,-0.9931263,0.1089012
634795915766890000,0.07038123,0.03910068,-1.000978,1.02,-22.44,-41.82,170,72,5,0.05539551,-0.05174177,0.01853765,3.35663,-0.04426765,0.07014047,0.03247852,0.02575238,-0.9932876,0.1079907
634795915767090000,0.07820137,0.04301075,-1.020528,1.02,-22.44,-41.82,169,71,5,0.1639291,-0.01979437,0.04725747,3.356452,-0.04196882,0.06971204,0.03239202,0.02458502,-0.9933351,0.107861
634795915767290000,0.0742913,0.04301075,-0.9853373,1.02,-22.44,-41.82,169,71,5,0.3991229,0.1610815,0.03981183,3.355968,-0.03536296,0.07166635,0.03372402,0.02139995,-0.9933993,0.1075266
634795915767490000,0.09384164,0.01173021,-0.9305963,1.02,-22.44,-41.82,169,71,5,-0.1212748,0.791073,0.0579143,3.355549,-0.03224397,0.0808736,0.03846961,0.02033192,-0.9932733,0.1073209
634795915767690000,0.113392,0.003910068,-0.9579667,1.02,-22.44,-41.82,168,70,5,-0.9992606,-0.2923083,-0.2059633,3.352391,-0.06178736,0.0799427,0.03647302,0.0348949,-0.9930533,0.1062973
634795915767890000,0.1094819,0.05865103,-1.016618,1.26,-22.62,-41.34,166,68,5,-0.9992606,-0.2923083,-0.2059633,3.351704,-0.06863952,0.07927883,0.03579204,0.0382502,-0.9929786,0.1060707
634795915768090000,0.1251222,0.08602151,-1.028348,1.26,-22.62,-41.34,166,68,5,0.3533592,-0.108254,0.04525321,3.3526,-0.06370687,0.08283448,0.03780329,0.03600192,-0.9929435,0.1064755
634795915768290000,0.1368524,0.07820137,-1.040078,1.26,-22.62,-41.34,166,68,5,0.6343145,-0.1997774,0.0878086,3.354288,-0.05669927,0.08172762,0.03759902,0.03249687,-0.9929988,0.1071674
634795915768500000,0.1173021,0.0742913,-1.063539,1.26,-22.62,-41.34,166,68,5,0.777985,-0.07524975,0.08139186,3.356203,-0.04976487,0.08136665,0.03776323,0.02907087,-0.9930104,0.1079835
634795915768710000,0.09384164,0.07038123,-0.9970675,1.26,-22.62,-41.34,166,68,5,0.5917456,0.3983266,0.06115657,3.358531,-0.03732133,0.08067954,0.03806643,0.02289987,-0.9930595,0.1088975
634795915768890000,0.09384164,0.03128055,-0.9462366,1.32,-23.1,-41.16,168,70,5,-0.124474,-0.06779741,0.1803341,3.361794,-0.0327034,0.08789217,0.04186524,0.02106279,-0.9927747,0.1104715
634795915769090000,0.08602151,-0.01564027,-0.9305963,1.32,-23.1,-41.16,168,70,5,-0.436292,-0.321083,0.05686104,3.362213,-0.04130578,0.08315647,0.03903334,0.02508302,-0.9927568,0.110821
634795915769290000,0.07038123,-0.01955034,-0.9736071,1.32,-23.1,-41.16,167,69,5,-0.3958514,-0.255101,-0.0984723,3.361403,-0.04550242,0.07995737,0.03722335,0.02697667,-0.9928155,0.110472
634795915769490000,0.08211143,0.01173021,-1.000978,1.32,-23.1,-41.16,167,69,5,-0.185124,0.00884266,-0.1494771,3.358878,-0.04707766,0.0773586,0.03588087,0.02757216,-0.9929867,0.1092226
634795915769690000,0.09775171,0.02737048,-0.9931574,1.32,-23.1,-41.16,169,71,5,-0.1010306,0.1280149,-0.07599662,3.356374,-0.04325652,0.07828844,0.03658343,0.02567911,-0.9931539,0.1079186
634795915769900000,0.09775171,0.01173021,-0.9618768,1.32,-23.1,-41.16,169,71,5,0.05439854,-0.04339047,0.06019951,3.356251,-0.041188,0.08009004,0.03759136,0.02474536,-0.9931498,0.107834
634795915770100000,0.09384164,-0.003910068,-0.9540567,0.6,-22.86,-41.34,165,67,5,0.06288808,-0.1104255,0.04210076,3.358178,-0.03666281,0.08007419,0.03780565,0.02253382,-0.9930991,0.1087058
634795915770290000,0.09775171,-0.007820137,-0.969697,0.6,-22.86,-41.34,164,66,5,-0.03613456,-0.123188,0.02506838,3.359643,-0.03409505,0.07864749,0.03722113,0.02120939,-0.9930765,0.1093753
634795915770490000,0.1016618,-0.007820137,-0.9931574,0.6,-22.86,-41.34,164,66,5,-0.1968387,-0.05719304,0.03144702,3.361248,-0.03296137,0.07774532,0.03681854,0.02062737,-0.9930201,0.1101459
634795915770690000,0.09775171,-0.01173021,-1.004888,0.6,-22.86,-41.34,164,66,5,-0.1936461,-0.06144717,0.04419314,3.363564,-0.03373408,0.07792747,0.03684208,0.02106356,-0.9928797,0.1113112
634795915770890000,0.08211143,-0.01955034,-1.000978,0.6,-22.86,-41.34,164,66,5,-0.07230737,-0.07101594,0.03244516,3.365902,-0.0328846,0.0777967,0.03680025,0.02067773,-0.9927608,0.1124553
634795915771090000,0.0742913,-0.02737048,-1.000978,0.54,-23.04,-41.4,165,67,5,0.02771831,-0.07419404,0.008999213,3.367185,-0.03101063,0.07747518,0.03673332,0.01975315,-0.9927126,0.1130558
634795915771290000,0.06647116,-0.03910068,-0.9970675,0.54,-23.04,-41.4,166,68,5,-0.0329702,-0.04013,-0.01229678,3.36887,-0.02378917,0.07627033,0.03652956,0.01613199,-0.9927061,0.1137545
634795915771490000,0.06647116,-0.05474096,-0.9853373,0.54,-23.04,-41.4,166,68,5,-0.1457848,0.02158229,-0.07082203,3.368078,-0.02208066,0.07602823,0.03651267,0.01525585,-0.9927704,0.1133292
634795915771690000,0.06256109,-0.06256109,-0.969697,0.54,-23.04,-41.4,166,68,5,-0.1563869,-0.03801016,-0.0803858,3.367081,-0.01912379,0.07454813,0.03595217,0.01368682,-0.9928755,0.1127763
634795915771890000,0.05083089,-0.06647116,-0.969697,0.54,-23.04,-41.4,167,69,5,-0.1520859,-0.04013883,-0.09207845,3.366347,-0.0167594,0.0735557,0.0355973,0.01244435,-0.9929506,0.1123673
634795915772110000,0.04692082,-0.07038123,-0.9814272,0.54,-23.04,-41.4,167,69,5,-0.1797148,-0.06248563,-0.108032,3.365101,-0.01348948,0.07161891,0.03482603,0.0106909,-0.9930767,0.1116873
634795915772290000,0.05474096,-0.06647116,-0.9892473,0.54,-23.04,-41.4,167,69,5,-0.1828938,-0.01991556,-0.1601595,3.362374,-0.01010847,0.06932712,0.03388878,0.008838408,-0.9932843,0.1102731
634795915772490000,0.06647116,-0.05474096,-0.9931574,0.18,-22.44,-42.24,167,69,5,-0.22437,-0.02949912,-0.1270715,3.357389,-0.00441432,0.0657177,0.03242424,0.005731052,-0.9936374,0.1077025
634795915772690000,0.06256109,-0.05865103,-1.000978,0.18,-22.44,-42.24,168,70,5,-0.2371407,-0.00927884,-0.03444597,3.357182,-0.003671407,0.06494212,0.03207945,0.005316898,-0.9936637,0.1075881
634795915772890000,0.04692082,-0.07820137,-0.9931574,0.18,-22.44,-42.24,166,68,5,-0.2616179,0.01731838,-0.02059838,3.357934,-0.003216267,0.06458497,0.03192462,0.005083609,-0.9936312,0.1079549
634795915773090000,0.04692082,-0.09384164,-0.9618768,0.18,-22.44,-42.24,166,68,5,-0.2552326,0.02262376,-0.05146069,3.358464,-0.002933025,0.06449401,0.03189338,0.004946394,-0.9936036,0.1082137
634795915773300000,0.05474096,-0.09384164,-0.9384164,0.18,-22.44,-42.24,167,69,5,-0.2296911,-0.05081938,-0.0950802,3.357623,-0.0007240772,0.06298804,0.03126628,0.001728086,-0.9937622,0.1073258
634795915773490000,0.05083089,-0.07820137,-0.9345064,0.42,-21.72,-42.9,168,70,5,-0.1913791,-0.07849795,-0.05142653,3.357105,0.002645731,0.05927777,0.02960486,0.001872527,-0.9937667,0.1074614
634795915773690000,0.05083089,-0.0742913,-0.9188661,0.42,-21.72,-42.9,168,70,5,-0.139187,-0.04125657,-0.043966,3.357326,0.002850294,0.05790794,0.02893498,0.001700424,-0.9937749,0.107571
634795915773890000,0.04692082,-0.08602151,-0.9071358,0.42,-21.72,-42.9,167,69,5,-0.09444017,-0.06146141,-0.07268209,3.356822,0.003487825,0.05629599,0.02816864,0.001289803,-0.9938243,0.1073156
634795915774090000,0.04692082,-0.09384164,-0.9071358,0.42,-21.72,-42.9,167,69,5,-0.1050164,-0.05717737,-0.0992642,3.355707,0.003820181,0.05471075,0.02739932,0.001024229,-0.9939067,0.1067608
634795915774290000,0.05474096,-0.08993158,-0.9032258,0.42,-21.72,-42.9,167,69,5,-0.2699114,-0.002933072,-0.1460153,3.354001,0.003372431,0.0541389,0.02709229,0.001193053,-0.9940051,0.1059202
634795915774500000,0.07038123,-0.08993158,-0.9071358,1.2,-20.76,-42.6,170,72,5,-0.2613976,-0.05828895,-0.1427804,3.352813,0.002059937,0.05381083,0.02686081,0.001811997,-0.9940704,0.1053481
634795915774690000,0.07038123,-0.1016618,-0.914956,1.2,-20.76,-42.6,166,68,5,-0.1368236,-0.09127174,-0.1235798,3.349849,-0.00134635,0.05066085,0.02512059,0.003301872,-0.994262,0.1039238
634795915774890000,0.05865103,-0.1094819,-0.9227762,1.2,-20.76,-42.6,166,68,5,0.08136983,-0.1678959,-0.09587944,3.349761,0.002252102,0.04679453,0.02338546,0.001311048,-0.9943192,0.1038412
634795915775090000,0.04692082,-0.1173021,-0.9462366,1.2,-20.76,-42.6,165,67,5,0.1547739,-0.1764098,-0.1256517,3.349364,0.005814791,0.04431688,0.02233853,-0.0005933977,-0.9943674,0.1036089
634795915775290000,0.05083089,-0.1251222,-0.9814272,1.2,-20.76,-42.6,168,70,5,0.07708036,-0.1242508,-0.1234837,3.347814,0.01107049,0.04073656,0.02082798,-0.003408393,-0.994479,0.102793
634795915775490000,0.06256109,-0.1212121,-0.9931574,1.44,-19.02,-43.08,170,72,5,-0.006964899,0.001338842,-0.0840742,3.345947,0.02003789,0.03915929,0.02049702,-0.01177664,-0.9945715,0.1011891
634795915775690000,0.06256109,-0.1173021,-0.9775171,1.44,-19.02,-43.08,170,72,5,-0.06338831,0.04601842,-0.01382458,3.344929,0.02773929,0.03977633,0.02118959,-0.01177664,-0.9945715,0.101432
634795915775890000,0.05083089,-0.1251222,-0.9814272,1.44,-19.02,-43.08,168,70,5,0.01321749,-0.1072336,0.07979679,3.347497,0.03842521,0.03884125,0.02128702,-0.01711078,-0.9943739,0.1023607
634795915776090000,0.05083089,-0.1329423,-1.055718,1.44,-19.02,-43.08,168,70,5,0.1877373,-0.3041153,-0.04154211,3.348386,0.04684806,0.03384637,0.01924449,-0.02154732,-0.9942848,0.1027753
634795915776290000,0.05865103,-0.1173021,-1.16129,1.44,-19.02,-43.08,168,70,5,0.1877373,-0.3041153,-0.04154211,3.347146,0.05461073,0.02850568,0.01697263,-0.02569341,-0.9942915,0.1021602
634795915776490000,0.05865103,-0.06647116,-1.239492,1.44,-19.02,-43.08,170,72,5,0.1047157,-0.2062066,0.02445102,3.346589,0.05737376,0.02543759,0.01558107,-0.02722933,-0.9943,0.1019053
634795915776700000,0.03519062,-0.03128055,-1.286412,1.44,-19.02,-43.08,171,73,5,0.1324163,0.01834005,0.3000703,3.348173,0.05938554,0.02260232,0.01429658,-0.02836367,-0.9942035,0.1027208
634795915776890000,0.01955034,-0.03910068,-1.286412,1.92,-18.66,-43.44,175,77,5,0.2548023,0.1619579,0.2734646,3.353012,0.06414342,0.02425885,0.01543839,-0.03060579,-0.9938751,0.1050641
634795915777090000,0.05474096,-0.03128055,-1.231672,1.92,-18.66,-43.44,175,77,5,0.3431329,0.1916811,0.2596297,3.35337,0.06773996,0.02692795,0.0169592,-0.03224862,-0.9937866,0.1051676
634795915777290000,0.113392,0.003910068,-1.16911,1.92,-18.66,-43.44,177,79,5,0.3633532,-0.02863443,0.2968775,3.354179,0.07308888,0.02880275,0.01818589,-0.03479951,-0.9936457,0.105488
634795915777490000,0.1485826,0.04301075,-1.16129,1.92,-18.66,-43.44,173,75,5,0.3303622,-0.04351995,0.2947491,3.357406,0.07820224,0.02796459,0.01809951,-0.03735536,-0.993386,0.1070612
634795915777690000,0.1485826,0.06256109,-1.184751,1.92,-18.66,-43.44,165,67,5,0.02493035,0.03415763,0.2394094,3.362236,0.07984662,0.02778792,0.01819196,-0.03813783,-0.9930947,0.1094481
634795915777900000,0.1251222,0.0742913,-1.200391,1.92,-18.66,-43.44,165,67,5,-0.3017628,0.10754,0.1478758,3.365735,0.07676578,0.02888072,0.01862981,-0.03651503,-0.9929543,0.1111919
634795915778090000,0.1055719,0.09384164,-1.216031,2.1,-18.48,-42.78,166,68,5,-0.4166991,-0.00955265,0.0425139,3.368964,0.05736971,0.03195965,0.01912267,-0.02668016,-0.9930608,0.1129248
634795915778290000,0.1055719,0.1251222,-1.208211,2.1,-18.48,-42.78,168,70,5,-0.2953775,-0.03828023,0.0382602,3.367925,0.04906058,0.03202724,0.01867518,-0.02256006,-0.9932216,0.1124859
634795915778490000,0.1094819,0.1564027,-1.14565,2.1,-18.48,-42.78,170,72,5,-0.1537806,-0.002095629,0.070173,3.367207,0.04406619,0.03246677,0.01860525,-0.02006153,-0.9933121,0.1121707
634795915778690000,0.1173021,0.1564027,-1.059628,2.1,-18.48,-42.78,170,72,5,-0.1398605,-0.008493965,0.1499795,3.367427,0.03803039,0.03324831,0.01865668,-0.0170176,-0.9933501,0.1123274
634795915778890000,0.1173021,0.1368524,-1.004888,2.1,-18.48,-42.78,169,71,5,-0.1919479,-0.1053323,0.1787092,3.368506,0.0308516,0.0330019,0.01813829,-0.01345606,-0.9933466,0.1129316
634795915779090000,0.09384164,0.1173021,-0.9775171,1.86,-18.48,-42.96,167,69,5,-0.2526087,-0.1138329,0.1776449,3.371407,0.004954576,0.0360198,0.01817406,-0.0003957775,-0.9932456,0.1145912
634795915779290000,0.06256109,0.08993158,-0.9423265,1.86,-18.48,-42.96,167,69,5,-0.3856368,-0.003177093,0.1084021,3.371417,-0.005918502,0.03864228,0.0188532,0.005154394,-0.9932087,0.1146941
634795915779490000,0.04692082,0.0742913,-0.8719453,1.86,-18.48,-42.96,168,70,5,-0.5069585,0.02554273,0.001938723,3.369526,-0.02062654,0.04132318,0.01935247,0.01259339,-0.9932237,0.1139012
634795915779690000,0.04301075,0.0742913,-0.7859238,1.86,-18.48,-42.96,168,70,5,-0.4973805,0.0202116,-0.01934025,3.366676,-0.03120041,0.04199779,0.01911047,0.01785528,-0.9932978,0.1125911
634795915779890000,0.04301075,0.0742913,-0.7194526,1.86,-18.48,-42.96,172,74,5,-0.249416,-0.08302591,0.009379785,3.364207,-0.03920292,0.04140389,0.01839174,0.02177365,-0.9933627,0.1114356
634795915780090000,0.04692082,0.05083089,-0.6999022,1.86,-18.48,-42.96,172,74,5,-0.1269843,0.03082905,-0.08429641,3.35934,-0.04774117,0.04045629,0.0175083,0.02591932,-0.9935399,0.1090854
634795915780290000,0.06647116,0.02737048,-0.7233627,1.8,-18.24,-42.72,171,73,5,-0.1311971,0.04889875,-0.1917707,3.354313,-0.05114078,0.04154062,0.01793112,0.02762177,-0.993755,0.1066297
634795915780490000,0.08602151,0.03519062,-0.7468231,1.8,-18.24,-42.72,171,73,5,-0.1588144,0.007387792,-0.1214861,3.350883,-0.0544281,0.04179239,0.01793102,0.0292377,-0.9938844,0.1049582
634795915780690000,0.09384164,0.05083089,-0.7468231,1.8,-18.24,-42.72,169,71,5,0.01682128,-0.1809793,0.01473231,3.350423,-0.05570102,0.04004478,0.0170025,0.0297756,-0.9939106,0.104719
634795915780890000,0.07820137,0.03128055,-0.7663734,1.8,-18.24,-42.72,162,64,5,0.3318315,-0.1628875,0.04766358,3.351535,-0.05339479,0.03724194,0.01571426,0.02849287,-0.9939159,0.1052172
634795915781090000,0.07820137,0,-0.797654,1.8,-18.24,-42.72,161,63,5,0.4776303,-0.03411805,-0.03112569,3.353147,-0.04716086,0.03529119,0.01505224,0.0253052,-0.993937,0.1059476
634795915781300000,0.09775171,-0.01564027,-0.8602151,1.8,-18.24,-42.72,161,63,5,0.4063273,-0.07563028,-0.1928647,3.351586,-0.03911757,0.03478837,0.01524482,0.02126946,-0.9941165,0.1051059
634795915781490000,0.1212121,0.007820137,-0.9501466,1.8,-18.24,-42.72,161,63,5,0.3350242,-0.2224869,-0.1289976,3.349141,-0.02507019,0.0280993,0.0126742,0.01392137,-0.9944273,0.1037445
634795915781690000,0.1212121,0.02346041,-1.032258,1.14,-16.8,-43.08,161,63,5,0.3744005,-0.1884317,-0.03425057,3.351016,-0.02016354,0.02745366,0.01259692,0.01146009,-0.994366,0.1046425
634795915781890000,0.09775171,0.01564027,-1.11828,1.14,-16.8,-43.08,159,61,5,0.4574101,-0.07774404,0.0125814,3.353905,-0.01236916,0.03001463,0.01426677,0.007739055,-0.9942302,0.1060355
634795915782090000,0.1016618,0.003910068,-1.200391,1.14,-16.8,-43.08,159,61,5,0.3446022,0.09567592,-0.06828769,3.355301,-0.006217479,0.03405941,0.01660014,0.004906686,-0.9941416,0.1066878
634795915782290000,0.1329423,0.02346041,-1.274682,1.14,-16.8,-43.08,162,64,5,0.3626941,0.04670038,-0.09062993,3.354769,-0.0005071163,0.03569639,0.01771902,0.002150763,-0.9941664,0.1063739
634795915782490000,0.1290323,0.05474096,-1.356794,1.14,-16.8,-43.08,162,64,5,0.4212264,0.09881741,-0.03953753,3.354259,0.01047873,0.03757691,0.01923696,-0.003214953,-0.9941736,0.106015
634795915782690000,0.09384164,0.07038123,-1.407625,0.54,-16.2,-43.62,165,67,5,0.4797588,0.3169568,0.1190148,3.357108,0.01749682,0.04234087,0.02198596,-0.006419002,-0.9939601,0.1073368
634795915782890000,0.05474096,0.05865103,-1.415445,0.54,-16.2,-43.62,165,67,5,0.5276489,0.3850672,0.3052542,3.363194,0.0256598,0.04957807,0.0260507,-0.0100065,-0.9935172,0.1102149
634795915783090000,0.03128055,0.03128055,-1.391984,0.54,-16.2,-43.62,168,70,5,0.5499976,0.4276361,0.2020243,3.367329,0.0338459,0.05694807,0.03019016,-0.01360159,-0.9931474,0.1120881
634795915783300000,0.06256109,0.01173021,-1.352884,0.54,-16.2,-43.62,171,73,5,0.6564201,0.5819488,-0.1438552,3.365716,0.04441404,0.06742537,0.0359684,-0.01828501,-0.993002,0.1109925
634795915783490000,0.1094819,0.03910068,-1.298143,0.54,-16.2,-43.62,172,74,5,0.2232805,0.629839,-0.355636,3.361399,0.04984951,0.0747652,0.03986849,-0.02065653,-0.993066,0.1086455
634795915783690000,0.1290323,0.1016618,-1.219941,0.54,-16.2,-43.62,172,74,5,-0.06509841,0.7234908,-0.3322231,3.354477,0.0517478,0.08699203,0.04596771,-0.0210822,-0.9931868,0.1049866
634795915783890000,0.1251222,0.1681329,-1.12219,0.6,-16.08,-43.08,166,68,5,-0.01084698,0.3733607,-0.3300946,3.34517,0.04576302,0.1084094,0.05620515,-0.017224,-0.9932306,0.1002037
634795915784090000,0.1094819,0.2111437,-1.063539,0.6,-16.08,-43.08,164,66,5,-0.00343923,0.03064911,-0.3439295,3.342004,0.04363298,0.1098936,0.05680966,-0.01617985,-0.9933655,0.09867126
634795915784290000,0.1055719,0.2150538,-1.004888,0.6,-16.08,-43.08,164,66,5,-0.01835637,-0.1098148,-0.33648,3.336132,0.03855371,0.1088605,0.05600545,-0.01387367,-0.9937184,0.09591077
634795915784490000,0.1212121,0.1955034,-0.9071358,0.6,-16.08,-43.08,165,67,5,-0.08109713,0.07214548,-0.355636,3.330037,0.03225136,0.110517,0.05649306,-0.01083337,-0.9939994,0.09304032
634795915784710000,0.1524927,0.1446725,-0.7781036,0.6,-16.08,-43.08,165,67,5,-0.5077906,0.1348179,-0.2545347,3.320994,0.006282806,0.1159658,0.05799811,0.00206772,-0.9943174,0.08924793
634795915784890000,0.1524927,0.1173021,-0.7116324,1.56,-16.8,-42.54,164,66,5,-0.5077906,0.1348179,-0.2545347,3.318127,-0.008705616,0.1185347,0.05861834,0.009549675,-0.9943244,0.08825397
634795915785090000,0.1407625,0.08211143,-0.6412512,1.56,-16.8,-42.54,155,57,5,-0.5908,-0.1269708,-0.1683188,3.318116,-0.02298355,0.1165688,0.0570096,0.01656167,-0.9942917,0.0886586
634795915785290000,0.1329423,0.05865103,-0.6099707,1.56,-16.8,-42.54,150,52,5,-0.4545793,-0.3344948,-0.1512635,3.319217,-0.03448987,0.1110452,0.05373999,0.02207096,-0.9942905,0.0894991
634795915785490000,0.1251222,0.03910068,-0.6334311,1.56,-16.8,-42.54,150,52,5,-0.211936,-0.3408801,-0.2395681,3.320193,-0.04266763,0.1037004,0.04970898,0.0258396,-0.9943542,0.09014246
634795915785690000,0.1212121,0.02737048,-0.6686217,1.56,-16.8,-42.54,146,48,5,-0.2002295,-0.250421,-0.2395681,3.320644,-0.0468235,0.09939945,0.04737639,0.02772749,-0.9943886,0.09042955
634795915785900000,0.1368524,0.01955034,-0.7077224,1.56,-16.8,-42.54,145,47,5,-0.1469317,-0.250421,-0.2108341,3.32118,-0.0527513,0.0942074,0.04451801,0.03045812,-0.9944098,0.09077904
634795915786090000,0.1368524,0.02737048,-0.7468231,1.56,-16.8,-42.54,145,47,5,0.05423038,-0.250421,-0.0948135,3.323389,-0.05786705,0.08499467,0.03966787,0.03263891,-0.9944454,0.09187695
634795915786290000,0.1173021,0.04692082,-0.7585533,1.56,-16.8,-42.54,145,47,5,0.2085097,-0.1557049,0.02012048,3.326636,-0.0552752,0.08149326,0.03799463,0.03125513,-0.9944121,0.09339879
634795915786490000,0.08211143,0.03128055,-0.7702835,2.7,-17.64,-41.94,152,54,5,0.3628224,-0.135472,0.07435978,3.330522,-0.05006075,0.07981181,0.03734615,0.02865825,-0.9943435,0.09521351
634795915786690000,0.05474096,-0.007820137,-0.8289345,2.7,-17.64,-41.94,155,57,5,0.3702719,-0.3110691,-0.02569558,3.332464,-0.04599619,0.07804035,0.03663296,0.02659039,-0.9943452,0.09608593
634795915786890000,0.07038123,-0.03128055,-0.9501466,2.7,-17.64,-41.94,167,69,5,0.3553728,-0.3802437,-0.1342372,3.332222,-0.03939628,0.07273065,0.03431199,0.02305396,-0.9945429,0.09580187
634795915787090000,0.1094819,0.007820137,-1.086999,2.7,-17.64,-41.94,167,69,5,0.3149323,-0.2184815,-0.08952142,3.326324,-0.02430558,0.06202173,0.02975108,0.01495441,-0.9951496,0.0925586
634795915787290000,0.1094819,0.05865103,-1.16129,3.18,-17.4,-42,175,77,5,0.2755559,0.02521869,0.1637318,3.32818,-0.01793599,0.0623033,0.03017492,0.01182595,-0.9951035,0.09338738
634795915787490000,0.08602151,0.04301075,-1.192571,3.18,-17.4,-42,174,76,5,0.3734646,0.1518168,0.2584479,3.331842,-0.01132297,0.06499016,0.03180449,0.008718721,-0.9949202,0.09511267
634795915787690000,0.09384164,0,-1.270772,3.18,-17.4,-42,170,72,5,0.474566,-0.03018167,0.1168907,3.332877,-0.005984783,0.06521463,0.03216685,0.006090483,-0.9948881,0.09554183
634795915787890000,0.1212121,0.007820137,-1.384164,3.18,-17.4,-42,170,72,5,0.4394466,-0.3334714,0.04343915,3.331595,0.001414299,0.06101596,0.03043275,0.002189816,-0.9950289,0.09479277
634795915788090000,0.1251222,0.04301075,-1.407625,3.18,-17.4,-42,174,76,5,0.5469333,0.4912932,0.3169131,3.332414,0.01093078,0.0578928,0.02933077,-0.002681067,-0.9950351,0.09506723
634795915788290000,0.08993158,0.03910068,-1.329423,2.58,-16.74,-42.6,171,73,5,0.2670421,0.3838065,0.2732798,3.341074,0.02748489,0.07239115,0.03737196,-0.01006174,-0.9943354,0.0990058
634795915788490000,0.09384164,0.003910068,-1.278592,2.58,-16.74,-42.6,171,73,5,0.07651228,-0.2079218,-0.09283978,3.33982,0.02834773,0.07207965,0.03725313,-0.01052956,-0.9943967,0.09836898
634795915788690000,0.1564027,0.04301075,-1.333333,2.58,-16.74,-42.6,171,73,5,-0.00540943,-0.7293921,-0.292906,3.335889,0.02801275,0.06639337,0.03438864,-0.01071309,-0.9946851,0.09646984
634795915788890000,0.1955034,0.1564027,-1.399804,2.58,-16.74,-42.6,172,74,5,-0.001126563,-0.4633358,-0.1577439,3.329545,0.02694034,0.05453384,0.02840433,-0.01084724,-0.9951624,0.09342886
634795915789090000,0.1798632,0.2385142,-1.325513,2.58,-16.74,-42.6,168,70,5,0.06274557,0.1177086,0.202993,3.329987,0.0261991,0.05113018,0.02667848,-0.01063279,-0.9951891,0.09368537
634795915789290000,0.1642229,0.2150538,-1.14174,1.08,-16.32,-42.6,164,66,5,0.05850974,0.1868363,0.3913609,3.33532,0.02566027,0.05480707,0.02850978,-0.008613171,-0.9945052,0.1000849
634795915789490000,0.1524927,0.1329423,-0.9970675,1.08,-16.32,-42.6,165,67,5,0.01167607,-0.1409535,0.3434708,3.348463,0.01878953,0.05238127,0.02701619,-0.00663743,-0.9942961,0.102966
634795915789690000,0.1446725,0.09384164,-0.9462366,1.08,-16.32,-42.6,165,67,5,-0.1724302,-0.5560013,0.1231557,3.350269,0.01241136,0.04695535,0.0239935,-0.003725284,-0.994283,0.1039737
634795915789890000,0.1329423,0.1094819,-0.9384164,1.08,-16.32,-42.6,160,62,5,-0.4895693,-0.5826069,0.083777,3.352477,-0.001551151,0.03925585,0.01943607,0.002836712,-0.9942541,0.1052416
634795915790090000,0.09775171,0.1251222,-0.9071358,1.08,-16.32,-42.6,158,60,5,-0.3991101,-0.4102024,0.2423423,3.355957,-0.01539683,0.03306353,0.01561223,0.009421454,-0.9940832,0.1070855
634795915790290000,0.05474096,0.1055719,-0.856305,1.08,-16.32,-42.6,160,62,5,-0.3991101,-0.4102024,0.2423423,3.361676,-0.02775741,0.02987754,0.01332252,0.01543318,-0.9937229,0.1100026
634795915790490000,0.04301075,0.05474096,-0.797654,1.08,-16.32,-42.6,160,62,5,-0.308651,-0.09091606,0.2529846,3.370985,-0.04335904,0.02461648,0.009743442,0.02294199,-0.9930911,0.1146745
634795915790690000,0.05865103,0.01564027,-0.7390029,1.08,-16.32,-42.6,160,62,5,-0.308651,-0.01323699,0.1497467,3.372567,-0.04754328,0.02425706,0.009305271,0.02500653,-0.9929518,0.1154763
634795915790890000,0.07820137,0.003910068,-0.7077224,-1.32,-16.38,-42.54,160,62,5,-0.3437704,0.03674861,0.0986536,3.375498,-0.05356931,0.02468681,0.009129535,0.02803623,-0.9926976,0.1169637
634795915791090000,0.08602151,0.01564027,-0.6959922,-1.32,-16.38,-42.54,153,55,5,-0.2554398,-0.01328786,0.1699549,3.380332,-0.05913877,0.02521658,0.008992286,0.03085312,-0.9923277,0.1193948
634795915791290000,0.08211143,0.02737048,-0.684262,-1.32,-16.38,-42.54,153,55,5,0.03511584,-0.2186812,0.3583227,3.388283,-0.06187844,0.02417839,0.008185673,0.03218361,-0.9918093,0.1233355
634795915791490000,0.06647116,0.01955034,-0.688172,-1.32,-16.38,-42.54,147,49,5,0.3309657,-0.2899843,0.3966348,3.398968,-0.0594778,0.01981521,0.006005427,0.03075812,-0.991206,0.1285616
634795915791690000,0.05865103,-0.003910068,-0.7155425,-3.6,-16.32,-43.32,137,39,5,0.540618,0.03460259,0.2497718,3.414375,-0.0455935,0.01830018,0.005963394,0.02382598,-0.9903864,0.1361342
634795915791890000,0.05865103,-0.01564027,-0.7507331,-3.6,-16.32,-43.32,141,43,5,0.4043972,0.1931151,0.1167347,3.42047,-0.03857613,0.02161241,0.008018661,0.02060023,-0.9900232,0.1391597
634795915792090000,0.06256109,-0.01564027,-0.8054741,-3.6,-16.32,-43.32,142,44,5,0.1872952,0.05683979,0.04542659,3.425527,-0.03498435,0.02166092,0.008244951,0.01884648,-0.9897033,0.1416483
634795915792290000,0.08211143,0,-0.914956,-3.6,-16.32,-43.32,142,44,5,0.4926984,-0.5103922,-0.03865795,3.430507,-0.03121519,0.01436245,0.004858847,0.01647771,-0.9894229,0.1440447
634795915792490000,0.09384164,0.03128055,-1.063539,-3.6,-16.32,-43.32,143,45,5,0.5310105,-0.2602993,-0.08117662,3.434263,-0.02285528,0.005339503,0.0009747841,0.01169453,-0.9892401,0.1458335
634795915792690000,0.08211143,0.04692082,-1.204301,-3.6,-16.32,-43.32,144,46,5,0.2468624,0.1206607,-0.1333072,3.436799,-0.01393628,0.0007548332,-0.0006514448,0.005643012,-0.9890671,0.1473559
634795915792890000,0.08993158,0.05474096,-1.251222,-5.76,-16.26,-43.8,146,48,5,0.1680877,0.3781732,-0.07689855,3.439601,-0.009036064,0.007484316,0.003029955,0.005023441,-0.9889005,0.1484673
634795915793090000,0.1251222,0.06647116,-1.216031,-5.76,-16.26,-43.8,146,48,5,0.3106939,0.3813659,0.03272559,3.44356,-0.005331516,0.01523149,0.007128068,0.003780788,-0.9885883,0.1504259
634795915793290000,0.1212121,0.03910068,-1.219941,-5.76,-16.26,-43.8,152,54,5,0.4756488,0.1152602,0.1764025,3.449951,0.00139904,0.01951515,0.009749098,0.0008072716,-0.9880916,0.1535548
634795915793490000,0.06256109,0,-1.282502,-5.76,-16.26,-43.8,152,54,5,0.4458505,-0.1476119,0.2434487,3.458723,0.008514404,0.01876914,0.009938794,-0.002721803,-0.9874088,0.1578538
634795915793690000,0.007820137,0,-1.352884,-7.92,-16.86,-44.64,149,51,5,0.2989874,-0.3104384,0.0433572,3.465253,0.01322055,0.01385057,0.007899646,-0.00540784,-0.9868965,0.1610721
634795915793890000,0.01564027,0.03519062,-1.388074,-7.92,-16.86,-44.64,149,51,5,0.2234274,0.2833628,-0.5621977,3.466665,0.01652551,0.01101732,0.006772933,-0.007262276,-0.9867792,0.1617685
634795915794090000,0.06647116,0.08993158,-1.360704,-7.92,-16.86,-44.64,154,56,5,-0.1245249,0.6334928,-0.5387848,3.456634,0.02272534,0.02142978,0.01236368,-0.009540445,-0.9875178,0.1567306
634795915794290000,0.1016618,0.1290323,-1.266862,-7.92,-16.86,-44.64,155,57,5,-0.1297946,0.6398782,-0.3738299,3.451521,0.01907325,0.03386974,0.01820208,-0.006807302,-0.9878553,0.1541563
634795915794490000,0.1055719,0.1446725,-1.1261,-7.92,-16.86,-44.64,153,55,5,-0.1010167,0.4163909,-0.2897561,3.44972,0.01528621,0.04478586,0.02329776,-0.004114692,-0.9879053,0.1532429
634795915794690000,0.08211143,0.1368524,-1.032258,-7.92,-16.86,-44.64,153,55,5,-0.2467539,-0.04122845,-0.3940502,3.448403,0.0107162,0.050354,0.02569686,-0.001446799,-0.9879505,0.1526204
634795915794890000,0.0742913,0.1173021,-1.016618,-7.92,-16.86,-44.64,148,50,5,-0.4202226,-0.360496,-0.5643262,3.446161,0.005698442,0.04962265,0.02495364,0.000947968,-0.9881295,0.1515788
634795915795090000,0.08211143,0.1173021,-1.036168,-7.92,-16.86,-44.64,148,50,5,-0.4308648,-0.4956526,-0.563262,3.43417,-0.01974702,0.0368613,0.0167929,0.01245254,-0.989076,0.1459155
634795915795290000,0.0742913,0.1368524,-1.012708,-8.16,-18.12,-45.18,148,50,5,-0.3946812,-0.1699997,-0.2961415,3.432962,-0.03118872,0.03544235,0.01526703,0.01799827,-0.9890912,0.1454026
634795915795490000,0.07038123,0.1055719,-0.8954057,-8.16,-18.12,-45.18,148,50,5,-0.3574333,0.2695159,-0.08011314,3.435258,-0.04148626,0.04216409,0.01781522,0.02359748,-0.9887436,0.1466741
634795915795690000,0.0742913,0.02346041,-0.742913,-8.16,-18.12,-45.18,148,50,5,-0.3010294,0.505774,0.007139701,3.438617,-0.05002522,0.05200815,0.0220075,0.02857243,-0.9882525,0.1485137
634795915795890000,0.08211143,-0.04692082,-0.6451613,-8.16,-18.12,-45.18,144,46,5,-0.2573961,-0.1859935,-0.1939525,3.44037,-0.05410504,0.05566835,0.02348629,0.0308782,-0.9880062,0.1494659
634795915796090000,0.1016618,-0.03910068,-0.684262,-7.98,-19.44,-45.12,135,37,5,-0.1711624,-0.5371878,-0.1801083,3.443243,-0.05917167,0.05438399,0.02242515,0.03331824,-0.9877292,0.1509275
634795915796290000,0.1055719,0.003910068,-0.7624633,-7.98,-19.44,-45.12,121,23,5,0.04173361,-0.3413704,-0.002409167,3.454794,-0.06318879,0.03673422,0.01320641,0.03406028,-0.9870135,0.1564301
634795915796490000,0.08993158,0.03519062,-0.7898338,-7.98,-19.44,-45.12,121,23,5,0.1619855,0.03855088,0.1156501,3.462939,-0.06112527,0.03529334,0.01252237,0.03298129,-0.9864191,0.1604154
634795915796700000,0.0742913,0.01564027,-0.7350929,-7.98,-19.44,-45.12,122,24,5,0.2481878,0.2577813,0.1624229,3.468778,-0.05872607,0.03846538,0.01418598,0.0320922,-0.985949,0.1633208
634795915796890000,0.07820137,-0.02346041,-0.6686217,-7.98,-19.44,-45.12,136,38,5,0.3748306,-0.009393631,0.1144776,3.475953,-0.05409717,0.04231143,0.01635219,0.03018101,-0.9853815,0.1668684
634795915797090000,0.08211143,-0.03519062,-0.6999022,-7.98,-19.44,-45.12,134,36,5,0.3705736,-0.2722526,0.1059244,3.483018,-0.04683137,0.04117751,0.01630572,0.0265648,-0.9849032,0.1702769
634795915797290000,0.05865103,-0.02737048,-0.8172043,-7.98,-19.44,-45.12,134,36,5,0.3524818,-0.4425287,0.1175824,3.49925,-0.03344917,0.02766514,0.01063515,0.01891561,-0.9837798,0.1780626
634795915797490000,0.02346041,-0.01955034,-0.9345064,-7.2,-20.76,-44.76,130,32,5,0.3822801,-0.2658673,0.117525,3.503745,-0.02863335,0.02495062,0.009691789,0.01632738,-0.9834411,0.1802315
634795915797690000,0.02346041,-0.02346041,-0.9931574,-7.2,-20.76,-44.76,130,32,5,0.396115,0.007635354,0.1845272,3.510289,-0.02102566,0.02526808,0.01049207,0.01264934,-0.9828987,0.1834118
634795915797890000,0.04301075,-0.04301075,-1.016618,-7.2,-20.76,-44.76,149,51,5,0.3822801,0.1906272,0.259023,3.517732,-0.01258659,0.02850831,0.01282561,0.008846475,-0.9822311,0.1870281
634795915798090000,0.05474096,-0.06647116,-1.086999,-7.2,-20.76,-44.76,149,51,5,0.1470831,-0.311718,0.08870915,3.524194,-0.006188631,0.02880371,0.01355028,0.005775776,-0.9816432,0.1901591
634795915798290000,0.03910068,-0.06647116,-1.212121,-7.2,-20.76,-44.76,149,51,5,0.1545251,-0.2702132,-0.07518642,3.527343,-0.003098011,0.02566075,0.01229519,0.0039794,-0.9813715,0.191685
634795915798490000,0.02737048,-0.03519062,-1.298143,-6.18,-21.6,-44.4,152,54,5,0.2300851,0.3480764,-0.08792306,3.529606,0.005195856,0.02308273,0.01182539,-0.0003240343,-0.9811773,0.192749
634795915798690000,0.0742913,0.003910068,-1.270772,-6.18,-21.6,-44.4,151,53,5,0.2151859,0.5790133,-0.06658588,3.529503,0.009711266,0.03374636,0.01749155,-0.00151192,-0.9811142,0.1926313
634795915798900000,0.1251222,0.03128055,-1.212121,-6.18,-21.6,-44.4,151,53,5,0.1140846,0.08838801,0.02711126,3.530058,0.01175857,0.03905761,0.02029459,-0.001998599,-0.9810141,0.1928611
634795915799090000,0.1329423,0.02737048,-1.259042,-6.18,-21.6,-44.4,156,58,5,0.09706619,-0.3915788,0.004760835,3.531962,0.01338601,0.03774583,0.0198109,-0.002904693,-0.9808397,0.1937849
634795915799290000,0.1290323,0.03910068,-1.384164,-6.18,-21.6,-44.4,152,54,5,0.04170594,-0.5799466,-0.1729637,3.532343,0.01427794,0.027637,0.01494059,-0.004319908,-0.9808754,0.1940145
634795915799490000,0.113392,0.09775171,-1.415445,-5.46,-21.9,-44.1,154,56,5,0.001234203,-0.1617062,-0.1261136,3.530946,0.01350927,0.02005267,0.01114315,-0.004687096,-0.9810517,0.1933688
634795915799690000,0.08993158,0.1524927,-1.266862,-5.46,-21.9,-44.1,154,56,5,0.02251605,0.4406116,0.2048531,3.535344,0.01225591,0.02659643,0.01423927,-0.003407923,-0.9805934,0.1955054
634795915799890000,0.1016618,0.1329423,-1.063539,-5.46,-21.9,-44.1,159,61,5,-0.01363856,0.5725756,0.3304317,3.539857,0.01159358,0.03380036,0.01771172,-0.002338476,-0.9801019,0.1976909
634795915800100000,0.113392,0.04301075,-0.9227762,-5.46,-21.9,-44.1,160,62,5,-0.1987867,-0.07449441,0.2389084,3.546809,0.005849599,0.03800141,0.01919927,0.0009586579,-0.9793751,0.2011335
634795915800290000,0.113392,0.02737048,-0.9188661,-5.46,-21.9,-44.1,155,57,5,-0.3914115,-0.5267901,0.03133305,3.548913,-0.001797915,0.03077149,0.01488535,0.003991995,-0.9792142,0.2022447
634795915800490000,0.1094819,0.06647116,-0.9579667,-5.46,-21.9,-44.1,155,57,5,-0.5733939,-0.6108639,-0.09638472,3.549449,-0.008185863,0.02381825,0.01083314,0.00641961,-0.9791911,0.2025494
634795915800690000,0.09384164,0.113392,-0.9618768,-4.68,-22.56,-43.08,149,51,5,-0.6372475,-0.4448448,-0.03676353,3.549878,-0.02858901,0.01027894,0.002134438,0.01503882,-0.9791074,0.2027763
634795915800890000,0.07038123,0.1094819,-0.8797654,-4.68,-22.56,-43.08,152,54,5,-0.5787151,-0.2075226,0.122893,3.553505,-0.04634118,0.01027429,0.000289205,0.02372884,-0.978566,0.2045622
634795915801090000,0.06647116,0.06647116,-0.7741935,-4.68,-22.56,-43.08,155,57,5,-0.4850633,-0.135126,0.04942903,3.555053,-0.05654382,0.009555101,-0.001128346,0.02864614,-0.9782777,0.2053086
634795915801290000,0.07038123,0.03910068,-0.7781036,-4.68,-22.56,-43.08,155,57,5,-0.5350819,-0.2117502,0.02919938,3.555138,-0.0633409,0.007926463,-0.002624015,0.03180372,-0.9781744,0.2053207
634795915801490000,0.0742913,0.03128055,-0.7937439,-4.68,-22.56,-43.08,155,57,5,-0.4488796,0.01918517,0.07284262,3.555735,-0.07347894,0.004598618,-0.005303044,0.03641885,-0.9779571,0.205538
634795915801690000,0.07038123,0.03128055,-0.7546432,-4.68,-22.56,-43.08,151,53,5,-0.2700898,0.1851685,0.1877737,3.55728,-0.08179665,0.004652262,-0.006162817,0.04048645,-0.9776381,0.2062701
634795915801890000,0.05865103,0.01173021,-0.6725318,-4.2,-23.04,-42.72,151,53,5,-0.03596855,0.09469482,0.231407,3.564607,-0.08756542,0.0101434,-0.004234502,0.04385654,-0.9767193,0.2099468
634795915802090000,0.06256109,-0.01173021,-0.6334311,-4.2,-23.04,-42.72,150,52,5,0.3194728,-0.1958527,0.2058655,3.56734,-0.08401918,0.008291245,-0.004824195,0.04192395,-0.9765202,0.2112515
634795915802310000,0.07038123,-0.02737048,-0.6608016,-4.2,-23.04,-42.72,150,52,5,0.4791065,-0.1873389,0.1323901,3.570735,-0.07570648,0.004577756,-0.005823318,0.03746331,-0.9763469,0.21286
634795915802490000,0.07820137,-0.03519062,-0.7116324,-4.2,-23.04,-42.72,147,49,5,0.3929043,-0.1032602,0.05464851,3.572752,-0.06735778,0.002462149,-0.006001149,0.03315625,-0.976289,0.2138329
634795915802690000,0.08993158,-0.05083089,-0.7781036,-4.2,-23.04,-42.72,143,45,5,0.1576942,-0.172432,0.001426722,3.574404,-0.06211162,-0.0007406473,-0.007028752,0.03024712,-0.9762068,0.2146058
634795915802890000,0.09775171,-0.05865103,-0.856305,-3.54,-23.16,-42.66,145,47,5,0.09168461,-0.1554044,-0.06238283,3.574994,-0.06050658,-0.003156185,-0.008044234,0.02920209,-0.9761745,0.2148632
634795915803090000,0.09384164,-0.04692082,-0.9501466,-3.54,-23.16,-42.66,145,47,5,0.456681,-0.342708,-0.2826333,3.571646,-0.0516715,-0.0120281,-0.01138551,0.0239547,-0.9766603,0.2131467
634795915803290000,0.1094819,0.007820137,-1.083089,-3.54,-23.16,-42.66,146,48,5,0.4290111,-0.2980105,-0.2028164,3.567708,-0.04134583,-0.01809394,-0.01321118,0.01829069,-0.9771797,0.2112129
634795915803500000,0.1212121,0.06647116,-1.204301,-3.54,-23.16,-42.66,148,50,5,0.282148,0.01488241,-0.05059197,3.565538,-0.03289318,-0.01985276,-0.01316256,0.01398886,-0.9774719,0.2101903
634795915803690000,0.1094819,0.05865103,-1.270772,-3.54,-23.16,-42.66,159,61,5,0.2331937,0.3916181,0.02820018,3.565029,-0.02995038,-0.01823688,-0.01206034,0.01272377,-0.9775497,0.2099743
634795915803890000,0.113392,-0.01173021,-1.317693,-3.54,-23.16,-42.66,159,61,5,0.2278726,0.244755,0.2271927,3.564935,-0.0265882,-0.01113176,-0.008234053,0.01182753,-0.9775952,0.21
634795915804090000,0.09775171,-0.04692082,-1.384164,-3.6,-22.8,-42,161,63,5,0.2672489,-0.08725628,0.2761471,3.567852,-0.02310777,-0.006176471,-0.005461975,0.01063897,-0.9773114,0.21147
634795915804290000,0.04301075,0.003910068,-1.450635,-3.6,-22.8,-42,160,62,5,-0.06057929,-0.02120537,0.09731,3.574812,-0.01762557,-0.007813573,-0.005709341,0.007767047,-0.9765936,0.214876
634795915804490000,0.01564027,0.05865103,-1.485826,-3.6,-22.8,-42,160,62,5,-0.4862694,0.1543415,-0.07937074,3.574118,-0.02169156,-0.006550073,-0.005525791,0.009890217,-0.9766513,0.2145324
634795915804690000,0.03910068,0.08993158,-1.462366,-3.6,-22.8,-42,165,67,5,-0.5107465,0.1191733,-0.04846521,3.571369,-0.03108597,-0.003833532,-0.005186673,0.01477616,-0.9768869,0.2131829
634795915804890000,0.04301075,0.1329423,-1.388074,-3.6,-22.8,-42,165,67,5,-0.2383049,0.07979152,0.1569467,3.569448,-0.03896904,-0.002050042,-0.00513779,0.01882162,-0.9770228,0.2122395
634795915805090000,0.01564027,0.1564027,-1.286412,-3.12,-22.44,-42.48,167,69,5,0.1522026,0.214916,0.3272228,3.572326,-0.04035044,0.0009635687,-0.003840696,0.0198108,-0.9766974,0.2136717
634795915805290000,0.003910068,0.1290323,-1.176931,-3.12,-22.44,-42.48,167,69,5,0.2352122,0.2362005,0.1899377,3.575084,-0.03532624,0.008863091,0.000528896,0.0182016,-0.976424,0.2150933
634795915805490000,0.03128055,0.08993158,-1.090909,-3.12,-22.44,-42.48,167,69,5,-0.05428376,-0.04053341,-0.09419721,3.571223,-0.0367949,0.00899291,0.0004709084,0.0189317,-0.976823,0.2132095
634795915805690000,0.03910068,0.08211143,-1.043988,-3.12,-22.44,-42.48,168,70,5,-0.3756718,-0.2331529,-0.1973976,3.564801,-0.04461837,0.004775882,-0.002351055,0.02231116,-0.9774385,0.2100275
634795915805890000,0.01173021,0.08602151,-1.000978,-3.12,-22.44,-42.48,165,67,5,-0.428883,-0.2640155,-0.1856911,3.561301,-0.0501318,0.001541018,-0.004467757,0.02467383,-0.9777499,0.2082707
634795915806090000,0.01564027,0.03519062,-0.8914956,-3.12,-22.44,-42.48,165,67,5,-0.3043687,0.09248484,-0.2282601,3.555794,-0.05739259,0.001568437,-0.005132653,0.02824042,-0.9782239,0.2055604
634795915806290000,0.06256109,0.007820137,-0.7820137,-3.12,-22.44,-42.48,164,66,5,-0.2734728,0.4564274,-0.4911237,3.547503,-0.06240511,0.007442951,-0.002644987,0.03130674,-0.9789683,0.2015786
634795915806490000,0.09384164,0.01173021,-0.6959922,-2.94,-22.26,-42.3,166,68,5,-0.3660604,0.3053074,-0.4187564,3.5289,-0.07078815,0.02071571,0.003348022,0.03671546,-0.9805702,0.1926746
634795915806690000,0.1055719,0.01564027,-0.6412512,-2.94,-22.26,-42.3,164,66,5,-0.2947574,-0.005449518,-0.3133981,3.52211,-0.07710099,0.02368402,0.004331321,0.04008058,-0.9810708,0.1894072
634795915806910000,0.1055719,0.02346041,-0.6217009,-2.94,-22.26,-42.3,146,48,5,-0.1510669,-0.1948436,-0.2846641,3.517899,-0.08170795,0.02202737,0.003171152,0.04217763,-0.9813878,0.1873193
634795915807090000,0.113392,0.01955034,-0.6529814,-2.94,-22.26,-42.3,146,48,5,0.05968495,-0.2342199,-0.3059485,3.514154,-0.08336282,0.01672828,0.0004950801,0.04249479,-0.9817474,0.1853803
634795915807290000,0.1173021,0.02346041,-0.7038123,-2.22,-21.54,-42.3,141,43,5,0.1192914,-0.1181973,-0.3059485,3.511643,-0.0827639,0.01392138,-0.0007747757,0.04194254,-0.9820134,0.1840922
634795915807490000,0.1173021,0.03128055,-0.7233627,-2.22,-21.54,-42.3,142,44,5,0.1501417,0.08296856,-0.2112325,3.505192,-0.07871103,0.01273108,-0.0008577735,0.03984617,-0.9826932,0.1809024
634795915807690000,0.1016618,0.03910068,-0.6999022,-2.22,-21.54,-42.3,146,48,5,0.2225091,0.0840167,-0.06649265,3.505393,-0.074409,0.01360714,-4.187958E-05,0.03781131,-0.9827529,0.1810182
634795915807890000,0.07820137,0.02346041,-0.7116324,-2.22,-21.54,-42.3,146,48,5,0.3949135,-0.3107991,0.07607105,3.50708,-0.07021523,0.01063239,-0.001154212,0.03548091,-0.9826955,0.1817972
634795915808100000,0.03910068,-0.01173021,-0.8250244,-2.22,-21.54,-42.3,147,49,5,0.4992076,-0.6077179,-0.01013289,3.508813,-0.06201267,0.001026988,-0.0051556,0.03057398,-0.9827159,0.1825082
634795915808290000,0.007820137,-0.02737048,-0.9579667,-2.22,-21.54,-42.3,151,53,5,0.4513175,-0.4651117,-0.1367316,3.507775,-0.05367493,-0.008782387,-0.009201912,0.02558625,-0.9829436,0.1818869
634795915808490000,0.01564027,-0.01173021,-1.028348,-0.6,-21.42,-42.6,165,67,5,0.3587299,-0.1192274,-0.08347333,3.505046,-0.04523205,-0.01396072,-0.01095051,0.02097999,-0.9832861,0.1805221
634795915808690000,0.03128055,0.003910068,-1.063539,-0.6,-21.42,-42.6,165,67,5,0.2022888,0.07014909,0.05378798,3.501317,-0.0332005,-0.01238418,-0.009060836,0.01522387,-0.9837328,0.1787647
634795915808890000,0.01955034,0,-1.110459,-0.6,-21.42,-42.6,170,72,5,0.05223496,-0.01181742,0.07292648,3.500077,-0.02916646,-0.01073766,-0.007882049,0.01339186,-0.9838741,0.1781854
634795915809090000,0.01564027,-0.01955034,-1.176931,-0.6,-21.42,-42.6,169,71,5,0.02885074,-0.1873951,0.07719508,3.499672,-0.02856612,-0.01129079,-0.008098053,0.01304883,-0.983913,0.1779842
634795915809290000,0.04301075,-0.03128055,-1.255132,-0.6,-21.42,-42.6,170,72,5,0.3066052,-0.2757258,0.07718284,3.498551,-0.02583742,-0.01727951,-0.01079501,0.01117895,-0.984016,0.1774015
634795915809490000,0.06256109,-0.01955034,-1.286412,-0.6,-21.42,-42.6,170,72,5,0.5822395,0.0765222,0.1101637,3.498123,-0.02127457,-0.02044499,-0.01194587,0.008655421,-0.9840655,0.1771959
634795915809690000,0.06647116,0.01173021,-1.266862,-0.12,-21.36,-41.34,170,72,5,0.4045139,0.3319111,0.114368,3.498382,-0.01073647,-0.01923716,-0.01041822,0.003575993,-0.9840797,0.1773884
634795915809890000,0.08993158,0.01173021,-1.259042,-0.12,-21.36,-41.34,170,72,5,-0.07016871,0.06688277,0.05682155,3.497624,-0.005532503,-0.01285863,-0.006817459,0.00158402,-0.9841763,0.1770552
634795915810090000,0.1329423,0.01955034,-1.329423,-0.12,-21.36,-41.34,169,71,5,-0.295781,-0.5971916,-0.1315593,3.494118,-0.01093244,-0.02259731,-0.01208166,0.003400014,-0.9844393,0.1752768
634795915810290000,0.1446725,0.08602151,-1.391984,-0.12,-21.36,-41.34,167,69,5,-0.1797767,-0.5556868,0.01638579,3.492826,-0.01375961,-0.03012264,-0.01603061,0.004141911,-0.9845026,0.1745894
634795915810490000,0.1212121,0.1485826,-1.321603,-0.12,-21.36,-41.34,167,69,5,-0.01482943,-0.1257318,0.1493758,3.494127,-0.01540375,-0.03485763,-0.01850776,0.004525335,-0.9843503,0.1751917
634795915810690000,0.1212121,0.1524927,-1.15738,-0.12,-21.36,-41.34,165,67,5,0.06392451,0.1307065,0.2079082,3.496558,-0.015517,-0.03298604,-0.01760232,0.004723861,-0.9841508,0.1763972
634795915810890000,0.1290323,0.1173021,-1.090909,0.24,-21.96,-41.28,168,70,5,-0.2680566,-0.3248158,0.2100367,3.501664,-0.02241611,-0.0355885,-0.01951123,0.007838972,-0.9836555,0.1788287
634795915811090000,0.1290323,0.08602151,-1.055718,0.24,-21.96,-41.28,166,68,5,-0.421305,-0.3418434,0.07589566,3.502392,-0.0276804,-0.03959119,-0.02195389,0.01006126,-0.9835348,0.1791009
634795915811290000,0.09775171,0.09384164,-0.9970675,0.24,-21.96,-41.28,166,68,5,-0.4660025,-0.3258801,0.005620404,3.502128,-0.03675866,-0.04500461,-0.02542632,0.0140424,-0.9834543,0.1788105
634795915811500000,0.06647116,0.1094819,-0.9266862,0.24,-21.96,-41.28,164,66,5,-0.4628098,-0.2939533,0.05985725,3.501495,-0.04643273,-0.04933083,-0.02841177,0.01841942,-0.9833909,0.1783155
634795915811690000,0.03910068,0.1055719,-0.8836755,0.24,-21.96,-41.28,163,65,5,-0.4500391,-0.1013244,0.1587935,3.501935,-0.05662227,-0.05010211,-0.02970414,0.02335352,-0.9832375,0.1783723
634795915811890000,0.03128055,0.07038123,-0.8406647,0.06,-22.08,-41.22,167,69,5,-0.3989563,0.2839065,0.1758211,3.503137,-0.06606602,-0.04960739,-0.03031982,0.02802234,-0.9830138,0.1788301
634795915812090000,0.05083089,0.03910068,-0.7898338,0.06,-22.08,-41.22,167,69,5,-0.3510661,0.3584023,0.1130163,3.502418,-0.07805634,-0.0388999,-0.02611843,0.03489064,-0.982971,0.1785186
634795915812290000,0.0742913,0.02346041,-0.7468231,0.06,-22.08,-41.22,169,71,5,-0.3521304,0.3552096,0.08748699,3.50142,-0.0844953,-0.03248775,-0.02352349,0.03864382,-0.9829745,0.1780864
634795915812490000,0.0742913,0.01955034,-0.7077224,0.06,-22.08,-41.22,170,72,5,-0.3233963,0.2072613,0.2236976,3.503327,-0.09020924,-0.02823758,-0.02198388,0.04181234,-0.9827047,0.1790557
634795915812690000,0.06256109,0.007820137,-0.6803519,0.06,-22.08,-41.22,159,61,5,-0.0530747,-0.01092315,0.291808,3.507705,-0.09153294,-0.02821648,-0.02218493,0.0424162,-0.982282,0.1811921
634795915812890000,0.05083089,-0.007820137,-0.6920821,0.06,-22.08,-41.22,159,61,5,0.3427791,-0.03323665,0.249239,3.510496,-0.08901262,-0.02927708,-0.02253468,0.0410502,-0.9820784,0.1825657
634795915813090000,0.04692082,-0.01173021,-0.7116324,-1.14,-21.6,-41.16,155,57,5,0.5045413,0.1955188,0.1087335,3.513037,-0.08116531,-0.02804541,-0.02126081,0.03728272,-0.9820024,0.1839274
634795915813290000,0.07038123,-0.007820137,-0.7546432,-1.14,-21.6,-41.16,158,60,5,0.4332382,-0.1269898,0.03313871,3.513634,-0.0637939,-0.03028679,-0.02077166,0.02853856,-0.9822253,0.18436
634795915813490000,0.08993158,-0.003910068,-0.8602151,-1.14,-21.6,-41.16,159,61,5,0.3938619,-0.5473588,0.06716189,3.514665,-0.05831623,-0.03783107,-0.02398418,0.02513682,-0.9821616,0.1848022
634795915813690000,0.08993158,0.01173021,-0.9736071,-1.14,-21.6,-41.16,157,59,5,0.4587796,0.1060473,0.08099936,3.516448,-0.04980492,-0.04621887,-0.02733406,0.02015298,-0.9820272,0.1856592
634795915813890000,0.0742913,0.01173021,-1.020528,-1.14,-21.6,-41.16,157,59,5,0.4055683,0.2156101,0.0926703,3.517586,-0.04171061,-0.04442954,-0.02571326,0.01633079,-0.9820112,0.1863497
634795915814090000,0.05083089,-0.003910068,-1.047898,-2.16,-21.48,-42.24,158,60,5,0.389605,-0.06428764,0.01603682,3.518375,-0.03407884,-0.0380882,-0.02189372,0.01316833,-0.9820471,0.1870077
634795915814290000,0.03519062,0,-1.094819,-2.16,-21.48,-42.24,160,62,5,0.4758072,-0.1866735,-0.07547217,3.518445,-0.02844953,-0.03654527,-0.02061036,0.01054809,-0.9820859,0.1870077
634795915814490000,0.03910068,0.01564027,-1.13783,-2.16,-21.48,-42.24,160,62,5,0.5385965,0.1049105,-0.05312727,3.514443,-0.01021647,-0.03764951,-0.01944389,0.001529991,-0.9825041,0.1852174
634795915814690000,0.04692082,0.01955034,-1.15738,-2.16,-21.48,-42.24,165,67,5,0.474743,0.287935,-0.02967867,3.512567,-0.001257181,-0.03327107,-0.01646531,-0.002450133,-0.9827117,0.1843895
634795915814910000,0.03128055,0.007820137,-1.17302,-2.16,-21.48,-42.24,165,67,5,0.2416777,0.2304669,-0.03815703,3.511357,0.00317812,-0.0291332,-0.01402574,-0.004239499,-0.9828482,0.1838336
634795915815090000,0.03128055,0.003910068,-1.196481,-2.16,-21.48,-42.24,165,67,5,-0.06274212,-0.0143409,-0.2201008,3.508386,0.004935503,-0.02648067,-0.01256788,-0.00484069,-0.9831348,0.1823858
634795915815290000,0.05474096,0.02346041,-1.290323,-2.16,-21.48,-42.24,165,67,5,-0.2904852,-0.2069648,-0.4946709,3.501497,0.002167702,-0.02815354,-0.01365502,-0.003585637,-0.9837518,0.1789794
634795915815490000,0.07038123,0.09384164,-1.376344,-2.16,-21.48,-42.24,165,67,5,-0.3309258,-0.1282075,-0.4595515,3.485727,-0.007375717,-0.03220332,-0.01649443,0.0008761124,-0.9851089,0.1711373
634795915815690000,0.05865103,0.1524927,-1.329423,-2.58,-21.66,-42.84,165,67,5,-0.1776725,0.1441915,-0.056175,3.484372,-0.01071167,-0.02923024,-0.01531363,0.002784319,-0.9852426,0.1704538
634795915815890000,0.02346041,0.1251222,-1.176931,-2.58,-21.66,-42.84,165,67,5,0.3629017,0.09731112,0.05236904,3.487862,-0.009075165,-0.02492774,-0.0130587,0.002322323,-0.9849733,0.1722001
634795915816100000,-0.003910068,0.02737048,-1.036168,-2.58,-21.66,-42.84,165,67,5,0.3629017,0.09731112,0.05236904,3.487823,-0.004210472,-0.02250552,-0.01144693,0.0001353204,-0.9849926,0.1722171
634795915816290000,0.02737048,0.01564027,-1.016618,-2.58,-21.66,-42.84,166,68,5,-0.336258,-0.2847651,-0.6074339,3.481808,-0.001369476,-0.02212691,-0.01101947,-0.001198088,-0.9855077,0.1692705
634795915816490000,0.05474096,0.0742913,-1.000978,-2.58,-22.62,-43.56,167,69,5,-0.6874523,-0.4699403,-0.376497,3.468839,-0.005341053,-0.02525651,-0.01289417,0.0005776836,-0.9865668,0.1628474
634795915816690000,0.04692082,0.1173021,-0.9501466,-2.58,-22.62,-43.56,168,70,5,-0.6076354,-0.2166547,-0.1753325,3.455261,-0.03008723,-0.03698111,-0.02060969,0.01196831,-0.9874897,0.1558726
634795915816890000,0.03128055,0.09384164,-0.8680352,-2.58,-22.62,-43.56,163,65,5,-0.1702123,0.1642461,-0.2987145,3.448702,-0.04520607,-0.03221214,-0.01936824,0.01986959,-0.9879085,0.1525334
634795915817090000,0.03519062,0.03910068,-0.8093842,-2.58,-22.62,-43.56,163,65,5,-0.1702123,0.1642461,-0.2987145,3.448702,-0.04520607,-0.03221214,-0.01936824,0.01986959,-0.9879085,0.1525334
634795915817290000,0.06256109,0.01564027,-0.8172043,-2.58,-22.62,-43.56,163,65,5,-0.2521343,-0.09650014,-0.3721461,3.441524,-0.04908537,-0.03109753,-0.01903499,0.02193958,-0.988416,0.1489639
634795915817490000,0.07820137,0.03128055,-0.8445748,-2.58,-22.62,-43.56,164,66,5,-0.458594,-0.2678404,-0.1976132,3.435439,-0.05461526,-0.03411698,-0.02086423,0.02450992,-0.9887818,0.1458586
634795915817690000,0.05865103,0.05083089,-0.8484849,-2.28,-23.28,-44.7,157,59,5,-0.5128695,-0.1795097,0.04933675,3.435099,-0.070508,-0.04137241,-0.02560259,0.03183764,-0.9885323,0.1453835
634795915817890000,0.01955034,0.03910068,-0.8211144,-2.28,-23.28,-44.7,157,59,5,-0.4011258,-0.01133914,0.117458,3.437356,-0.07793045,-0.04131937,-0.0261558,0.03548047,-0.9882424,0.1464039
634795915818090000,0.007820137,0.01955034,-0.7820137,-2.28,-23.28,-44.7,160,62,5,-0.08182836,0.2280871,-0.01874291,3.436542,-0.07945061,-0.03744364,-0.02433762,0.03652823,-0.9883012,0.1460636
634795915818290000,0.02737048,0.01955034,-0.7781036,-2.28,-23.28,-44.7,164,66,5,0.1821066,-0.03373576,-0.1144815,3.434756,-0.07780027,-0.03663385,-0.02378506,0.03579368,-0.9884662,0.1452174
634795915818490000,0.04692082,0.02737048,-0.8211144,-1.74,-22.62,-45.72,163,65,5,0.3076852,-0.2221036,-0.01015748,3.432938,-0.07229614,-0.04171896,-0.0258685,0.03272391,-0.988657,0.1442859
634795915818690000,0.03128055,0.02346041,-0.8602151,-1.74,-22.62,-45.72,163,65,5,0.3076852,0.03968769,0.06966047,3.433123,-0.06644654,-0.04436743,-0.02675817,0.02963675,-0.9887133,0.1444047
634795915818890000,0.007820137,0,-0.8680352,-1.74,-22.62,-45.72,161,63,5,0.1704001,0.3312639,0.08451237,3.434906,-0.0591712,-0.03572679,-0.021985,0.02664989,-0.9887515,0.1455215
634795915819090000,0.003910068,-0.02737048,-0.8758553,-1.74,-22.62,-45.72,164,66,5,0.08847161,-0.09764227,0.01742606,3.435195,-0.05840182,-0.03383601,-0.02099822,0.02640516,-0.9887537,0.1457026
634795915819290000,0.01955034,-0.02737048,-0.9266862,-1.74,-22.62,-45.72,167,69,5,0.3087662,-0.4403228,-0.02192164,3.434412,-0.05553698,-0.03724682,-0.02246587,0.02474744,-0.9888241,0.1452938
634795915819500000,0.02346041,-0.003910068,-1.036168,-1.74,-22.62,-45.72,167,69,5,0.477978,-0.2168355,0.08444597,3.433664,-0.04941607,-0.04510307,-0.02589696,0.02115597,-0.9888834,0.1448845
634795915819690000,0.01173021,0.003910068,-1.14565,-1.74,-22.62,-45.72,167,69,5,0.4417944,0.1439001,0.07163376,3.434694,-0.04062438,-0.04951763,-0.02745085,0.01647261,-0.988847,0.1454543
634795915819890000,-0.003910068,-0.01173021,-1.219941,-1.08,-22.2,-46.98,168,70,5,0.212986,0.2917976,0.02263257,3.435164,-0.03174901,-0.04572069,-0.02493079,0.01235618,-0.9889166,0.1458436
634795915820090000,0,-0.03128055,-1.259042,-1.08,-22.2,-46.98,170,72,5,0.1416368,0.1874759,-0.05717878,3.432652,-0.02578997,-0.03803193,-0.02068187,0.009998808,-0.9892036,0.1447358
634795915820290000,0.03128055,-0.007820137,-1.231672,-1.08,-22.2,-46.98,170,72,5,0.3427753,0.1661103,0.001375102,3.430802,-0.02059913,-0.03514742,-0.01887239,0.007658224,-0.9893836,0.1438921
634795915820500000,0.06256109,0.05474096,-1.16911,-1.08,-22.2,-46.98,171,73,5,0.4385556,0.1617828,0.005622958,3.430007,-0.01237059,-0.03197014,-0.01670695,0.003823217,-0.9894892,0.1435887
634795915820690000,0.07038123,0.05865103,-1.196481,-1.08,-22.2,-46.98,171,73,5,0.1873985,-0.02447168,-0.1401637,3.427806,-0.006608724,-0.03067553,-0.01565151,0.001082883,-0.9896637,0.1425507
634795915820890000,0.08211143,0.05865103,-1.286412,-0.48,-21.9,-48,167,69,5,-0.08933019,-0.2915766,-0.2944764,3.422856,-0.00706315,-0.03429043,-0.01746997,0.001093058,-0.989985,0.1400872
634795915821090000,0.08211143,0.1446725,-1.317693,-0.48,-21.9,-48,167,69,5,-0.2478993,-0.3724577,-0.2274302,3.416196,-0.01451421,-0.04513526,-0.02334576,0.00409838,-0.9903331,0.1366699
634795915821290000,0.08211143,0.1955034,-1.208211,-0.48,-21.9,-48,167,69,5,0.07984149,0.318212,0.2695735,3.419015,-0.01619649,-0.04451406,-0.02316015,0.004941304,-0.9901433,0.1380495
634795915821490000,0.08602151,0.1564027,-1.040078,-0.48,-21.9,-48,168,70,5,0.1724169,0.3980289,0.1929493,3.422739,-0.01518941,-0.03655374,-0.01915893,0.004957887,-0.9899606,0.1399458
634795915821690000,0.09775171,0.1055719,-0.9266862,-0.48,-21.9,-48,165,67,5,0.03512626,-0.2117835,0.05247781,3.424639,-0.01408911,-0.03114045,-0.01640704,0.004777196,-0.9898731,0.140922
634795915821890000,0.1055719,0.1055719,-0.9227762,-0.48,-21.9,-48,165,67,5,-0.1223489,-0.6417305,0.03544924,3.424819,-0.01511788,-0.03481865,-0.01830038,0.005025153,-0.9898297,0.1409846
634795915822090000,0.1094819,0.1368524,-0.9853373,0.54,-23.04,-48.24,164,66,5,-0.3415793,-0.52573,0.004591083,3.425328,-0.02637696,-0.05450892,-0.02883901,0.009197949,-0.9895514,0.1409716
634795915822290000,0.113392,0.1603128,-1.036168,0.54,-23.04,-48.24,163,65,5,-0.5693235,-0.3150133,0.03548713,3.42578,-0.03922629,-0.05777692,-0.03136403,0.01531637,-0.9893984,0.1409688
634795915822490000,0.09775171,0.1564027,-1.020528,0.54,-23.04,-48.24,164,66,5,-0.600186,-0.2937288,0.1525273,3.428483,-0.05174327,-0.06145036,-0.03409094,0.02120089,-0.9890453,0.142052
634795915822690000,0.06647116,0.1251222,-0.9501466,0.54,-23.04,-48.24,166,68,5,-0.3607354,-0.2767012,0.3025831,3.432027,-0.05811691,-0.06462299,-0.03615455,0.02406063,-0.9886767,0.1436422
634795915822900000,0.04301075,0.07820137,-0.8914956,0.54,-23.04,-48.24,166,68,5,-0.02126086,-0.09470907,0.2387296,3.436346,-0.06364918,-0.06386399,-0.03623452,0.02677234,-0.988304,0.1456897
634795915823090000,0.03519062,0.04692082,-0.8523949,1.14,-24.66,-48.9,169,71,5,0.04258999,0.05427608,0.1450669,3.438384,-0.06527781,-0.06068682,-0.03481203,0.02777643,-0.9881746,0.1467253
634795915823290000,0.04692082,0.04301075,-0.8172043,1.14,-24.66,-48.9,171,73,5,-0.405385,0.06376843,0.07043596,3.438594,-0.06746507,-0.05734181,-0.03332329,0.02910225,-0.9881683,0.1468543
634795915823490000,0.05865103,0.04692082,-0.7859238,1.14,-24.66,-48.9,171,73,5,-0.2744854,-0.1682136,0.1204274,3.438385,-0.07889128,-0.05517029,-0.03308565,0.03491237,-0.9880259,0.1466047
634795915823690000,0.05474096,0.05474096,-0.7781036,1.14,-24.66,-48.9,171,73,5,-0.002049679,-0.2086542,0.08847001,3.43952,-0.08235954,-0.05859386,-0.03505107,0.03635102,-0.9878423,0.1470311
634795915823900000,0.04692082,0.05865103,-0.7937439,1.14,-24.66,-48.9,167,69,5,0.2448238,0.1265416,0.06182756,3.43993,-0.08067154,-0.06037652,-0.03581439,0.03537678,-0.9878213,0.147224
634795915824100000,0.05083089,0.03519062,-0.797654,1.14,-24.66,-48.9,167,69,5,0.2182181,0.2318949,0.08200229,3.439791,-0.0764339,-0.05707288,-0.03386873,0.033533,-0.9879429,0.1473006
634795915824290000,0.05865103,0.003910068,-0.797654,1.14,-24.66,-48.9,168,70,5,0.05745253,0.06588752,0.06602295,3.439579,-0.07391381,-0.05367529,-0.03200172,0.03254535,-0.9880369,0.147307
634795915824490000,0.05083089,0,-0.8172043,1.14,-24.66,-48.9,168,70,5,-0.004306475,-0.210793,0.04900184,3.43954,-0.07356333,-0.0538739,-0.03207343,0.032358,-0.9880434,0.1472895
634795915824690000,0.03128055,0,-0.8680352,1.62,-25.26,-49.38,168,70,5,0.1095114,-0.201215,-0.04569791,3.437855,-0.07103252,-0.06120205,-0.0354804,0.03059064,-0.9881226,0.1463533
634795915824890000,0.02737048,0.007820137,-0.911046,1.62,-25.26,-49.38,168,70,5,0.2042029,-0.09051251,-0.0977927,3.434814,-0.06673598,-0.06333458,-0.03617612,0.02836457,-0.9883798,0.1448865
634795915825090000,0.05865103,0.02737048,-0.9814272,1.62,-25.26,-49.38,173,75,5,0.2584784,-0.2022385,-0.1094507,3.432301,-0.06297135,-0.06577503,-0.03707602,0.02637134,-0.9885805,0.1436682
634795915825290000,0.06256109,0.05083089,-1.067449,1.62,-25.26,-49.38,173,75,5,0.4064057,-0.4321111,-0.01051751,3.430254,-0.05583143,-0.07366467,-0.0404388,0.02230881,-0.9886932,0.1426596
634795915825490000,0.05865103,0.03910068,-1.1261,1.62,-25.26,-49.38,174,76,5,0.6926823,0.3809739,-0.1211671,3.428836,-0.04472136,-0.07450807,-0.0400507,0.01678376,-0.9888891,0.1421692
634795915825690000,0.08211143,0.01955034,-1.12219,2.34,-26.1,-49.26,172,74,5,0.6926823,0.3809739,-0.1211671,3.42283,-0.02505422,-0.0649122,-0.03388236,0.007848892,-0.9895873,0.1396685
634795915825890000,0.08211143,0.02737048,-1.110459,2.34,-26.1,-49.26,173,75,5,0.1637623,-0.266072,0.02359421,3.420914,-0.01921988,-0.06337404,-0.03270889,0.005101272,-0.9897631,0.1388292
634795915826090000,0.03910068,0.06256109,-1.14956,2.34,-26.1,-49.26,173,75,5,0.1328418,-0.511908,-0.1136737,3.42,-0.0168817,-0.06990707,-0.03577767,0.003505209,-0.9897282,0.1383727
634795915826300000,-0.01173021,0.1212121,-1.251222,2.34,-26.1,-49.26,171,73,5,0.2147872,-0.3831368,-0.4340055,3.414872,-0.01376295,-0.07879496,-0.0399559,0.001446953,-0.9899247,0.1358372
634795915826490000,-0.007820137,0.172043,-1.348974,2.34,-26.1,-49.26,171,73,5,0.06365505,-0.05640046,-0.6170522,3.403363,-0.01031136,-0.0837413,-0.04217218,-0.0003558412,-0.9905934,0.1301816
634795915826690000,0,0.2111437,-1.348974,2.7,-26.76,-49.44,175,77,5,-0.07891398,0.3735442,-0.2786286,3.393986,-0.009737252,-0.08371042,-0.04212201,-0.0004407651,-0.991193,0.1255483
634795915826890000,0,0.1876833,-1.219941,2.7,-26.76,-49.44,175,77,5,-0.09055554,0.6406647,-0.1668413,3.380389,-0.01420188,-0.06488383,-0.03304989,0.003183065,-0.9923614,0.1188201
634795915827090000,-0.003910068,0.1251222,-1.063539,2.7,-26.76,-49.44,177,79,5,-0.00966783,0.6566281,-0.200865,3.374355,-0.01548648,-0.05297351,-0.0272025,0.004612889,-0.9928812,0.1158706
634795915827290000,0.007820137,0.08602151,-1.008798,2.7,-26.76,-49.44,177,79,5,-0.0267049,0.2437087,-0.4232881,3.367627,-0.01634216,-0.04803991,-0.02478486,0.005407943,-0.9933227,0.1125452
634795915827500000,0.02346041,0.1016618,-1.075269,2.7,-26.76,-49.44,178,80,5,-0.2565374,-0.2979978,-0.5329033,3.355721,-0.01989627,-0.05062866,-0.02622815,0.007183183,-0.9939346,0.1065695
634795915827690000,0.01955034,0.1446725,-1.11437,4.08,-27.3,-48.9,179,81,5,-0.490667,-0.223502,-0.4743709,3.345051,-0.02868032,-0.05460655,-0.02861165,0.01148816,-0.9943966,0.1011159
634795915827890000,0.01173021,0.1446725,-1.043988,4.08,-27.3,-48.9,179,81,5,-0.5374929,0.3820009,-0.2966453,3.332604,-0.04489207,-0.05006086,-0.02704715,0.01994881,-0.994936,0.09474756
634795915828090000,0.01564027,0.1055719,-0.9462366,4.08,-27.3,-48.9,178,80,5,-0.1479597,0.135089,-0.4147743,3.323656,-0.05111479,-0.04312098,-0.0237851,0.02348377,-0.9953536,0.0903063
634795915828290000,0.03519062,0.08211143,-0.9423265,4.08,-27.3,-48.9,179,81,5,-0.1510824,-0.1490487,-0.4381873,3.314158,-0.05432701,-0.04252958,-0.0235163,0.02522132,-0.9957379,0.08554891
634795915828490000,0.07038123,0.08602151,-0.9892473,4.08,-27.3,-48.9,180,82,5,-0.2617618,-0.192682,-0.3232509,3.305649,-0.05879902,-0.04558706,-0.02511304,0.0274222,-0.9960032,0.08121181
634795915828690000,0.08211143,0.09775171,-0.9931574,4.08,-27.3,-48.9,180,82,5,-0.2000367,0.07762985,-0.1274271,3.301383,-0.06198239,-0.04778373,-0.02627431,0.02897291,-0.9961068,0.07901099
634795915828890000,0.08602151,0.08993158,-0.9227762,5.94,-28.02,-48.66,178,80,5,-0.08396181,0.4043276,-0.03379924,3.298333,-0.06617355,-0.04350448,-0.02426115,0.03126948,-0.9962065,0.07751147
634795915829090000,0.1016618,0.05865103,-0.8328446,5.94,-28.02,-48.66,178,80,5,-0.04033369,0.5299062,-0.04445586,3.293547,-0.06958771,-0.02397943,-0.01458789,0.03377454,-0.9964723,0.07543679
634795915829290000,0.113392,0.02737048,-0.7820137,5.94,-28.02,-48.66,177,79,5,-0.08610857,0.07015634,-0.02639649,3.292342,-0.07123017,-0.02271736,-0.01400019,0.03464932,-0.9964939,0.07484752
634795915829490000,0.113392,0.02737048,-0.8093842,5.94,-28.02,-48.66,176,78,5,-0.03824206,-0.3235945,0.02039898,3.292718,-0.07184696,-0.02820194,-0.01676222,0.03474593,-0.9964426,0.0749294
634795915829690000,0.1055719,0.04692082,-0.8836755,5.94,-28.02,-48.66,174,76,5,0.04048367,-0.2725117,0.02035513,3.293237,-0.07136083,-0.03211892,-0.01870432,0.03435018,-0.9964083,0.07512037
634795915829890000,0.1055719,0.06256109,-0.9227762,5.94,-28.02,-48.66,174,76,5,0.0128284,0.1148215,0.08521582,3.29366,-0.07046007,-0.03256965,-0.01890221,0.03388027,-0.9964055,0.07533123
634795915830090000,0.113392,0.05865103,-0.911046,7.74,-28.32,-48.84,177,79,5,-0.05955604,0.06584355,0.2139661,3.295392,-0.07060885,-0.03027737,-0.01779533,0.0340265,-0.9963501,0.07623465
634795915830290000,0.1094819,0.04692082,-0.911046,7.74,-28.32,-48.84,178,80,5,-0.05526136,-0.06182537,0.2309937,3.301389,-0.07276415,-0.03086805,-0.01827678,0.03502269,-0.9960771,0.07919146
634795915830490000,0.1055719,0.05083089,-0.9423265,7.74,-28.32,-48.84,177,79,5,-0.0307977,-0.06818582,0.2288653,3.303512,-0.07327437,-0.03127789,-0.0185385,0.03524076,-0.9959825,0.08023586
634795915830690000,0.113392,0.06256109,-0.9657869,7.74,-28.32,-48.84,178,80,5,-0.1775485,0.03181006,0.3884991,3.307881,-0.07537413,-0.02978408,-0.01795827,0.03630801,-0.9957758,0.08242088
634795915830890000,0.1173021,0.06647116,-0.9775171,7.74,-28.32,-48.84,178,80,5,-0.05301213,-0.08417463,0.3884991,3.313526,-0.07849836,-0.02871621,-0.01766234,0.0378584,-0.9954852,0.08522467
634795915831090000,0.1173021,0.08211143,-1.000978,9.12,-28.14,-49.68,180,82,5,0.167243,-0.1001112,0.4182974,3.319397,-0.07927131,-0.02717352,-0.01703988,0.03825991,-0.9952259,0.08817094
634795915831290000,0.1290323,0.1173021,-1.043988,9.12,-28.14,-49.68,180,82,5,0.1555209,-0.03732871,0.4278754,3.325357,-0.07665347,-0.02580416,-0.01635332,0.03696967,-0.9950138,0.09118546
634795915831490000,0.1290323,0.1173021,-1.055718,9.12,-28.14,-49.68,179,81,5,-0.0498551,0.1307686,0.5523897,3.336714,-0.07484865,-0.02062785,-0.01390185,0.03623182,-0.9945324,0.09694835
634795915831690000,0.1251222,0.113392,-1.040078,9.12,-28.14,-49.68,179,81,5,-0.1509495,0.04988528,0.5609035,3.344921,-0.07767057,-0.01820195,-0.01298724,0.03770051,-0.9940817,0.1010568
634795915831890000,0.1212121,0.1290323,-1.051808,9.12,-28.14,-49.68,178,80,5,-0.08065048,-0.1565314,0.549197,3.353196,-0.08013701,-0.01935315,-0.0138447,0.03881094,-0.993606,0.1051293
634795915832090000,0.1055719,0.1446725,-1.086999,9.12,-28.14,-49.68,179,81,5,0.06089296,-0.1714306,0.5279126,3.361091,-0.08032179,-0.02181506,-0.01523031,0.03871251,-0.9931721,0.1089989
634795915832290000,0.09384164,0.1368524,-1.083089,8.94,-28.44,-50.28,178,80,5,0.1310759,-0.07667834,0.5247198,3.368659,-0.07889462,-0.02300536,-0.01588701,0.0378786,-0.9927766,0.1127429
634795915832490000,0.09384164,0.1251222,-1.055718,8.94,-28.44,-50.28,178,80,5,0.1055155,0.02863835,0.3576365,3.378451,-0.07440566,-0.02109825,-0.01486216,0.03568613,-0.9922998,0.1176745
634795915832690000,0.08993158,0.1251222,-1.032258,8.94,-28.44,-50.28,179,81,5,-0.09135498,0.01479172,0.2991042,3.382033,-0.07410645,-0.02005935,-0.01439289,0.03557356,-0.9920959,0.1194736
634795915832890000,0.07820137,0.1290323,-1.016618,8.94,-28.44,-50.28,180,82,5,-0.247767,-0.1490925,0.2352506,3.384616,-0.0777204,-0.01970017,-0.01447886,0.03736911,-0.9918763,0.1207353
634795915833090000,0.07038123,0.1407625,-1.012708,8.94,-28.44,-50.28,181,83,5,-0.1423835,-0.1778265,0.07562204,3.385996,-0.08308244,-0.02062702,-0.01528966,0.03996141,-0.9916877,0.1213608
634795915833290000,0.07038123,0.1642229,-1.016618,8.28,-28.86,-50.7,180,82,5,-0.04866786,-0.0330732,-0.004153443,3.384408,-0.08602022,-0.0210228,-0.01563122,0.04140611,-0.991721,0.1205424
634795915833490000,0.07820137,0.1876833,-1.028348,8.28,-28.86,-50.7,180,82,5,-0.08165362,-0.03093911,-0.04348433,3.381492,-0.08803462,-0.01972651,-0.01504801,0.04250571,-0.9918569,0.1191094
634795915833690000,0.08993158,0.1955034,-1.032258,8.28,-28.86,-50.7,180,82,5,-0.1316795,-0.05754931,-0.04025217,3.376324,-0.09409332,-0.01850641,-0.01468598,0.04562151,-0.9920301,0.1165298
634795915833890000,0.09775171,0.1955034,-1.016618,8.28,-28.86,-50.7,180,82,5,-0.1412479,-0.007521154,-0.004038294,3.373943,-0.09846115,-0.01692498,-0.01409919,0.04789756,-0.9920701,0.1153556
634795915834090000,0.1055719,0.1915933,-1.004888,8.28,-28.86,-50.7,180,82,5,-0.1763183,0.112775,0.03005203,3.371934,-0.1034675,-0.01334405,-0.01256118,0.05060122,-0.9920635,0.1144172
634795915834290000,0.1173021,0.1798632,-1.004888,8.28,-28.86,-50.7,180,82,5,-0.04742079,0.07015111,-0.07203238,3.368926,-0.1082318,-0.009225726,-0.01071125,0.05321741,-0.9921108,0.1130069
634795915834490000,0.1290323,0.1915933,-1.004888,6.96,-29.46,-51.36,176,78,5,0.08024526,0.1190593,0.07480813,3.365945,-0.1111026,-0.005963922,-0.00917389,0.05484018,-0.9921948,0.1116035
634795915834690000,0.1485826,0.2111437,-1.000978,6.96,-29.46,-51.36,176,78,5,0.1834304,-0.002260903,0.1460684,3.365848,-0.1109521,-0.0002139807,-0.006310327,0.05508755,-0.9921932,0.1117145
634795915834890000,0.1524927,0.2072336,-1.016618,6.96,-29.46,-51.36,174,76,5,0.2887887,-0.02244297,0.217368,3.368025,-0.1085484,0.002034426,-0.00511936,0.05401507,-0.9921286,0.1128628
634795915835090000,0.1329423,0.1876833,-1.028348,6.96,-29.46,-51.36,174,76,5,0.2408985,0.06057382,0.2439737,3.371013,-0.1063213,0.005706549,-0.003251259,0.0531124,-0.9920034,0.114447
634795915835290000,0.1290323,0.1603128,-1.016618,6.96,-29.46,-51.36,173,75,5,0.1791735,0.0733043,0.2141753,3.373573,-0.1047344,0.00926137,-0.001464368,0.05252628,-0.9918813,0.1158111
634795915835490000,0.1290323,0.1329423,-1.000978,6.96,-29.46,-51.36,172,74,5,0.1429557,0.04453786,0.2003404,3.375056,-0.1030121,0.01019192,-0.0009414903,0.05172502,-0.9918342,0.1165713
634795915835690000,0.1251222,0.1212121,-1.008798,5.82,-29.88,-51.36,172,74,5,-0.0007304697,-0.07252786,0.1120044,3.37705,-0.1023505,0.0130353,0.0004558604,0.0515623,-0.9917178,0.1176318
634795915835890000,0.1251222,0.1368524,-1.028348,5.82,-29.88,-51.36,172,74,5,-0.1252311,-0.02888186,0.01087129,3.376393,-0.1080298,0.01617825,0.001698053,0.05456125,-0.9915833,0.1173901
634795915836090000,0.1212121,0.1485826,-1.020528,5.82,-29.88,-51.36,172,74,5,-0.2816624,0.1349982,0.04913944,3.376441,-0.1135683,0.02063656,0.003581971,0.05756662,-0.9913911,0.117541
634795915836290000,0.1212121,0.1290323,-1.000978,5.82,-29.88,-51.36,173,75,5,0.1610273,0.04457702,0.07040702,3.377627,-0.1150844,0.02423465,0.005241816,0.05853058,-0.9912455,0.118232
634795915836490000,0.1251222,0.1212121,-1.016618,6.3,-30.66,-51.72,174,76,5,0.1610273,0.04457702,0.07040702,3.377256,-0.1130278,0.02561784,0.006059784,0.05759091,-0.9913135,0.1180802
634795915836700000,0.1212121,0.1407625,-1.059628,6.3,-30.66,-51.72,173,75,5,0.7729567,-0.11925,-0.03274438,3.374911,-0.1041622,0.025092,0.006384724,0.05315784,-0.9917009,0.1168768
634795915836890000,0.1094819,0.1446725,-1.043988,6.3,-30.66,-51.72,173,75,5,0.8815077,0.09998229,0.04172073,3.373169,-0.09222507,0.02406168,0.00661225,0.04717259,-0.9921126,0.1159489
634795915837090000,0.1094819,0.1055719,-0.9775171,6.3,-30.66,-51.72,174,76,5,0.8815077,0.09998229,0.04172073,3.374702,-0.06727767,0.02906203,0.010513,0.03508961,-0.9924914,0.1166983
634795915837300000,0.1016618,0.03128055,-0.9540567,6.3,-30.66,-51.72,174,76,5,-0.5147647,-0.2309841,0.1779416,3.377923,-0.07063508,0.02814996,0.009805318,0.03671878,-0.9922509,0.1182989
634795915837490000,0.08602151,0.007820137,-0.9814272,6.3,-30.66,-51.72,175,77,5,-0.7691144,-0.3065441,0.02357697,3.378421,-0.0805316,0.02612352,0.008204196,0.04151135,-0.9920449,0.1185537
634795915837690000,0.07038123,0.05474096,-1.016618,6.3,-30.66,-51.72,175,77,5,-0.2955343,-0.1958646,-0.1307191,3.376548,-0.09025574,0.02154756,0.005401191,0.04606051,-0.9919817,0.1175642
634795915837890000,0.08211143,0.1055719,-1.012708,6.48,-31.32,-51,177,79,5,0.2642688,0.2681392,-0.04450226,3.373149,-0.09083103,0.02124142,0.005294254,0.04631902,-0.99217,0.1158732
634795915838090000,0.113392,0.09384164,-0.9775171,6.48,-31.32,-51,178,80,5,0.3887832,0.2191849,0.08532225,3.370913,-0.08407307,0.02688479,0.008534401,0.04328103,-0.9924024,0.114859
634795915838290000,0.1212121,0.04301075,-0.9579667,6.48,-31.32,-51,177,79,5,0.08547848,0.03720077,0.2002586,3.373021,-0.07924747,0.03169775,0.01115684,0.04117193,-0.9923366,0.1159744
634795915838490000,0.1094819,0.01564027,-0.9579667,6.48,-31.32,-51,177,79,5,-0.3337902,0.02337734,0.04379746,3.372957,-0.08448935,0.03364944,0.01182266,0.04388411,-0.9922081,0.1160107
634795915838690000,0.1016618,0.03910068,-0.9618768,6.48,-31.32,-51,177,79,5,-0.5508921,-0.02236508,-0.06902637,3.371019,-0.09255481,0.0347954,0.01196968,0.04793911,-0.9921226,0.1151216
634795915838890000,0.113392,0.0742913,-0.9853373,6.48,-31.32,-51,175,77,5,-0.4625614,-0.2958709,-0.007309615,3.369759,-0.09997939,0.03173816,0.0100581,0.05144199,-0.9920449,0.1144669
634795915839090000,0.1251222,0.08602151,-1.016618,6.18,-31.86,-50.7,175,77,5,-0.1443322,-0.2501093,0.08739132,3.370157,-0.1035602,0.02744353,0.007143162,0.05265145,-0.9919123,0.1152655
634795915839290000,0.1173021,0.0742913,-1.020528,6.18,-31.86,-50.7,175,77,5,0.07806912,0.1064174,0.172519,3.372855,-0.1015582,0.02807998,0.008072318,0.05203107,-0.9918626,0.1159216
634795915839490000,0.1094819,0.05865103,-0.9970675,6.18,-31.86,-50.7,174,76,5,-0.1390523,0.005270292,0.1352683,3.374644,-0.1004107,0.031533,0.009805411,0.05166841,-0.9917516,0.1168872
634795915839690000,0.113392,0.03519062,-0.9892473,6.18,-31.86,-50.7,173,75,5,-0.3561542,-0.103279,0.05862839,3.375493,-0.103518,0.03228497,0.009974098,0.0532568,-0.9916125,0.1173414
634795915839890000,0.1251222,0.03128055,-1.012708,6.18,-31.86,-50.7,174,76,5,-0.4455491,-0.09685744,0.02348374,3.375242,-0.1095736,0.0317384,0.009354788,0.05622616,-0.9914673,0.1172328
634795915840090000,0.1329423,0.05865103,-1.024438,6.18,-31.86,-50.7,174,76,5,-0.3231632,-0.1734637,0.1309247,3.375261,-0.1153696,0.03075755,0.008528216,0.05904265,-0.9913111,0.1172415
634795915840290000,0.1212121,0.08993158,-1.020528,5.94,-32.16,-50.52,174,76,5,-0.01026912,-0.0137919,0.1500595,3.37723,-0.1168358,0.03025448,0.008134028,0.05974827,-0.991155,0.1182093
634795915840490000,0.1251222,0.07038123,-1.008798,5.94,-32.16,-50.52,173,75,5,0.1631468,0.06602702,0.1404177,3.379763,-0.1117838,0.03428912,0.01036,0.05749259,-0.9911076,0.1195517
634795915840690000,0.1329423,0.03910068,-1.004888,5.94,-32.16,-50.52,173,75,5,0.082193,0.01387978,0.1116825,3.38061,-0.1099777,0.03607023,0.01132679,0.05670718,-0.9910873,0.1200089
634795915840890000,0.1368524,0.03128055,-1.028348,5.94,-32.16,-50.52,173,75,5,-0.2158026,-0.01591448,0.05845003,3.380715,-0.1127667,0.03718936,0.01171105,0.0581558,-0.9909868,0.1201068
634795915841090000,0.1290323,0.05865103,-1.043988,5.94,-32.16,-50.52,173,75,5,-0.3722437,3.601509E-05,0.06370805,3.381113,-0.1181111,0.03869236,0.01212265,0.06089474,-0.990784,0.1203772
634795915841290000,0.113392,0.0742913,-1.028348,5.16,-32.1,-50.04,171,73,5,-0.07639869,0.03623819,0.1924483,3.38251,-0.1203549,0.0397296,0.01245829,0.0620762,-0.9906181,0.1211123
634795915841490000,0.113392,0.07038123,-1.016618,5.16,-32.1,-50.04,171,73,5,0.1694069,0.02664186,0.1700996,3.385093,-0.1217966,0.04087269,0.01285615,0.06287482,-0.9904003,0.1224335
634795915841710000,0.1251222,0.04692082,-1.016618,5.16,-32.1,-50.04,173,75,5,0.1832418,0.05747395,0.1030222,3.388326,-0.1145072,0.04456949,0.01503764,0.05951083,-0.9903712,0.1240871
634795915841890000,0.1290323,0.04301075,-1.016618,5.16,-32.1,-50.04,173,75,5,-0.001944431,0.06381471,-0.01297619,3.387871,-0.1123319,0.04680777,0.01629467,0.05856598,-0.9904304,0.1239047
634795915842090000,0.1290323,0.05865103,-1.008798,5.16,-32.1,-50.04,172,74,5,0.007648388,0.01268614,0.0795981,3.387513,-0.1118355,0.04808223,0.0169673,0.05839447,-0.9904488,0.1237565
634795915842290000,0.1173021,0.07038123,-1.012708,4.86,-31.44,-50.34,171,73,5,0.1629929,-0.06289907,0.0689202,3.388,-0.1094847,0.04899644,0.01755164,0.05728978,-0.9904714,0.1240013
634795915842490000,0.1016618,0.08211143,-1.012708,4.86,-31.44,-50.34,171,73,5,0.1757636,0.01263941,0.1221017,3.388838,-0.1050565,0.04942751,0.01801664,0.0551304,-0.9905372,0.1243876
634795915842690000,0.1016618,0.07038123,-0.9892473,4.86,-31.44,-50.34,173,75,5,0.1554642,0.0466495,0.1561249,3.391618,-0.09855103,0.05274415,0.0199921,0.05213805,-0.9904853,0.1257814
634795915842900000,0.113392,0.04301075,-0.9853373,4.86,-31.44,-50.34,173,75,5,0.1820698,-0.05128604,0.1230994,3.392743,-0.09477925,0.05284929,0.02025305,0.05028795,-0.9905095,0.1263028
634795915843090000,0.1094819,0.05083089,-1.004888,4.86,-31.44,-50.34,173,75,5,0.1340376,-0.1427637,0.0272991,3.392918,-0.09168124,0.05172777,0.01988881,0.04868593,-0.9905932,0.1263342
634795915843290000,0.09384164,0.0742913,-1.008798,5.34,-31.5,-50.28,173,75,5,0.1340376,-0.1427637,0.0272991,3.392781,-0.08824682,0.05001771,0.01926158,0.04687741,-0.9907106,0.1261972
634795915843490000,0.09384164,0.07038123,-1.000978,5.34,-31.5,-50.28,173,75,5,0.296864,-0.1693311,0.1134895,3.393116,-0.08429002,0.04890155,0.01895057,0.04485116,-0.9907959,0.1263034
634795915843690000,0.09384164,0.04692082,-0.9931574,5.34,-31.5,-50.28,173,75,5,0.3224054,-0.1746522,0.08156001,3.393898,-0.07904959,0.04723119,0.01843721,0.04215823,-0.9908848,0.1266108
634795915843890000,0.08602151,0.04301075,-0.9892473,5.34,-31.5,-50.28,175,77,5,0.2489739,-0.150175,0.05497555,3.394563,-0.06787205,0.04271567,0.01689426,0.03634332,-0.9911239,0.1267655
634795915844090000,0.08211143,0.04301075,-0.9931574,5.34,-31.5,-50.28,174,76,5,0.2276894,-0.1544319,0.04541412,3.394387,-0.06423855,0.04098845,0.01627137,0.03443289,-0.9912195,0.1266222
634795915844290000,0.09384164,0.03128055,-1.000978,5.34,-31.5,-50.28,175,77,5,0.098866,-0.07459234,-0.009903873,3.393625,-0.06035686,0.03954148,0.01581215,0.03241231,-0.9913495,0.1261931
634795915844490000,0.1094819,0.03519062,-1.004888,5.34,-31.5,-50.28,175,77,5,0.07433061,-0.07673016,-0.03862507,3.391942,-0.05868315,0.03882277,0.015588,0.03152468,-0.9914909,0.1253355
634795915844690000,0.1055719,0.04301075,-1.012708,5.76,-31.86,-49.68,176,78,5,0.1721898,-0.1022774,-0.05032921,3.389984,-0.05619716,0.03780818,0.01527028,0.03021423,-0.991663,0.1243323
634795915844890000,0.1055719,0.03519062,-1.008798,5.76,-31.86,-49.68,174,76,5,0.2073093,-0.08204395,-0.02586948,3.386521,-0.04933453,0.03610528,0.01489848,0.02668052,-0.9919921,0.122543
634795915845110000,0.1094819,0.03128055,-0.9853373,5.76,-31.86,-49.68,174,76,5,0.06466425,-0.08308859,-0.0003427686,3.385146,-0.04692745,0.03606951,0.01504574,0.02547416,-0.9921097,0.1218426
634795915845290000,0.1016618,0.03128055,-0.9775171,5.76,-31.86,-49.68,174,76,5,0.009301662,-0.1192595,-0.004599456,3.384004,-0.04626918,0.03519595,0.01466681,0.02508633,-0.9921957,0.1212622
634795915845490000,0.09384164,0.03128055,-0.9892473,5.76,-31.86,-49.68,174,76,5,0.0390905,-0.1267086,-0.02587811,3.382692,-0.04551649,0.03365445,0.01396373,0.02461098,-0.992299,0.1205899
634795915845690000,0.1094819,0.03128055,-1.000978,5.64,-32.4,-49.38,174,76,5,-0.00882039,-0.0266902,-0.02477632,3.381358,-0.04483318,0.03328681,0.01383867,0.02424065,-0.9923908,0.1199197
634795915845890000,0.1173021,0.03128055,-1.004888,5.64,-32.4,-49.38,175,77,5,-0.08971768,0.005201969,0.01570351,3.379962,-0.04532647,0.03409624,0.01422795,0.02452373,-0.9924619,0.1192381
634795915846090000,0.1055719,0.03128055,-1.008798,5.64,-32.4,-49.38,174,76,5,0.02307103,-0.07569,0.01147215,3.378401,-0.04475713,0.03444326,0.01445304,0.02425045,-0.9925571,0.1184631
634795915846300000,0.08602151,0.02346041,-1.000978,5.64,-32.4,-49.38,174,76,5,0.1028468,-0.07566393,0.03704857,3.378139,-0.04327583,0.03425074,0.01444829,0.0235021,-0.992592,0.1183204
634795915846490000,0.08602151,0.007820137,-0.9970675,5.64,-32.4,-49.38,173,75,5,-0.04512909,-0.0873187,-0.06610964,3.377321,-0.04249644,0.03334725,0.01405536,0.02305646,-0.9926585,0.1179003
634795915846690000,0.09384164,0.01173021,-1.020528,5.64,-32.4,-49.38,174,76,5,-0.02703525,-0.008581354,-0.04797003,3.375227,-0.04285717,0.03256202,0.01366862,0.02317517,-0.9927855,0.1168555
634795915846890000,0.1016618,0.02346041,-1.028348,5.7,-33.3,-49.14,176,78,5,-0.02703525,-0.008581354,-0.04797003,3.373151,-0.04285025,0.03322136,0.01402038,0.02319552,-0.9928986,0.1158317
634795915847090000,0.09384164,0.02737048,-0.9931574,5.7,-33.3,-49.14,176,78,5,0.05171199,0.146715,-0.006430988,3.371706,-0.04152655,0.03649914,0.01574087,0.02271557,-0.9929653,0.1151357
634795915847290000,0.08993158,0.02346041,-0.9657869,5.7,-33.3,-49.14,175,77,5,-0.1249,-0.07258109,0.04253508,3.370447,-0.04264068,0.04148352,0.01816633,0.02354231,-0.9929697,0.1145662
634795915847490000,0.09384164,0.01955034,-0.9814272,5.7,-33.3,-49.14,175,77,5,-0.148273,-0.05654928,0.02338147,3.370114,-0.0445745,0.0409019,0.01777083,0.02446635,-0.992973,0.1144128
634795915847690000,0.08993158,0.02737048,-1.008798,5.7,-33.3,-49.14,175,77,5,-0.136499,0.05631212,0.002134959,3.369241,-0.04694509,0.04111182,0.01775065,0.02564751,-0.9929891,0.1140028
634795915847890000,0.1016618,0.03519062,-1.008798,5.7,-33.3,-49.14,175,77,5,-0.07792246,0.0680088,0.03404628,3.368114,-0.04865002,0.04331815,0.01876398,0.02660803,-0.9930065,0.1134819
634795915848090000,0.1094819,0.03910068,-0.9931574,5.58,-33.06,-48.72,175,77,5,0.002973028,-0.1000846,0.0191102,3.367412,-0.04955911,0.045151,0.01963204,0.02715558,-0.9930109,0.1131623
634795915848290000,0.113392,0.03519062,-1.008798,5.58,-33.06,-48.72,175,77,5,0.135992,-0.2118282,-0.01071301,3.366913,-0.0494945,0.04479134,0.01946384,0.02709842,-0.993045,0.11291
634795915848490000,0.113392,0.03910068,-1.040078,5.58,-33.06,-48.72,175,77,5,0.2158089,-0.1894795,-0.03840191,3.364397,-0.04312825,0.0390538,0.01700349,0.02359493,-0.9933352,0.1115429
634795915848690000,0.1055719,0.04301075,-1.040078,5.58,-33.06,-48.72,174,76,5,0.08062027,0.1085014,0.07756213,3.364159,-0.04110456,0.03981816,0.01749862,0.02263007,-0.9933617,0.1114147
