Timestamp,Acc.X,Acc.Y,Acc.Z,Comp.X,Comp.Y,Comp.Z,Comp.TrueHeading,Comp.MagneticHeading,Comp.HeadingAccuracy,Gyro.X,Gyro.Y,Gyro.Z,Motion.Yaw,Motion.Pitch,Motion.Roll,Motion.X,Motion.Y,Motion.Z,Motion.W
634795921311880000,0.1055719,0.06256109,-0.9853373,0,0,0,0,0,0,0,0,0,0,0,0,0,0,0,0
634795921312080000,0.1055719,0.06256109,-0.9970675,0,0,0,0,0,0,0,0,0,0,0,0,0,0,0,0
634795921312280000,0.1173021,0.05474096,-0.9970675,0,0,0,0,0,0,0,0,0,0,0,0,0,0,0,0
634795921312480000,0.1173021,0.05474096,-0.9853373,0,0,0,0,0,0,0,0,0,0,0,0,0,0,0,0
634795921312680000,0.113392,0.05865103,-0.9814272,0,0,0,0,0,0,0,0,0,0,0,0,0,0,0,0
634795921312880000,0.1094819,0.04692082,-0.9931574,0,0,0,0,0,0,0.1053834,-0.3241508,-0.1180911,0,0,0,0,0,0,0
634795921313080000,0.1016618,0.05865103,-1.024438,0,0,0,0,0,0,0.07130853,-0.244334,-0.06911552,0,0,0,0,0,0,0
634795921313280000,0.1055719,0.07820137,-1.043988,-30.96,-14.46,-11.1,169,71,5,0.03513179,-0.05063498,0.07349682,0,0,0,0,0,0,0
634795921313480000,0.113392,0.07820137,-1.036168,-2.88,17.04,-40.2,18,280,5,0.07131512,0.003629855,0.1394481,0,0,0,0,0,0,0
634795921313680000,0.1055719,0.05865103,-1.016618,-3.9,16.74,-39.12,23,285,5,0.06491286,0.05041352,0.1724249,0,0,0,0,0,0,0
634795921313880000,0.08993158,0.03910068,-1.000978,-3.9,16.74,-39.12,23,285,5,0.04467608,0.0003735416,0.1170592,0,0,0,0,0,0,0
634795921314080000,0.0742913,0.03519062,-0.9931574,-3.9,16.74,-39.12,22,284,5,0.07233434,-0.1028123,-0.01170834,0,0,0,0,0,0,0
634795921314280000,0.08993158,0.03910068,-0.9970675,-3.9,16.74,-39.12,19,281,5,0.0233803,-0.1177064,-0.005278188,0,0,0,0,0,0,0
634795921314480000,0.1290323,0.05474096,-1.008798,-3.9,16.74,-39.12,19,281,5,-0.03194685,-0.09320782,0.09796006,0,0,0,0,0,0,0
634795921314680000,0.1329423,0.05474096,-1.012708,-3.9,16.74,-39.12,19,281,5,0.03296929,-0.07404274,0.1756218,0,0,0,0,0,0,0
634795921314880000,0.1016618,0.04301075,-1.016618,-3.6,15.36,-39.72,26,288,5,0.111706,-0.02297865,0.1383406,0,0,0,0,0,0,0
634795921315080000,0.08993158,0.03519062,-1.008798,-3.6,15.36,-39.72,26,288,5,0.07019514,0.07807836,0.0999838,5.912274,-0.04383588,0.101214,-0.01218743,0.05374213,-0.1830241,0.9815628
634795921315280000,0.09384164,0.03128055,-0.9892473,-3.6,15.36,-39.72,22,284,5,0.04145531,0.06423875,0.08504026,5.905012,-0.04331803,0.1046461,-0.01141421,0.05542012,-0.1865484,0.980815
634795921315480000,0.1016618,0.03128055,-0.9853373,-3.6,15.36,-39.72,22,284,5,0.03718926,-0.03150342,0.07649475,5.903163,-0.04109788,0.1030308,-0.01042752,0.05443081,-0.1875404,0.9806922
634795921315680000,0.09384164,0.03128055,-1.008798,-3.6,15.36,-39.72,21,283,5,0.0201657,-0.007023792,0.05515469,5.903208,-0.03920602,0.1016859,-0.009628526,0.05359397,-0.1875896,0.980737
634795921315880000,0.08993158,0.02346041,-1.012708,-3.06,15.9,-39.42,20,282,5,-0.003227567,0.08340918,-0.04914374,5.904567,-0.03768373,0.1017251,-0.008914717,0.05346436,-0.1869628,0.9808705
634795921316080000,0.1016618,0.02737048,-1.004888,-3.06,15.9,-39.42,18,280,5,-0.06916472,0.10358,-0.06083893,5.906372,-0.03703284,0.1025014,-0.008570663,0.05377638,-0.1860846,0.9810236
634795921316280000,0.1055719,0.04301075,-0.9970675,-3.06,15.9,-39.42,18,280,5,-0.08614614,0.0854364,0.01047437,5.908671,-0.03688192,0.1029993,-0.008511958,0.05399669,-0.1849533,0.9812258
634795921316480000,0.1016618,0.04301075,-0.9892473,-3.06,15.9,-39.42,17,279,5,-0.0031337,0.02793303,0.06049253,5.912828,-0.03636241,0.1039083,-0.00828531,0.05437736,-0.1829153,0.9815888
634795921316700000,0.09384164,0.03519062,-0.9853373,-3.06,15.9,-39.42,20,282,5,0.0532515,-0.05083773,0.0317511,5.915457,-0.03616881,0.1040137,-0.008251965,0.05440056,-0.1816287,0.9818266
634795921316880000,0.09384164,0.03128055,-0.9892473,-3.06,15.9,-39.42,20,282,5,0.05217068,-0.07531639,-0.01720368,5.917836,-0.03578329,0.1016922,-0.008338998,0.05321638,-0.1805021,0.9820985
634795921317080000,0.1016618,0.03910068,-1.004888,-3.06,15.9,-39.42,20,282,5,0.02343032,-0.0359439,-0.01082312,5.919812,-0.03550386,0.1000328,-0.008404759,0.05236827,-0.1795614,0.982316
634795921317280000,0.113392,0.04692082,-1.016618,-2.94,16.14,-39.42,18,280,5,0.02236503,0.04597196,0.05514299,5.923003,-0.03519034,0.1000695,-0.008331012,0.05234493,-0.1780013,0.9826018
634795921317480000,0.113392,0.05474096,-1.016618,-2.94,16.14,-39.42,18,280,5,0.08619651,0.04592822,0.1189675,5.926086,-0.0345614,0.1009254,-0.008026272,0.05269705,-0.1764922,0.9828576
634795921317680000,0.1055719,0.05083089,-1.020528,-2.94,16.14,-39.42,18,280,5,0.07658017,0.1065354,0.1487112,5.927987,-0.03416681,0.1020288,-0.007784645,0.05319687,-0.1755539,0.9830007
634795921317880000,0.09775171,0.02737048,-1.008798,-2.94,16.14,-39.42,20,282,5,0.06059147,0.137345,0.09864616,5.929009,-0.03541088,0.1048044,-0.008178047,0.05466564,-0.1749815,0.9830189
634795921318080000,0.09775171,0.01564027,-0.9892473,-2.1,16.02,-39.84,17,279,5,0.01375875,0.09793181,0.01561543,5.930959,-0.03817272,0.1072094,-0.009377378,0.0560797,-0.1739142,0.983118
634795921318280000,0.1016618,0.02737048,-0.9853373,-2.1,16.02,-39.84,17,279,5,0.009500782,-0.007445961,0.01348272,5.93347,-0.037462,0.1065214,-0.009158531,0.05566832,-0.1727089,0.9833559
634795921318480000,0.09384164,0.03910068,-0.9892473,-2.1,16.02,-39.84,17,279,5,0.02333784,0.02445717,0.07624849,5.938305,-0.03539252,0.1054885,-0.008364041,0.05496184,-0.1704024,0.983805
634795921318680000,0.09384164,0.03128055,-0.9892473,-2.1,16.02,-39.84,16,278,5,0.04249379,0.01166593,0.03047829,5.942775,-0.03359795,0.1056321,-0.007591497,0.0548627,-0.1682508,0.9841871
634795921318880000,0.09775171,0.01564027,-0.9853373,-2.1,16.02,-39.84,16,278,5,0.03610503,-0.02239342,-0.04188806,5.946754,-0.03300333,0.1049968,-0.007461363,0.05448542,-0.166316,0.9845378
634795921319080000,0.1055719,0.01955034,-0.9892473,-2.1,16.02,-39.84,15,277,5,-0.07243125,0.02762388,-0.09827603,5.949765,-0.03273558,0.1037753,-0.007513253,0.05385073,-0.1648562,0.9848178
634795921319280000,0.1173021,0.03128055,-0.9853373,-2.1,16.02,-39.84,15,277,5,-0.1702852,0.01804884,-0.09186631,5.953474,-0.03436637,0.1036602,-0.008425786,0.05391299,-0.1629874,0.985118
634795921319480000,0.1290323,0.04301075,-1.000978,-1.98,16.32,-39.72,14,276,5,-0.17767,-0.05005827,-0.08969668,5.955013,-0.03600144,0.1038345,-0.009258508,0.05412489,-0.162183,0.9852317
634795921319680000,0.1251222,0.05865103,-1.020528,-1.98,16.32,-39.72,17,279,5,-0.1903988,0.009511201,-0.07261576,5.953666,-0.03890085,0.1053445,-0.01052582,0.05511069,-0.1627467,0.9850714
634795921319880000,0.1173021,0.06256109,-1.016618,-1.98,16.32,-39.72,19,281,5,-0.1637557,0.1658876,-0.03000322,5.952078,-0.04126,0.108083,-0.0114171,0.05665993,-0.1634238,0.9848614
634795921320090000,0.1173021,0.06256109,-0.9853373,-1.98,16.32,-39.72,19,281,5,-0.01899448,0.1211213,0.02959914,5.949981,-0.04648661,0.1143899,-0.01340484,0.06020489,-0.1642067,0.9844958
634795921320280000,0.1251222,0.05474096,-0.9775171,-1.98,16.32,-39.72,19,281,5,0.05549915,-0.1119585,0.05405758,5.950213,-0.04741191,0.1120746,-0.01406039,0.05914,-0.1641024,0.9845685
634795921320480000,0.1251222,0.03910068,-0.9853373,-1.86,15.96,-39.6,18,280,5,0.05974625,-0.18539,0.05721503,5.949892,-0.04761767,0.1104122,-0.01429089,0.05834119,-0.1642814,0.984583
634795921320680000,0.1251222,0.03519062,-1.012708,-1.86,15.96,-39.6,20,282,5,0.02142819,-0.2077388,-0.01623938,5.947912,-0.04758787,0.1084626,-0.01438209,0.05739363,-0.1652887,0.9844688
634795921320880000,0.1290323,0.05083089,-1.028348,-1.86,15.96,-39.6,19,281,5,-0.09026607,0.09127392,-0.01944143,5.946302,-0.0476489,0.1094456,-0.01428296,0.05789379,-0.1660634,0.9843106
634795921321080000,0.1329423,0.05865103,-1.020528,-1.86,15.96,-39.6,19,281,5,0.02999467,0.06040107,0.0305282,5.945776,-0.0474236,0.11239,-0.01390825,0.0593272,-0.1662806,0.9841939
634795921321290000,0.1407625,0.05474096,-1.020528,-1.86,15.96,-39.6,18,280,5,0.2045141,0.02741243,0.0506859,5.945552,-0.04335236,0.1159533,-0.01159718,0.06074256,-0.1664561,0.9841079
634795921321480000,0.1446725,0.04692082,-0.9970675,-1.86,15.96,-39.6,18,280,5,0.09595355,0.4030407,0.09746519,5.944392,-0.04096103,0.1213782,-0.009925848,0.06321737,-0.1670176,0.9838751
634795921321680000,0.1407625,0.02737048,-0.9579667,-1.56,16.32,-39.42,19,281,5,-0.8809952,-0.1195129,-0.007921508,5.944976,-0.05702281,0.1283418,-0.0172549,0.06797442,-0.166083,0.9836149
634795921321880000,0.1290323,0.02737048,-0.9618768,-1.56,16.32,-39.42,19,281,5,-0.8809952,-0.1195129,-0.007921508,5.944976,-0.05702281,0.1283418,-0.0172549,0.06797442,-0.166083,0.9836149
634795921322080000,0.1290323,0.05865103,-1.004888,-1.56,16.32,-39.42,20,282,5,-0.6894346,-0.01518957,-0.05364594,5.943998,-0.06848121,0.1290942,-0.02279202,0.06930567,-0.1661552,0.9833971
634795921322280000,0.1564027,0.08993158,-1.024438,-1.56,16.32,-39.42,20,282,5,-0.2158544,0.0603685,-0.01211009,5.944301,-0.07226014,0.1303425,-0.02455425,0.07022899,-0.1658459,0.9833413
634795921322480000,0.1681329,0.08993158,-1.032258,-1.56,16.32,-39.42,18,280,5,0.07469096,-0.1535517,0.02408634,5.94415,-0.07258058,0.130692,-0.02467667,0.07042912,-0.1659007,0.9833147
634795921322680000,0.1564027,0.09384164,-1.059628,-1.56,16.32,-39.42,18,280,5,0.3215784,-0.1886711,0.02832951,5.940521,-0.0653944,0.1272086,-0.02131649,0.06815975,-0.1680119,0.9831947
634795921322880000,0.1485826,0.09384164,-1.059628,-1.56,17.16,-38.82,22,284,5,0.7132133,0.04330653,-0.05256766,5.934468,-0.05413556,0.1297537,-0.01535548,0.06851017,-0.1713204,0.9827105
634795921323080000,0.1642229,0.07038123,-0.9814272,-1.56,17.16,-38.82,19,281,5,-0.1008993,-0.3185947,0.1804242,5.936244,-0.04233026,0.1278987,-0.009775533,0.06657798,-0.1708786,0.9829915
634795921323280000,0.1524927,0.04692082,-0.9345064,-1.56,17.16,-38.82,19,281,5,-0.1008993,-0.3185947,0.1804242,5.936244,-0.04233026,0.1278987,-0.009775533,0.06657798,-0.1708786,0.9829915
634795921323490000,0.1251222,0.03128055,-0.9345064,-1.56,17.16,-38.82,19,281,5,-0.03489624,-0.3260442,0.06437875,5.936244,-0.04233026,0.1278987,-0.009775533,0.06657798,-0.1708786,0.9829915
634795921323680000,0.1094819,0.01564027,-0.9540567,-1.56,17.16,-38.82,19,281,5,-0.04127904,-0.3462645,-0.03140119,5.93764,-0.04440331,0.1166836,-0.0118105,0.06123643,-0.1703047,0.983416
634795921323900000,0.1094819,0.01173021,-0.9814272,-1.2,17.88,-38.76,16,278,5,-0.09765892,-0.272833,-0.06651551,5.940909,-0.0434122,0.1116854,-0.01185091,0.05867597,-0.168805,0.9838301
634795921324080000,0.1212121,0.02737048,-0.9931574,-1.2,17.88,-38.76,16,278,5,-0.01888583,-0.2089794,-0.083561,5.946104,-0.04097414,0.1083181,-0.01108723,0.05678562,-0.1663694,0.9843646
634795921324280000,0.1290323,0.04301075,-0.9775171,-1.2,17.88,-38.76,16,278,5,0.07369985,-0.1898234,-0.003753578,5.949844,-0.03835415,0.1063554,-0.01006712,0.05558322,-0.1646296,0.9847367
634795921324480000,0.1251222,0.03519062,-0.9540567,-1.2,17.88,-38.76,11,273,5,0.04175681,-0.1727958,0.03668048,5.955128,-0.03552103,0.1044172,-0.008977155,0.05437239,-0.1621318,0.9852291
634795921324680000,0.1290323,0.01173021,-0.9423265,-1.2,17.88,-38.76,11,273,5,-0.04444586,-0.1898234,0.01219873,5.961164,-0.03715825,0.102066,-0.01013749,0.05331689,-0.1591436,0.9857626
634795921324880000,0.1290323,0.007820137,-0.9501466,-1.2,17.88,-38.76,11,273,5,-0.08805929,-0.1951445,-0.06656117,5.963173,-0.03658223,0.1014061,-0.009959805,0.05293587,-0.1581776,0.9859404
634795921325080000,0.1290323,0.01564027,-0.969697,-1.2,17.88,-38.76,15,277,5,-0.1242061,-0.1451259,-0.05805418,5.964746,-0.03582168,0.1017262,-0.009601018,0.05302595,-0.157418,0.9860607
634795921325280000,0.1290323,0.01173021,-0.9853373,-0.96,18.12,-39.12,14,276,5,-0.07413093,-0.1013619,-0.002657532,5.968297,-0.03423762,0.1024069,-0.008860371,0.05322106,-0.1557003,0.9863298
634795921325480000,0.1251222,0,-0.9814272,-0.96,18.12,-39.12,12,274,5,-0.09857948,-0.09489716,-0.01754306,5.971876,-0.0327847,0.1032479,-0.008173421,0.05350808,-0.1539642,0.9865927
634795921325680000,0.1094819,-0.01173021,-0.9736071,-0.96,18.12,-39.12,12,274,5,-0.07938416,-0.08101445,-0.01752156,5.975244,-0.03188086,0.1039481,-0.007763613,0.05377085,-0.1523184,0.9868371
634795921325880000,0.09384164,-0.02346041,-0.9618768,-0.96,18.12,-39.12,12,274,5,-0.04423727,-0.03950754,-0.00684877,5.977594,-0.03079796,0.1044348,-0.007255147,0.05391998,-0.151182,0.9870076
634795921326080000,0.08602151,-0.03128055,-0.9501466,-1.62,18.3,-39.18,12,274,5,-0.06763384,-0.01186642,-0.03233962,5.986879,-0.02471995,0.1060479,-0.004384425,0.05423636,-0.1467454,0.9876766
634795921326280000,0.07820137,-0.03519062,-0.9579667,-1.62,18.3,-39.18,10,272,5,-0.2453374,0.04449388,-0.058908,5.991102,-0.02318549,0.1069428,-0.00367556,0.05455796,-0.1446922,0.9879646
634795921326480000,0.07820137,-0.03910068,-0.969697,-1.62,18.3,-39.18,10,272,5,-0.2804568,0.07956456,-0.04823415,5.996444,-0.02274632,0.1078604,-0.003538569,0.05497015,-0.1420563,0.9883248
634795921326680000,0.08602151,-0.04301075,-0.969697,-1.62,18.3,-39.18,8,270,5,-0.05693772,-0.0757873,-0.02368726,6.000225,-0.02073812,0.1074852,-0.002676385,0.05463714,-0.1402462,0.9886044
634795921326890000,0.07820137,-0.05474096,-0.9853373,-1.62,18.3,-39.18,7,269,5,-0.04947539,-0.2534955,0.06893119,6.013312,-0.01044035,0.09962404,0.001532013,0.05003953,-0.1341015,0.9897022
634795921327080000,0.05083089,-0.07820137,-1.024438,-1.62,18.3,-39.18,8,270,5,-0.1069102,-0.2737158,0.03489195,6.019953,-0.005837202,0.09429132,0.00329474,0.04710301,-0.1309537,0.9902634
634795921327280000,0.03910068,-0.08993158,-1.051808,-2.16,18.18,-39.6,8,270,5,-0.1345347,-0.1108778,-0.04701859,6.02699,-0.0004677772,0.09078359,0.005564911,0.0450343,-0.1276053,0.9907865
634795921327480000,0.04301075,-0.08993158,-1.036168,-2.16,18.18,-39.6,8,270,5,-0.2090109,0.01467439,-0.02889334,6.031253,0.0007829666,0.09045493,0.006068145,0.04480471,-0.1255223,0.99106
634795921327680000,0.04692082,-0.1016618,-1.008798,-2.16,18.18,-39.6,3,265,5,-0.1877264,-0.02043387,0.007294036,6.038196,0.0002772808,0.09136569,0.005717471,0.04530788,-0.1220677,0.9914706
634795921327880000,0.04692082,-0.113392,-1.004888,-2.16,18.18,-39.6,3,265,5,-0.1514947,-0.1491555,-0.01294455,6.045022,0.006035089,0.08711898,0.008166512,0.04287897,-0.1188174,0.9919562
634795921328090000,0.04301075,-0.1173021,-1.036168,-2.16,18.18,-39.6,4,266,5,-0.1918488,-0.2768625,-0.1406481,6.052719,0.01710558,0.07498074,0.01279935,0.03624899,-0.1152117,0.9925969
634795921328280000,0.05083089,-0.1055719,-1.051808,-2.16,18.18,-39.6,4,266,5,-0.1385991,-0.08208326,-0.07892586,6.056767,0.02362466,0.06910288,0.01563155,0.03298747,-0.1132975,0.9928903
634795921328480000,0.05083089,-0.09384164,-1.016618,-2.58,18.84,-39.78,4,266,5,-0.05556254,0.08715802,0.04773428,6.061468,0.028373,0.06815934,0.01785998,0.032292,-0.1110365,0.993131
634795921328680000,0.04301075,-0.1094819,-0.9423265,-2.58,18.84,-39.78,4,266,5,0.002970271,0.1531125,0.107319,6.067816,0.03192449,0.07046783,0.01964478,0.03330372,-0.1079549,0.9934036
634795921328880000,0.03128055,-0.1407625,-0.8680352,-2.58,18.84,-39.78,4,266,5,-0.03959044,0.05201519,-0.02043499,6.072096,0.0362134,0.07158767,0.02176288,0.03367504,-0.1059083,0.9935672
634795921329080000,0.02346041,-0.1485826,-0.8445748,-2.58,18.84,-39.78,5,267,5,-0.1129899,-0.1746327,-0.1407147,6.076763,0.0385015,0.07327402,0.02290736,0.03444521,-0.1036413,0.9937541
634795921329280000,0.02346041,-0.1251222,-0.8680352,-2.58,18.84,-39.78,5,267,5,-0.09486629,-0.2682846,-0.1641286,6.080997,0.04226708,0.06759739,0.02442172,0.03148079,-0.1015521,0.9940321
634795921329480000,0.01564027,-0.09384164,-0.9305963,-3,19.68,-39.6,4,266,5,-0.06079224,-0.2193302,-0.1534706,6.082527,0.04409647,0.06538296,0.02519693,0.03030638,-0.1008,0.9941258
634795921329680000,0.01564027,-0.0742913,-0.9736071,-3,19.68,-39.6,4,266,5,-0.06183562,-0.03096501,-0.09704185,6.085684,0.04604673,0.06426346,0.02606385,0.02969272,-0.09924927,0.994278
634795921329880000,0.01564027,-0.0742913,-0.9853373,-3,19.68,-39.6,3,265,5,-0.02776232,0.03925151,-0.02252938,6.089734,0.04759908,0.06390953,0.02675858,0.02949392,-0.09725523,0.9944624
634795921330080000,0.007820137,-0.08993158,-0.9814272,-3,19.68,-39.6,3,265,5,0.0148085,0.02544107,0.02003739,6.094765,0.05128121,0.06196463,0.02842497,0.02841923,-0.09478565,0.9946859
634795921330300000,0,-0.09775171,-0.9892473,-3,19.68,-39.6,3,265,5,0.06481037,-0.06388628,0.07958622,6.098568,0.05367255,0.06006706,0.02947377,0.02741811,-0.09290506,0.9948609
634795921330480000,-0.003910068,-0.09775171,-1.016618,-3.78,20.04,-39.54,3,265,5,-0.002262204,-0.05951518,0.05609876,6.111553,0.06117821,0.05073285,0.03263496,0.02263798,-0.08641613,0.9954671
634795921330680000,-0.003910068,-0.09775171,-1.059628,-3.78,20.04,-39.54,3,265,5,-0.0001380121,-0.06692559,0.01355466,6.116554,0.06395316,0.04710853,0.03381043,0.02079853,-0.08390412,0.9956829
634795921330880000,0,-0.08602151,-1.106549,-3.78,20.04,-39.54,2,264,5,0.03071526,-0.09242304,-0.04281724,6.119393,0.06579614,0.04456258,0.03459531,0.01950269,-0.0824703,0.9958019
634795921331080000,0.01173021,-0.05865103,-1.180841,-3.78,20.04,-39.54,2,264,5,0.01686416,-0.1158067,-0.07791208,6.122719,0.06889558,0.04004943,0.03592721,0.01718729,-0.08077133,0.9959367
634795921331280000,0.02737048,-0.03128055,-1.255132,-3.78,20.04,-39.54,2,264,5,0.04344063,-0.1796602,-0.05979525,6.124941,0.06962084,0.03807843,0.03619203,0.01621664,-0.07963752,0.9960347
634795921331490000,0.03519062,0.007820137,-1.309873,-3.78,20.04,-39.54,5,267,5,0.1083254,-0.03598186,-0.04593904,6.127415,0.0702691,0.03418648,0.03634477,0.01429733,-0.07834554,0.996161
634795921331680000,0.03519062,0.05083089,-1.302053,-4.38,19.98,-38.58,5,267,5,0.05510965,0.3503206,-0.1512755,6.127085,0.07011366,0.03873014,0.03644532,0.01656073,-0.07858498,0.9961033
634795921331880000,0.07820137,0.09384164,-1.227762,-4.38,19.98,-38.58,5,267,5,-0.1981329,0.6174411,-0.2694045,6.123839,0.06512784,0.04860342,0.03437817,0.02161888,-0.08031155,0.9959422
634795921332080000,0.1485826,0.1212121,-1.14956,-4.38,19.98,-38.58,5,267,5,-0.2247386,0.2651826,-0.2992028,6.118056,0.0568285,0.05638933,0.03062641,0.02574145,-0.08320266,0.9957293
634795921332280000,0.1798632,0.1407625,-1.14174,-4.38,19.98,-38.58,5,267,5,-0.07354826,-0.02640596,-0.314102,6.112644,0.05218649,0.05738759,0.0284274,0.02635476,-0.0858492,0.9955537
634795921332480000,0.1837732,0.1564027,-1.16911,-4.38,19.98,-38.58,12,274,5,-0.1777726,-0.1722048,-0.3556067,6.098487,0.04667663,0.05494404,0.02576044,0.02519285,-0.09279627,0.995033
634795921332680000,0.1642229,0.1798632,-1.176931,-4.38,19.98,-38.58,24,286,5,-0.3320853,-0.07319898,-0.314102,6.068776,0.03072476,0.04972887,0.01792878,0.02307302,-0.1073338,0.9937935
634795921332880000,0.1329423,0.1915933,-1.1261,-5.76,19.68,-37.14,26,288,5,-0.1575343,0.0332015,-0.04698602,6.057699,0.02431607,0.04944503,0.01485781,0.02319385,-0.1127604,0.9932404
634795921333080000,0.1094819,0.1642229,-1.036168,-5.76,19.68,-37.14,26,288,5,0.03400308,0.07571442,0.09558482,6.052002,0.02235842,0.04987466,0.01397656,0.02347786,-0.115568,0.9929237
634795921333280000,0.1094819,0.1251222,-0.9579667,-5.76,19.68,-37.14,26,288,5,0.02550652,-0.1786421,0.1253638,6.044081,0.01945972,0.04752922,0.01249145,0.02243153,-0.1194577,0.9925073
634795921333480000,0.1094819,0.113392,-0.9384164,-5.76,19.68,-37.14,27,289,5,-0.05640412,-0.471304,0.09238651,6.037361,0.01546955,0.03965532,0.01010549,0.01872808,-0.1227275,0.9922122
634795921333700000,0.08602151,0.113392,-0.9384164,-5.76,19.68,-37.14,28,290,5,-0.1766524,-0.4446984,0.08493959,6.031456,0.003283978,0.03433836,0.003783907,0.01682639,-0.1255423,0.9919384
634795921333880000,0.07038123,0.1055719,-0.9032258,-5.76,19.68,-37.14,28,290,5,-0.1926158,-0.09775195,0.2083466,6.024317,-0.01610756,0.03143024,-0.005957065,0.01662192,-0.1289274,0.9914968
634795921334080000,0.05865103,0.08602151,-0.8093842,-5.76,19.68,-37.14,28,290,5,-0.1926158,-0.09775195,0.2083466,6.022842,-0.02069068,0.0292877,-0.008355835,0.01586136,-0.1296333,0.9913999
634795921334280000,0.04301075,0.05865103,-0.7311828,-7.62,19.74,-36.48,30,292,5,-0.148987,-0.1679831,0.2296311,6.021156,-0.02422357,0.02697182,-0.01024495,0.01495106,-0.1304568,0.9912883
634795921334480000,0.02737048,0.03128055,-0.6999022,-7.62,19.74,-36.48,30,292,5,-0.1042478,-0.290369,0.07955226,6.019837,-0.02693105,0.02451873,-0.01173818,0.01391959,-0.1311082,0.9912009
634795921334680000,0.03128055,0.02346041,-0.7233627,-7.62,19.74,-36.48,32,294,5,-0.07653937,-0.2403505,-0.00771292,6.014435,-0.03176069,0.01451766,-0.01476372,0.009319797,-0.1338361,0.9908497
634795921334890000,0.05474096,0.04692082,-0.7624633,-7.62,19.74,-36.48,32,294,5,-0.1350337,-0.01684539,0.01037348,6.012081,-0.03384972,0.0142709,-0.01580421,0.009355953,-0.1349949,0.9906761
634795921335080000,0.07038123,0.05865103,-0.7624633,-7.62,19.74,-36.48,29,291,5,-0.09776716,0.09169919,0.06780737,6.01066,-0.03508401,0.01531672,-0.01633784,0.009968896,-0.1356833,0.9905674
634795921335280000,0.07820137,0.05474096,-0.7663734,-9.06,20.1,-35.58,34,296,5,0.0703882,-0.07860099,0.125227,6.0078,-0.03512192,0.0156287,-0.01632098,0.01014928,-0.1370965,0.9903712
634795921335480000,0.0742913,0.03910068,-0.8093842,-9.06,20.1,-35.58,36,298,5,0.2012738,-0.1765065,0.1028496,6.004112,-0.03199005,0.01293063,-0.01493941,0.008626145,-0.1389613,0.9901476
634795921335680000,0.0742913,0.03128055,-0.8680352,-9.06,20.1,-35.58,36,298,5,0.2523566,-0.1605431,0.05601075,5.998742,-0.02730536,0.009984254,-0.01280669,0.006876313,-0.1416602,0.9898086
634795921335880000,0.07820137,0.03519062,-0.9462366,-9.06,20.1,-35.58,33,295,5,0.1704113,-0.136066,0.008083588,5.99547,-0.02415824,0.008388638,-0.01135269,0.005882332,-0.1433003,0.9895967
634795921336080000,0.08993158,0.03910068,-1.028348,-11.1,20.34,-35.22,31,293,5,0.1724863,-0.02429017,-0.04410005,5.983495,-0.01692176,0.009179354,-0.007680687,0.005801124,-0.1492395,0.9887543
634795921336280000,0.08993158,0.04301075,-1.067449,-11.1,20.34,-35.22,31,293,5,0.251239,0.06191431,-0.02495986,5.977361,-0.01193309,0.01306248,-0.00490195,0.007363633,-0.1522726,0.988299
634795921336480000,0.0742913,0.02737048,-1.106549,-11.1,20.34,-35.22,28,290,5,0.4332215,-0.1275165,0.06440685,5.971944,-0.004063606,0.01267612,-0.001024816,0.006576292,-0.1549772,0.9878956
634795921336680000,0.05474096,0.01173021,-1.1652,-11.1,20.34,-35.22,28,290,5,0.4992034,-0.2477739,-0.07074485,5.967073,0.002022743,0.009758948,0.001766816,0.004659449,-0.1574019,0.9875221
634795921336880000,0.05865103,0.02737048,-1.239492,-11.1,20.34,-35.22,28,290,5,0.3640469,-0.2296821,-0.2558844,5.958533,0.01046109,0.005186439,0.005580894,0.001713775,-0.161625,0.986835
634795921337080000,0.06256109,0.05474096,-1.329423,-11.1,20.34,-35.22,25,287,5,0.1139121,-0.04339077,-0.1632782,5.941766,0.01441097,0.0001392365,0.007112496,-0.001155462,-0.1698778,0.9854388
634795921337280000,0.04301075,0.08993158,-1.364614,-12.36,19.62,-35.22,24,286,5,0.4619138,-0.09443153,0.01233155,5.936763,0.02006292,-0.001206279,0.009777244,-0.002322927,-0.1723314,0.9849878
634795921337480000,0.007820137,0.1251222,-1.341154,-12.36,19.62,-35.22,24,286,5,0.4619138,-0.09443153,0.01233155,5.934268,0.02706766,-0.003410935,0.01303199,-0.004028467,-0.1735364,0.984733
634795921337680000,0.01564027,0.1251222,-1.317693,-12.36,19.62,-35.22,23,285,5,0.1043375,0.2737345,-0.1664565,5.929725,0.03434134,-0.004802942,0.01648014,-0.005382351,-0.1757444,0.9842831
634795921337880000,0.05474096,0.1212121,-1.286412,-12.36,19.62,-35.22,23,285,5,-0.2777084,0.3950562,-0.3207691,5.922276,0.03362799,-0.0008535385,0.01646356,-0.003437332,-0.1794444,0.9836244
634795921338080000,0.08211143,0.1603128,-1.223851,-12.36,19.62,-35.22,24,286,5,-0.07655938,0.2928905,-0.2994846,5.912066,0.02650857,0.005356431,0.01352044,0.0001867138,-0.1845145,0.9827368
634795921338300000,0.07038123,0.2189638,-1.106549,-12.36,19.62,-35.22,24,286,5,0.2969554,0.09489518,-0.2228604,5.901428,0.0239768,0.009648204,0.01268543,0.002461731,-0.1897628,0.9817449
634795921338480000,0.05083089,0.2228739,-1.055718,-12.6,18.12,-34.92,35,297,5,0.08727936,-0.05404802,-0.2867139,5.879488,0.02706718,0.00931704,0.01419207,0.001850383,-0.2005216,0.9795848
634795921338680000,0.03128055,0.2072336,-1.032258,-12.6,18.12,-34.92,43,305,5,-0.386312,-0.04759297,-0.4208063,5.862691,0.02060795,0.007085204,0.01081609,0.001313978,-0.2087249,0.9779137
634795921338880000,0.01955034,0.1876833,-1.024438,-12.6,18.12,-34.92,45,307,5,-0.4501655,-0.01779562,-0.466568,5.845212,0.009322881,0.005342603,0.00513035,0.001594828,-0.2172495,0.9761013
634795921339080000,0.01955034,0.172043,-0.9540567,-12.6,18.12,-34.92,45,307,5,-0.1330283,0.01627991,-0.4548615,5.828948,-0.0008947849,0.004274249,4.530423E-05,0.002182967,-0.2251695,0.9743172
634795921339280000,0.03910068,0.1485826,-0.8602151,-12.6,18.12,-34.92,45,307,5,0.02232204,0.04074348,-0.3037415,5.819506,-0.008399963,0.004082322,-0.003618634,0.002951584,-0.2297575,0.9732367
634795921339480000,0.05083089,0.1016618,-0.7663734,-12.6,18.12,-34.92,41,303,5,-0.002192073,0.01628407,-0.1696259,5.807798,-0.01850343,0.004052281,-0.008514363,0.004147501,-0.235433,0.9718444
634795921339680000,0.05474096,0.05865103,-0.7155425,-12.9,16.2,-34.8,52,314,5,-0.1596886,0.01633919,-0.1673754,5.789254,-0.02525687,0.002137184,-0.0119837,0.004123166,-0.2444301,0.9695841
634795921339880000,0.0742913,0.04692082,-0.7038123,-12.9,16.2,-34.8,53,315,5,-0.2693038,0.0003573005,-0.1673265,5.779281,-0.02958655,0.002025127,-0.01407326,0.004668265,-0.2492533,0.9683248
634795921340080000,0.09384164,0.05474096,-0.7077224,-12.9,16.2,-34.8,53,315,5,-0.07982272,-0.1571413,0.01145473,5.773996,-0.03246355,0.001617193,-0.01550423,0.004870265,-0.2518072,0.967641
634795921340280000,0.09384164,0.06256109,-0.7116324,-12.9,16.2,-34.8,52,314,5,0.2607408,-0.1230771,0.1636222,5.767765,-0.03293896,-0.0006549358,-0.01600832,0.003880736,-0.254838,0.9668435
634795921340480000,0.08211143,0.03910068,-0.7038123,-12.9,16.2,-34.8,52,314,5,0.2681904,-0.009206248,0.2327969,5.760676,-0.02116632,-0.001117468,-0.01036814,0.002193734,-0.2582843,0.9660108
634795921340680000,0.06256109,0.007820137,-0.6959922,-12.18,14.82,-34.62,56,318,5,0.2171076,0.05141617,0.2221546,5.757752,-0.01604486,0.0004543066,-0.007688036,0.00230276,-0.2596945,0.9656575
634795921340880000,0.02737048,-0.01173021,-0.7194526,-12.18,14.82,-34.62,56,318,5,0.2383921,-0.1529076,0.1486968,5.756112,-0.01249838,-0.0005747079,-0.006108291,0.001350487,-0.2604932,0.9654554
634795921341080000,0.007820137,-0.01564027,-0.7859238,-12.18,14.82,-34.62,54,316,5,0.3501357,-0.2412383,0.03156667,5.753781,-0.005647182,-0.003987193,-0.003246828,-0.001185457,-0.2616259,0.9651632
634795921341280000,0,-0.01173021,-0.8719453,-12.18,14.82,-34.62,44,306,5,0.3490715,-0.221018,-0.004661893,5.751764,0.001652241,-0.007609487,-0.0002019974,-0.00388814,-0.2625898,0.9648997
634795921341480000,-0.003910068,0.003910068,-0.969697,-12.18,14.82,-34.62,36,298,5,0.1926304,-0.168871,0.02295933,5.750791,0.006555795,-0.01075995,0.001747187,-0.006052707,-0.2630424,0.9647637
634795921341700000,-0.007820137,0.01173021,-1.094819,-11.04,13.74,-34.68,33,295,5,0.2958603,-0.01663507,0.05374161,5.750508,0.01283741,-0.01392424,0.004359792,-0.0084058,-0.2631458,0.9647096
634795921341880000,-0.007820137,0.003910068,-1.15347,-11.04,13.74,-34.68,33,295,5,0.2958603,-0.01663507,0.05374161,5.750806,0.01771092,-0.01393306,0.006710729,-0.009050281,-0.2629808,0.9647353
634795921342080000,-0.007820137,-0.003910068,-1.219941,-11.04,13.74,-34.68,30,292,5,0.360778,0.03549877,0.1111405,5.752015,0.02373028,-0.01355541,0.009669789,-0.009653688,-0.262372,0.9648701
634795921342280000,-0.01564027,-0.007820137,-1.286412,-11.04,13.74,-34.68,28,290,5,0.3852552,0.05781642,0.13877,5.753881,0.03025126,-0.01277161,0.01292799,-0.01011899,-0.2614453,0.9650787
634795921342480000,-0.03128055,-0.007820137,-1.337243,-11.04,13.74,-34.68,28,290,5,0.5140264,0.1610412,0.07595902,5.755738,0.03718447,-0.01190877,0.01639625,-0.01059369,-0.2605203,0.965271
634795921342680000,-0.03128055,-0.01173021,-1.345064,-11.04,13.74,-34.68,24,286,5,0.4288884,0.471795,0.0206457,5.75661,0.04279828,-0.01057172,0.01928455,-0.01067129,-0.2600838,0.9653345
634795921342880000,0.01564027,0,-1.270772,-9.66,12.36,-34.26,21,283,5,0.1841166,0.4175195,-0.0612543,5.758162,0.05532289,0.004729509,0.02732376,-0.004894542,-0.2594701,0.9653521
634795921343080000,0.06647116,0.03519062,-1.231672,-9.66,12.36,-34.26,21,283,5,0.1351308,-0.22101,-0.07296907,5.756266,0.05688953,0.005731821,0.02820546,-0.004640704,-0.2603949,0.965079
634795921343280000,0.06256109,0.08211143,-1.302053,-9.66,12.36,-34.26,26,288,5,0.1712648,-0.5466629,0.1345672,5.753938,0.05913138,-0.003621221,0.028059,-0.009478449,-0.2613796,0.9647816
634795921343480000,0.01955034,0.1055719,-1.376344,-9.66,12.36,-34.26,26,288,5,0.3702749,-0.2816709,0.1739435,5.753539,0.06198835,-0.01028991,0.0285625,-0.01307416,-0.2614554,0.9647043
634795921343680000,0.01564027,0.113392,-1.302053,-9.66,12.36,-34.26,34,296,5,0.4160366,0.1802089,0.09093342,5.752123,0.06755566,-0.01606357,0.03048026,-0.01660784,-0.2620021,0.9644429
634795921343880000,0.04301075,0.113392,-1.11828,-9.66,12.36,-34.26,31,293,5,0.2723662,0.08120213,0.03347377,5.74799,0.07637095,-0.01387656,0.03498331,-0.01678055,-0.2639608,0.9637527
634795921344080000,0.06647116,0.1094819,-0.969697,-8.16,11.64,-34.32,31,293,5,0.1435696,-0.2529715,-0.0026786,5.743139,0.07707881,-0.0204972,0.03439997,-0.02014715,-0.2661612,0.9631038
634795921344280000,0.08602151,0.113392,-0.9384164,-8.16,11.64,-34.32,31,293,5,0.04773222,-0.5786244,-0.09629391,5.738344,0.07452035,-0.02648461,0.03231417,-0.02276691,-0.2683782,0.9625023
634795921344480000,0.1055719,0.1290323,-0.9657869,-8.16,11.64,-34.32,39,301,5,-0.2162047,-0.5371196,-0.1813736,5.728811,0.06747127,-0.03457558,0.02770901,-0.02584625,-0.2728938,0.9612976
634795921344680000,0.09775171,0.1368524,-0.9736071,-8.16,11.64,-34.32,51,313,5,-0.37371,-0.4264402,-0.144031,5.718372,0.05888056,-0.04107094,0.02254438,-0.02791325,-0.2779075,0.9599375
634795921344880000,0.0742913,0.1290323,-0.911046,-8.16,11.64,-34.32,53,315,5,-0.2140762,-0.3381095,-0.001405041,5.70983,0.04693246,-0.0416286,0.01661802,-0.02659129,-0.2821594,0.958855
634795921345090000,0.05474096,0.08211143,-0.8093842,-8.16,11.64,-34.32,53,315,5,0.1232892,-0.2540357,0.1911771,5.704165,0.03959751,-0.04157329,0.01303679,-0.02556683,-0.2849708,0.9581065
634795921345280000,0.03910068,0.01955034,-0.7155425,-8.16,11.64,-34.32,53,315,5,0.1370991,-0.1731546,0.1773422,5.699749,0.04376578,-0.04799902,0.01405077,-0.02926902,-0.2869433,0.9573972
634795921345480000,0.04301075,-0.01955034,-0.6725318,-7.56,11.28,-34.86,54,316,5,-0.03742133,-0.156127,0.05807461,5.697186,0.04283071,-0.05111432,0.01311537,-0.03064247,-0.2881408,0.9570078
634795921345680000,0.05083089,-0.01564027,-0.6764418,-7.56,11.28,-34.86,45,307,5,-0.07039987,-0.2189163,-0.02708075,5.695899,0.04208302,-0.05463112,0.01222836,-0.03222484,-0.2887189,0.9567933
634795921345880000,0.05474096,-0.007820137,-0.688172,-7.56,11.28,-34.86,45,307,5,0.1402595,-0.09759686,0.05276381,5.696194,0.04367614,-0.0559473,0.01280458,-0.03308237,-0.2885335,0.9568124
634795921346080000,0.05474096,-0.02737048,-0.6686217,-7.56,11.28,-34.86,43,305,5,0.2275259,0.1598951,0.08146053,5.697698,0.04898762,-0.05492783,0.01551841,-0.03334938,-0.2877411,0.9570016
634795921346290000,0.05865103,-0.05083089,-0.6451613,-7.56,11.28,-34.86,45,307,5,0.204113,0.1066556,-0.009051287,5.698683,0.05416226,-0.05185854,0.01845405,-0.03261663,-0.287234,0.9571271
634795921346480000,0.06256109,-0.06647116,-0.6608016,-7.08,10.8,-35.52,45,307,5,0.2743518,-0.08810238,-0.08568805,5.698055,0.06454325,-0.0482223,0.02393639,-0.03237548,-0.2874305,0.9569548
634795921346680000,0.05865103,-0.06256109,-0.7624633,-7.08,10.8,-35.52,41,303,5,0.1817642,-0.1732404,-0.1388973,5.696175,0.0705583,-0.05028284,0.02648446,-0.03424998,-0.2881894,0.9565942
634795921346880000,0.04692082,-0.05474096,-0.8602151,-7.08,10.8,-35.52,41,303,5,0.001909664,-0.05827066,-0.1335713,5.694989,0.07267546,-0.05085504,0.02739344,-0.0348448,-0.2887078,0.9563907
634795921347080000,0.01955034,-0.05083089,-0.9931574,-7.08,10.8,-35.52,37,299,5,0.1477181,-0.1135639,-0.07610652,5.693922,0.07414198,-0.05058813,0.02811486,-0.03494397,-0.2891983,0.956218
634795921347280000,0,-0.05865103,-1.11437,-7.08,10.8,-35.52,32,294,5,0.4425085,-0.2646838,-0.1367845,5.693548,0.07959127,-0.05326855,0.03032308,-0.03701805,-0.2892195,0.956066
634795921347480000,0.01955034,-0.05865103,-1.219941,-7.5,10.92,-36.24,21,283,5,0.3775907,0.08438181,-0.3028036,5.692455,0.08722043,-0.05345285,0.03392211,-0.03822763,-0.2895941,0.9557841
634795921347680000,0.06256109,-0.03128055,-1.262952,-7.5,10.92,-36.24,21,283,5,-0.01512017,0.3653139,-0.3123816,5.689513,0.08825111,-0.04050207,0.03625622,-0.03224495,-0.2912977,0.9554012
634795921347880000,0.06647116,-0.01173021,-1.266862,-7.5,10.92,-36.24,21,283,5,-0.2950114,0.5228193,-0.1261352,5.68996,0.08478069,-0.03423107,0.03552338,-0.02873706,-0.2912833,0.955545
634795921348080000,0.03128055,-0.01564027,-1.239492,-7.5,10.92,-36.24,25,287,5,0.2062459,0.1449997,0.1814201,5.693427,0.083925,-0.02689802,0.03623086,-0.02504742,-0.2898023,0.9560724
634795921348280000,0,-0.03519062,-1.223851,-7.5,10.92,-36.24,27,289,5,0.244558,-0.2391796,-0.01011423,5.696515,0.08718204,-0.0254581,0.0380355,-0.02477263,-0.2883175,0.9564584
634795921348480000,0.003910068,-0.03128055,-1.259042,-7.5,10.92,-36.24,27,289,5,0.08918316,-0.3094184,-0.3644776,5.697016,0.09090996,-0.02997351,0.03917161,-0.02745859,-0.2879242,0.9564577
634795921348680000,0.02346041,0.03910068,-1.302053,-8.1,11.16,-36.72,22,284,5,-0.1150905,-0.1849041,-0.4538725,5.686615,0.08974981,-0.0378927,0.03730913,-0.03127149,-0.2927207,0.954958
634795921348880000,0.02737048,0.1212121,-1.302053,-8.1,11.16,-36.72,22,284,5,-0.1672068,0.02369032,-0.2676331,5.683702,0.08717012,-0.03792369,0.03602778,-0.03096121,-0.2941504,0.9545779
634795921349080000,0.003910068,0.1407625,-1.243402,-8.1,11.16,-36.72,27,289,5,0.02013239,0.1332611,-0.06750821,5.680602,0.08512735,-0.03685594,0.03516383,-0.03020593,-0.2956863,0.9541597
634795921349280000,-0.01173021,0.1212121,-1.1652,-8.1,11.16,-36.72,35,297,5,0.0318013,0.1576989,-0.102586,5.677166,0.08448052,-0.03490114,0.03509556,-0.02923844,-0.2973795,0.953666
634795921349480000,0.003910068,0.1016618,-1.098729,-8.1,11.16,-36.72,35,297,5,-0.1810302,0.07151406,-0.2984035,5.670482,0.08059501,-0.03410828,0.03326644,-0.02839405,-0.3006385,0.9527348
634795921349680000,0.02737048,0.1016618,-1.040078,-8.22,10.74,-36.9,38,300,5,-0.2959665,-0.004038163,-0.1919809,5.657255,0.06710649,-0.03491461,0.02654109,-0.02692602,-0.3071037,0.9509248
634795921349880000,0.03128055,0.09775171,-0.9736071,-8.22,10.74,-36.9,40,302,5,-0.1938009,-0.1072685,0.00169973,5.654588,0.06158853,-0.03555035,0.02378425,-0.02641257,-0.3084337,0.9505816
634795921350080000,0.03128055,0.07038123,-0.9188661,-8.22,10.74,-36.9,44,306,5,-0.2331451,-0.04869518,0.07194731,5.652077,0.05206227,-0.03609526,0.01914022,-0.0252261,-0.3097412,0.9502935
634795921350280000,0.03519062,0.03910068,-0.8836755,-8.22,10.74,-36.9,44,306,5,-0.2969986,0.1099038,0.08043972,5.650611,0.0433073,-0.03509247,0.01511872,-0.02340467,-0.3105583,0.9501459
634795921350480000,0.03910068,0.01173021,-0.8211144,-8.22,10.74,-36.9,44,306,5,-0.24698,0.1396347,0.04423989,5.649553,0.03745937,-0.03317916,0.0126269,-0.02159441,-0.3111499,0.9500316
634795921350680000,0.06256109,0,-0.742913,-8.22,10.74,-36.9,44,306,5,-0.09796127,-0.001923976,0.07826456,5.649164,0.03355765,-0.03145158,0.01103879,-0.020169,-0.3113947,0.9500025
634795921350880000,0.07820137,-0.003910068,-0.688172,-8.64,10.98,-36.6,44,306,5,0.1691533,-0.2211544,0.1697559,5.651488,0.03669572,-0.03582811,0.01187323,-0.02272217,-0.3102089,0.9503227
634795921351080000,0.06647116,-0.01564027,-0.688172,-8.64,10.98,-36.6,48,310,5,0.1382844,-0.09768455,0.2261598,5.653618,0.0398562,-0.03706849,0.01320743,-0.02378752,-0.3091448,0.9506257
634795921351280000,0.05474096,-0.03128055,-0.688172,-8.64,10.98,-36.6,52,314,5,0.01270814,0.05877761,0.2101965,5.65531,0.04114079,-0.03528487,0.0141139,-0.02312654,-0.3083476,0.9508879
634795921351480000,0.05083089,-0.03128055,-0.6803519,-8.64,10.98,-36.6,46,308,5,0.03289915,0.1066374,0.1473813,5.657015,0.04263783,-0.03289807,0.01521337,-0.02220988,-0.3075501,0.951151
634795921351680000,0.04301075,-0.03519062,-0.6999022,-8.64,10.98,-36.6,46,308,5,0.3096078,-0.2413301,0.1761031,5.659478,0.04630613,-0.03383958,0.01684148,-0.02320088,-0.3063247,0.9514953
634795921351880000,0.02737048,-0.04301075,-0.7311828,-8.64,10.98,-36.6,46,308,5,0.3223785,-0.1732198,0.1920665,5.662183,0.05262446,-0.03746867,0.01932506,-0.02586823,-0.304907,0.9518346
634795921352080000,0.01564027,-0.06256109,-0.7702835,-8.82,12,-36.6,42,304,5,0.1808366,-0.2477155,0.1643912,5.668468,0.06200361,-0.04277253,0.02307078,-0.02974835,-0.3016956,0.9526608
634795921352280000,0.003910068,-0.08993158,-0.8680352,-8.82,12,-36.6,38,300,5,-0.01501811,-0.3850006,0.1175705,5.672184,0.06340718,-0.04873073,0.02289754,-0.03275427,-0.2997936,0.9531667
634795921352480000,-0.03910068,-0.1094819,-1.040078,-8.82,12,-36.6,38,300,5,0.09670989,-0.3573307,-0.07820091,5.673784,0.06463694,-0.05466568,0.02261808,-0.03574743,-0.2988968,0.9533474
634795921352680000,-0.08993158,-0.1094819,-1.196481,-8.82,12,-36.6,27,289,5,0.2797566,-0.2285595,0.1038001,5.677025,0.06983518,-0.05988682,0.02437417,-0.03897171,-0.2971483,0.9537243
634795921352880000,-0.1016618,-0.09384164,-1.247312,-8.82,12,-36.6,18,280,5,0.3063623,0.0002855658,0.2378777,5.684863,0.07646608,-0.06040823,0.02761551,-0.04009723,-0.2932661,0.9547904
634795921353080000,-0.07038123,-0.08211143,-1.247312,-9.12,12.42,-36.72,12,274,5,0.4212986,0.2109385,0.1654939,5.69909,0.08770084,-0.05517387,0.03403013,-0.03900637,-0.2863698,0.9567198
634795921353280000,-0.01564027,-0.06647116,-1.243402,-9.12,12.42,-36.72,12,274,5,0.2127104,0.4408112,0.07392635,5.705822,0.08990788,-0.0451653,0.03664634,-0.03441475,-0.2833554,0.9576964
634795921353480000,0.06256109,-0.03128055,-1.184751,-9.12,12.42,-36.72,11,273,5,-0.09490716,0.5408483,0.154702,5.712593,0.08951139,-0.03186309,0.03844764,-0.02786194,-0.2804403,0.9586964
634795921353680000,0.1173021,0,-1.110459,-9.12,12.42,-36.72,11,273,5,-0.1385316,0.08960471,0.1972512,5.717664,0.08692931,-0.02512777,0.03822018,-0.02417545,-0.2781985,0.9594584
634795921353880000,0.1016618,0.01173021,-1.16129,-9.12,12.42,-36.72,28,290,5,-0.05974303,-0.6574813,0.11953,5.719553,0.08522534,-0.029423,0.03682742,-0.02596355,-0.2772161,0.9597504
634795921354080000,0.06256109,0.02346041,-1.329423,-9.12,12.42,-36.72,28,290,5,-0.1256735,-0.8139225,-0.04010559,5.718349,0.08463001,-0.03810775,0.03531437,-0.03006818,-0.2776048,0.9595751
634795921354280000,0.02737048,0.06256109,-1.434995,-9.12,12.42,-36.72,36,298,5,0.06056145,-0.4137738,0.08334166,5.714651,0.0842142,-0.05852675,0.03218938,-0.0398606,-0.2789033,0.9589515
634795921354480000,0.03128055,0.09384164,-1.282502,-9.66,13.5,-36.6,33,295,5,0.2404155,0.3524384,0.3302419,5.720262,0.08735346,-0.05366289,0.03448497,-0.03787139,-0.2762701,0.9597142
634795921354680000,0.05083089,0.06647116,-1.14956,-9.66,13.5,-36.6,25,287,5,0.03501877,0.2662362,0.2376543,5.724176,0.08703231,-0.04979813,0.03493932,-0.03590539,-0.274492,0.9602834
634795921354880000,0.07820137,0.02737048,-1.079179,-9.66,13.5,-36.6,31,293,5,-0.2522875,-0.1924538,0.07161922,5.723124,0.08160281,-0.05456293,0.03165362,-0.03746328,-0.2749829,0.9601974
634795921355080000,0.09775171,0.05865103,-1.094819,-9.66,13.5,-36.6,31,293,5,-0.07029705,-0.4031704,-0.2018181,5.719992,0.07796907,-0.06137419,0.02890213,-0.04027694,-0.276399,0.9597635
634795921355280000,0.09775171,0.1212121,-1.083089,-9.66,13.5,-36.6,34,296,5,-0.05113164,-0.2414082,-0.08471195,5.714037,0.0758295,-0.07038629,0.02648736,-0.04438188,-0.279093,0.9588721
634795921355480000,0.08211143,0.1407625,-1.020528,-10.62,13.62,-36.42,40,302,5,-0.1916123,0.08426144,0.2718138,5.706709,0.07289815,-0.07594287,0.02412831,-0.04672345,-0.2825439,0.957812
634795921355680000,0.08211143,0.08211143,-0.911046,-10.62,13.62,-36.42,40,302,5,-0.09792753,0.1013003,0.3995208,5.706709,0.07289815,-0.07594287,0.02412831,-0.04672345,-0.2825439,0.957812
634795921355880000,0.07038123,0.01564027,-0.7820137,-10.62,13.62,-36.42,50,312,5,0.09254972,-0.03919166,0.4442183,5.711761,0.06137848,-0.06837951,0.01979358,-0.04142499,-0.2805375,0.9587445
634795921356080000,0.05083089,-0.01955034,-0.684262,-10.62,13.62,-36.42,50,312,5,0.2809047,-0.1264271,0.4623101,5.714456,0.0635972,-0.0697937,0.02071454,-0.04238577,-0.2791708,0.9590819
634795921356280000,0.04692082,-0.04301075,-0.6334311,-10.62,13.62,-36.42,47,309,5,0.2489779,-0.04444797,0.4357045,5.720066,0.06880522,-0.07207942,0.02301429,-0.04414345,-0.2763192,0.9597757
634795921356480000,0.05474096,-0.04692082,-0.5904203,-10.62,13.62,-36.42,47,309,5,0.173418,0.05024593,0.4261265,5.726508,0.07293725,-0.07236719,0.02702469,-0.0447184,-0.2696359,0.9615438
634795921356690000,0.05083089,-0.04692082,-0.5669599,-11.22,14.1,-36.36,46,308,5,0.1659572,-0.008274096,0.4580532,5.740955,0.08003306,-0.07246756,0.02882554,-0.04558144,-0.2660194,0.9624578
634795921356880000,0.03128055,-0.05474096,-0.6177908,-11.22,14.1,-36.36,49,311,5,0.1404153,-0.2274465,0.4420898,5.747222,0.08309769,-0.07656753,0.02989923,-0.04786675,-0.2628299,0.9631901
634795921357080000,0.003910068,-0.06647116,-0.7233627,-11.22,14.1,-36.36,50,312,5,0.05848035,-0.2838504,0.3218324,5.750295,0.08447456,-0.0797243,0.03021865,-0.04952015,-0.2612364,0.9635301
634795921357280000,-0.01173021,-0.0742913,-0.8289345,-11.22,14.1,-36.36,50,312,5,0.1170124,-0.258309,0.162193,5.753508,0.0868163,-0.08491146,0.03074463,-0.05227306,-0.2594939,0.9638388
634795921357480000,-0.01564027,-0.08211143,-0.9188661,-11.22,14.1,-36.36,44,306,5,0.2596186,-0.03690718,0.09621377,5.755953,0.09155155,-0.08666753,0.03286124,-0.05369245,-0.2581423,0.9640539
634795921357680000,-0.003910068,-0.08211143,-0.9775171,-11.34,14.4,-35.64,30,292,5,-0.1032939,0.2312283,-0.08465523,5.758417,0.09564256,-0.08130765,0.03559885,-0.05159583,-0.2569967,0.9643772
634795921357880000,0.02346041,-0.06647116,-1.043988,-11.34,14.4,-35.64,27,289,5,-0.1032939,0.2312283,-0.08465523,5.756996,0.09237862,-0.07670486,0.03459003,-0.04898352,-0.2578921,0.9643111
634795921358100000,0.03128055,-0.05083089,-1.176931,-11.34,14.4,-35.64,27,289,5,-0.04902011,0.06306995,-0.1079994,5.754684,0.08943104,-0.07394814,0.0334742,-0.04731404,-0.2591514,0.9640962
634795921358280000,0.02737048,-0.04692082,-1.223851,-11.34,14.4,-35.64,27,289,5,0.1339921,0.5015311,-0.0664473,5.753213,0.08972739,-0.0688467,0.0342531,-0.04492055,-0.2599873,0.9639583
634795921358480000,0.04692082,-0.04692082,-1.212121,-11.34,14.4,-35.64,28,290,5,-0.008599244,0.7473671,0.02296795,5.752964,0.09141182,-0.062132,0.03594255,-0.04191026,-0.2602464,0.9639624
634795921358680000,0.05474096,-0.05474096,-1.15347,-11.34,14.4,-35.64,26,288,5,-0.1319988,0.6909632,0.1006312,5.754181,0.09136772,-0.04774057,0.03783397,-0.03494946,-0.2600291,0.9642261
634795921358880000,0.01955034,-0.03519062,-1.11437,-11.34,14.4,-35.64,26,288,5,-0.08089642,0.09394228,0.128248,5.757552,0.08779669,-0.03488827,0.03784348,-0.02822752,-0.2587726,0.9647838
634795921359080000,-0.007820137,-0.01173021,-1.13392,-11.4,13.5,-34.68,29,291,5,0.1830082,-0.200801,-0.0803583,5.756547,0.08928156,-0.03669012,0.03831054,-0.02930763,-0.2591929,0.9646204
634795921359290000,0,0.02346041,-1.216031,-11.4,13.5,-34.68,30,292,5,-0.05328234,-0.205058,-0.3251153,5.750327,0.091012,-0.04125655,0.03845077,-0.03185297,-0.2620544,0.9637606
634795921359480000,0.01564027,0.07038123,-1.251222,-11.4,13.5,-34.68,30,292,5,-0.3406191,0.1322907,-0.3868403,5.743017,0.08596706,-0.04083467,0.0359618,-0.03112024,-0.2656651,0.9628916
634795921359680000,0.03128055,0.1055719,-1.184751,-11.28,13.5,-34.38,32,294,5,-0.3235915,0.3472642,-0.3208584,5.736202,0.07881474,-0.03482306,0.03322832,-0.02738995,-0.2691841,0.9621256
634795921359880000,0.01955034,0.1251222,-1.094819,-11.28,13.5,-34.38,32,294,5,-0.0745597,0.1450418,-0.229335,5.73191,0.07571745,-0.03133571,0.03215547,-0.02536491,-0.2713617,0.9606646
634795921360080000,0,0.1329423,-1.051808,-11.28,13.5,-34.38,38,300,5,-0.1171048,-0.1188607,-0.2868032,5.71522,0.06869125,-0.03420221,0.02817039,-0.02602538,-0.2794107,0.9594054
634795921360280000,-0.007820137,0.1290323,-1.024438,-11.28,13.5,-34.38,38,300,5,-0.5119323,-0.2284759,-0.4602719,5.703949,0.06024861,-0.03878796,0.02332419,-0.02717687,-0.2848428,0.957905
634795921360480000,-0.01173021,0.1290323,-0.9853373,-11.28,13.5,-34.38,42,304,5,-0.482134,-0.2029345,-0.3964184,5.693249,0.04873395,-0.04263961,0.01711142,-0.02747284,-0.29006,0.956461
634795921360680000,-0.02346041,0.1055719,-0.9462366,-11.28,13.5,-34.38,42,304,5,-0.5023543,-0.1539802,-0.3134088,5.687177,0.03919005,-0.04475951,0.01215628,-0.02713902,-0.2930642,0.9556302
634795921360880000,-0.01564027,0.05474096,-0.9071358,-11.28,13.5,-34.38,44,306,5,-0.4682991,-0.2029345,-0.3400145,5.6783,0.02337026,-0.04768622,0.00405081,-0.02623662,-0.297482,0.9543583
634795921361080000,-0.003910068,0.007820137,-0.8719453,-11.22,12.6,-33.3,45,307,5,-0.4789413,-0.1901638,-0.4240882,5.662515,0.002191782,-0.05482733,-0.007327299,-0.02643543,-0.3052344,0.9518821
634795921361280000,0,-0.01173021,-0.8523949,-11.22,12.6,-33.3,45,307,5,-0.5236388,-0.0730487,-0.4592077,5.656732,-0.003709554,-0.05599583,-0.01038966,-0.02606085,-0.3080583,0.9509537
634795921361500000,0.01173021,-0.01564027,-0.8367546,-11.22,12.6,-33.3,45,307,5,-0.4619137,0.07917946,-0.3964184,5.648224,-0.01280045,-0.05500353,-0.01466212,-0.02412631,-0.3122171,0.9495912
634795921361680000,0.03128055,-0.007820137,-0.8328446,-11.22,12.6,-33.3,39,301,5,-0.2309769,0.2398618,-0.3208584,5.642289,-0.01685381,-0.05082535,-0.01599892,-0.02146204,-0.3150821,0.9486868
634795921361880000,0.04301075,0,-0.8250244,-11.22,12.6,-33.3,40,302,5,-0.110649,0.359055,-0.2676471,5.637026,-0.01838016,-0.04481804,-0.01582602,-0.01832995,-0.3175902,0.9479188
634795921362080000,0.04692082,0,-0.7859238,-11.22,12.6,-33.3,40,302,5,-0.04782466,0.4633491,-0.2559407,5.633523,-0.01862383,-0.03945922,-0.0151191,-0.01572456,-0.3192469,0.9474205
634795921362280000,0.06256109,0.003910068,-0.7311828,-11.22,12.6,-33.3,40,302,5,0.116037,0.2994584,-0.1729149,5.624811,-0.01325035,-0.0269506,-0.01062477,-0.01060957,-0.3233219,0.9461699
634795921362480000,0.07038123,0.003910068,-0.742913,-10.14,12.18,-33.06,43,305,5,0.3469738,-0.03684544,-0.01749262,5.622525,-0.006334782,-0.02686429,-0.007352468,-0.01167826,-0.3243644,0.9458315
634795921362690000,0.03519062,-0.007820137,-0.8367546,-10.14,12.18,-33.06,49,311,5,0.2799276,0.08125471,0.03251543,5.621736,-0.001707554,-0.02661967,-0.005129399,-0.01231094,-0.3247104,0.9457195
634795921362880000,0.003910068,-0.03519062,-0.8875855,-10.14,12.18,-33.06,49,311,5,0.3022763,0.1035713,-0.02496518,5.620998,0.004802465,-0.02417207,-0.001658113,-0.01220985,-0.3250254,0.945625
634795921363080000,0,-0.03910068,-0.9188661,-10.14,12.18,-33.06,49,311,5,0.3735794,-0.195433,0.0005637745,5.620776,0.01081681,-0.02252865,0.001451283,-0.01241034,-0.3250996,0.9455972
634795921363280000,0.02346041,-0.01955034,-0.9736071,-10.14,12.18,-33.06,41,303,5,0.3618729,-0.5040582,0.06757867,5.622239,0.01788712,-0.02580392,0.004272487,-0.01510481,-0.3243414,0.9460965
634795921363480000,0.03519062,-0.01564027,-1.075269,-8.94,12,-33.72,31,293,5,0.2756707,-0.4050854,-0.03354507,5.626159,0.0291152,-0.03890574,0.007500898,-0.02310525,-0.3222728,0.9463351
634795921363680000,0.02346041,-0.003910068,-1.192571,-8.94,12,-33.72,30,292,5,0.1468776,-0.2752498,-0.1091063,5.625619,0.03281879,-0.04384744,0.008448571,-0.02604189,-0.32243,0.9461973
634795921363880000,0.007820137,0.003910068,-1.286412,-8.94,12,-33.72,30,292,5,0.08297531,-0.08045197,-0.1005683,5.624013,0.03468776,-0.04584574,0.008987958,-0.02729551,-0.3231419,0.9459141
634795921364080000,0.03910068,0.007820137,-1.262952,-8.94,12,-33.72,27,289,5,0.3170604,0.1195892,0.15056,5.625183,0.03628897,-0.04592252,0.009748966,-0.02758483,-0.3225653,0.9460949
634795921364280000,0.1055719,0.003910068,-1.1652,-6.96,11.34,-33.6,23,285,5,0.5118136,0.2802689,0.0643149,5.629413,0.04463076,-0.04205465,0.01437767,-0.02707065,-0.3205004,0.9467523
634795921364480000,0.1564027,0.01173021,-1.1261,-6.96,11.34,-33.6,31,293,5,0.1999957,0.1450891,-0.04105371,5.631482,0.05243516,-0.0377121,0.01879702,-0.02624681,-0.3194809,0.9470426
634795921364680000,0.1564027,0.04301075,-1.208211,-6.96,11.34,-33.6,31,293,5,-0.5694391,-0.2433375,-0.1165896,5.628657,0.04340434,-0.04044747,0.01404551,-0.02611883,-0.3208967,0.9466498
634795921364880000,0.1173021,0.113392,-1.325513,-6.96,11.34,-33.6,36,298,5,-0.6279715,-0.6009171,-0.04313118,5.627106,0.0358417,-0.04647148,0.009475397,-0.02776325,-0.3216551,0.9464024
634795921365080000,0.07038123,0.1681329,-1.325513,-6.96,11.34,-33.6,36,298,5,0.1031225,-0.1997043,0.3112489,5.629411,0.03224254,-0.0563879,0.006210206,-0.03186819,-0.3204969,0.946693
634795921365280000,0.05474096,0.1642229,-1.204301,-6.96,11.34,-33.6,35,297,5,0.3521512,0.1248691,0.3463683,5.634326,0.03742337,-0.05570804,0.00885137,-0.03235494,-0.318095,0.9474652
634795921365480000,0.06256109,0.113392,-1.11828,-6.96,11.34,-33.6,35,297,5,-0.08526007,-0.1092019,0.1601114,5.636217,0.03831482,-0.05644869,0.00918658,-0.03283883,-0.3171592,0.947759
634795921365680000,0.04692082,0.1016618,-1.090909,-4.92,11.16,-33.72,33,295,5,-0.6652628,-0.3688729,0.08344808,5.637136,0.02494478,-0.06431925,0.001614774,-0.03444569,-0.3168672,0.9478429
634795921365880000,0.02737048,0.1290323,-1.036168,-4.92,11.16,-33.72,31,293,5,-0.1597401,-0.1485782,0.01637039,5.638446,0.01427841,-0.0720936,-0.004650437,-0.03644196,-0.3163572,0.9479285
634795921366090000,0.01173021,0.1368524,-0.9188661,-4.92,11.16,-33.72,29,291,5,-0.1022245,-0.0676254,0.03870678,5.639876,0.0106554,-0.07347118,-0.006559656,-0.03652636,-0.3157336,0.9481219
634795921366280000,-0.003910068,0.1173021,-0.8445748,-4.92,11.16,-33.72,29,291,5,-0.2405522,-0.1484743,0.02698614,5.64156,0.00398159,-0.07319009,-0.009649213,-0.03534751,-0.3150569,0.9483652
634795921366480000,-0.007820137,0.07820137,-0.7859238,-4.92,11.16,-33.72,32,294,5,-0.2182035,-0.3762185,-0.09431531,5.642239,-0.00203371,-0.07424318,-0.01265563,-0.03490337,-0.3148343,0.9484202
634795921366680000,0.007820137,0.0742913,-0.801564,-3.6,10.68,-34.2,28,290,5,-0.2182035,-0.3762185,-0.09431531,5.64286,-0.008646487,-0.08081853,-0.01681424,-0.03698557,-0.3134423,0.9485524
634795921366880000,0.01955034,0.07820137,-0.8132942,-3.6,10.68,-34.2,28,290,5,-0.1138506,-0.1442174,0.01424247,5.649251,-0.01618934,-0.09183252,-0.02198919,-0.04109184,-0.311701,0.9490366
634795921367080000,0.03910068,0.05865103,-0.797654,-3.6,10.68,-34.2,23,285,5,-0.09893025,0.0749896,0.06424445,5.653415,-0.01837182,-0.09077226,-0.02277617,-0.04029598,-0.3097714,0.9496837
634795921367280000,0.05474096,0.03128055,-0.7585533,-3.6,10.68,-34.2,27,289,5,-0.05210967,0.2047601,0.1142309,5.656564,-0.01944876,-0.08847808,-0.02287159,-0.03907551,-0.3083031,0.9502101
634795921367480000,0.04301075,0.007820137,-0.7116324,-3.6,10.68,-34.2,30,292,5,0.1553665,0.1472358,0.1556984,5.660814,-0.01845884,-0.08495879,-0.02178026,-0.03760197,-0.3062715,0.9509519
634795921367680000,0.02737048,-0.02346041,-0.7233627,-2.04,10.2,-33.72,24,286,5,0.3022295,-0.07733176,0.1109799,5.665045,-0.0130918,-0.08441579,-0.01906456,-0.03820583,-0.3041588,0.951664
634795921367880000,0.01955034,-0.02737048,-0.8172043,-2.04,10.2,-33.72,24,286,5,0.1574698,-0.08584791,-0.1581488,5.66935,-0.003477812,-0.09101127,-0.01539939,-0.04283931,-0.3018841,0.9522572
634795921368080000,0.03519062,0,-0.8914956,-2.04,10.2,-33.72,16,278,5,0.1946927,0.1556712,-0.08891542,5.671426,-0.0008928775,-0.0901066,-0.01398773,-0.0428132,-0.3008455,0.9526087
634795921368280000,0.05865103,0.02346041,-0.9032258,-2.04,10.2,-33.72,11,273,5,0.2862161,0.006629644,0.03774823,5.675989,0.00380969,-0.08750057,-0.01125918,-0.042305,-0.2985894,0.9533771
634795921368480000,0.05474096,0.007820137,-0.9462366,-2.04,10.2,-33.72,20,282,5,0.3798678,-0.2572929,0.08562952,5.681784,0.01013827,-0.08911467,-0.008355988,-0.04404331,-0.2956758,0.9542359
634795921368680000,0.02737048,-0.003910068,-1.055718,-2.04,10.2,-33.72,20,282,5,0.328785,-0.3264675,0.0441274,5.686475,0.01681876,-0.09431815,-0.005827863,-0.04752647,-0.2932321,0.9548415
634795921368880000,0.01955034,0,-1.16911,-1.74,8.94,-34.02,18,280,5,0.2415186,-0.1593841,-0.002677536,5.690628,0.02213311,-0.09917163,-0.003899236,-0.05063003,-0.2910618,0.9557987
634795921369080000,0.03910068,0.01173021,-1.196481,-1.74,8.94,-34.02,9,271,5,0.2542893,0.3280181,-0.02819616,5.698812,0.02953959,-0.09476995,0.0004848684,-0.04960417,-0.2870226,0.9566385
634795921369280000,0.06647116,0.01564027,-1.16911,-1.74,8.94,-34.02,6,268,5,0.1254991,0.4014496,0.1239822,5.706494,0.03172183,-0.08731842,0.002781308,-0.04634402,-0.2833961,0.9578785
634795921369490000,0.04692082,0,-1.16911,-1.74,8.94,-34.02,6,268,5,-0.09583379,0.266293,0.2942582,5.716228,0.02948952,-0.08284318,0.002562726,-0.04387308,-0.2788407,0.9593313
634795921369680000,0.01564027,0.003910068,-1.16911,-1.74,8.94,-34.02,14,276,5,-0.1021569,-0.05405769,0.4134514,5.726892,0.02716112,-0.08395147,0.001525728,-0.04407232,-0.2737593,0.9607868
634795921369880000,-0.007820137,0.01564027,-1.184751,-1.74,8.94,-34.02,10,272,5,0.1393998,-0.2371044,-0.2304129,5.731915,0.02795744,-0.08663058,0.001654166,-0.04546389,-0.2712941,0.9614207
634795921370080000,-0.01564027,0.03910068,-1.239492,-3.42,7.14,-35.7,19,281,5,-0.2064718,-0.09343126,-0.4177165,5.734557,0.03102064,-0.09088861,0.00260983,-0.04792192,-0.2717159,0.961123
634795921370280000,-0.03128055,0.09384164,-1.270772,-3.42,7.14,-35.7,19,281,5,-0.3214081,0.1385175,-0.3698264,5.72614,0.02469993,-0.09252893,-0.0008532252,-0.04785401,-0.2740719,0.9605175
634795921370480000,-0.03519062,0.1094819,-1.200391,-3.42,7.14,-35.7,15,277,5,-0.1926369,0.1916391,-0.2889453,5.722991,0.02033281,-0.08926486,-0.00257359,-0.04568425,-0.2757239,0.9601472
634795921370680000,-0.03128055,0.1055719,-1.094819,-3.42,7.14,-35.7,17,279,5,-0.01917243,0.029839,-0.363441,5.720829,0.01933479,-0.08841144,-0.002983499,-0.04513383,-0.2767935,0.9598643
634795921370880000,-0.02346041,0.1094819,-1.032258,-3.42,7.14,-35.7,20,282,5,-0.1426415,-0.245795,-0.5730934,5.715398,0.01891827,-0.08930147,-0.003430445,-0.04549406,-0.2793985,0.9590907
634795921371080000,0.007820137,0.1368524,-1.040078,-7.02,5.94,-36.72,60,322,5,-0.3171744,-0.4479978,-0.6816443,5.705671,0.01525164,-0.09546936,-0.00628567,-0.04790874,-0.2840793,0.9575825
634795921371280000,0.02346041,0.1759531,-1.047898,-7.02,5.94,-36.72,60,322,5,-0.2735412,-0.4267133,-0.6497176,5.67001,0.0030725,-0.1052215,-0.01440836,-0.05059728,-0.3013125,0.9520731
634795921371480000,0.01173021,0.1915933,-0.9931574,-7.02,5.94,-36.72,65,327,5,-0.0883676,-0.2000333,-0.3602484,5.659646,0.002366066,-0.1058153,-0.01509702,-0.05069599,-0.3062544,0.950479
634795921371680000,0.007820137,0.1329423,-0.8797654,-7.02,5.94,-36.72,85,347,5,0.01691332,-0.07126484,0.03559764,5.646826,0.002133608,-0.1043955,-0.01531012,-0.04988854,-0.3123589,0.9485297
634795921371890000,0,0.03519062,-0.801564,-7.02,5.94,-36.72,85,347,5,0.01691332,-0.07126484,0.03559764,5.634914,-0.0006301402,-0.1023954,-0.01659706,-0.04841026,-0.3180874,0.9466791
634795921372080000,-0.01173021,-0.01564027,-0.801564,-7.02,5.94,-36.72,81,343,5,-0.07570332,-0.3149724,-0.1771904,5.621996,-0.003844976,-0.1040809,-0.01870085,-0.04857696,-0.32426,0.9445348
634795921372280000,-0.007820137,-0.01173021,-0.8289345,-7.02,5.94,-36.72,81,343,5,-0.06294806,-0.3362569,-0.2793561,5.614026,-0.004192352,-0.1097219,-0.01998269,-0.05110545,-0.3279859,0.9430876
634795921372480000,-0.003910068,0.02346041,-0.8484849,-12.24,6.6,-37.62,57,319,5,0.04129237,-0.266018,-0.269778,5.602982,-0.0007295608,-0.1156305,-0.01961876,-0.05435179,-0.3330458,0.9411384
634795921372680000,-0.01564027,0.03519062,-0.8445748,-12.24,6.6,-37.62,57,319,5,0.123218,0.3597467,0.01333895,5.598012,0.002485752,-0.1121222,-0.01765362,-0.05319248,-0.3353311,0.9404318
634795921372890000,-0.01173021,0.01955034,-0.797654,-12.24,6.6,-37.62,62,324,5,0.1572303,0.3097281,-0.01432452,5.593719,0.005437136,-0.1048894,-0.01516023,-0.0502538,-0.337346,0.9399162
634795921373080000,0,-0.003910068,-0.7507331,-12.24,6.6,-37.62,63,325,5,0.183836,0.129844,-0.06326451,5.588896,0.009004593,-0.09979761,-0.01274057,-0.04843213,-0.3395759,0.9392445
634795921373280000,-0.003910068,-0.01173021,-0.7781036,-16.32,9.12,-38.1,60,322,5,0.1305774,-0.0223571,-0.04939766,5.585456,0.01159072,-0.09835315,-0.01136339,-0.04817345,-0.3411442,0.938707
634795921373480000,-0.01955034,-0.01173021,-0.8602151,-16.32,9.12,-38.1,60,322,5,0.1581551,0.1138207,-0.01744206,5.581301,0.01475906,-0.09805274,-0.009925875,-0.04855235,-0.3445804,0.9374976
634795921373680000,-0.02346041,-0.003910068,-0.911046,-16.32,9.12,-38.1,58,320,5,0.2635134,0.3340753,0.07728377,5.576208,0.02322578,-0.09018457,-0.004719831,-0.04630293,-0.3453063,0.9373352
634795921373880000,-0.01564027,0.007820137,-0.9384164,-16.32,9.12,-38.1,55,317,5,0.1996598,0.3074697,0.1442994,5.575973,0.02748084,-0.08403455,-0.001665685,-0.04415612,-0.3454033,0.9374135
634795921374080000,-0.003910068,0.003910068,-0.9775171,-16.32,9.12,-38.1,55,317,5,0.0410293,0.1169631,0.2549788,5.576724,0.02888227,-0.08134651,-0.0005269119,-0.04313891,-0.3450578,0.9375894
634795921374280000,-0.003910068,-0.01564027,-1.043988,-16.32,9.12,-38.1,56,318,5,0.08252269,-0.1054195,0.2603,5.578708,0.0292871,-0.08010876,-8.062363E-05,-0.04262889,-0.3441358,0.9379517
634795921374480000,-0.02737048,-0.02737048,-1.15347,-16.32,9.12,-38.1,56,318,5,0.3506955,-0.2746314,0.149605,5.580095,0.03144646,-0.08161676,0.0007020758,-0.04370677,-0.3434173,0.9381651
634795921374680000,-0.05083089,-0.007820137,-1.266862,-18,13.02,-37.26,45,307,5,0.4815952,-0.1426674,0.05273241,5.579783,0.03862166,-0.08398389,0.003652608,-0.04604883,-0.3433663,0.9380649
634795921374880000,-0.03910068,0.03910068,-1.282502,-18,13.02,-37.26,40,302,5,0.3964572,0.3404926,0.1527362,5.581675,0.05145406,-0.07894146,0.01058474,-0.04587773,-0.3422729,0.9384202
634795921375080000,-0.007820137,0.08602151,-1.212121,-18,13.02,-37.26,38,300,5,0.01333603,0.6831731,0.2836359,5.5864,0.05160046,-0.06641865,0.01290283,-0.04000012,-0.3402805,0.9393842
634795921375280000,0.05083089,0.08602151,-1.212121,-18,13.02,-37.26,38,300,5,-0.4719382,0.228749,0.246388,5.588977,0.04355883,-0.06193471,0.009938908,-0.03651365,-0.3392981,0.9399174
634795921375480000,0.08993158,0.08993158,-1.325513,-18,13.02,-37.26,41,303,5,-0.1313741,-0.7024447,-0.00901638,5.587829,0.03706359,-0.06609011,0.006157468,-0.03736712,-0.3398961,0.9397002
634795921375680000,0.0742913,0.1564027,-1.380254,-16.08,16.74,-37.38,39,301,5,-0.1313741,-0.7024447,-0.00901638,5.58445,0.03223562,-0.07782149,0.001817799,-0.04205894,-0.3414112,0.9389708
634795921375880000,0.05474096,0.1915933,-1.262952,-16.08,16.74,-37.38,38,300,5,0.4741656,0.3362024,0.537995,5.593274,0.04676461,-0.08224034,0.008087028,-0.04657575,-0.3368724,0.9403629
634795921376080000,0.05083089,0.1290323,-1.075269,-16.08,16.74,-37.38,38,300,5,0.1240195,0.1871812,0.4815911,5.598261,0.05001711,-0.07884812,0.01030421,-0.04550417,-0.3345129,0.9412355
634795921376300000,0.05083089,0.04692082,-0.9657869,-16.08,16.74,-37.38,40,302,5,-0.3144441,-0.3534623,0.2346909,5.603227,0.0484674,-0.07925235,0.009619677,-0.04541131,-0.3322029,0.9420651
634795921376480000,0.04692082,0.04692082,-0.9657869,-16.08,16.74,-37.38,45,307,5,-0.3197652,-0.625904,0.05908999,5.60381,0.04122448,-0.08906674,0.004583647,-0.04882643,-0.3319264,0.9420297
634795921376680000,0.04692082,0.09384164,-1.000978,-16.08,16.74,-37.38,45,307,5,-0.1250037,-0.5109677,-0.04305902,5.602818,0.03492093,-0.09663498,0.0003269085,-0.05134273,-0.3324254,0.941731
634795921376880000,0.04301075,0.1251222,-1.008798,-12.54,18.42,-38.04,35,297,5,-0.1515823,-0.4088021,-0.01111397,5.601444,0.03269004,-0.1002674,-0.004417183,-0.05381804,-0.3333448,0.9412574
634795921377080000,0.01564027,0.113392,-0.9657869,-12.54,18.42,-38.04,35,297,5,-0.3154729,-0.2757739,0.1527518,5.604028,0.01782799,-0.1065803,-0.00934841,-0.0531861,-0.3321563,0.9416773
634795921377280000,-0.003910068,0.0742913,-0.8914956,-12.54,18.42,-38.04,37,299,5,-0.3037665,-0.04165065,0.1463527,5.606946,0.009077311,-0.1048664,-0.01310888,-0.05094475,-0.3310303,0.9421527
634795921377490000,0,0.03128055,-0.8054741,-12.54,18.42,-38.04,39,301,5,-0.3080233,0.1339262,0.06225276,5.608232,0.003486395,-0.1022761,-0.01528197,-0.04880886,-0.3305893,0.9423879
634795921377680000,0.01955034,0.03128055,-0.7702835,-12.54,18.42,-38.04,36,298,5,-0.5070335,0.2062657,0.0186174,5.609761,-0.003064394,-0.09836781,-0.01768748,-0.0458977,-0.3300568,0.9426787
634795921377880000,0.04692082,0.05083089,-0.7507331,-12.54,18.42,-38.04,36,298,5,-0.5070335,0.2062657,0.0186174,5.611369,-0.01232839,-0.09344851,-0.02120896,-0.04206638,-0.3295326,0.9429681
634795921378080000,0.05083089,0.05865103,-0.742913,-12.54,18.42,-38.04,36,298,5,-0.3239867,0.02745246,0.1878088,5.614667,-0.01962566,-0.09150993,-0.02426472,-0.03998958,-0.3281345,0.9434722
634795921378280000,0.03910068,0.03128055,-0.7546432,-9.72,19.5,-38.82,37,299,5,0.4763171,-0.0002203683,0.1803592,5.623239,-0.01566863,-0.09198391,-0.02230027,-0.04095829,-0.324006,0.9449049
634795921378480000,0.03519062,0.007820137,-0.7702835,-9.72,19.5,-38.82,34,296,5,0.3581881,0.04553227,0.1590431,5.628129,-0.006288767,-0.0912056,-0.01763953,-0.0421529,-0.3215029,0.9458054
634795921378680000,0.03128055,-0.003910068,-0.7741935,-9.72,19.5,-38.82,34,296,5,0.1453303,0.1114822,0.1579308,5.632925,-0.001381159,-0.08983897,-0.0149976,-0.04233142,-0.3191392,0.9466432
634795921378880000,0.03910068,-0.003910068,-0.7624633,-9.72,19.5,-38.82,31,293,5,0.1197709,0.1316455,0.2185916,5.636296,0.0004107952,-0.08828104,-0.01383027,-0.04190327,-0.3175161,0.9472256
634795921379080000,0.04301075,0,-0.7898338,-7.44,18.72,-40.08,25,287,5,0.148487,0.08155821,0.1802795,5.642304,0.002816916,-0.08563053,-0.01214646,-0.04106662,-0.3146385,0.948245
634795921379280000,0.02346041,-0.003910068,-0.8523949,-7.44,18.72,-40.08,27,289,5,0.224047,-0.02274905,0.1514972,5.654234,0.0102911,-0.08413792,-0.008119759,-0.04158375,-0.3088341,0.9501718
634795921379480000,0.003910068,0.003910068,-0.9384164,-7.44,18.72,-40.08,27,289,5,0.3081208,-0.1802468,0.07910008,5.657198,0.01397872,-0.08573079,-0.006550585,-0.04291942,-0.3073329,0.9506111
634795921379700000,0.01173021,0.02346041,-1.075269,-7.44,18.72,-40.08,21,283,5,0.4113506,-0.4037341,0.002470867,5.660958,0.02065563,-0.09165514,-0.004201456,-0.04676813,-0.3053307,0.951088
634795921379880000,0.03128055,0.03910068,-1.184751,-7.44,18.72,-40.08,17,279,5,0.3932588,-0.02274128,-0.01241828,5.664379,0.0292077,-0.09634769,-0.0007675037,-0.0503051,-0.3034348,0.9515231
634795921380080000,0.04692082,0.05083089,-1.200391,-7.56,17.34,-40.5,18,280,5,0.1782853,0.3358877,-0.001775497,5.667579,0.03368378,-0.09219478,0.002073541,-0.04900599,-0.3018613,0.9520892
634795921380280000,0.03519062,0.07038123,-1.184751,-7.56,17.34,-40.5,18,280,5,0.05164292,0.1943239,0.117397,5.670002,0.03451681,-0.08833181,0.003942969,-0.04676981,-0.29828,0.9533237
634795921380480000,-0.01564027,0.09775171,-1.188661,-7.56,17.34,-40.5,18,280,5,0.2602301,-0.1600805,0.2695812,5.681781,0.04167795,-0.09127438,0.006372001,-0.04973022,-0.2949104,0.9542087
634795921380680000,-0.04301075,0.1016618,-1.243402,-7.56,17.34,-40.5,20,282,5,0.4528548,-0.2356405,0.03651436,5.682928,0.04843163,-0.09597731,0.008926539,-0.05296274,-0.2941066,0.9542623
634795921380890000,-0.01955034,0.113392,-1.352884,-7.56,17.34,-40.5,16,278,5,-0.3272205,0.05062013,-0.3923423,5.681008,0.04999947,-0.09851991,0.009245629,-0.05441439,-0.2949325,0.9539227
634795921381080000,0.007820137,0.1759531,-1.411535,-7.56,17.34,-40.5,13,275,5,-0.2505963,0.5869608,-0.006025587,5.677473,0.04416823,-0.09769762,0.006492512,-0.05317391,-0.2967901,0.9534391
634795921381280000,0.007820137,0.2150538,-1.309873,-7.56,17.34,-40.5,13,275,5,-0.2505963,0.5869608,-0.006025587,5.678058,0.03998756,-0.09233391,0.005315304,-0.04999617,-0.2967106,0.953643
634795921381480000,-0.01173021,0.172043,-1.106549,-8.34,15.6,-41.28,19,281,5,0.3571043,0.5954745,0.2206438,5.693256,0.04481148,-0.06319391,0.01224399,-0.03672941,-0.2898107,0.9563006
634795921381680000,-0.02346041,0.08602151,-0.9657869,-8.34,15.6,-41.28,30,292,5,-0.07070764,-0.009043733,-0.2050497,5.693331,0.04635859,-0.05997144,0.01345424,-0.03541297,-0.2897966,0.9563382
634795921381880000,0,0.06256109,-0.9970675,-8.34,15.6,-41.28,31,293,5,-0.4889481,-0.4102566,-0.4338581,5.688838,0.040905,-0.06293321,0.01033443,-0.03606162,-0.2919977,0.9556831
634795921382090000,0.01955034,0.1212121,-1.067449,-8.34,15.6,-41.28,31,293,5,-0.3995532,-0.4113209,-0.4029956,5.682629,0.02983022,-0.06984901,0.003911524,-0.03776012,-0.2950755,0.9547195
634795921382280000,0.01564027,0.1603128,-1.059628,-8.34,15.6,-41.28,26,288,5,-0.1036596,-0.03352953,-0.1986644,5.677904,0.02280521,-0.07372463,-0.0001065556,-0.03857282,-0.2974188,0.9539676
634795921382480000,0.02346041,0.1251222,-0.969697,-8.34,15.6,-41.28,26,288,5,-0.07594693,0.2292897,-0.0890277,5.675503,0.02135587,-0.07270669,-0.0006915749,-0.03787109,-0.2986026,0.9536256
634795921382680000,0.03128055,0.06256109,-0.8875855,-8.88,14.4,-41.88,41,303,5,-0.2834458,0.06748129,-0.1592373,5.670244,0.0122025,-0.06896591,-0.004587634,-0.03470868,-0.30131,0.9528833
634795921382880000,0.03910068,0.03519062,-0.8836755,-8.88,14.4,-41.88,41,303,5,-0.4579788,-0.3284017,-0.280559,5.66452,0.00244832,-0.07354116,-0.01002602,-0.03538984,-0.3041742,0.951906
634795921383080000,0.05083089,0.05474096,-0.911046,-8.88,14.4,-41.88,42,304,5,-0.2302346,-0.3411724,-0.3050361,5.658686,-0.001775026,-0.07998573,-0.01312649,-0.03777645,-0.3069885,0.9508726
634795921383280000,0.04692082,0.07820137,-0.8954057,-8.88,14.4,-41.88,37,299,5,-0.01413481,-0.1506761,-0.2837517,5.653743,-0.001223326,-0.08188581,-0.01325148,-0.03873182,-0.3093155,0.950078
634795921383480000,0.05474096,0.0742913,-0.8484849,-8.88,14.4,-41.88,37,299,5,-0.1343336,0.05141192,-0.07192496,5.651408,-0.0002083778,-0.08012295,-0.01254121,-0.03803671,-0.310416,0.9497567
634795921383680000,0.07038123,0.05865103,-0.8211144,-8.88,14.4,-41.88,37,299,5,-0.1310909,-0.1411856,-0.03040092,5.648943,-0.001285076,-0.07783926,-0.01274337,-0.03676945,-0.31162,0.9491059
634795921383880000,0.0742913,0.04692082,-0.8406647,-9.18,13.56,-42.18,48,310,5,0.1104725,-0.09218973,0.01003495,5.645956,-0.002366066,-0.08121073,-0.01383879,-0.03818079,-0.3130385,0.9488718
634795921384080000,0.06256109,0.04692082,-0.8602151,-9.18,13.56,-42.18,49,311,5,0.2179593,0.1195926,0.02598301,5.644752,0.001864433,-0.0800122,-0.0116671,-0.03826719,-0.3135366,0.948733
634795921384290000,0.04301075,0.04692082,-0.8523949,-9.18,13.56,-42.18,47,309,5,0.05298416,0.202536,0.1132251,5.644433,0.004182577,-0.07745277,-0.010172,-0.03741489,-0.3136611,0.948743
634795921384480000,0.02737048,0.04692082,-0.8289345,-9.18,13.56,-42.18,47,309,5,0.02850943,0.06306721,0.1408597,5.645739,0.00494957,-0.07418859,-0.009272383,-0.03599289,-0.3130505,0.9490089
634795921384680000,0.02346041,0.04692082,-0.8328446,-9.18,13.56,-42.18,43,305,5,0.3413893,-0.1774547,0.1567889,5.647737,0.007029056,-0.07448255,-0.008295347,-0.03646607,-0.3120629,0.9493251
634795921384880000,0.02346041,0.05865103,-0.8758553,-8.88,12.84,-42,43,305,5,0.6957763,-0.09869833,0.1876374,5.653259,0.02786231,-0.07891845,0.00101568,-0.04181686,-0.3089878,0.9501457
634795921385080000,0.03128055,0.06256109,-0.9501466,-8.88,12.84,-42,43,305,5,0.6138309,-0.01249193,0.1738025,5.654907,0.03376555,-0.07925785,0.003802902,-0.04288675,-0.3080749,0.9503874
634795921385280000,0.02737048,0.05865103,-1.036168,-8.88,12.84,-42,43,305,5,0.1689848,-0.1146243,0.1460883,5.656942,0.0360136,-0.08071363,0.004690613,-0.04391969,-0.3070382,0.9506717
634795921385490000,0.02737048,0.1016618,-1.13001,-8.88,12.84,-42,42,304,5,0.02957334,-0.1848632,0.1822372,5.659669,0.03466725,-0.0818578,0.00393462,-0.04425127,-0.3057544,0.9510734
634795921385680000,0.03128055,0.1368524,-1.14565,-8.88,12.84,-42,36,298,5,0.5691223,0.3866417,0.417431,5.665308,0.03767467,-0.07921374,0.005893287,-0.04343781,-0.3030448,0.9519676
634795921385880000,0.04692082,0.1407625,-1.098729,-8.88,12.84,-42,37,299,5,0.5712508,0.6846247,0.4940552,5.672117,0.04693413,-0.07279467,0.01142036,-0.04174808,-0.2997066,0.9530491
634795921386080000,0.03910068,0.1251222,-1.047898,-8.64,13.32,-41.94,39,301,5,0.1615109,0.3547149,0.3503848,5.683011,0.05829191,-0.05665541,0.0194592,-0.03565761,-0.294571,0.9547659
634795921386280000,0.03910068,0.1290323,-1.106549,-8.64,13.32,-41.94,39,301,5,-0.2694866,-0.6573321,0.0928138,5.683495,0.05415845,-0.06424844,0.01637103,-0.03866774,-0.2942807,0.9547961
634795921386480000,0.05083089,0.1798632,-1.321603,-8.64,13.32,-41.94,43,305,5,-0.16411,-1.125591,-0.08702535,5.67982,0.0496509,-0.0844146,0.01114735,-0.04764571,-0.2957709,0.9540048
634795921386680000,0.03519062,0.2697947,-1.466276,-8.64,13.32,-41.94,41,303,5,0.1274856,-0.4178815,0.1588115,5.677801,0.04949927,-0.09857654,0.008911425,-0.054382,-0.2964742,0.9534497
634795921386880000,0.04301075,0.2815249,-1.337243,-8.64,13.32,-41.94,39,301,5,0.2743486,0.3909327,0.4929782,5.680388,0.05159807,-0.09896255,0.009925307,-0.05486418,-0.2951755,0.9538149
634795921387080000,0.0742913,0.1994135,-1.086999,-8.64,13.32,-41.94,39,301,5,0.3094681,0.6271906,0.6494193,5.687927,0.05562329,-0.09005773,0.0133632,-0.05116455,-0.2880651,0.9562839
634795921387280000,0.08211143,0.1251222,-0.9657869,-8.04,13.02,-41.16,42,304,5,0.1987886,0.2461981,0.51107,5.698863,0.06017327,-0.08214199,0.01696236,-0.04795873,-0.2864667,0.9567388
634795921387480000,0.0742913,0.1290323,-1.004888,-8.04,13.02,-41.16,51,313,5,-0.2758528,-0.4018989,0.2960965,5.700458,0.05389094,-0.08739578,0.01323796,-0.04955967,-0.2857532,0.9569293
634795921387690000,0.06256109,0.1642229,-1.055718,-8.04,13.02,-41.16,50,312,5,-0.1098229,-0.05601428,0.3471794,5.70203,0.04832911,-0.089931,0.01025108,-0.04996897,-0.2850917,0.9571419
634795921387880000,0.05865103,0.1681329,-1.024438,-8.04,13.02,-41.16,50,312,5,-0.0353212,0.1908341,0.3769777,5.705662,0.04236412,-0.08884335,0.007640732,-0.04858442,-0.2835192,0.9577046
634795921388080000,0.06647116,0.1407625,-0.9657869,-8.04,13.02,-41.16,48,310,5,-0.2492166,0.1120183,0.3322802,5.709343,0.04097843,-0.0859381,0.007478138,-0.04698384,-0.2818358,0.9582824
634795921388280000,0.06256109,0.1094819,-0.9462366,-8.16,13.14,-40.68,51,313,5,-0.4343918,-0.1646802,0.2971608,5.715464,0.02022052,-0.08131683,-0.001685721,-0.04184771,-0.2794237,0.959254
634795921388480000,0.05083089,0.1016618,-0.9618768,-8.16,13.14,-40.68,47,309,5,-0.180025,-0.06781568,0.1886098,5.716714,0.01408744,-0.0812391,-0.004590861,-0.04095627,-0.2789515,0.9594204
634795921388680000,0.03910068,0.1212121,-0.9931574,-8.16,13.14,-40.68,47,309,5,-0.07992235,0.09289233,0.1683895,5.717917,0.00927949,-0.07903921,-0.006566336,-0.03923427,-0.2784891,0.9596152
634795921388890000,0.02346041,0.1212121,-0.9814272,-8.16,13.14,-40.68,44,306,5,-0.1479723,0.262094,0.1566562,5.719187,0.005241871,-0.07390129,-0.007764418,-0.0362118,-0.2779922,0.9598691
634795921389080000,0.03519062,0.1094819,-0.9423265,-8.16,13.14,-40.68,44,306,5,-0.1553671,0.2706078,0.08745542,5.719979,-0.0005044937,-0.06656611,-0.009489655,-0.03189614,-0.2777503,0.9600767
634795921389280000,0.05474096,0.1212121,-0.8954057,-8.16,13.14,-40.68,44,306,5,-0.06596216,0.163077,0.009765175,5.719504,-0.005274296,-0.06076443,-0.01098066,-0.02844577,-0.2780719,0.9600762
634795921389480000,0.05865103,0.1407625,-0.9032258,-7.68,14.46,-40.8,38,300,5,0.0340368,0.09385694,0.04594223,5.718391,-0.005496025,-0.05773377,-0.01068089,-0.0269541,-0.2786176,0.9599644
634795921389680000,0.05865103,0.1368524,-0.911046,-7.68,14.46,-40.8,45,307,5,-0.01921213,0.1799847,0.03528465,5.717605,-0.005975246,-0.05479741,-0.01051209,-0.02547373,-0.2790088,0.959893
634795921389880000,0.0742913,0.1329423,-0.9071358,-7.68,14.46,-40.8,48,310,5,-0.10009,0.1703563,-0.02324783,5.715172,-0.007956266,-0.05148685,-0.01103002,-0.02359495,-0.2802069,0.9595862
634795921390080000,0.07038123,0.1407625,-0.9188661,-7.68,14.46,-40.8,48,310,5,-0.05749923,0.03304178,-0.04983346,5.713209,-0.008864164,-0.0509541,-0.0114139,-0.0232009,-0.2811604,0.9593124
634795921390280000,0.05083089,0.1407625,-0.9540567,-7.68,14.46,-40.8,47,309,5,0.05100279,-0.01916826,-0.09979989,5.709892,-0.008069754,-0.04995608,-0.01093049,-0.02281572,-0.2827434,0.9588619
634795921390480000,0.05083089,0.1329423,-0.9970675,-7.68,14.46,-40.8,48,310,5,0.01268014,-0.1330436,-0.1050943,5.705953,-0.006599664,-0.04937112,-0.01018775,-0.02272308,-0.2846159,0.9583181
634795921390680000,0.04692082,0.1407625,-1.024438,-7.2,15.6,-39.96,38,300,5,0.159505,-0.1447501,-0.1337912,5.69874,-0.006238222,-0.05264198,-0.01056754,-0.02430384,-0.2880589,0.9572459
634795921390880000,0.03128055,0.1407625,-1.036168,-7.2,15.6,-39.96,35,297,5,0.2861478,-0.02662316,-0.1848382,5.696394,-0.004927158,-0.0526458,-0.009969305,-0.02448281,-0.2891653,0.9569141
634795921391080000,0.03519062,0.1251222,-1.040078,-7.2,15.6,-39.96,35,297,5,0.1861106,-0.04579485,-0.2188934,5.692817,-0.002739191,-0.05175197,-0.00883678,-0.02435572,-0.2908522,0.9564171
634795921391280000,0.05083089,0.1251222,-1.028348,-7.2,15.6,-39.96,34,296,5,-0.03100768,-0.06390061,-0.2625266,5.688805,-0.003653288,-0.05177236,-0.009325531,-0.02421387,-0.2927814,0.9558273
634795921391480000,0.05865103,0.1368524,-1.016618,-7.2,15.6,-39.96,32,294,5,-0.131018,-0.02666019,-0.3189305,5.684112,-0.007106065,-0.05158162,-0.01100304,-0.02359148,-0.2950654,0.9551224
634795921391680000,0.05865103,0.1290323,-1.008798,-7.2,16.44,-40.26,31,293,5,-0.1032896,-0.02666413,-0.3274443,5.672806,-0.01478791,-0.04952478,-0.01448955,-0.02139408,-0.3005483,0.9534165
634795921391880000,0.05083089,0.113392,-0.9892473,-7.2,16.44,-40.26,31,293,5,-0.03938814,-0.05326752,-0.2944534,5.66945,-0.01652288,-0.0491333,-0.01529294,-0.02092105,-0.3021664,0.9529029
634795921392080000,0.03519062,0.1055719,-0.9814272,-7.2,16.44,-40.26,34,296,5,-0.02973316,-0.1032487,-0.2625266,5.665029,-0.01862431,-0.04938519,-0.01637802,-0.02068744,-0.3042939,0.9522127
634795921392280000,0.02737048,0.09384164,-0.9814272,-7.2,16.44,-40.26,32,294,5,-0.07336671,0.02550675,-0.268912,5.661076,-0.02081156,-0.04947674,-0.01747352,-0.02036376,-0.3061978,0.9515897
634795921392480000,0.04301075,0.09384164,-0.969697,-7.2,16.44,-40.26,27,289,5,-0.1371702,-6.189353E-05,-0.2178292,5.657271,-0.02363658,-0.04790735,-0.01861421,-0.01914901,-0.3080332,0.9510008
634795921392680000,0.05474096,0.1016618,-0.9423265,-7.2,16.44,-40.26,27,289,5,-0.152012,-0.05645997,-0.1507479,5.654607,-0.02720141,-0.04681134,-0.02016483,-0.01805188,-0.3093301,0.9505695
634795921392880000,0.05865103,0.08993158,-0.9423265,-7.14,17.88,-40.8,27,289,5,-0.1062599,-0.1224121,-0.1517648,5.651791,-0.03241396,-0.04807031,-0.02286168,-0.01781189,-0.3107189,0.95006
634795921393080000,0.04692082,0.08211143,-0.9540567,-7.14,17.88,-40.8,30,292,5,-0.003037501,-0.113886,-0.155971,5.650087,-0.03309703,-0.050403,-0.02356369,-0.01879406,-0.3115435,0.9497538
634795921393280000,0.03910068,0.08993158,-0.969697,-7.14,17.88,-40.8,30,292,5,-0.02325597,-0.154324,-0.1197458,5.648914,-0.03345776,-0.05233919,-0.02404726,-0.01964349,-0.3121117,0.9495379
634795921393480000,0.04301075,0.08993158,-1.000978,-7.14,17.88,-40.8,26,288,5,-0.148804,-0.1692231,-0.07396433,5.649091,-0.03623772,-0.05379558,-0.02559194,-0.01990353,-0.3120613,0.9495087
634795921393680000,0.05865103,0.07820137,-1.036168,-7.14,17.88,-40.8,26,288,5,-0.2339248,-0.1266493,-0.1143785,5.649014,-0.04086304,-0.05504667,-0.02798309,-0.01977482,-0.3121499,0.9494147
634795921393880000,0.06647116,0.08602151,-1.040078,-7.98,18.18,-40.8,27,289,5,-0.2158329,-0.04363414,-0.1292436,5.648355,-0.04559541,-0.05475342,-0.03019012,-0.01809838,-0.3127477,0.9491557
634795921394080000,0.0742913,0.09775171,-1.020528,-7.98,18.18,-40.8,27,289,5,0.01938179,-0.05961093,-0.04513799,5.647936,-0.04907656,-0.05251646,-0.03149777,-0.01727427,-0.3127212,0.9491654
634795921394280000,0.06647116,0.1016618,-1.012708,-7.98,18.18,-40.8,28,290,5,0.1491598,-0.07768956,-0.03767702,5.64819,-0.04791045,-0.05181133,-0.03083244,-0.01712573,-0.3125853,0.9492347
634795921394480000,0.05474096,0.1016618,-1.016618,-7.98,18.18,-40.8,28,290,5,0.2193986,0.00426365,0.06341681,5.648918,-0.04534912,-0.05079317,-0.029452,-0.01705329,-0.3122108,0.9494031
634795921394680000,0.05865103,0.1016618,-1.004888,-7.98,18.18,-40.8,30,292,5,0.2609034,0.1404511,0.159158,5.651311,-0.04194951,-0.04786337,-0.02736282,-0.01622536,-0.3110271,0.9498685
634795921394880000,0.0742913,0.07820137,-0.9814272,-7.98,18.18,-40.8,30,292,5,0.1906646,0.1382692,0.1815067,5.655153,-0.03864717,-0.04319489,-0.02504247,-0.01456901,-0.3091477,0.9505726
634795921395080000,0.09775171,0.05083089,-0.9736071,-8.64,18.06,-41.1,32,294,5,-0.2446165,0.1499377,0.1878921,5.657822,-0.03746581,-0.04012727,-0.02399024,-0.01332521,-0.3078532,0.951038
634795921395280000,0.09384164,0.05083089,-0.9775171,-8.64,18.06,-41.1,32,294,5,-0.4319201,-0.01821939,0.1101606,5.663993,-0.04981017,-0.03292418,-0.0287291,-0.008087764,-0.304929,0.9519073
634795921395480000,0.07820137,0.07038123,-0.9892473,-8.64,18.06,-41.1,32,294,5,-0.2435523,0.003063946,0.04628683,5.66516,-0.05374217,-0.03039789,-0.03021273,-0.006303177,-0.304362,0.9520563
634795921395680000,0.08211143,0.08211143,-1.008798,-8.64,18.06,-41.1,32,294,5,-0.003009513,-0.1235652,0.04839442,5.666391,-0.05375218,-0.02988267,-0.03013552,-0.006074903,-0.3037709,0.952249
634795921395880000,0.08602151,0.08211143,-1.032258,-8.64,18.06,-41.1,32,294,5,0.1267796,-0.07779992,0.0121815,5.667325,-0.05166745,-0.029953,-0.02915058,-0.006438678,-0.3033199,0.9524211
634795921396080000,0.07038123,0.07820137,-1.047898,-8.64,18.06,-41.1,32,294,5,0.1458882,-0.0192803,-0.06762751,5.667891,-0.04944396,-0.02923393,-0.02798107,-0.00644128,-0.3030367,0.9525462
634795921396280000,0.06256109,0.0742913,-1.036168,-8.64,18.06,-41.1,32,294,5,0.1927142,0.06689533,-0.06441505,5.666478,-0.04481816,-0.02579904,-0.02526243,-0.005487885,-0.3036641,0.9524284
634795921396480000,0.0742913,0.08211143,-1.008798,-9.24,18.6,-40.8,32,294,5,-0.03504599,-0.1129659,0.04519089,5.666478,-0.04481816,-0.02579904,-0.02526243,-0.005487885,-0.3036641,0.9524284
634795921396680000,0.0742913,0.08211143,-1.008798,-9.24,18.6,-40.8,29,291,5,-0.1786951,-0.1278559,0.09305304,5.669212,-0.04696774,-0.02592695,-0.02629829,-0.005258345,-0.302369,0.9528136
634795921396880000,0.05083089,0.07038123,-1.028348,-9.24,18.6,-40.8,29,291,5,-0.1626997,-0.0224883,0.1068505,5.671463,-0.05046916,-0.02499199,-0.02782042,-0.0043148,-0.3012961,0.953115
634795921397080000,0.02737048,0.05865103,-1.028348,-9.24,18.6,-40.8,29,291,5,-0.0583952,0.04667388,0.07915138,5.673409,-0.0525577,-0.02304244,-0.02851961,-0.00309871,-0.3003516,0.9533971
634795921397280000,0.03128055,0.04692082,-1.004888,-9.24,18.6,-40.8,32,294,5,0.0714192,0.08068769,0.04081277,5.674664,-0.05265403,-0.02122498,-0.02829172,-0.002235413,-0.2997341,0.9536006
634795921397480000,0.04692082,0.05865103,-0.9892473,-9.48,18.3,-40.5,29,291,5,0.09265985,0.01040934,-0.01134937,5.676434,-0.04979872,-0.01812279,-0.02646497,-0.00120734,-0.298854,0.953931
634795921397680000,0.04301075,0.06256109,-0.9931574,-9.48,18.3,-40.5,29,291,5,-0.0382939,-0.01300904,0.01099967,5.677231,-0.0495851,-0.01692188,-0.02618363,-0.00067684,-0.2984608,0.9540625
634795921397880000,0.04301075,0.05474096,-0.9931574,-9.48,18.3,-40.5,29,291,5,-0.0798006,-0.0608863,-0.007092047,5.678264,-0.05070471,-0.01675117,-0.02669211,-0.0004420946,-0.2979667,0.9542029
634795921398080000,0.05083089,0.04692082,-1.000978,-9.48,18.3,-40.5,29,291,5,-0.09257215,0.008285465,-0.06986952,5.678439,-0.05217337,-0.01648378,-0.02735303,-9.806002E-05,-0.2978804,0.9542112
634795921398280000,0.05865103,0.05474096,-1.008798,-9.84,18.36,-40.26,29,291,5,-0.09257662,0.04977236,-0.06347406,5.678072,-0.05322027,-0.01562393,-0.02772445,0.0004731874,-0.2980453,0.9541489
634795921398480000,0.05865103,0.07038123,-1.008798,-9.84,18.36,-40.26,30,292,5,-0.06280035,0.06251071,-0.02834271,5.677608,-0.05457115,-0.01363552,-0.02807263,0.001629736,-0.2982428,0.9540758
634795921398680000,0.05083089,0.06647116,-1.000978,-9.84,18.36,-40.26,30,292,5,-0.03410607,0.006076235,-0.02087993,5.677767,-0.05593848,-0.01001012,-0.02818517,0.003561035,-0.2981203,0.9541054
634795921398880000,0.04692082,0.06647116,-1.004888,-9.84,18.36,-40.26,31,293,5,-0.00113584,-0.04075255,-0.02193288,5.677856,-0.05586076,-0.009417414,-0.02805999,0.003830957,-0.2980705,0.9541237
634795921399080000,0.05865103,0.07038123,-1.012708,-9.84,18.36,-40.26,30,292,5,0.004184648,0.03160731,-0.02831387,5.677784,-0.05580831,-0.007785081,-0.02779176,0.004602973,-0.2980847,0.9541237
634795921399280000,0.07038123,0.06256109,-1.012708,-9.84,18.36,-40.26,30,292,5,-0.09584869,0.1092677,-0.03682128,5.677591,-0.0566461,-0.006023049,-0.02792839,0.005571145,-0.2981517,0.9540936
634795921399480000,0.07038123,0.06256109,-0.9970675,-9.84,18.36,-40.26,30,292,5,-0.06606262,0.1389342,-0.06552482,5.676968,-0.05865455,-0.002122879,-0.02830297,0.007739988,-0.2988403,0.9538308
634795921399680000,0.05865103,0.08211143,-0.9853373,-9.48,19.02,-40.62,30,292,5,0.01055031,0.05695172,-0.0186788,5.675889,-0.06001997,0.001966357,-0.02833891,0.009909521,-0.2988403,0.9538308
634795921399880000,0.05865103,0.07820137,-0.9892473,-9.48,19.02,-40.62,30,292,5,0.04775637,0.009040522,-0.03143268,5.675305,-0.05949568,0.006133437,-0.02746262,0.01182652,-0.2990611,0.9537654
634795921400080000,0.07038123,0.06647116,-1.000978,-9.48,19.02,-40.62,31,293,5,0.01258181,-0.002681595,-0.03674114,5.674953,-0.05903458,0.00704801,-0.02710374,0.01219844,-0.2992188,0.9537215
634795921400280000,0.08211143,0.0742913,-1.016618,-9.48,19.02,-40.62,31,293,5,-0.08321878,-0.02609391,0.01114718,5.674946,-0.05947446,0.007375836,-0.02726436,0.01242068,-0.2992141,0.9537156
634795921400480000,0.08602151,0.08602151,-1.024438,-9.48,19.02,-40.62,31,293,5,-0.09811548,0.08351362,0.06647295,5.675901,-0.06117201,0.008670807,-0.02788629,0.01327878,-0.2987287,0.9538381
634795921400680000,0.08993158,0.08211143,-1.012708,-9,19.32,-41.28,30,292,5,-0.03535429,0.1643566,0.1047626,5.677619,-0.06262302,0.01203048,-0.02808906,0.01507348,-0.2978464,0.9540814
634795921400880000,0.09384164,0.0742913,-0.9931574,-9,19.32,-41.28,31,293,5,0.03377192,0.1015067,0.09728716,5.680904,-0.0623672,0.01766407,-0.02715599,0.01767786,-0.2961909,0.954579
634795921401080000,0.08993158,0.06256109,-0.9814272,-9,19.32,-41.28,31,293,5,0.08478097,0.01526645,0.08342893,5.68278,-0.06075096,0.0193237,-0.02615534,0.018206,-0.2952833,0.9548782
634795921401280000,0.08993158,0.05865103,-0.9853373,-9,19.32,-41.28,31,293,5,0.08366236,-0.04007741,0.05042231,5.683987,-0.05929494,0.01984238,-0.02539446,0.01822328,-0.2947123,0.9550747
634795921401480000,0.08993158,0.06647116,-1.000978,-9,19.32,-41.28,32,294,5,-0.04937664,-0.07194563,0.05147653,5.684786,-0.05916333,0.01980722,-0.02534413,0.01817696,-0.2943321,0.9551942
634795921401680000,0.08602151,0.07820137,-1.004888,-9,19.32,-41.28,31,293,5,0.001705746,-0.08471357,0.1057266,5.685593,-0.05960321,0.01977503,-0.02556625,0.01821605,-0.2939435,0.9553072
634795921401890000,0.08993158,0.07820137,-1.004888,-8.1,19.68,-41.22,28,290,5,0.0346881,-0.04534458,0.1588949,5.69104,-0.05903792,0.02035892,-0.02526033,0.01834309,-0.2913364,0.9561111
634795921402080000,0.09384164,0.0742913,-1.008798,-8.1,19.68,-41.22,28,290,5,-0.0578865,-0.1230214,0.1726993,5.694527,-0.05932832,0.02010453,-0.02546806,0.01821939,-0.2896706,0.956614
634795921402280000,0.08993158,0.0742913,-1.012708,-8.1,19.68,-41.22,28,290,5,-0.1259652,-0.1432417,0.208883,5.697245,-0.06057692,0.01936865,-0.02619658,0.01801272,-0.2883701,0.9569911
634795921402480000,0.07820137,0.06256109,-1.004888,-8.1,19.68,-41.22,29,291,5,0.00387932,-0.09319907,0.1301184,5.701728,-0.06229925,0.01842344,-0.0271971,0.01774797,-0.286224,0.9576122
634795921402680000,0.06647116,0.05083089,-0.9892473,-8.1,19.68,-41.22,28,290,5,0.1113471,-0.03785371,0.01943398,5.703596,-0.06099105,0.01856995,-0.0265662,0.01760606,-0.2853388,0.9578966
634795921402880000,0.07038123,0.05083089,-0.9814272,-8.1,19.68,-41.22,28,290,5,-0.01632808,-0.05167907,-0.02312896,5.704348,-0.05942106,0.01891243,-0.02577189,0.01753643,-0.2848099,0.9580741
634795921403080000,0.0742913,0.06256109,-0.9853373,-7.02,19.68,-40.92,24,286,5,-0.03225432,-0.07295335,-0.05078476,5.704968,-0.06005406,0.01837957,-0.02615654,0.0173633,-0.2846931,0.9581045
634795921403280000,0.0742913,0.0742913,-0.9970675,-7.02,19.68,-40.92,23,285,5,0.001792374,-0.1144367,-0.06885893,5.704977,-0.05991172,0.01731825,-0.0262398,0.01683458,-0.2847065,0.9581077
634795921403480000,0.08602151,0.07820137,-1.012708,-7.02,19.68,-40.92,25,287,5,-0.00777235,-0.1005801,-0.03692355,5.705503,-0.05989623,0.01644683,-0.02636099,0.01640805,-0.2844682,0.9581825
634795921403680000,0.08993158,0.0742913,-1.020528,-7.02,19.68,-40.92,25,287,5,0.03480091,-0.06650681,-0.004997326,5.706123,-0.05965734,0.01614857,-0.02629399,0.01622302,-0.2841775,0.9582738
634795921403880000,0.0742913,0.0742913,-1.016618,-7.02,19.68,-40.92,25,287,5,0.05605987,-0.1473533,0.04287194,5.707679,-0.05837727,0.01613653,-0.02569488,0.0160154,-0.2834422,0.9585112
634795921404090000,0.05865103,0.06647116,-1.004888,-6.66,19.2,-40.44,25,287,5,0.02944211,-0.02495935,0.01412712,5.709405,-0.05718017,0.01524913,-0.02526042,0.01539869,-0.2826378,0.9587705
634795921404280000,0.06256109,0.06256109,-0.9970675,-6.66,19.2,-40.44,23,285,5,-0.006790708,-0.05583955,-0.05397318,5.711366,-0.05655384,0.01564109,-0.02491988,0.01547362,-0.2816968,0.959055
634795921404480000,0.0742913,0.07038123,-0.9892473,-6.66,19.2,-40.44,22,284,5,-0.008967901,-0.08883084,0.007762627,5.711911,-0.05696201,0.01536846,-0.02515821,0.01539353,-0.2814362,0.9591266
634795921404680000,0.05474096,0.08211143,-1.000978,-6.66,19.2,-40.44,22,284,5,0.06655005,-0.1100882,0.01095828,5.713429,-0.05686283,0.01444137,-0.02525268,0.01491593,-0.2807226,0.9593408
634795921404880000,0.04692082,0.08211143,-1.008798,-6.66,19.2,-40.44,24,286,5,0.1995622,0.06338379,-0.009253803,5.714639,-0.05462956,0.01449549,-0.02418271,0.01461374,-0.2801575,0.9595381
634795921405080000,0.06256109,0.0742913,-1.004888,-6.6,19.02,-40.02,23,285,5,0.09845254,0.1399751,0.01415968,5.715266,-0.05249333,0.01586461,-0.02297032,0.01496411,-0.2798543,0.9598803
634795921405290000,0.07820137,0.06256109,-0.9853373,-6.6,19.02,-40.02,21,283,5,-0.03136186,0.08458687,0.05671549,5.716781,-0.05078006,0.01894486,-0.02172892,0.01618572,-0.2790981,0.9598803
634795921405480000,0.07820137,0.05083089,-0.9853373,-6.6,19.02,-40.02,21,283,5,-0.02279357,0.03453797,0.05244135,5.720874,-0.05227137,0.02215958,-0.02203191,0.01789138,-0.2770763,0.9604287
634795921405680000,0.06647116,0.04301075,-0.9970675,-6.6,19.02,-40.02,21,283,5,0.08151785,-0.03144251,-0.0273733,5.721435,-0.05155611,0.0223664,-0.02166476,0.01788555,-0.2768103,0.9605138
634795921405880000,0.05865103,0.05474096,-1.000978,-6.6,19.02,-40.02,24,286,5,0.06128895,-0.04420459,-0.08162537,5.721268,-0.05006409,0.02232921,-0.02095192,0.01766292,-0.276904,0.9605068
634795921406080000,0.06256109,0.07038123,-1.008798,-6.6,19.02,-40.02,24,286,5,0.05596665,-0.03888877,-0.03903582,5.72148,-0.04917097,0.02219355,-0.02054367,0.01747197,-0.276812,0.9605456
634795921406280000,0.08211143,0.06647116,-1.012708,-6.6,19.02,-40.02,24,286,5,0.09853842,0.08878589,0.01737492,5.722618,-0.04757166,0.02362859,-0.01958674,0.01792856,-0.2762608,0.9607158
634795921406480000,0.09775171,0.04301075,-1.000978,-6.72,19.02,-40.32,22,284,5,0.01874729,0.1493927,0.08334199,5.724143,-0.04702377,0.02572,-0.01904842,0.01884282,-0.2755056,0.960926
634795921406680000,0.09775171,0.03519062,-0.9931574,-6.72,19.02,-40.32,24,286,5,0.01559144,0.03228809,-0.05393988,5.726155,-0.04686427,0.02994489,-0.01840957,0.02083187,-0.2744845,0.9611896
634795921406880000,0.1055719,0.05083089,-0.9931574,-6.72,19.02,-40.32,25,287,5,-0.06949326,0.04822561,-0.06988473,5.725778,-0.04805755,0.031569,-0.01875543,0.0217795,-0.2746312,0.96112
634795921407080000,0.1094819,0.07038123,-1.004888,-6.72,19.02,-40.32,25,287,5,0.0731656,-0.09969467,0.07376289,5.72659,-0.04923176,0.03200996,-0.019268,0.02214478,-0.2742218,0.9612184
634795921407280000,0.09775171,0.0742913,-1.024438,-6.72,19.02,-40.32,25,287,5,0.1763703,0.002478937,0.0875695,5.728654,-0.04769134,0.03148985,-0.01862154,0.0216644,-0.273254,0.9615176
634795921407480000,0.09775171,0.05865103,-1.028348,-6.54,18.78,-39.96,26,288,5,0.08588883,0.05991697,0.0641359,5.730063,-0.04555035,0.03233266,-0.01749211,0.02176471,-0.2725883,0.9617255
634795921407680000,0.1055719,0.03910068,-1.004888,-6.54,18.78,-39.96,26,288,5,0.07203049,0.02263407,-0.007173138,5.732861,-0.04236579,0.0358758,-0.01550881,0.02301243,-0.2712329,0.9621136
634795921407880000,0.1016618,0.03910068,-0.9931574,-6.54,18.78,-39.96,25,287,5,0.02940455,-0.03910481,-0.02951495,5.732976,-0.04163122,0.03643298,-0.01508103,0.0231799,-0.2711784,0.9621317
634795921408080000,0.09775171,0.05083089,-0.9892473,-6.54,18.78,-39.96,25,287,5,-0.0323419,-0.05613327,0.005612464,5.733546,-0.0418322,0.03654837,-0.01516866,0.0232583,-0.2709007,0.9622067
634795921408280000,0.08993158,0.05474096,-0.9970675,-6.54,18.78,-39.96,25,287,5,0.02830883,-0.09335615,0.004549516,5.734352,-0.04215193,0.03636098,-0.01535722,0.02320528,-0.2705118,0.9623144
634795921408480000,0.08602151,0.05474096,-1.012708,-6.54,18.78,-39.96,25,287,5,0.05698011,-0.03481801,0.009873089,5.735304,-0.04172468,0.03580225,-0.01523832,0.02287148,-0.2700657,0.9624496
634795921408690000,0.08993158,0.05474096,-1.020528,-6.18,18.84,-39.9,24,286,5,0.04843673,0.03859096,0.06413367,5.73811,-0.03990888,0.03765213,-0.01414701,0.0234965,-0.2687134,0.9628296
634795921408880000,0.08993158,0.04692082,-1.008798,-6.18,18.84,-39.9,24,286,5,0.09739503,0.05452508,0.06836833,5.740063,-0.03818893,0.03937614,-0.01311027,0.02408241,-0.2677728,0.9630919
634795921409080000,0.08602151,0.03128055,-0.9931574,-6.18,18.84,-39.9,23,285,5,0.1409898,0.01087652,0.04068263,5.741094,-0.03659248,0.04001665,-0.01226804,0.02417074,-0.2672882,0.9632353
634795921409280000,0.07820137,0.04301075,-0.9853373,-6.18,18.84,-39.9,23,285,5,0.1058397,-0.04340355,0.01513356,5.742426,-0.03439426,0.04026794,-0.01119162,0.02399049,-0.2666699,0.9634243
634795921409480000,0.0742913,0.05474096,-0.9931574,-6.18,18.84,-39.9,23,285,5,0.1228515,-0.1093756,0.02682886,5.743741,-0.03265214,0.03940082,-0.01048366,0.02333368,-0.2660665,0.9636152
634795921409680000,0.08211143,0.05083089,-0.9892473,-6.18,18.84,-39.9,23,285,5,0.2143448,-0.1636429,0.02787914,5.745304,-0.02947879,0.03751385,-0.009223501,0.02199524,-0.2641904,0.9641746
634795921409890000,0.09384164,0.04692082,-0.9970675,-5.52,19.02,-39.78,20,282,5,-0.1687748,-0.09658309,0.08000308,5.747738,-0.03064656,0.03667581,-0.009924082,0.02173431,-0.2641904,0.9641746
634795921410080000,0.1094819,0.04301075,-1.020528,-5.52,19.02,-39.78,21,283,5,-0.0740475,0.003453758,0.009723461,5.751458,-0.03596305,0.03638899,-0.01256656,0.02227497,-0.2623412,0.9646362
634795921410280000,0.113392,0.05083089,-1.020528,-5.52,19.02,-39.78,21,283,5,0.04513305,-0.023159,0.001210194,5.752342,-0.03621674,0.03732657,-0.01257568,0.02275478,-0.2619015,0.9647444
634795921410480000,0.1094819,0.06256109,-1.020528,-5.52,19.02,-39.78,21,283,5,0.1281473,-0.1061622,0.07888331,5.75364,-0.03509784,0.03743482,-0.01203646,0.02265266,-0.2612867,0.9649203
634795921410690000,0.113392,0.05474096,-1.040078,-5.52,19.02,-39.78,23,285,5,0.2867168,-0.1093365,0.06076178,5.755989,-0.03207779,0.03632987,-0.01074951,0.02171242,-0.2601985,0.9652511
634795921410880000,0.1016618,0.05865103,-1.043988,-5.04,19.08,-39.12,22,284,5,0.3750475,-0.008234194,0.07350088,5.759286,-0.02214885,0.03696191,-0.00590931,0.02071574,-0.2587062,0.9657158
