Timestamp,Acc.X,Acc.Y,Acc.Z,Comp.X,Comp.Y,Comp.Z,Comp.TrueHeading,Comp.MagneticHeading,Comp.HeadingAccuracy,Gyro.X,Gyro.Y,Gyro.Z,Motion.Yaw,Motion.Pitch,Motion.Roll,Motion.X,Motion.Y,Motion.Z,Motion.W
634795922080890000,0.113392,0.06256109,-1.000978,0,0,0,0,0,0,0,0,0,0,0,0,0,0,0,0
634795922081100000,0.1055719,0.03519062,-0.9814272,0,0,0,0,0,0,0,0,0,0,0,0,0,0,0,0
634795922081290000,0.08993158,0.03910068,-0.9892473,0,0,0,0,0,0,0,0,0,0,0,0,0,0,0,0
634795922081490000,0.08211143,0.04692082,-1.004888,0,0,0,0,0,0,0,0,0,0,0,0,0,0,0,0
634795922081690000,0.08993158,0.05474096,-0.9970675,0,0,0,0,0,0,0,0,0,0,0,0,0,0,0,0
634795922081890000,0.09775171,0.05474096,-0.9814272,0,0,0,0,0,0,-0.08973824,-0.005084445,0.03526646,0,0,0,0,0,0,0
634795922082090000,0.08993158,0.06256109,-0.9853373,0,0,0,0,0,0,-0.06630091,0.01939614,0.05329092,0,0,0,0,0,0,0
634795922082290000,0.08993158,0.06647116,-0.9970675,-23.82,4.2,-13.62,111,13,5,-0.04819993,0.02467427,0.06282585,0,0,0,0,0,0,0
634795922082490000,0.09384164,0.05474096,-1.000978,-35.34,-4.8,-4.32,91,353,5,-0.08330616,0.03638384,0.03621309,0,0,0,0,0,0,0
634795922082690000,0.08993158,0.04692082,-0.9970675,-2.52,19.2,-37.68,13,275,5,0.001825569,-0.1030182,-0.02019851,0,0,0,0,0,0,0
634795922082890000,0.07820137,0.06647116,-0.9970675,-2.52,19.2,-37.68,12,274,5,0.1635572,-0.05187503,0.002119996,0,0,0,0,0,0,0
634795922083100000,0.07820137,0.06647116,-0.9931574,-2.52,19.2,-37.68,12,274,5,0.1199128,0.0545791,0.05846391,0,0,0,0,0,0,0
634795922083290000,0.08993158,0.03128055,-0.9970675,-2.52,19.2,-37.68,12,274,5,0.004973121,0.02376084,0.02331979,0,0,0,0,0,0,0
634795922083490000,0.09775171,0.02737048,-1.008798,-2.52,19.2,-37.68,12,274,5,0.009239175,-0.04433319,-0.1022161,0,0,0,0,0,0,0
634795922083690000,0.09775171,0.05865103,-1.020528,-2.22,17.52,-38.22,13,275,5,0.175234,-0.01345416,-0.07342147,0,0,0,0,0,0,0
634795922083890000,0.1016618,0.07820137,-1.024438,-2.22,17.52,-38.22,13,275,5,0.1837478,0.09405908,0.03828418,0,0,0,0,0,0,0
634795922084090000,0.1055719,0.06647116,-1.004888,-2.22,17.52,-38.22,14,276,5,0.1826836,0.03657698,0.07761507,5.543777,-0.04438543,0.09058999,-0.004313085,0.05021998,-0.3599432,0.9316117
634795922084300000,0.08993158,0.04692082,-0.9853373,-2.22,17.52,-38.22,15,277,5,0.1645918,-0.02513935,0.02971003,5.632864,-0.04873395,0.09100533,-0.008537011,0.05086612,-0.3179852,0.9466917
634795922084490000,0.08211143,0.03910068,-0.9853373,-2.22,17.52,-38.22,16,278,5,0.1475381,-0.06344146,-0.01925305,5.675209,-0.04832053,0.0907427,-0.009454219,0.0504873,-0.2978872,0.9532182
634795922084690000,0.08602151,0.04301075,-0.9892473,-2.22,17.52,-38.22,16,278,5,0.06237349,-0.09742429,-0.06291033,5.712499,-0.04793095,0.08949029,-0.01038381,0.0496478,-0.2800959,0.9586311
634795922084890000,0.08993158,0.05474096,-0.9931574,-1.98,15.9,-38.22,13,275,5,0.01979288,-0.1090976,-0.01930041,5.746256,-0.04741621,0.08774137,-0.01120501,0.04855572,-0.2639193,0.9632567
634795922085090000,0.08602151,0.05083089,-0.9970675,-1.98,15.9,-38.22,14,276,5,0.1112936,-0.01645772,0.06690694,5.778283,-0.04583788,0.0870589,-0.01130312,0.04784407,-0.2485106,0.9673808
634795922085290000,0.07820137,0.03519062,-0.9814272,-1.98,15.9,-38.22,15,277,5,0.1070098,0.04416129,0.09565304,5.796272,-0.0448916,0.08755243,-0.01121454,0.04786613,-0.239814,0.9695733
634795922085490000,0.07820137,0.01955034,-0.9618768,-1.98,15.9,-38.22,15,277,5,0.06655653,-0.02183078,0.05840314,5.821717,-0.04445624,0.08794748,-0.01156557,0.04786209,-0.2274638,0.9725409
634795922085690000,0.0742913,0.02346041,-0.9657869,-1.98,15.9,-38.22,14,276,5,0.06334321,-0.09631324,0.004161181,5.863354,-0.04139638,0.08398294,-0.01147895,0.04535774,-0.2072993,0.9771581
634795922085890000,0.0742913,0.03519062,-0.9892473,-1.98,15.9,-38.22,13,275,5,-0.03137836,-0.1580383,-0.02134904,5.875252,-0.04042912,0.08218181,-0.01145837,0.0443104,-0.2015297,0.9784125
634795922086090000,0.08211143,0.04301075,-1.004888,-2.64,16.44,-37.68,14,276,5,-0.1792299,-0.09947313,-0.04786528,5.890893,-0.04083157,0.0800761,-0.01220747,0.04322704,-0.1938928,0.9799939
634795922086290000,0.08993158,0.05083089,-1.008798,-2.64,16.44,-37.68,13,275,5,-0.0972439,-0.1292422,0.03514194,5.903528,-0.04292488,0.07770597,-0.01373169,0.04218305,-0.1876858,0.9812268
634795922086510000,0.08211143,0.05083089,-1.008798,-2.64,16.44,-37.68,13,275,5,0.01558132,-0.101503,0.09361282,5.924171,-0.04417253,0.07534802,-0.01499095,0.0409911,-0.177556,0.9831423
634795922086690000,0.0742913,0.04301075,-1.000978,-2.64,16.44,-37.68,14,276,5,0.05495148,-0.1142672,0.02438284,5.929346,-0.04385591,0.0747286,-0.01499592,0.04061991,-0.1750265,0.9836112
634795922086890000,0.06647116,0.03128055,-1.000978,-2.64,16.44,-37.68,15,277,5,0.06024494,-0.08550794,-0.008646557,5.936361,-0.04333806,0.07370925,-0.01497176,0.04002115,-0.1716006,0.9842395
634795922087090000,0.05474096,0.03128055,-1.004888,-2.88,15.54,-37.74,16,278,5,0.02191336,-0.03974764,-0.03520461,5.942811,-0.04271245,0.07317853,-0.01483775,0.03965876,-0.1684452,0.9848011
634795922087290000,0.05474096,0.03128055,-1.008798,-2.88,15.54,-37.74,16,278,5,-0.0557721,-0.02273122,-0.07139945,5.948958,-0.04223609,0.0724591,-0.01478503,0.03921919,-0.1654361,0.9853294
634795922087490000,0.0742913,0.03128055,-1.012708,-2.88,15.54,-37.74,16,278,5,-0.0940726,-0.03866979,-0.08205021,5.955592,-0.04264975,0.0709362,-0.01524349,0.03845298,-0.1621796,0.9858939
634795922087700000,0.08602151,0.05474096,-1.016618,-2.88,15.54,-37.74,12,274,5,-0.02806373,-0.09926891,-0.000158405,5.96034,-0.0425806,0.06912303,-0.01544692,0.0375172,-0.1568671,0.9868339
634795922087890000,0.0742913,0.06256109,-1.012708,-2.88,15.54,-37.74,15,277,5,0.09218296,0.0007638945,0.02320538,5.970104,-0.03919101,0.06778646,-0.01406157,0.03651899,-0.1551267,0.9871192
634795922088090000,0.06647116,0.04692082,-0.9853373,-2.88,15.54,-37.74,15,277,5,0.104929,0.04442671,0.00294115,5.972075,-0.03846097,0.06901455,-0.01364174,0.03705496,-0.1541524,0.9872578
634795922088290000,0.06647116,0.03128055,-0.9736071,-2.88,15.54,-37.74,17,279,5,0.05808072,-0.02150278,-0.01729796,5.972948,-0.03970241,0.06875086,-0.01429111,0.03701428,-0.1537016,0.9873204
634795922088490000,0.0742913,0.03910068,-1.000978,-3.3,15.42,-37.32,18,280,5,-0.02174659,-0.1406559,-0.1088096,5.972497,-0.04109287,0.0670681,-0.01509981,0.03629398,-0.1539201,0.9873011
634795922088690000,0.0742913,0.05474096,-1.012708,-3.3,15.42,-37.32,17,279,5,-0.04086188,-0.0437536,0.009309579,5.972341,-0.0422976,0.06511318,-0.01584364,0.03542309,-0.1540006,0.9873084
634795922088890000,0.06647116,0.05083089,-0.9931574,-3.3,15.42,-37.32,17,279,5,0.05810317,-0.05757629,0.02210838,5.972784,-0.04241943,0.06469595,-0.01595256,0.0352191,-0.153544,0.9873851
634795922089090000,0.05474096,0.03519062,-0.9814272,-3.3,15.42,-37.32,17,279,5,0.1740815,-0.07776719,0.002975951,5.973638,-0.04089403,0.06392347,-0.01526567,0.0347179,-0.1534,0.9874361
634795922089290000,0.05865103,0.02346041,-0.9892473,-3.54,15.84,-37.02,17,279,5,0.1740815,-0.05223835,-0.1183407,5.973112,-0.03935218,0.06351053,-0.0145273,0.03439963,-0.1536914,0.9874131
634795922089490000,0.07038123,0.02346041,-1.008798,-3.54,15.84,-37.02,15,277,5,0.09634782,-0.01713563,-0.09601125,5.974037,-0.03593802,0.0617609,-0.0129925,0.0332675,-0.1533129,0.9875321
634795922089690000,0.07820137,0.03910068,-1.012708,-3.54,15.84,-37.02,15,277,5,-0.01753002,0.02327928,-0.03107372,5.975383,-0.03281951,0.06139469,-0.01150314,0.03283991,-0.1527035,0.9876593
634795922089910000,0.07820137,0.04301075,-1.004888,-3.54,15.84,-37.02,15,277,5,-0.02709017,0.02434958,0.00196047,5.976878,-0.03171015,0.06219935,-0.01091813,0.03314435,-0.1519753,0.9877681
634795922090090000,0.07820137,0.02737048,-1.000978,-3.54,15.84,-37.02,17,279,5,0.07187957,-0.01284999,-0.03844593,5.977466,-0.03141427,0.06398368,-0.0106456,0.03399981,-0.1516719,0.9877886
634795922090290000,0.08211143,0.02346041,-1.000978,-3.54,15.84,-37.02,17,279,5,0.1176122,-0.01281476,-0.0650142,5.97641,-0.03006959,0.06469858,-0.00990883,0.0342561,-0.152209,0.9877048
634795922090490000,0.08602151,0.02737048,-1.000978,-3.66,15.42,-37.62,18,280,5,0.1271571,0.01059382,-0.06497365,5.975145,-0.02789164,0.0658462,-0.008723359,0.03466256,-0.1528605,0.9876012
634795922090690000,0.08211143,0.02737048,-1.004888,-3.66,15.42,-37.62,18,280,5,0.2005708,0.01379735,-0.03193467,5.973562,-0.02488756,0.06734812,-0.007096747,0.03518009,-0.1536807,0.9874686
634795922090890000,0.08211143,0.02346041,-1.008798,-3.66,15.42,-37.62,19,281,5,0.3006079,0.07553496,-0.03294547,5.971868,-0.0204134,0.06965196,-0.004679298,0.03597756,-0.1545781,0.9873142
634795922091100000,0.08602151,0.01955034,-0.9892473,-3.66,15.42,-37.62,18,280,5,0.3687184,0.111675,-0.02010954,5.970328,-0.01662159,0.07162964,-0.002625673,0.03666263,-0.1553922,0.9871688
634795922091290000,0.1055719,-0.003910068,-0.9736071,-3.66,15.42,-37.62,18,280,5,-0.3400372,0.2808868,0.03418755,5.968436,-0.01895595,0.08108139,-0.003001306,0.04151114,-0.1562108,0.9868465
634795922091490000,0.1094819,-0.007820137,-0.9775171,-3.66,15.42,-37.62,18,280,5,-0.3400372,0.2808868,0.03418755,5.967393,-0.03135633,0.07945084,-0.009226272,0.04167933,-0.1564828,0.9867578
634795922091690000,0.08602151,0.02346041,-0.969697,-3.66,15.42,-37.62,18,280,5,-0.575231,-0.03302824,-0.003032447,5.964906,-0.03591966,0.08210874,-0.01121401,0.04336122,-0.1575819,0.9864897
634795922091890000,0.08993158,0.03128055,-0.9540567,-3.24,15,-37.62,20,282,5,-0.1516496,0.0989558,-0.06685328,5.962782,-0.03384781,0.08585226,-0.009846592,0.04505444,-0.1586306,0.9862604
634795922092100000,0.1173021,0.03128055,-0.9853373,-3.24,15,-37.62,20,282,5,0.2389455,-0.1649542,-0.09125149,5.95707,-0.03150082,0.08248138,-0.008835525,0.04323168,-0.1615369,0.9858797
634795922092290000,0.1290323,0.04692082,-1.028348,-3.24,15,-37.62,20,282,5,0.2389455,-0.1649542,-0.09125149,5.95707,-0.03150082,0.08248138,-0.008835525,0.04323168,-0.1615369,0.9858797
634795922092490000,0.1094819,0.05083089,-1.043988,-3.24,15,-37.62,19,281,5,0.879609,0.0468508,-0.01570321,5.948997,-0.01358819,0.08276069,0.0001865267,0.04192042,-0.1658947,0.9852521
634795922092690000,0.09384164,0.03128055,-0.9970675,-3.24,15,-37.62,19,281,5,0.7497736,0.5385081,0.04491207,5.944288,-0.0006666183,0.08902787,0.007176061,0.04391807,-0.1684572,0.984704
634795922092890000,0.1094819,-0.02346041,-0.9227762,-3.24,15,-37.62,19,281,5,0.09101168,-0.01913882,0.1704705,5.944288,-0.0006666183,0.08902787,0.007176061,0.04671861,-0.1672439,0.9847493
634795922093090000,0.1016618,-0.0742913,-0.9071358,-3.12,15.12,-37.74,20,282,5,-0.4666305,-0.4544069,0.03739832,5.946995,0.005582571,0.09575617,0.01075594,0.04671861,-0.1672439,0.9847493
634795922093300000,0.07038123,-0.06647116,-0.9423265,-3.12,15.12,-37.74,19,281,5,-0.57731,-0.4246086,-0.04458139,5.947618,-0.001211643,0.08823872,0.006768682,0.04358675,-0.1668086,0.9850022
634795922093490000,0.06256109,-0.03128055,-0.9775171,-3.12,15.12,-37.74,19,281,5,-0.4049054,-0.2958373,-0.1520557,5.950276,-0.01102233,0.07823478,0.00104868,0.03947871,-0.1653451,0.9854447
634795922093690000,0.06647116,-0.01173021,-0.9931574,-3.12,15.12,-37.74,13,275,5,-0.1037163,-0.07234071,-0.1350324,5.952809,-0.009124279,0.07661498,0.001800911,0.03852599,-0.1641435,0.9856822
634795922093890000,0.07820137,-0.01173021,-0.9814272,-3.12,15.12,-37.74,13,275,5,0.02293788,0.05002964,-0.1254541,5.95444,-0.006428003,0.07684671,0.003117485,0.03842147,-0.1633903,0.9858081
634795922094090000,0.08602151,-0.02346041,-0.9657869,-3.18,15.06,-37.92,14,276,5,0.004841157,-0.05854633,-0.08925213,5.956985,-0.003064632,0.07600092,0.004658097,0.03773569,-0.162203,0.9860246
634795922094290000,0.07820137,-0.03519062,-0.9775171,-3.18,15.06,-37.92,14,276,5,-0.1600808,-0.1713568,-0.07646323,5.958897,-0.002494574,0.07357836,0.004707584,0.03649963,-0.1612801,0.9862223
634795922094500000,0.07038123,-0.03519062,-0.9853373,-3.18,15.06,-37.92,16,278,5,-0.2100993,-0.1117355,-0.06473558,5.961768,-0.00193882,0.07300032,0.004883132,0.03617681,-0.1598761,0.9864619
634795922094690000,0.06647116,-0.03519062,-0.9540567,-3.18,15.06,-37.92,16,278,5,-0.1387587,0.02983726,-0.07960929,5.962984,3.242492E-05,0.07382464,0.005899139,0.03642939,-0.1593096,0.9865387
634795922094890000,0.07038123,-0.03910068,-0.9345064,-3.18,15.06,-37.92,13,275,5,0.02301897,-0.02232095,-0.01888982,5.96586,0.004285097,0.0739032,0.007951098,0.03614078,-0.1579671,0.9867508
634795922095090000,0.06647116,-0.06256109,-0.9462366,-3.06,15.6,-38.1,13,275,5,0.06450577,-0.1021401,0.0439167,5.969848,0.008855104,0.07253193,0.0100277,0.03512325,-0.1560826,0.9870684
634795922095290000,0.05474096,-0.08211143,-0.9814272,-3.06,15.6,-38.1,13,275,5,-0.1812907,-0.0754639,-0.07414961,5.973397,0.01192379,0.07061576,0.01133272,0.03395814,-0.1543844,0.9873621
634795922095490000,0.04301075,-0.08211143,-1.000978,-3.06,15.6,-38.1,14,276,5,-0.2781352,0.002260196,-0.05284807,5.976139,0.01303148,0.06989789,0.01177834,0.03353436,-0.153049,0.9875792
634795922095690000,0.03519062,-0.08602151,-0.9814272,-3.06,15.6,-38.1,12,274,5,-0.2121532,-0.0839447,-0.01667655,5.985154,0.01746654,0.06828237,0.0136989,0.03245918,-0.1486679,0.9882594
634795922095890000,0.02737048,-0.1016618,-0.9775171,-3.06,15.6,-38.1,8,270,5,-0.06525903,-0.1744038,-0.02734797,5.991489,0.02275514,0.06390154,0.01589313,0.0299515,-0.1456074,0.9887612
634795922096090000,0.01955034,-0.1212121,-0.9892473,-3.06,15.6,-38.1,8,270,5,-0.07375591,-0.07436519,-0.06462969,5.996011,0.02848148,0.06068718,0.0184281,0.02798689,-0.1434417,0.9890913
634795922096290000,0.02737048,-0.1329423,-0.9970675,-4.02,15.6,-38.22,8,270,5,-0.1897297,-0.04667309,-0.1008268,5.999712,0.03321147,0.05836141,0.02055249,0.02653532,-0.1416625,0.9893458
634795922096490000,0.03519062,-0.1329423,-1.008798,-4.02,15.6,-38.22,7,269,5,-0.3578773,-0.1381485,-0.07741252,6.002183,0.0346837,0.05671263,0.02113304,0.02564149,-0.1404489,0.9895302
634795922096700000,0.04692082,-0.1251222,-1.012708,-4.02,15.6,-38.22,8,270,5,-0.2716751,-0.1743321,-0.0635562,6.009823,0.04283905,0.04996586,0.02461451,0.02182427,-0.1367123,0.9900644
634795922096890000,0.04692082,-0.1212121,-0.9931574,-4.02,15.6,-38.22,8,270,5,-0.1109446,0.01615408,-0.02206983,6.013394,0.04879975,0.05025995,0.02754652,0.02161154,-0.1350118,0.9902252
634795922097090000,0.05083089,-0.1251222,-0.9345064,-4.02,15.6,-38.22,9,271,5,-0.04706919,0.1342752,0.01088837,6.017286,0.05521869,0.05283892,0.0308531,0.0225152,-0.1331841,0.9903551
634795922097290000,0.04301075,-0.1407625,-0.8758553,-4.2,15.9,-37.8,10,272,5,-0.04173381,0.02682134,0.04813508,6.020172,0.05925035,0.05328369,0.03284625,0.02251431,-0.1318066,0.9904753
634795922097490000,0.01955034,-0.1524927,-0.8719453,-4.2,15.9,-37.8,11,273,5,-0.09598013,-0.1583416,0.05662462,6.024358,0.06491613,0.05179214,0.03551,0.02147647,-0.1297748,0.9906747
634795922097690000,0.01173021,-0.1524927,-0.8993157,-4.2,15.9,-37.8,11,273,5,-0.1342559,-0.1923968,-0.04452498,6.027164,0.06548285,0.04906034,0.03558757,0.02013617,-0.1283514,0.9908854
634795922097900000,0.02346041,-0.1368524,-0.914956,-4.2,15.9,-37.8,8,270,5,-0.178872,0.05769291,-0.1753586,6.029484,0.06674743,0.04859697,0.0361616,0.01986739,-0.1272073,0.9910176
634795922098090000,0.03910068,-0.1173021,-0.9188661,-4.2,15.9,-37.8,7,269,5,-0.178872,0.05769291,-0.1753586,6.032513,0.06641889,0.05105352,0.03612108,0.02116048,-0.1257398,0.9911796
634795922098290000,0.03519062,-0.1094819,-0.9266862,-4.2,15.9,-37.8,8,270,5,-0.1682129,-0.1061954,-0.01782272,6.035699,0.06592774,0.04984617,0.03576999,0.02064988,-0.1241373,0.9914051
634795922098490000,0.01955034,-0.1094819,-0.9462366,-4.44,16.02,-37.68,11,273,5,0.08294038,-0.05820142,0.02261304,6.038288,0.06753969,0.04808354,0.03643557,0.0197231,-0.1228437,0.9915609
634795922098690000,0.007820137,-0.1173021,-0.969697,-4.44,16.02,-37.68,11,273,5,0.01055424,0.01207692,0.04387562,6.041051,0.07078004,0.04739785,0.03797394,0.01923651,-0.1214943,0.991679
634795922098890000,0.01173021,-0.1329423,-0.9853373,-4.44,16.02,-37.68,9,271,5,-0.0788212,-0.02519097,0.0246936,6.044593,0.07252145,0.04785478,0.03883032,0.0194261,-0.119762,0.9918528
634795922099090000,0.01955034,-0.1290323,-1.016618,-4.44,16.02,-37.68,7,269,5,-0.1692282,-0.1092199,0.008723203,6.047152,0.07445121,0.04660177,0.03968949,0.01873982,-0.1184905,0.9919847
634795922099290000,0.02346041,-0.1173021,-1.067449,-4.44,16.02,-37.68,7,269,5,-0.1851561,-0.1282822,0.05554708,6.054637,0.07754063,0.04010069,0.04078447,0.01548444,-0.114689,0.9924431
634795922099490000,0.02737048,-0.113392,-1.11828,-4.44,16.02,-37.68,7,269,5,-0.0946721,-0.1538236,0.0385313,6.058168,0.07828259,0.03680801,0.04094181,0.01388,-0.1128821,0.9926675
634795922099690000,0.03128055,-0.1016618,-1.188661,-4.74,16.86,-36.96,7,269,5,-0.04889987,-0.09950603,0.01087379,6.060502,0.07815193,0.03485084,0.04075277,0.01296339,-0.1116865,0.9928229
634795922099890000,0.03128055,-0.08211143,-1.247312,-4.74,16.86,-36.96,7,269,5,-0.03291521,-0.1473786,0.1098345,6.06244,0.07799196,0.03370869,0.04059841,0.01244463,-0.1107021,0.9929461
634795922100090000,0.03128055,-0.05474096,-1.251222,-4.74,16.86,-36.96,7,269,5,0.1660861,-0.1644062,0.1576749,6.070188,0.08094978,0.02779996,0.04170696,0.009508705,-0.1067593,0.9933643
634795922100290000,0.03910068,-0.03128055,-1.227762,-4.74,16.86,-36.96,7,269,5,0.2820866,0.09209578,0.1608208,6.074078,0.08490181,0.02848828,0.04368732,0.009724555,-0.1048598,0.9934794
634795922100490000,0.06256109,-0.01173021,-1.196481,-4.74,16.86,-36.96,7,269,5,0.2384534,0.2442609,0.0777498,6.076189,0.0874362,0.03242946,0.04513812,0.0115972,-0.1039063,0.9934946
634795922100690000,0.09775171,0.02346041,-1.16911,-4.26,18,-36.72,7,269,5,0.0053821,0.3347201,-0.02869038,6.077274,0.08661532,0.03626561,0.04491946,0.01357013,-0.1034414,0.9935281
634795922100890000,0.1212121,0.07820137,-1.14956,-4.26,18,-36.72,9,271,5,-0.2063721,0.05268306,0.02771653,6.077479,0.08178377,0.03941249,0.04267801,0.01538797,-0.1033675,0.9936081
634795922101090000,0.1173021,0.1212121,-1.1652,-4.26,18,-36.72,13,275,5,-0.1765507,-0.2048661,0.1330517,6.076646,0.07560325,0.03653347,0.03946664,0.01426017,-0.1036818,0.9937249
634795922101300000,0.08993158,0.1329423,-1.200391,-4.26,18,-36.72,13,275,5,0.01929333,-0.3325731,0.2203182,6.074993,0.07172703,0.02977729,0.03720379,0.0110727,-0.104361,0.9937817
634795922101490000,0.07038123,0.1251222,-1.196481,-4.26,18,-36.72,18,280,5,0.1640145,-0.2676554,0.1756207,6.071177,0.06875491,0.01982844,0.03522448,0.006216156,-0.1060771,0.9937144
634795922101690000,0.07038123,0.113392,-1.13392,-4.26,18,-36.72,19,281,5,0.110777,-0.1154642,0.1478895,6.070174,0.06605411,0.01628971,0.03369817,0.004584046,-0.1065104,0.9937298
634795922101890000,0.07820137,0.1055719,-1.036168,-5.16,18.24,-36.96,16,278,5,0.05327851,-0.07710602,0.1052042,6.068869,0.06285524,0.01320052,0.03194711,0.003198453,-0.1071043,0.9937292
634795922102090000,0.08993158,0.08993158,-0.9540567,-5.16,18.24,-36.96,16,278,5,-0.0009928213,-0.1057705,0.08388963,6.066623,0.05973744,0.01078117,0.03027119,0.002129207,-0.10818,0.9936681
634795922102290000,0.08993158,0.06647116,-0.8914956,-5.16,18.24,-36.96,21,283,5,-0.07334725,-0.2079361,0.04344131,6.063604,0.05596232,0.007959247,0.02824471,0.0008886002,-0.1096374,0.9935699
634795922102490000,0.08211143,0.04692082,-0.8641251,-5.16,18.24,-36.96,25,287,5,-0.1595145,-0.3069091,-0.07891808,6.060709,0.04764032,0.00768733,0.02409713,0.001174848,-0.1110672,0.99352
634795922102690000,0.06647116,0.05865103,-0.8797654,-5.16,18.24,-36.96,25,287,5,-0.2552773,-0.3058448,-0.1108144,6.047112,0.03387379,-0.002941966,0.01664501,-0.00345495,-0.1177212,0.9929011
634795922102890000,0.03910068,0.08602151,-0.8914956,-5.16,18.24,-36.96,25,287,5,-0.3255162,-0.08765642,-0.02035793,6.042062,0.02697062,-0.006359696,0.01300458,-0.004778277,-0.120216,0.992651
634795922103090000,0.03128055,0.0742913,-0.8328446,-5.64,17.88,-36.72,25,287,5,-0.3361584,0.2209393,0.1307141,6.040653,0.01872301,-0.003887177,0.009057496,-0.003061652,-0.1209454,0.9926131
634795922103290000,0.03519062,0.04301075,-0.7272727,-5.64,17.88,-36.72,23,285,5,-0.1828919,0.1070179,0.1317271,6.040349,0.01369619,-0.001977205,0.006677852,-0.001810746,-0.1211103,0.9926149
634795922103490000,0.03128055,0.01955034,-0.6920821,-5.64,17.88,-36.72,23,285,5,-0.0242985,-0.1750091,-0.01833334,6.03621,0.006452799,-0.006256938,0.002816456,-0.003502014,-0.1231628,0.9923763
634795922103690000,0.03128055,0.01173021,-0.7468231,-5.64,17.88,-36.72,23,285,5,0.008688862,-0.2633398,-0.1193733,6.031902,0.00573945,-0.01015901,0.00221051,-0.005399031,-0.1252947,0.9921024
634795922103890000,0.05865103,0.03519062,-0.801564,-5.64,17.88,-36.72,25,287,5,-0.007275898,-0.04621379,-0.1437644,6.028811,0.005156278,-0.009818672,0.001934517,-0.005196637,-0.1268301,0.991909
634795922104090000,0.0742913,0.03910068,-0.7820137,-5.7,17.94,-37.08,23,285,5,0.07362788,0.1026914,0.1435804,6.028844,0.004875422,-0.007452607,0.001945376,-0.004005346,-0.1268175,0.9919161
634795922104290000,0.06647116,0.01173021,-0.7741935,-5.7,17.94,-37.08,26,288,5,0.3269135,-0.05799881,0.1222424,6.028046,0.006173133,-0.005816817,0.002691448,-0.003277429,-0.127214,0.9918662
634795922104490000,0.05083089,-0.01173021,-0.8250244,-5.7,17.94,-37.08,29,291,5,0.367354,0.02074971,-0.07252146,6.02569,0.01164651,-0.006824374,0.00533696,-0.004131535,-0.1283696,0.9917035
634795922104700000,0.05865103,0,-0.9266862,-5.7,17.94,-37.08,29,291,5,0.1193817,0.1729172,-0.1959391,6.021647,0.01826811,-0.006432771,0.008636447,-0.004379831,-0.1303611,0.9914193
634795922104890000,0.08602151,0.03519062,-1.000978,-5.7,17.94,-37.08,21,283,5,-0.1998514,0.1920704,-0.06389835,6.011353,0.01296616,0.005823374,0.006817795,0.002006342,-0.1355132,0.9907501
634795922105090000,0.1094819,0.04692082,-1.059628,-5.7,17.94,-37.08,19,281,5,-0.1998514,0.1920704,-0.06389835,6.011353,0.01296616,0.005823374,0.006817795,0.002006342,-0.1355132,0.9907501
634795922105290000,0.08993158,0.03910068,-1.14174,-6.9,17.34,-37.02,25,287,5,-0.1167898,0.3336123,-0.178785,6.005624,0.00859642,0.01329029,0.005176002,0.005986576,-0.1383598,0.9903504
634795922105490000,0.05865103,0.03910068,-1.188661,-6.9,17.34,-37.02,25,287,5,-0.1241972,0.6220173,-0.3011709,5.99495,0.006263256,0.02311528,0.004758747,0.01098778,-0.1436448,0.9895568
634795922105690000,0.08211143,0.07038123,-1.188661,-6.9,17.34,-37.02,25,287,5,-0.11457,0.5049526,-0.3448041,5.98488,0.003370285,0.03363442,0.004165082,0.01637934,-0.148607,0.9887519
634795922105890000,0.09775171,0.1251222,-1.196481,-6.9,17.34,-37.02,18,280,5,0.7325622,-0.4081293,0.151108,5.976246,0.009617328,0.03228414,0.007219028,0.01521647,-0.152923,0.9880946
634795922106090000,0.07820137,0.1368524,-1.247312,-6.9,17.34,-37.02,21,283,5,0.8858107,-0.165486,0.1627941,5.974434,0.02302599,0.02550256,0.01333537,0.01082835,-0.1538855,0.9879394
634795922106290000,0.0742913,0.08211143,-1.298143,-6.9,17.34,-37.02,21,283,5,0.272817,0.05695114,-0.03199001,5.971559,0.03465986,0.02282476,0.01888875,0.008583196,-0.1553453,0.9876423
634795922106490000,0.1055719,0.05474096,-1.290323,-6.36,17.04,-36.48,24,286,5,-0.2571619,-0.1302891,-0.1277427,5.966791,0.03355098,0.02259993,0.01834403,0.008514563,-0.157693,0.9872811
634795922106690000,0.1251222,0.1055719,-1.255132,-6.36,17.04,-36.48,21,283,5,-0.3454926,-0.4931899,-0.07130131,5.963731,0.02861834,0.01995671,0.01571274,0.007574482,-0.1591655,0.9870978
634795922106890000,0.08993158,0.1681329,-1.262952,-6.36,17.04,-36.48,18,280,5,-0.05920987,-0.5091532,0.02025014,5.955125,0.01864767,0.001109838,0.009289201,-0.0009750855,-0.1632937,0.9865333
634795922107090000,0.03519062,0.1759531,-1.266862,-6.36,17.04,-36.48,18,280,5,0.0003942914,-0.3335561,0.00113549,5.950096,0.01650953,-0.005314588,0.007699896,-0.003988856,-0.165748,0.98613
634795922107290000,0.01955034,0.1407625,-1.219941,-6.36,17.04,-36.48,23,285,5,-0.1304693,-0.1877572,-0.1360992,5.944336,0.01149583,-0.009756327,0.004842984,-0.005777362,-0.1685829,0.9856586
634795922107490000,0.02346041,0.1446725,-1.1261,-6.12,15.9,-36.36,21,283,5,-0.1261639,-0.2122344,-0.1956739,5.940063,0.007907629,-0.01294887,0.002790354,-0.00705428,-0.1706906,0.9852955
634795922107690000,0.01955034,0.1603128,-1.008798,-6.12,15.9,-36.36,21,283,5,-0.003765659,-0.1068533,-0.1168795,5.935949,0.004549026,-0.01658189,0.000808006,-0.008559103,-0.1727222,0.9849331
634795922107890000,0.02346041,0.1212121,-0.8797654,-6.12,15.9,-36.36,27,289,5,0.0526238,-0.1334493,0.002305075,5.933589,0.003024578,-0.01936781,-0.0001949423,-0.00979914,-0.1738872,0.9847168
634795922108100000,0.03519062,0.0742913,-0.8172043,-6.12,15.9,-36.36,27,289,5,0.04408105,-0.3537439,0.02466455,5.931964,0.001173496,-0.02487981,-0.001595602,-0.01235075,-0.1746885,0.984545
634795922108290000,0.03910068,0.05474096,-0.797654,-6.12,15.9,-36.36,30,292,5,0.07068615,-0.2515783,0.01936908,5.928696,-0.0009169578,-0.03608704,-0.003632506,-0.01767903,-0.1762979,0.9841714
634795922108490000,0.03519062,0.05083089,-0.7624633,-6.12,14.4,-35.34,33,295,5,0.07068615,-0.2515783,0.01936908,5.92742,8.583068E-06,-0.03995752,-0.003530684,-0.01966299,-0.176911,0.984024
634795922108690000,0.04692082,0.04301075,-0.7116324,-6.12,14.4,-35.34,34,296,5,0.169633,-0.001453649,0.1023454,5.926413,0.002414465,-0.04025864,-0.002383692,-0.02002273,-0.1773815,0.9839356
634795922108890000,0.04692082,0.01955034,-0.684262,-6.12,14.4,-35.34,34,296,5,0.08552751,-0.178121,0.2193458,5.926729,0.003680706,-0.04137683,-0.001856721,-0.02068541,-0.1772103,0.9839538
634795922109090000,0.02346041,0,-0.6803519,-6.12,14.4,-35.34,37,299,5,0.3111432,-0.2419745,0.1331246,5.927037,0.005385398,-0.04486656,-0.001323949,-0.02255345,-0.1770297,0.9839462
634795922109290000,0.01564027,0.007820137,-0.684262,-6.12,14.4,-35.34,36,298,5,0.5282452,-0.06208352,0.05647308,5.927077,0.008877515,-0.04783285,0.000131822,-0.02432179,-0.1769576,0.9839179
634795922109490000,0.01955034,0.01955034,-0.7077224,-4.74,13.86,-34.8,24,286,5,0.4782266,-0.09395387,0.119225,5.928482,0.02815056,-0.05114328,0.009339037,-0.0276476,-0.175994,0.9839586
634795922109690000,0,0.003910068,-0.7741935,-4.74,13.86,-34.8,24,286,5,0.3973455,-0.1407555,0.1255724,5.932097,0.03506184,-0.05371261,0.01256543,-0.02949672,-0.1740904,0.9842076
634795922109890000,-0.02346041,-0.01564027,-0.8367546,-4.74,13.86,-34.8,25,287,5,0.3388131,0.03271649,0.1223478,5.934404,0.03879332,-0.05459714,0.01435916,-0.03024011,-0.1728893,0.9843722
634795922110090000,-0.03519062,-0.02346041,-0.8914956,-4.74,13.86,-34.8,18,280,5,0.2302621,-0.005584337,0.0169735,5.939237,0.04384803,-0.05405116,0.01696781,-0.03036743,-0.1704405,0.9847538
634795922110290000,-0.04301075,-0.03128055,-0.9423265,-4.74,13.86,-34.8,11,273,5,0.2430328,0.02208307,0.007388241,5.944091,0.04750562,-0.05426275,0.01882529,-0.0307376,-0.1653457,0.9855308
634795922110490000,-0.04692082,-0.02737048,-0.9892473,-4.74,13.86,-34.8,11,273,5,0.2749596,0.07106914,0.01376125,5.9545,0.05581355,-0.05303383,0.0231814,-0.03070985,-0.1627529,0.9859163
634795922110690000,-0.04692082,-0.03910068,-1.055718,-4.74,13.86,-34.8,8,270,5,0.2440971,0.05296315,-0.1171185,5.956849,0.05806255,-0.05236685,0.02438078,-0.03053551,-0.1615711,0.9860872
634795922110890000,-0.03910068,-0.03128055,-1.13392,-4.98,12.72,-34.8,7,269,5,0.2781523,0.06357731,-0.1724159,5.958813,0.06194091,-0.05104935,0.02642998,-0.03017348,-0.160566,0.9862097
634795922111090000,-0.02346041,-0.007820137,-1.212121,-4.98,12.72,-34.8,7,269,5,0.3185928,-0.06942593,-0.1702538,5.959724,0.06695342,-0.05123186,0.02890077,-0.03065258,-0.1600372,0.9862116
634795922111290000,-0.007820137,0,-1.259042,-4.98,12.72,-34.8,7,269,5,0.4196942,-0.01408867,-0.07766793,5.961403,0.07318902,-0.05240309,0.03190732,-0.03170191,-0.1590894,0.9862391
634795922111510000,0.007820137,0.01564027,-1.262952,-4.98,12.72,-34.8,7,269,5,0.06210009,0.1773995,-0.2181285,5.962023,0.08071184,-0.0482254,0.03596243,-0.03022973,-0.1587548,0.9861997
634795922111690000,0.04692082,0.03910068,-1.286412,-4.98,12.72,-34.8,9,271,5,0.06210009,0.1773995,-0.2181285,5.958388,0.07822227,-0.0473212,0.0347536,-0.02964956,-0.1606039,0.9859612
634795922111890000,0.09775171,0.07038123,-1.372434,-5.1,12.78,-35.16,12,274,5,-0.5370533,-0.5920374,-0.3735054,5.950104,0.06969857,-0.05468595,0.02981789,-0.0327186,-0.1646696,0.985355
634795922112090000,0.1094819,0.1446725,-1.431085,-5.1,12.78,-35.16,16,278,5,-0.2954742,-0.3547151,-0.001009666,5.945374,0.06298804,-0.06153464,0.02585734,-0.03560053,-0.166986,0.984977
634795922112290000,0.07038123,0.2189638,-1.317693,-5.1,12.78,-35.16,16,278,5,0.2355702,0.1071322,0.4715063,5.941877,0.05704141,-0.06828284,0.02229155,-0.03846535,-0.1686997,0.9846644
634795922112490000,0.02346041,0.1681329,-1.13001,-5.1,12.78,-35.16,20,282,5,0.5101403,0.07202662,0.5268461,5.94487,0.05952978,-0.06749535,0.02364109,-0.03825233,-0.1671914,0.9848984
634795922112700000,0.01173021,0.05083089,-1.004888,-5.1,12.78,-35.16,24,286,5,0.3771121,-0.1620807,0.2863311,5.948474,0.06852603,-0.06994831,0.0279358,-0.04016105,-0.1651948,0.9850469
634795922112890000,0.03128055,0.003910068,-0.9853373,-5.1,12.78,-35.16,28,290,5,-0.1752063,-0.532431,-0.04251371,5.945523,0.06392956,-0.07890272,0.02485646,-0.04422645,-0.1665709,0.9847234
634795922113090000,0.05474096,0.04301075,-1.000978,-5.1,12.78,-35.16,28,290,5,-0.6083459,-0.4430361,-0.1872106,5.942029,0.05000567,-0.08419799,0.01747354,-0.0457029,-0.168512,0.9844844
634795922113290000,0.05083089,0.09775171,-0.9618768,-5.1,12.54,-35.7,21,283,5,-0.6360158,-0.2120993,-0.09775657,5.938337,0.03598022,-0.08453977,0.01045758,-0.04470762,-0.1706409,0.984263
634795922113490000,0.03128055,0.09384164,-0.8719453,-5.1,12.54,-35.7,21,283,5,-0.3508034,-0.2238057,0.1108293,5.936435,0.0272634,-0.0834366,0.006221231,-0.04342658,-0.1717819,0.9841577
634795922113690000,0.01955034,0.04692082,-0.7937439,-5.1,12.54,-35.7,33,295,5,-0.04428433,-0.2418976,0.1544121,5.934533,0.01589584,-0.08267534,0.0006531391,-0.04207556,-0.1729674,0.9840282
634795922113890000,0.003910068,-0.01173021,-0.7781036,-5.1,12.54,-35.7,33,295,5,0.1813085,-0.2418976,0.003274692,5.929369,0.01834989,-0.09147286,0.0009763016,-0.04661798,-0.1753824,0.9833956
634795922114090000,-0.01955034,-0.02737048,-0.7937439,-6.06,12.78,-35.7,33,295,5,0.02060637,-0.135475,-0.1786769,5.926608,0.01839614,-0.09293281,0.0008050504,-0.04734092,-0.176726,0.9831206
634795922114290000,-0.01173021,-0.003910068,-0.8093842,-6.06,12.78,-35.7,25,287,5,-0.3337546,0.2593603,-0.1925119,5.923164,0.01479411,-0.0925585,-0.001012976,-0.0468369,-0.1785067,0.9828228
634795922114490000,0.03128055,0.02346041,-0.7820137,-6.06,12.78,-35.7,18,280,5,-0.1485616,0.2391401,-0.1371447,5.921741,0.009952307,-0.08783221,-0.003000529,-0.04408,-0.1793496,0.9827928
634795922114690000,0.06647116,0.03910068,-0.742913,-6.06,12.78,-35.7,33,295,5,0.1004703,0.0965291,0.02889697,5.920512,0.007838249,-0.08343875,-0.003670132,-0.04172927,-0.1800251,0.9827697
634795922114910000,0.08211143,0.03128055,-0.7546432,-6.06,12.78,-35.7,33,295,5,0.2249695,0.0177691,0.08955281,5.918487,0.009621859,-0.08133411,-0.002645239,-0.04085301,-0.1809961,0.9826314
634795922115090000,0.06256109,0.01173021,-0.8054741,-6.06,12.78,-35.7,42,304,5,0.3654473,0.1698946,0.05974194,5.914248,0.01944136,-0.0788368,0.002320172,-0.04051937,-0.1828963,0.9822941
634795922115290000,0.04692082,0.01173021,-0.8367546,-5.82,13.44,-36.24,40,302,5,0.3888602,0.3774185,0.008649985,5.910354,0.02750349,-0.07266748,0.006772283,-0.03824,-0.1847069,0.9820261
634795922115490000,0.06647116,0.03910068,-0.8758553,-5.82,13.44,-36.24,33,295,5,0.1855932,0.2614179,0.1097254,5.909472,0.03282094,-0.06628763,0.009959992,-0.03560329,-0.1851095,0.9820222
634795922115690000,0.06647116,0.05083089,-0.9384164,-5.82,13.44,-36.24,33,295,5,0.1195693,0.107035,0.2086794,5.910566,0.03447914,-0.06430221,0.01097804,-0.0347761,-0.1845657,0.9821434
634795922115890000,0.04301075,0.04692082,-1.024438,-5.82,13.44,-36.24,33,295,5,0.168492,0.04314566,0.282111,5.911916,0.03677702,-0.06303357,0.01224752,-0.03435705,-0.1838781,0.9822721
634795922116090000,0.01564027,0.01173021,-1.102639,-5.82,13.44,-36.24,31,293,5,0.2653365,0.1910673,0.320423,5.914392,0.0396769,-0.06201637,0.01380809,-0.03410711,-0.1826243,0.982494
634795922116290000,-0.003910068,-0.01564027,-1.14956,-6.12,13.56,-36.06,18,280,5,0.3164192,0.3070679,0.2033583,5.92031,0.04526996,-0.05075669,0.01767667,-0.02903539,-0.1797746,0.9831203
634795922116490000,-0.01955034,0.01955034,-1.208211,-6.12,13.56,-36.06,18,280,5,-0.09969715,-0.1643149,-0.03295707,5.922497,0.04695821,-0.0514723,0.01847404,-0.02951861,-0.1786648,0.9832936
634795922116690000,-0.02737048,0.07820137,-1.325513,-6.12,13.56,-36.06,18,280,5,-0.3657327,-0.1078856,-0.222359,5.922458,0.04507517,-0.0535357,0.01736221,-0.03036499,-0.1786841,0.9832845
634795922116890000,-0.01173021,0.1016618,-1.458456,-6.12,13.56,-36.06,13,275,5,-0.5062104,0.01557222,-0.3383596,5.9196,0.03799605,-0.05562794,0.01364958,-0.03078036,-0.1801706,0.9830589
634795922117090000,-0.01955034,0.1368524,-1.493646,-6.12,13.56,-36.06,13,275,5,-0.1805364,0.09853528,-0.1701913,5.914616,0.02800369,-0.05574512,0.008652607,-0.02995905,-0.1827706,0.9826609
634795922117290000,-0.05865103,0.1681329,-1.372434,-6.12,13.56,-36.06,13,275,5,0.2568595,0.1825777,-0.02329869,5.911123,0.02642631,-0.05180586,0.008190406,-0.02789397,-0.1845455,0.9823939
634795922117490000,-0.06647116,0.1290323,-1.184751,-6.12,13.56,-36.06,13,275,5,0.6538155,0.1815013,-0.0967165,5.910316,0.03584027,-0.04938435,0.01302767,-0.02757837,-0.1848358,0.982296
634795922117690000,-0.03910068,0.06256109,-1.059628,-6.12,14.22,-36.36,13,275,5,0.353704,0.06973213,-0.4415115,5.907669,0.04007244,-0.04863966,0.01513887,-0.02762382,-0.1860856,0.9820285
634795922117890000,-0.007820137,0.05083089,-1.000978,-6.12,14.22,-36.36,12,274,5,-0.2156509,-0.1771651,-0.5681543,5.900592,0.03761506,-0.05073166,0.01363599,-0.0284706,-0.1895687,0.9813599
634795922118090000,0.01955034,0.08211143,-0.9501466,-6.12,14.22,-36.36,14,276,5,-0.5540745,-0.4049093,-0.4042636,5.894519,0.02780461,-0.05713356,0.008119353,-0.03070606,-0.1926249,0.9807583
634795922118290000,0.02346041,0.07820137,-0.8954057,-6.12,14.22,-36.36,14,276,5,0.150445,-0.1420457,-0.1392374,5.890698,0.01681328,-0.06369996,0.002031924,-0.03287059,-0.1946179,0.9803261
634795922118490000,0.02346041,0.03128055,-0.8211144,-6.12,14.22,-36.36,19,281,5,0.2621887,0.05482116,-0.1721828,5.883273,0.01615667,-0.06438339,0.00152034,-0.03314753,-0.1982622,0.9795872
634795922118690000,0.04692082,-0.01564027,-0.7272727,-6.24,13.68,-37.26,31,293,5,0.08338374,-0.1175724,-0.160419,5.880477,0.01816296,-0.06463373,0.002431375,-0.0334724,-0.1995961,0.9793034
634795922118890000,0.06647116,-0.03519062,-0.6920821,-6.24,13.68,-37.26,29,291,5,-0.171991,-0.3697937,-0.1518463,5.876894,0.01804209,-0.06870651,0.001900983,-0.03545777,-0.2013207,0.9788816
634795922119090000,0.05474096,-0.01564027,-0.7194526,-6.24,13.68,-37.26,29,291,5,-0.237973,-0.3070045,-0.06667352,5.873519,0.01557755,-0.07507467,-1.272599E-05,-0.03832602,-0.2029682,0.978435
634795922119290000,0.03910068,0.01955034,-0.742913,-6.24,13.68,-37.26,33,295,5,-0.1592045,-0.09095588,0.04505937,5.871633,0.01352262,-0.0786103,-0.001415351,-0.03984556,-0.2039045,0.9781786
634795922119490000,0.04301075,0.01564027,-0.7194526,-6.24,13.68,-37.26,36,298,5,0.04725213,0.2091335,0.1908232,5.875022,0.01567745,-0.07311499,0.0002636975,-0.03737732,-0.2022459,0.9786212
634795922119690000,0.03128055,-0.01564027,-0.6959922,-6.24,13.68,-37.26,34,296,5,0.2675087,0.1175999,0.1695387,5.876106,0.01938844,-0.07175731,0.002237365,-0.0370871,-0.2016573,0.9787512
634795922119890000,0.02737048,-0.03128055,-0.7116324,-6.96,13.56,-37.68,34,296,5,0.3579679,0.08995975,0.1205366,5.87672,0.02607703,-0.06997513,0.005702298,-0.03688759,-0.2012491,0.9788287
634795922120090000,0.007820137,-0.02737048,-0.7741935,-6.96,13.56,-37.68,34,296,5,0.07271722,-0.2910315,0.1758112,5.877672,0.03076196,-0.07073902,0.007935778,-0.03772888,-0.200688,0.9788963
634795922120290000,-0.03910068,-0.02346041,-0.8797654,-6.96,13.56,-37.68,31,293,5,0.07266391,-0.1643887,0.1161738,5.88024,0.03305268,-0.07506,0.008672453,-0.0400619,-0.1993364,0.9790735
634795922120490000,-0.0742913,-0.02346041,-0.9736071,-6.96,13.56,-37.68,26,288,5,0.1715958,-0.08240908,0.238542,5.88311,0.03474116,-0.07797182,0.009266748,-0.04164186,-0.1978617,0.9793012
634795922120690000,-0.06256109,-0.03128055,-1.036168,-7.2,13.98,-38.28,10,272,5,0.3216515,-0.07278784,0.1544481,5.894808,0.04025602,-0.08054006,0.01196514,-0.04337515,-0.1919801,0.9803668
634795922120890000,-0.03519062,-0.03519062,-1.13783,-7.2,13.98,-38.28,10,272,5,0.4131749,-0.1259341,0.01181723,5.899376,0.04644465,-0.08244096,0.01491697,-0.04486644,-0.1895763,0.9807269
634795922121090000,-0.05865103,-0.02737048,-1.266862,-7.2,13.98,-38.28,11,273,5,0.3301653,-0.09926502,0.01289018,5.901885,0.05259204,-0.08411562,0.01782898,-0.04624735,-0.1881791,0.9808832
634795922121290000,-0.07038123,-0.02346041,-1.333333,-7.2,13.98,-38.28,13,275,5,0.2184217,0.01354859,0.09269717,5.905085,0.05683088,-0.08478332,0.01991947,-0.04694162,-0.1864989,0.9811309
634795922121490000,-0.01955034,-0.01173021,-1.286412,-7.2,13.98,-38.28,10,272,5,0.3259084,0.3082888,0.1490648,5.910115,0.06114769,-0.08112359,0.02249727,-0.04549312,-0.1839978,0.9816155
634795922121690000,0.04301075,0.01173021,-1.196481,-7.2,13.98,-38.28,10,272,5,0.4738357,0.6254279,0.1064572,5.915574,0.06822276,-0.07195484,0.02693815,-0.04157254,-0.181342,0.9821717
634795922121890000,0.07820137,0.01955034,-1.16911,-7.2,13.98,-38.28,13,275,5,-0.1029759,-0.1323189,-0.1723314,5.915025,0.07505082,-0.0584277,0.03152411,-0.03556017,-0.1817584,0.9821943
634795922122090000,0.1094819,0.03910068,-1.247312,-7.56,13.5,-38.22,23,285,5,-0.3094356,-0.8070377,-0.2808824,5.908698,0.07154083,-0.06482017,0.029091,-0.03847146,-0.1847963,0.9815926
634795922122290000,0.1094819,0.1094819,-1.372434,-7.56,13.5,-38.22,27,289,5,-0.1465839,-0.5601374,-0.2053224,5.899362,0.06716561,-0.07852376,0.02545221,-0.04490877,-0.1891875,0.9805833
634795922122490000,0.0742913,0.1876833,-1.356794,-7.56,13.5,-38.22,29,291,5,0.160989,0.471094,0.04158563,5.892972,0.0674386,-0.08051336,0.0252484,-0.04599047,-0.1922726,0.9799381
634795922122690000,0.07038123,0.1915933,-1.15347,-7.56,13.5,-38.22,29,291,5,0.1216107,0.7605633,0.225673,5.890439,0.07026242,-0.06938934,0.02766429,-0.04084906,-0.1936808,0.9798234
634795922122890000,0.07820137,0.08993158,-0.9188661,-7.56,13.5,-38.22,34,296,5,-0.1093145,0.2805977,0.3182606,5.890023,0.07039236,-0.061427,0.02850063,-0.03696831,-0.1940448,0.9798815
634795922123090000,0.05474096,0.02737048,-0.8914956,-7.5,13.26,-37.98,44,306,5,-0.442417,-0.5888856,0.1650122,5.885041,0.0579071,-0.06814861,0.0216269,-0.03910261,-0.1965955,0.9794659
634795922123290000,0.02737048,0.02737048,-0.9579667,-7.5,13.26,-37.98,44,306,5,-0.5030779,-1.022025,-0.005291895,5.879538,0.04897737,-0.08568906,0.01538395,-0.0468534,-0.1991847,0.9787204
634795922123490000,-0.01173021,0.07038123,-0.9736071,-7.5,13.26,-37.98,44,306,5,-0.3817562,-0.7729966,-0.08403903,5.875012,0.04165745,-0.09809303,0.01043625,-0.05221501,-0.2013853,0.9780637
634795922123690000,-0.02346041,0.08211143,-0.8836755,-7.5,13.26,-37.98,36,298,5,-0.5254266,0.2582145,0.1075134,5.8734,0.03246784,-0.09745931,0.005965337,-0.05098414,-0.2024195,0.9779527
634795922123890000,-0.003910068,0.04692082,-0.7624633,-7.5,13.26,-37.98,28,290,5,-0.6009866,0.1624157,0.1564256,5.873958,0.02400207,-0.09365642,0.002226679,-0.04826705,-0.2024013,0.97811
634795922124090000,0.003910068,0.003910068,-0.7194526,-7.5,13.26,-37.98,31,293,5,-0.5286193,-0.156851,0.03081844,5.876172,0.0005714893,-0.09070038,-0.008882784,-0.04445679,-0.2018843,0.9783596
634795922124290000,-0.003910068,-0.01173021,-0.7546432,-7.5,13.26,-37.98,31,293,5,-0.366857,-0.1355665,-0.06282114,5.874672,-0.006712675,-0.09345304,-0.01275745,-0.04505824,-0.2027707,0.9781058
634795922124490000,0.003910068,0,-0.7468231,-7.26,13.08,-38.04,34,296,5,-0.02738529,-0.09935804,0.02125084,5.87431,-0.008186579,-0.09482908,-0.0136258,-0.04557927,-0.2029763,0.9780273
634795922124690000,0.01955034,0.02346041,-0.7077224,-7.26,13.08,-38.04,32,294,5,0.3259136,-0.06741607,0.1712854,5.876743,-0.003721952,-0.09615289,-0.01151988,-0.04669371,-0.2016789,0.9782702
634795922124890000,0.007820137,0.01173021,-0.7077224,-7.26,13.08,-38.04,31,293,5,0.4514922,0.04113298,0.1946984,5.87908,0.001374245,-0.09603738,-0.008960373,-0.04716146,-0.2004168,0.9785339
634795922125090000,0,-0.01564027,-0.7350929,-7.26,13.08,-38.04,38,300,5,0.3567762,0.2656584,0.0392918,5.879803,0.009464025,-0.09343826,-0.004724559,-0.04670185,-0.1998892,0.9786935
634795922125290000,0.02737048,-0.01955034,-0.7820137,-7.26,13.08,-38.04,38,300,5,-0.04125554,0.2954567,-0.15863,5.8755,0.01330805,-0.08341192,-0.001929513,-0.04217555,-0.2019817,0.9784788
634795922125490000,0.05083089,0.01173021,-0.8523949,-6.84,12.54,-37.74,34,296,5,0.01096588,0.01978963,-0.04576427,5.87325,0.01175666,-0.0817616,-0.0025678,-0.04120867,-0.203127,0.9782815
634795922125690000,0.04692082,0.02737048,-0.914956,-6.84,12.54,-37.74,28,290,5,0.4079171,0.09956352,0.05001408,5.87197,0.01478004,-0.0808804,-0.001025495,-0.04108405,-0.2036974,0.9781709
634795922125890000,0.01564027,0.01173021,-0.9814272,-6.84,12.54,-37.74,35,297,5,0.4887982,0.05800425,0.08192754,5.871655,0.02045488,-0.07942939,0.001891775,-0.04095258,-0.2037472,0.9781648
634795922126100000,-0.003910068,-0.01955034,-1.075269,-6.84,12.54,-37.74,35,297,5,0.3344855,-0.1196906,-0.06386386,5.8705,0.02913213,-0.07842635,0.006214504,-0.04134939,-0.2041435,0.9780475
634795922126290000,0,-0.04692082,-1.180841,-6.84,12.54,-37.74,33,295,5,0.1514336,0.1985235,-0.3990833,5.868663,0.03436971,-0.07757473,0.01075102,-0.04033789,-0.2076068,0.9773212
634795922126490000,0.03910068,-0.02737048,-1.243402,-6.3,12.36,-37.02,17,279,5,0.002468999,0.3847629,-0.4012118,5.856506,0.03973651,-0.06789303,0.01222084,-0.03736794,-0.2109023,0.9767162
634795922126690000,0.07038123,0.02737048,-1.239492,-6.3,12.36,-37.02,18,280,5,0.008896386,0.1953113,-0.1638745,5.853708,0.039994,-0.06399071,0.01271093,-0.03550766,-0.2123152,0.9764732
634795922126890000,0.04692082,0.03519062,-1.247312,-6.3,12.36,-37.02,18,280,5,0.2440882,-0.2687036,0.08620083,5.853223,0.04217029,-0.06294417,0.01387673,-0.03523121,-0.2125281,0.9764211
634795922127090000,-0.007820137,0.003910068,-1.302053,-6.3,12.36,-37.02,18,280,5,0.4122358,-0.360227,-0.07875685,5.853416,0.04822969,-0.06940853,0.01614726,-0.03902795,-0.212227,0.9763072
634795922127290000,-0.02346041,0,-1.345064,-6.3,12.36,-37.02,24,286,5,0.3398685,-0.06543587,-0.392687,5.849037,0.05555462,-0.07425404,0.01911204,-0.04221103,-0.2141352,0.9757044
634795922127490000,0.01564027,0.05474096,-1.321603,-5.76,12.36,-36.3,11,273,5,-0.1773072,0.221856,-0.6832204,5.833763,0.05565381,-0.06941116,0.01937874,-0.04000914,-0.2216633,0.9741094
634795922127690000,0.04692082,0.1329423,-1.251222,-5.76,12.36,-36.3,17,279,5,-0.582777,0.1494489,-0.5448712,5.826124,0.04548073,-0.06652987,0.01460224,-0.03753416,-0.225626,0.9733812
634795922127900000,0.04301075,0.1837732,-1.17302,-5.76,12.36,-36.3,17,279,5,-0.4582626,-0.02295178,-0.2053834,5.821557,0.03610444,-0.06686365,0.009917168,-0.03666114,-0.2280175,0.9729161
634795922128090000,0.01955034,0.1603128,-1.13001,-5.76,12.36,-36.3,27,289,5,-0.15174,-0.1293379,-0.07019718,5.817727,0.03127741,-0.06930387,0.007218029,-0.03731139,-0.22994,0.9724625
634795922128290000,0.01173021,0.1251222,-1.079179,-5.76,12.36,-36.3,35,297,5,0.01323832,-0.02822363,-0.1819072,5.811664,0.03032684,-0.07116938,0.006424837,-0.03812856,-0.2328837,0.9717357
634795922128490000,0.02346041,0.113392,-0.9931574,-5.76,12.36,-36.3,32,294,5,-0.1613111,0.1016086,-0.2436323,5.807039,0.02931571,-0.07049167,0.005925661,-0.03769543,-0.2351569,0.9712081
634795922128690000,0.04301075,0.1055719,-0.9188661,-5.76,12.36,-36.3,32,294,5,-0.3794773,-0.05270027,-0.1318643,5.799817,0.01258683,-0.07125664,-0.002418644,-0.03609011,-0.2389641,0.9703545
634795922128890000,0.05474096,0.09384164,-0.8797654,-4.8,11.7,-34.86,30,292,5,-0.2815685,-0.1484805,0.1384207,5.799798,0.003780365,-0.07416475,-0.00703949,-0.03644832,-0.2391143,0.9702815
634795922129100000,0.05474096,0.05865103,-0.8484849,-4.8,11.7,-34.86,36,298,5,-0.06442926,0.02502967,0.1788452,5.800953,-0.0008955001,-0.07646,-0.009561034,-0.03700824,-0.2386287,0.9703584
634795922129290000,0.04301075,0.01173021,-0.801564,-4.8,11.7,-34.86,38,300,5,0.0835107,0.1974353,0.08834896,5.801649,-0.001516819,-0.07578397,-0.009769115,-0.03660949,-0.2383055,0.9704508
634795922129490000,0.04692082,-0.02346041,-0.7311828,-4.8,11.7,-34.86,38,300,5,0.14199,0.1952716,0.002142358,5.802197,7.629394E-06,-0.072258,-0.008599765,-0.0350825,-0.2380269,0.9705867
634795922129690000,0.06256109,-0.02737048,-0.6959922,-4.8,11.7,-34.86,35,297,5,-0.01343223,-0.002744163,-0.01274115,5.802719,0.003171682,-0.06832957,-0.006587797,-0.03355428,-0.2377371,0.9707274
634795922129890000,0.06647116,-0.003910068,-0.7233627,-4.74,11.64,-34.2,30,292,5,-0.04638309,-0.1250745,0.08940723,5.804636,0.004845381,-0.06798934,-0.0057028,-0.03359354,-0.2367804,0.9709655
634795922130090000,0.05083089,0.007820137,-0.7702835,-4.74,11.64,-34.2,34,296,5,0.09193883,-0.01858685,0.1212944,5.806132,0.005510807,-0.06880414,-0.005450829,-0.03407193,-0.2360384,0.9711309
634795922130290000,0.03128055,0.007820137,-0.7546432,-4.74,11.64,-34.2,34,296,5,0.3217804,0.4092428,0.1446537,5.808605,0.009529591,-0.06603145,-0.003130757,-0.03320383,-0.234786,0.9714748
634795922130490000,0.03519062,-0.007820137,-0.684262,-4.74,11.64,-34.2,36,298,5,0.3920193,0.3038846,0.1296984,5.811632,0.01653171,-0.05747246,0.001322142,-0.02986648,-0.233263,0.971954
634795922130690000,0.02737048,-0.04301075,-0.7116324,-4.74,11.64,-34.2,32,294,5,0.2930463,-0.0919855,0.03708108,5.814523,0.02321362,-0.05417049,0.004997382,-0.02903395,-0.2317861,0.9723206
634795922130890000,0.01173021,-0.04301075,-0.8602151,-4.74,11.64,-34.2,32,294,5,0.1152711,-0.4474367,-0.0576274,5.815626,0.02919292,-0.06422877,0.006754165,-0.0346116,-0.2310558,0.9723012
634795922131090000,0.003910068,-0.01173021,-1.028348,-5.04,11.88,-34.2,26,288,5,0.02475941,-0.4112531,-0.1033681,5.815783,0.03056979,-0.07117319,0.006620977,-0.03814518,-0.2308772,0.9722123
634795922131310000,-0.003910068,0.01173021,-1.14565,-5.04,11.88,-34.2,26,288,5,-0.03481634,-0.1036779,-0.03098857,5.817658,0.03009629,-0.07162428,0.006374388,-0.03830378,-0.2299694,0.9724229
634795922131490000,-0.007820137,0.003910068,-1.14565,-5.04,11.88,-34.2,19,281,5,0.01314871,0.3507347,0.1328542,5.821906,0.02915955,-0.06508577,0.006748483,-0.03500326,-0.2279931,0.9730099
634795922131690000,-0.003910068,-0.01173021,-1.13001,-5.04,11.88,-34.2,16,278,5,0.2483452,0.02610518,0.174359,5.827324,0.03217101,-0.0628562,0.008561553,-0.03423898,-0.2253289,0.9736433
634795922131890000,-0.007820137,-0.04301075,-1.216031,-5.04,11.88,-34.2,13,275,5,0.2494094,-0.2878402,0.1094039,5.830874,0.03528595,-0.06467115,0.009935508,-0.03545564,-0.2235248,0.9740025
634795922132090000,0.02346041,-0.03910068,-1.286412,-5.04,11.88,-34.2,13,275,5,0.1259614,-0.07498813,-0.07258806,5.833664,0.04046583,-0.06542503,0.01242411,-0.03638415,-0.2220632,0.974274
634795922132290000,0.08993158,0.04301075,-1.243402,-5.16,11.34,-34.62,14,276,5,-0.02940422,0.4528676,-0.2247565,5.832527,0.03798818,-0.05735338,0.01210011,-0.0321847,-0.222764,0.9742659
634795922132500000,0.1407625,0.1016618,-1.208211,-5.16,11.34,-34.62,13,275,5,-0.3092747,-0.3825513,0.1998771,5.833355,0.03390932,-0.05512428,0.01037524,-0.03064035,-0.2224517,0.9744069
634795922132690000,0.1251222,0.08993158,-1.290323,-5.16,11.34,-34.62,35,297,5,-0.08042861,-0.579433,0.2445746,5.834959,0.02825308,-0.06083488,0.007008067,-0.03278716,-0.2216979,0.9745389
634795922132890000,0.09384164,0.07038123,-1.364614,-5.16,11.34,-34.62,35,297,5,-0.08042861,-0.579433,0.2445746,5.835204,0.02756738,-0.07099079,0.005548583,-0.03765779,-0.2214845,0.9744207
634795922133090000,0.09775171,0.0742913,-1.286412,-5.16,11.34,-34.62,30,292,5,0.2877962,0.2261614,0.3595109,5.84125,0.03776002,-0.07265639,0.01044873,-0.03956585,-0.218321,0.9750186
634795922133290000,0.1212121,0.08602151,-1.12219,-5.64,11.7,-35.4,24,286,5,-0.01764018,0.1154637,0.4212359,5.844576,0.03968358,-0.06984794,0.01175873,-0.03838752,-0.2166996,0.9754124
634795922133490000,0.1212121,0.0742913,-1.000978,-5.64,11.7,-35.4,27,289,5,-0.213442,-0.2176484,0.4861537,5.849716,0.03761435,-0.06989622,0.01084245,-0.03815915,-0.214231,0.9759772
634795922133690000,0.09775171,0.05083089,-0.969697,-5.64,11.7,-35.4,40,302,5,-0.2219558,-0.5826776,0.4446489,5.854966,0.03163266,-0.07618248,0.007352773,-0.04056587,-0.2117085,0.976463
634795922133890000,0.07038123,0.04301075,-0.9970675,-5.64,11.7,-35.4,40,302,5,-0.1367639,-0.5241452,0.1977486,5.857265,0.0262475,-0.08163357,0.004192611,-0.04265156,-0.2106366,0.9766245
634795922134090000,0.05865103,0.06256109,-0.9970675,-5.64,11.7,-35.4,37,299,5,-0.2048424,-0.3453554,0.1232174,5.85725,0.02352881,-0.08455062,0.002556051,-0.04378934,-0.210672,0.9765722
634795922134290000,0.05865103,0.09775171,-0.9227762,-6.06,11.94,-36,33,295,5,-0.2580537,-0.2229695,0.2147273,5.859291,0.01182008,-0.08697021,-0.003372394,-0.04373995,-0.2099105,0.9767359
634795922134490000,0.04692082,0.08602151,-0.8093842,-6.06,11.94,-36,34,296,5,-0.212292,-0.1069635,0.3371132,5.861836,0.006887435,-0.08808887,-0.005843184,-0.04377592,-0.2087674,0.9769676
634795922134700000,0.02737048,0.04301075,-0.7585533,-6.06,11.94,-36,34,296,5,-0.1973928,0.01860495,0.3147645,5.864186,0.002906084,-0.08826959,-0.007755912,-0.04345763,-0.207705,0.977195
634795922134890000,0.02737048,0.007820137,-0.7272727,-6.06,11.94,-36,44,306,5,-0.1686473,-0.04206429,0.1732225,5.864983,0.0003252029,-0.08785629,-0.008956785,-0.04299119,-0.2073732,0.9772757
634795922135090000,0.05083089,0.01564027,-0.7038123,-6.06,11.94,-36,38,300,5,-0.03986662,-0.2027546,0.1093344,5.865943,-0.002100945,-0.08960998,-0.01030316,-0.0436015,-0.2069492,0.9773253
634795922135290000,0.07820137,0.04301075,-0.7116324,-6.06,11.94,-36,35,297,5,0.2240513,-0.1452865,0.1444132,5.867269,-0.0002322197,-0.09314846,-0.009725844,-0.04553034,-0.2062437,0.9773924
634795922135490000,0.0742913,0.04692082,-0.742913,-6.06,11.94,-36,35,297,5,0.2134091,0.01221673,0.2582692,5.870227,0.008181095,-0.09309936,-0.005540552,-0.04638179,-0.2046046,0.9777295
634795922135690000,0.05083089,0.01564027,-0.7546432,-6.42,11.82,-36.6,43,305,5,0.07292007,0.1228696,0.356178,5.871762,0.008914231,-0.09143043,-0.004976064,-0.04564479,-0.2038491,0.977925
634795922135900000,0.03519062,-0.02346041,-0.7702835,-6.42,11.82,-36.6,48,310,5,0.2187625,-0.1251123,0.09968945,5.874097,0.009581566,-0.09060085,-0.004512116,-0.04531249,-0.2026977,0.978182
634795922136090000,0.03519062,-0.03128055,-0.8406647,-6.42,11.82,-36.6,40,302,5,0.2698454,-0.1208464,0.009225412,5.873439,0.01458025,-0.09273195,-0.002299261,-0.04686036,-0.202888,0.9780774
634795922136290000,0.02737048,-0.01173021,-0.9462366,-6.42,11.82,-36.6,33,295,5,0.1506494,-0.005908518,0.06348632,5.872808,0.02020049,-0.09443199,0.0002608641,-0.0482616,-0.2030474,0.9779788
634795922136490000,0.01564027,0.003910068,-1.028348,-6.42,11.82,-36.6,33,295,5,0.06442712,-0.07188909,0.06240241,5.873121,0.02278113,-0.09447181,0.001526373,-0.04854278,-0.2028319,0.9780084
634795922136690000,0.02346041,0.007820137,-1.106549,-7.02,11.94,-36.42,28,290,5,0.2112386,-0.1857514,-0.003594774,5.873132,0.02785611,-0.09562599,0.00389052,-0.04962152,-0.2026892,0.9779773
634795922136890000,0.02737048,0.02346041,-1.192571,-7.02,11.94,-36.42,25,287,5,0.4347259,0.2111884,-0.1515091,5.870586,0.03439927,-0.09340917,0.007253749,-0.04921004,-0.2037998,0.9777482
634795922137090000,0.03910068,0.03519062,-1.231672,-7.02,11.94,-36.42,25,287,5,0.4123771,0.4804374,-0.1408367,5.86706,0.04257154,-0.08586978,0.01194187,-0.04637898,-0.2054338,0.9774985
634795922137290000,0.05083089,0.03519062,-1.200391,-7.02,11.94,-36.42,25,287,5,0.2048533,0.3122898,0.009224562,5.865664,0.04627585,-0.08039951,0.01428847,-0.04409682,-0.2061155,0.9774292
634795922137490000,0.03519062,0.03910068,-1.204301,-7.02,11.94,-36.42,24,286,5,0.1739623,-0.1549239,-0.0003653836,5.864835,0.04933357,-0.07704567,0.01611381,-0.04278021,-0.2065068,0.9773767
634795922137690000,0,0.06647116,-1.302053,-7.02,11.94,-36.42,25,287,5,0.2739995,-0.2560253,-0.1908456,5.853556,0.05904412,-0.08262967,0.02001416,-0.04662303,-0.2117006,0.9760167
634795922137890000,-0.01564027,0.09775171,-1.391984,-7.14,11.94,-37.02,26,288,5,0.2026964,0.1697058,-0.5069205,5.842854,0.06111932,-0.07726275,0.02136443,-0.04433986,-0.2169747,0.9749357
634795922138090000,0.01173021,0.1290323,-1.372434,-7.14,11.94,-37.02,26,288,5,-0.4348125,0.4389548,-0.3738923,5.836315,0.05739903,-0.0712726,0.02007313,-0.04108314,-0.2203518,0.9743482
634795922138290000,0.01564027,0.1759531,-1.223851,-7.14,11.94,-37.02,22,284,5,-0.08362575,0.2442015,-0.02268612,5.829995,0.0498004,-0.06390131,0.01707414,-0.0367096,-0.2237015,0.9738165
634795922138490000,-0.007820137,0.1485826,-1.098729,-7.14,11.94,-37.02,21,283,5,0.4133448,0.01114655,0.01455442,5.827826,0.04753208,-0.0599128,0.01638138,-0.0345322,-0.2248592,0.9736414
634795922138690000,-0.007820137,0.06256109,-1.032258,-7.62,11.88,-37.5,38,300,5,0.4016384,-0.1676189,-0.217426,5.817549,0.05848312,-0.06364381,0.02109651,-0.03768716,-0.2296002,0.9723263
634795922138890000,0.01955034,0.02737048,-1.032258,-7.62,11.88,-37.5,38,300,5,-0.1187944,-0.3762071,-0.4164361,5.811264,0.05672335,-0.0675646,0.01966344,-0.03945236,-0.2326187,0.9715685
634795922139090000,0.06256109,0.07038123,-1.032258,-7.62,11.88,-37.5,30,292,5,-0.5274569,-0.2112521,-0.2642519,5.804437,0.04667234,-0.07097196,0.01424492,-0.03998643,-0.2360766,0.9708069
634795922139300000,0.08211143,0.09384164,-0.9814272,-7.62,11.88,-37.5,30,292,5,-0.3476029,0.1186678,0.07312203,5.802042,0.03910327,-0.07108938,0.01050998,-0.03916231,-0.2373868,0.9705686
634795922139490000,0.06256109,0.05474096,-0.8797654,-7.62,11.88,-37.5,39,301,5,-0.05707886,0.2069394,0.1497077,5.801082,0.02887297,-0.0633403,0.006453217,-0.03419064,-0.2381357,0.9706085
634795922139690000,0.04301075,-0.01173021,-0.7702835,-7.62,11.88,-37.5,44,306,5,0.1482604,0.1058005,-0.01206228,5.798996,0.02717018,-0.05667257,0.006391501,-0.03075917,-0.2392446,0.9704509
634795922139890000,0.04301075,-0.03910068,-0.7311828,-7.62,11.88,-37.5,44,306,5,0.004585958,-0.2049318,-0.1695244,5.79663,0.02902007,-0.05571878,0.007149613,-0.0323045,-0.242922,0.9694814
634795922140090000,0.04692082,-0.02346041,-0.7507331,-7.38,12.54,-38.04,37,299,5,-0.05496393,-0.4113915,-0.198239,5.786904,0.02975273,-0.065557,0.006364346,-0.03541689,-0.24497,0.9688627
634795922140290000,0.03910068,0.007820137,-0.7820137,-7.38,12.54,-38.04,36,298,5,0.0450362,-0.1751335,-0.2035601,5.782892,0.03167843,-0.06830823,0.006884688,-0.03699904,-0.2468467,0.9683235
634795922140490000,0.05474096,0.01564027,-0.7624633,-7.38,12.54,-38.04,37,299,5,0.0993055,0.2229142,-0.1162688,5.780488,0.03408313,-0.06412231,0.008525345,-0.03527991,-0.2480177,0.9680753
634795922140690000,0.05474096,-0.003910068,-0.7194526,-7.38,12.54,-38.04,37,299,5,0.2184458,0.004743319,-0.01408718,5.779602,0.03537082,-0.06093073,0.009531188,-0.03389944,-0.2484633,0.968001
634795922140890000,0.03128055,-0.01955034,-0.7233627,-7.38,12.54,-38.04,42,304,5,0.3504097,-0.05379726,-0.1492139,5.77812,0.03875732,-0.05969084,0.0112999,-0.03372849,-0.2491391,0.9678143
634795922141090000,0.007820137,-0.02346041,-0.7741935,-7.74,13.44,-39.24,41,303,5,0.2386661,-0.05486957,-0.2779851,5.770563,0.05116415,-0.06062722,0.01705101,-0.03579095,-0.2525645,0.9667675
634795922141290000,0.003910068,-0.01955034,-0.8523949,-7.74,13.44,-39.24,35,297,5,0.1088128,-0.07721202,-0.2545722,5.766467,0.05427337,-0.0616076,0.01835437,-0.0366949,-0.2544713,0.9662096
634795922141490000,0.01564027,0.003910068,-0.9462366,-7.74,13.44,-39.24,29,291,5,0.05880801,-0.1517013,-0.02680212,5.765809,0.05498886,-0.06290603,0.01852139,-0.03741904,-0.2547539,0.9661041
634795922141690000,0.02737048,0.01564027,-1.032258,-7.74,13.44,-39.24,29,291,5,0.3876429,-0.197463,0.1530232,5.767487,0.05694198,-0.06612706,0.01908475,-0.0392069,-0.2538491,0.9662604
634795922141890000,0.02346041,-0.007820137,-1.110459,-7.74,13.44,-39.24,27,289,5,0.6877543,-0.01016137,0.171115,5.771019,0.06551266,-0.06908131,0.02292109,-0.04168024,-0.2519124,0.9665803
634795922142090000,0.007820137,-0.04301075,-1.15347,-7.74,13.44,-39.24,27,289,5,0.7324518,0.3899649,0.09552024,5.776968,0.08775281,-0.05655348,0.03537467,-0.0383252,-0.2488735,0.9671307
634795922142290000,0.02346041,-0.04692082,-1.14565,-7.74,13.44,-39.24,27,289,5,0.3301747,0.4197633,0.05931785,5.778578,0.09086514,-0.05227017,0.03744728,-0.03661247,-0.2481434,0.9673066
634795922142490000,0.03910068,-0.03910068,-1.1652,-8.64,13.08,-39.6,26,288,5,0.1183443,0.1632655,0.1125072,5.781713,0.09305786,-0.04961538,0.03889593,-0.03554037,-0.2466547,0.9676701
634795922142710000,0.03519062,-0.02346041,-1.1652,-8.64,13.08,-39.6,21,283,5,0.2651781,0.1674791,0.2008379,5.785823,0.09749626,-0.04683613,0.04146044,-0.03465877,-0.2446601,0.9681019
634795922142890000,0.05865103,-0.02737048,-1.13001,-8.64,13.08,-39.6,24,286,5,0.05020525,0.06743459,-0.1131156,5.789002,0.1044502,-0.03933513,0.04580262,-0.0318082,-0.2432086,0.9683697
634795922143090000,0.1016618,-0.04301075,-1.180841,-8.64,13.08,-39.6,25,287,5,-0.3052346,-0.4699897,-0.3291533,5.787407,0.1055896,-0.03748357,0.04655644,-0.03108789,-0.2440147,0.9681544
634795922143290000,0.1212121,0,-1.290323,-8.64,13.08,-39.6,25,287,5,-0.1700661,-0.6030177,-0.1790787,5.776534,0.09783649,-0.05212784,0.04079831,-0.03745013,-0.2490064,0.9669172
634795922143490000,0.1055719,0.1016618,-1.274682,-8.28,12.48,-40.14,29,291,5,0.5046408,-0.197548,0.1827662,5.775091,0.1021676,-0.05865395,0.04204156,-0.04117202,-0.2494383,0.9666013
634795922143690000,0.08993158,0.1290323,-1.11437,-8.28,12.48,-40.14,38,300,5,0.6270267,0.4377697,0.3221797,5.778703,0.113591,-0.05288482,0.04836145,-0.03972352,-0.2476319,0.9668307
634795922143890000,0.1055719,0.06256109,-0.9579667,-8.28,12.48,-40.14,38,300,5,0.1768594,0.2068081,0.318987,5.781954,0.1186671,-0.04795969,0.0514937,-0.03788949,-0.2461157,0.9671297
634795922144090000,0.1016618,0.02737048,-0.914956,-8.28,12.48,-40.14,46,308,5,-0.3733684,-0.6456413,0.1859588,5.782311,0.1174018,-0.04964637,0.05067886,-0.03853977,-0.2459135,0.9671985
634795922144290000,0.08211143,0.05474096,-0.9931574,-8.28,12.48,-40.14,46,308,5,-0.4340292,-0.9425601,0.1103628,5.780473,0.1058919,-0.06056249,0.04371495,-0.04244052,-0.2467034,0.9671739
634795922144490000,0.05083089,0.113392,-1.071359,-9.18,11.7,-41.04,48,310,5,-0.2403402,-0.7733483,-0.004571413,5.773282,0.09228539,-0.08494306,0.03389842,-0.05266508,-0.2498081,0.9662676
634795922144690000,0.03128055,0.1485826,-1.040078,-9.18,11.7,-41.04,48,310,5,-0.2531109,-0.2689056,0.1390857,5.772826,0.08541703,-0.08694494,0.03031416,-0.05278011,-0.2501551,0.9662907
634795922144890000,0.03910068,0.1173021,-0.9266862,-9.18,11.7,-41.04,48,310,5,-0.3361205,-0.2784741,0.3519307,5.773664,0.08003426,-0.08808315,0.02759111,-0.0526446,-0.2498629,0.9664553
634795922145090000,0.03519062,0.04301075,-0.8406647,-9.18,11.7,-41.04,53,315,5,-0.0551738,-0.4327868,0.1805905,5.774548,0.07325745,-0.09362554,0.02363854,-0.05446321,-0.2494831,0.9665574
634795922145290000,0.01564027,0.003910068,-0.8523949,-9.18,11.7,-41.04,54,316,5,-0.04241172,-0.2050426,0.00285475,5.772461,0.07183504,-0.1015284,0.02189144,-0.05812424,-0.2503447,0.9661624
634795922145490000,0.02346041,0.003910068,-0.8641251,-9.6,11.7,-40.8,40,302,5,-0.2169191,0.02376677,-0.002456903,5.768512,0.06733012,-0.1053877,0.01910807,-0.0594607,-0.2522944,0.9656329
634795922145690000,0.04301075,0.01564027,-0.8054741,-9.6,11.7,-40.8,40,302,5,-0.3212132,0.1109791,0.08054192,5.768579,0.06348133,-0.1039853,0.01743096,-0.05829794,-0.2524065,0.9657062
634795922145890000,0.03910068,0,-0.7702835,-9.6,11.7,-40.8,41,303,5,-0.1402777,-0.04761827,0.04540705,5.768226,0.05948734,-0.1034546,0.01556007,-0.0575405,-0.2527044,0.9657057
634795922146110000,0.01955034,-0.003910068,-0.8289345,-9.6,11.7,-40.8,47,309,5,0.04386608,-0.09230082,-0.05462096,5.765384,0.05976009,-0.1047474,0.01544376,-0.05822063,-0.254041,0.9653161
634795922146290000,0.03128055,0.003910068,-0.8797654,-9.6,11.7,-40.8,46,308,5,-0.08169046,0.2524506,-0.1279968,5.757712,0.06197524,-0.1001712,0.01688515,-0.05636022,-0.2577761,0.9644117
634795922146490000,0.06256109,0.01173021,-0.8836755,-9.6,11.7,-40.8,46,308,5,-0.08169046,0.2524506,-0.1279968,5.757712,0.06197524,-0.1001712,0.01688515,-0.05636022,-0.2577761,0.9644117
634795922146690000,0.07820137,0.01955034,-0.8797654,-9.6,11.7,-40.8,40,302,5,-0.181688,0.2577717,-0.1024265,5.752493,0.05793094,-0.09346819,0.01567116,-0.05264977,-0.2605414,0.9638987
634795922146890000,0.06647116,0.01955034,-0.9071358,-9.6,11.7,-40.8,40,302,5,0.338698,-0.2041445,0.04122422,5.750866,0.05842137,-0.0948118,0.01568738,-0.05337356,-0.2612855,0.9636571
634795922147090000,0.04301075,0.007820137,-0.9657869,-10.32,12.78,-41.04,46,308,5,0.5494145,-0.1211285,-0.004531289,5.74816,0.06720423,-0.09800398,0.01942161,-0.05608328,-0.2622797,0.963165
634795922147290000,0.01955034,0.007820137,-1.016618,-10.32,12.78,-41.04,46,308,5,0.3951019,-0.03598692,0.0603792,5.7465,0.07620811,-0.0979644,0.02371518,-0.05726417,-0.262825,0.9628507
634795922147490000,0.007820137,0.007820137,-1.043988,-10.32,12.78,-41.04,44,306,5,0.2312112,-0.1115212,0.05078766,5.746298,0.07944869,-0.09652496,0.0254613,-0.05700028,-0.2628662,0.9628105
634795922147690000,0,0.01564027,-1.059628,-10.32,12.78,-41.04,39,301,5,0.3376337,-0.002961352,0.04971056,5.746311,0.08185554,-0.09610248,0.02667671,-0.05711323,-0.2628017,0.9627885
634795922147890000,-0.007820137,0.03910068,-1.047898,-11.1,13.02,-41.58,34,296,5,0.4110653,0.1608815,0.1199249,5.748273,0.09257841,-0.09058988,0.03262816,-0.05583914,-0.2617042,0.9629789
634795922148090000,-0.003910068,0.04692082,-1.032258,-11.1,13.02,-41.58,34,296,5,0.1982202,0.01714804,0.04113493,5.748921,0.09480619,-0.08822822,0.03403248,-0.05498387,-0.2613975,0.9630628
634795922148290000,0.003910068,0.02346041,-1.079179,-11.1,13.02,-41.58,34,296,5,0.1109205,-0.4181161,-0.1621077,5.747218,0.09415889,-0.08977126,0.03346851,-0.05566992,-0.2621914,0.9628273
634795922148490000,-0.007820137,0.02737048,-1.176931,-11.1,13.02,-41.58,35,297,5,0.1726131,-0.4298226,-0.3515398,5.741348,0.09372783,-0.09591305,0.03227121,-0.05866152,-0.2648519,0.961962
634795922148690000,-0.01955034,0.08602151,-1.243402,-11.1,13.02,-41.58,37,299,5,0.1204462,-0.1520598,-0.3706958,5.732544,0.09710836,-0.1013321,0.03289558,-0.06185716,-0.268821,0.9606388
634795922148890000,-0.01955034,0.1251222,-1.208211,-12,12.9,-41.34,36,298,5,-0.005172455,0.2469884,-0.0918483,5.727042,0.09853721,-0.1002755,0.03355696,-0.06163501,-0.2714508,0.9598904
634795922149090000,-0.01173021,0.1055719,-1.12219,-12,12.9,-41.34,36,298,5,-0.108404,0.2075856,0.01138388,5.723823,0.09520006,-0.09423029,0.03269589,-0.05833684,-0.273277,0.959608
634795922149290000,-0.003910068,0.05865103,-1.063539,-12,12.9,-41.34,41,303,5,-0.1583976,-0.03615379,-0.08118764,5.719585,0.09192204,-0.09580528,0.03078013,-0.05870894,-0.2753596,0.9590532
634795922149510000,0.01173021,0.05865103,-1.083089,-12,12.9,-41.34,42,304,5,-0.1402698,-0.3767059,-0.1747863,5.713118,0.0886631,-0.1030437,0.02800566,-0.06181758,-0.2783508,0.9580789
634795922149690000,0,0.08993158,-1.106549,-12,12.9,-41.34,41,303,5,-0.2413517,-0.2617695,-0.1119557,5.710138,0.08591365,-0.1065439,0.02609981,-0.06314834,-0.2797645,0.957634
634795922149890000,-0.01173021,0.08211143,-1.071359,-12,12.9,-41.34,41,303,5,-0.4307838,0.1553515,0.1210745,5.70793,0.07992815,-0.1078277,0.02298196,-0.06295018,-0.280975,0.9573725
634795922150090000,-0.01564027,0.05865103,-1.000978,-12.42,12.36,-41.94,45,307,5,-0.3967286,-0.06921649,0.1220984,5.707505,0.06360268,-0.105961,0.01541954,-0.05976506,-0.281726,0.9575076
634795922150290000,-0.003910068,0.02737048,-0.9579667,-12.42,12.36,-41.94,44,306,5,-0.2573151,-0.2863184,0.1146137,5.707343,0.05613207,-0.1090516,0.01139787,-0.06019153,-0.2819595,0.9574685
634795922150490000,0.003910068,0.01564027,-0.9618768,-12.42,12.36,-41.94,43,305,5,-0.1902689,-0.13307,0.08371745,5.707422,0.0521152,-0.1112815,0.009159719,-0.06069142,-0.2819965,0.9574501
634795922150700000,0.007820137,0.01564027,-0.9579667,-12.42,12.36,-41.94,43,305,5,-0.2743427,0.1627552,0.04538385,5.707218,0.04696369,-0.1097405,0.006906802,-0.05922837,-0.2822791,0.9574773
634795922150890000,0.01173021,0.02346041,-0.9032258,-12.42,12.36,-41.94,42,304,5,-0.4573894,0.1850825,0.1358098,5.707002,0.03960299,-0.103561,0.004256167,-0.0552328,-0.2827039,0.9576063
634795922151090000,0.01173021,0.01173021,-0.8406647,-12.42,12.36,-41.94,42,304,5,-0.1859919,-0.2512622,0.2730949,5.709067,0.03031492,-0.09970438,0.0004113438,-0.05207306,-0.2820241,0.957993
634795922151290000,0.003910068,-0.01173021,-0.8758553,-11.82,12.48,-42.36,44,306,5,0.08644105,-0.2097574,0.06448063,5.709694,0.03020406,-0.1056019,-0.000460498,-0.054881,-0.2816412,0.9579489
634795922151490000,0.01955034,0.003910068,-0.9345064,-11.82,12.48,-42.36,44,306,5,-0.09345111,0.2967874,-0.1525848,5.706028,0.029001,-0.1001768,-0.0003642067,-0.05211347,-0.2835072,0.957553
634795922151690000,0.03519062,0.04692082,-0.914956,-11.82,12.48,-42.36,45,307,5,-0.6010865,0.3382921,0.04963373,5.705645,0.01964545,-0.09390152,-0.003959351,-0.04778219,-0.2840042,0.9576235
634795922151890000,0.04301075,0.05865103,-0.9032258,-11.82,12.48,-42.36,41,303,5,-0.5649028,-0.02994807,0.268852,5.708665,0.009737968,-0.09475946,-0.008754529,-0.04679872,-0.2827829,0.9580016
634795922152090000,0.04301075,0.02737048,-0.9618768,-11.82,12.48,-42.36,48,310,5,0.3109385,0.2743928,0.1208951,5.710252,0.008633852,-0.09710824,-0.009578075,-0.04777506,-0.2820278,0.9581681
634795922152290000,0.05865103,0.007820137,-1.004888,-11.94,13.56,-41.7,48,310,5,0.03209096,0.3574023,0.08361816,5.710089,0.01379561,-0.09429478,-0.006711422,-0.04715461,-0.2820101,0.9582284
634795922152490000,0.08211143,0.03519062,-0.9853373,-11.94,13.56,-41.7,48,310,5,-0.2073674,0.04448904,0.1282776,5.710029,0.01397109,-0.07914913,-0.004488083,-0.03992277,-0.2821783,0.9585205
634795922152690000,0.0742913,0.1016618,-0.9853373,-11.94,13.56,-41.7,43,305,5,-0.2776062,-0.1374797,0.1804062,5.710879,0.008833646,-0.07794105,-0.006763123,-0.03862182,-0.281882,0.9586475
634795922152900000,0.02737048,0.1368524,-1.040078,-11.94,13.56,-41.7,46,308,5,-0.2829273,-0.07786151,0.231489,5.711731,0.005210161,-0.07679319,-0.008321945,-0.03756443,-0.2815504,0.9587747
634795922153090000,0.01955034,0.1290323,-1.047898,-11.94,13.56,-41.7,52,314,5,-0.1743687,-0.2332287,0.2208468,5.712608,-0.001351595,-0.07573425,-0.01130258,-0.03613784,-0.2812573,0.9588851
634795922153290000,0.04301075,0.1368524,-1.020528,-11.94,13.56,-41.7,52,314,5,0.2523605,-0.6812675,0.1644429,5.712749,-0.004114151,-0.08157121,-0.01344481,-0.03854867,-0.2812129,0.9587766
634795922153490000,0.04301075,0.1524927,-1.032258,-11.94,13.56,-41.7,51,313,5,0.4683982,-0.5886799,0.2431955,5.713027,0.002475739,-0.09471869,-0.01212745,-0.04577859,-0.2808615,0.9585792
634795922153690000,0.01955034,0.1173021,-1.008798,-10.8,14.4,-41.46,43,305,5,0.2842872,-0.2406783,0.3421685,5.716856,0.008298635,-0.1014954,-0.01019359,-0.0498632,-0.2788315,0.9589905
634795922153890000,0,0.08993158,-0.9775171,-10.8,14.4,-41.46,49,311,5,0.07248288,-0.2013019,0.2921499,5.719444,0.006455183,-0.1027277,-0.01118449,-0.05021151,-0.2776257,0.9593111
634795922154100000,0.007820137,0.09775171,-1.040078,-10.8,14.4,-41.46,49,311,5,-0.1743851,-0.4396884,0.09523492,5.719549,0.001075983,-0.1085263,-0.01456737,-0.05224638,-0.2776652,0.9591455
634795922154290000,0.03519062,0.1329423,-1.14565,-10.8,14.4,-41.46,44,306,5,-0.277615,-0.6067717,-0.02929346,5.718664,-0.00317955,-0.1143516,-0.01744077,-0.05444122,-0.2781592,0.9588323
634795922154490000,0.05083089,0.1642229,-1.176931,-10.8,14.4,-41.46,40,302,5,-0.1073242,-0.03208951,0.08988443,5.717664,-0.01077843,-0.1189406,-0.02174868,-0.05557323,-0.2788182,0.9584879
634795922154690000,0.04301075,0.1603128,-1.094819,-10.44,15.72,-40.92,39,301,5,0.1459628,0.369107,0.2314131,5.720881,-0.006877184,-0.1082247,-0.01830543,-0.05100936,-0.2772335,0.9592729
634795922154890000,0.01173021,0.1055719,-0.9892473,-10.44,15.72,-40.92,39,301,5,0.2981471,0.4883002,0.2441838,5.725381,-0.001220465,-0.0985918,-0.01415164,-0.04720402,-0.2749946,0.960182
634795922155090000,0.003910068,0.04301075,-0.9266862,-10.44,15.72,-40.92,42,304,5,0.0906243,0.3701712,0.03877321,5.726322,0.001784086,-0.09287822,-0.01190232,-0.04487947,-0.2745116,0.9604622
634795922155290000,0.007820137,0.04692082,-0.9032258,-10.44,15.72,-40.92,38,300,5,-0.1934801,0.09340391,-0.06656902,5.725227,-0.0008466244,-0.0842955,-0.01200956,-0.04038975,-0.2751472,0.9604782
634795922155490000,0.007820137,0.08993158,-0.8875855,-10.44,15.72,-40.92,33,295,5,-0.1498231,-0.03859128,-0.07293542,5.724393,-0.003187656,-0.08334672,-0.01301985,-0.03960659,-0.275599,0.9603682
634795922155690000,0.01173021,0.1251222,-0.8954057,-10.08,16.26,-40.32,37,299,5,-0.0135793,-0.039662,-0.1112199,5.722929,-0.005778551,-0.0836923,-0.01434035,-0.03940499,-0.2763518,0.9601413
634795922155890000,0.01955034,0.1329423,-0.9305963,-10.08,16.26,-40.32,37,299,5,-0.06358448,0.210368,-0.171831,5.716363,-0.007147789,-0.08025777,-0.01464675,-0.03751892,-0.2795429,0.9592881
634795922156090000,0.03910068,0.1212121,-0.9384164,-10.08,16.26,-40.32,42,304,5,-0.2082915,0.1443667,-0.1292196,5.712432,-0.01089787,-0.07767594,-0.01615528,-0.03572449,-0.2815056,0.9587582
634795922156290000,0.05083089,0.1212121,-0.9345064,-10.08,16.26,-40.32,42,304,5,-0.1465313,-0.07700374,-0.09087773,5.710419,-0.01299787,-0.07836092,-0.01729426,-0.03573989,-0.2825062,0.9584435
634795922156490000,0.03519062,0.1329423,-0.9540567,-10.08,16.26,-40.32,42,304,5,0.1131413,-0.1078488,-0.03020625,5.708346,-0.01213384,-0.08068645,-0.01724641,-0.03695866,-0.2834776,0.9581112
634795922156690000,0.02737048,0.1251222,-0.9892473,-10.08,16.26,-40.32,42,304,5,0.1386779,0.1177538,-0.1025481,5.705527,-0.009114265,-0.08051312,-0.0158279,-0.03728126,-0.284772,0.9577393
634795922156890000,0.04301075,0.1094819,-1.016618,-8.7,16.92,-40.5,37,299,5,-0.359342,0.1037835,-0.05883423,5.701014,-0.020895,-0.0705409,-0.02012134,-0.03078145,-0.2871513,0.9571791
634795922157090000,0.0742913,0.1173021,-1.024438,-8.7,16.92,-40.5,33,295,5,-0.01769435,-0.1260935,0.0529209,5.700814,-0.02507448,-0.06950021,-0.02197548,-0.02968093,-0.2873093,0.9571257
634795922157290000,0.07820137,0.1524927,-1.020528,-8.7,16.92,-40.5,33,295,5,0.3920252,0.3389726,-0.03753866,5.701776,-0.02458787,-0.06869352,-0.02161296,-0.02937505,-0.2868412,0.9572837
634795922157500000,0.06256109,0.1446725,-0.9970675,-8.7,16.92,-40.5,33,295,5,0.4196951,0.4432667,-0.04495726,5.699929,-0.01878428,-0.05876982,-0.01743852,-0.02543971,-0.2876396,0.957242
634795922157690000,0.06647116,0.1173021,-0.9970675,-8.7,16.92,-40.5,36,298,5,0.116382,0.01010426,0.03487633,5.698369,-0.01522064,-0.05086863,-0.01461549,-0.02215835,-0.2883429,0.9571592
634795922157890000,0.05865103,0.1290323,-1.040078,-8.7,16.92,-40.5,39,301,5,-0.02410992,-0.252754,0.1115048,5.698352,-0.01697159,-0.05061197,-0.01541671,-0.02178294,-0.2883698,0.9571472
634795922158090000,0.02737048,0.1564027,-1.075269,-8.34,17.58,-41.16,34,296,5,0.07590127,-0.04310104,0.2136655,5.70298,-0.01936674,-0.04997563,-0.01642238,-0.02117108,-0.2861801,0.9578012
634795922158290000,0.01173021,0.1407625,-1.047898,-8.34,17.58,-41.16,34,296,5,0.169538,0.4166197,0.2402712,5.707056,-0.01812577,-0.04153037,-0.01458613,-0.01733314,-0.2842047,0.958496
634795922158490000,0.02346041,0.1016618,-0.9892473,-8.34,17.58,-41.16,33,295,5,0.09607941,0.488987,0.1668396,5.71021,-0.0169189,-0.03322458,-0.01280747,-0.01354372,-0.2826707,0.9590359
634795922158690000,0.03910068,0.08993158,-0.9618768,-8.34,17.58,-41.16,30,292,5,0.00349821,0.1835309,0.007214989,5.711308,-0.01776671,-0.02934062,-0.01265921,-0.01156831,-0.2821411,0.9592196
634795922158890000,0.04301075,0.1055719,-0.969697,-8.34,17.58,-41.16,29,291,5,0.05455825,-0.4273549,-0.02566968,5.711015,-0.01908851,-0.02913749,-0.01326614,-0.01128246,-0.2822889,0.9591714
634795922159090000,0.05474096,0.1446725,-1.008798,-6.72,17.88,-41.34,25,287,5,0.1119909,-0.4316117,0.07225458,5.710802,-0.02023053,-0.0336417,-0.01445033,-0.01328,-0.2824096,0.9590932
634795922159290000,0.05083089,0.1564027,-1.071359,-6.72,17.88,-41.34,25,287,5,0.01196859,-0.1197894,0.1765249,5.71642,-0.02195811,-0.04345488,-0.01661275,-0.01778894,-0.2797513,0.9597639
634795922159490000,0.03519062,0.1329423,-1.075269,-6.72,17.88,-41.34,27,289,5,-0.1029026,0.2782201,0.1626774,5.719934,-0.02450919,-0.03990102,-0.01731294,-0.01575686,-0.2780759,0.9602738
634795922159690000,0.03128055,0.09384164,-1.004888,-6.72,17.88,-41.34,30,292,5,-0.02836693,0.1025766,0.09775884,5.722559,-0.02621245,-0.03699112,-0.01770838,-0.01414591,-0.2768181,0.960655
634795922159890000,0.02737048,0.0742913,-0.9501466,-6.72,17.88,-41.34,24,286,5,0.2057329,0.1408344,-0.06079922,5.723243,-0.02494311,-0.03606319,-0.01696568,-0.01388162,-0.2764779,0.9607702
634795922160090000,0.03910068,0.08211143,-0.9384164,-6.72,17.88,-41.34,24,286,5,0.2131825,0.04926956,-0.0969834,5.722911,-0.02261901,-0.03257847,-0.01537027,-0.01252611,-0.2766098,0.9607778
634795922160290000,0.05083089,0.08993158,-0.9540567,-6.72,17.88,-41.34,23,285,5,0.1301307,-0.209334,-0.03629692,5.722993,-0.0205245,-0.03205621,-0.01429141,-0.01256542,-0.2765559,0.9608094
634795922160490000,0.03910068,0.08602151,-0.9853373,-6.42,17.7,-42,25,287,5,0.1321901,-0.2721232,0.02006753,5.725983,-0.01767302,-0.03943085,-0.01391544,-0.01652364,-0.2751141,0.9611689
634795922160690000,0.02346041,0.08211143,-0.9892473,-6.42,17.7,-42,24,286,5,-0.1307144,0.2418754,0.05935968,5.727704,-0.01958585,-0.03438377,-0.01412933,-0.01384685,-0.2742922,0.9614429
634795922160890000,0.01173021,0.05474096,-0.9540567,-6.42,17.7,-42,24,286,5,-0.213704,-0.05615141,0.02846895,5.729126,-0.02240538,-0.0309937,-0.01501199,-0.01184096,-0.2736163,0.9616489
634795922161090000,0.01955034,0.04692082,-0.9305963,-6.42,17.7,-42,21,283,5,-0.09447681,-0.3009182,-0.01406249,5.731332,-0.027421,-0.03116941,-0.01743519,-0.01125846,-0.2725852,0.9619078
634795922161290000,0.03128055,0.07038123,-0.9853373,-6.9,17.88,-42.24,20,282,5,-0.06251685,-0.2466427,-0.04062577,5.733345,-0.03001571,-0.03534591,-0.01923832,-0.0129331,-0.2716524,0.9621162
634795922161490000,0.02737048,0.07820137,-1.032258,-6.9,17.88,-42.24,21,283,5,-0.1593038,0.006641487,-0.05548054,5.734949,-0.03450465,-0.0388999,-0.02186814,-0.01405074,-0.2709299,0.9622481
634795922161690000,0.02346041,0.07820137,-1.016618,-6.9,17.88,-42.24,21,283,5,-0.2540198,0.105595,0.005222442,5.736408,-0.03977108,-0.03624093,-0.02403387,-0.01207534,-0.270245,0.9624159
634795922161890000,0.03519062,0.07038123,-0.9775171,-6.9,17.88,-42.24,21,283,5,-0.255084,-0.01785751,0.04882055,5.737916,-0.04341435,-0.03551709,-0.02568096,-0.01125398,-0.2695354,0.9625822
634795922162090000,0.03910068,0.06256109,-0.9814272,-6.9,17.88,-42.24,21,283,5,-0.06774709,-0.2019635,-0.006566193,5.739657,-0.04651379,-0.03719008,-0.0273873,-0.01166548,-0.2687289,0.9627557
634795922162290000,0.03128055,0.07038123,-1.004888,-6.9,17.88,-42.24,24,286,5,0.0322955,-0.1423668,-0.06082678,5.740099,-0.04667496,-0.03904318,-0.02771034,-0.01254217,-0.268533,0.9627901
634795922162490000,0.02737048,0.08211143,-1.000978,-6.24,18.54,-42,20,282,5,-0.2018113,-0.1253615,0.004120436,5.740031,-0.04722857,-0.03846884,-0.02790034,-0.01219034,-0.2685639,0.9627806
634795922162690000,0.02737048,0.08602151,-0.9892473,-6.24,18.54,-42,20,282,5,-0.1581436,-0.2583896,0.007273308,5.74264,-0.0538671,-0.04098737,-0.03141655,-0.01255247,-0.267373,0.962999
634795922162890000,0.03128055,0.08993158,-1.008798,-6.24,18.54,-42,20,282,5,-0.007002285,-0.1807012,-0.03638313,5.743525,-0.05493021,-0.04299366,-0.03218967,-0.01339084,-0.2669748,0.9630727
634795922163090000,0.03910068,0.09384164,-1.032258,-6.24,18.54,-42,20,282,5,0.0302424,-0.02746182,0.001904186,5.74469,-0.05525708,-0.04430652,-0.0325134,-0.01399858,-0.266429,0.9632043
634795922163290000,0.04301075,0.08602151,-1.032258,-6.24,18.54,-42,20,282,5,-0.01126876,0.07998203,0.02634922,5.746367,-0.05548573,-0.04288459,-0.03242378,-0.01331027,-0.2656079,0.9634438
634795922163490000,0.03519062,0.07820137,-1.012708,-6.24,18.54,-42,20,282,5,-0.0602161,-0.004111655,0.02422365,5.74816,-0.05671644,-0.04036975,-0.03267334,-0.01196429,-0.2647249,0.963696
634795922163690000,0.03128055,0.07038123,-1.020528,-6.66,18.78,-42.18,22,284,5,-0.00806949,-0.1296532,-0.02684809,5.750399,-0.05821776,-0.04063785,-0.03341878,-0.01193221,-0.2636585,0.9639632
634795922163890000,0.03128055,0.07038123,-1.055718,-6.66,18.78,-42.18,21,283,5,0.05044363,-0.03916563,-0.05981183,5.750466,-0.05771184,-0.03985405,-0.03307161,-0.0116221,-0.2636141,0.9639911
634795922164090000,0.03128055,0.0742913,-1.043988,-6.66,18.78,-42.18,20,282,5,0.01744094,0.2119318,-0.0831888,5.750177,-0.05747699,-0.03552091,-0.032391,-0.00955914,-0.2637028,0.9640126
634795922164290000,0.03519062,0.0742913,-1.008798,-6.66,18.78,-42.18,19,281,5,-0.07507747,-0.07654463,-0.05332921,5.750636,-0.05902863,-0.03382539,-0.03291427,-0.008544648,-0.2634686,0.9640685
634795922164490000,0.04692082,0.06256109,-1.004888,-6.66,18.78,-42.18,19,281,5,0.01220698,-0.1020607,-0.1618072,5.751077,-0.06044173,-0.03407645,-0.03362644,-0.008486951,-0.2632647,0.9641001
634795922164690000,0.05474096,0.0742913,-1.028348,-6.66,18.78,-42.18,19,281,5,-0.009071245,-0.02649316,-0.1563993,5.749673,-0.06028962,-0.03477407,-0.03365084,-0.008819709,-0.2639497,0.9639089
634795922164890000,0.05083089,0.08602151,-1.024438,-6.24,19.5,-42,19,281,5,-0.04737782,-0.02117065,-0.07015024,5.748309,-0.0607593,-0.03313398,-0.03366692,-0.007944135,-0.2645887,0.9637408
634795922165090000,0.04692082,0.0742913,-0.9970675,-6.24,19.5,-42,20,282,5,0.02923107,-0.08927137,-0.05841205,5.748767,-0.06078887,-0.03301668,-0.03366399,-0.007891381,-0.2643667,0.9638022
634795922165290000,0.04692082,0.06256109,-0.9970675,-6.24,19.5,-42,20,282,5,0.09623671,-0.105226,-0.08496905,5.7489,-0.05951953,-0.03350579,-0.03311605,-0.008297164,-0.2643032,0.9638352
634795922165490000,0.05474096,0.07038123,-1.016618,-6.24,19.5,-42,20,282,5,0.0844884,-0.08288208,-0.1306505,5.748146,-0.05769062,-0.03394103,-0.03229532,-0.00873644,-0.2646643,0.9637601
634795922165690000,0.06647116,0.08211143,-1.032258,-6.24,19.5,-42,20,282,5,-0.03789344,-0.03925204,-0.07525533,5.747882,-0.05731773,-0.03351068,-0.03206006,-0.00857412,-0.264785,0.9637362
634795922165890000,0.06256109,0.08602151,-1.032258,-5.88,19.68,-41.94,19,281,5,-0.02720905,-0.08605997,-0.04118523,5.748497,-0.05798745,-0.03338945,-0.03236418,-0.008437011,-0.2644896,0.9638084
634795922166090000,0.05083089,0.08602151,-1.008798,-5.88,19.68,-41.94,19,281,5,0.300572,-0.0158178,0.007703893,5.750287,-0.05407262,-0.03135955,-0.03020274,-0.008003179,-0.263588,0.9641292
634795922166290000,0.04301075,0.0742913,-0.9853373,-5.88,19.68,-41.94,20,282,5,0.3282418,-0.05732089,0.01724318,5.751962,-0.04877424,-0.03058159,-0.02753935,-0.008349402,-0.2627505,0.9644346
634795922166490000,0.04692082,0.05865103,-0.9775171,-5.88,19.68,-41.94,20,282,5,0.1760577,0.04269713,-0.06044366,5.753297,-0.04416108,-0.02990126,-0.0252198,-0.008644115,-0.2620811,0.9646775
634795922166690000,0.05474096,0.05865103,-0.9814272,-5.88,19.68,-41.94,20,282,5,-0.2251475,0.01391154,-0.04766657,5.753627,-0.04325175,-0.02653611,-0.02434006,-0.007143814,-0.2618889,0.9647647
634795922166890000,0.05865103,0.08602151,-0.9853373,-5.88,19.68,-41.94,20,282,5,-0.3273131,-0.08824459,0.05871848,5.754966,-0.04853725,-0.02574777,-0.02678248,-0.006089314,-0.2612528,0.9648796
634795922167090000,0.05474096,0.09384164,-1.000978,-5.88,19.68,-41.94,19,281,5,-0.04848472,-0.01373511,0.2151361,5.757011,-0.05225897,-0.02467382,-0.0290902,-0.005005739,-0.2578697,0.9657287
634795922167290000,0.04692082,0.05474096,-0.9970675,-6.36,19.08,-41.7,21,283,5,0.06855525,0.01497726,0.2044938,5.76643,-0.05324196,-0.02291381,-0.02865884,-0.004271733,-0.2556995,0.966322
634795922167490000,0.03519062,0.02346041,-0.9892473,-6.36,19.08,-41.7,23,285,5,0.04938643,-0.06910399,0.04479608,5.768171,-0.05277586,-0.02285326,-0.02842223,-0.004326756,-0.254857,0.9665513
634795922167690000,0.03519062,0.03910068,-0.9970675,-6.36,19.08,-41.7,23,285,5,0.2356001,-0.08718805,-0.1159222,5.767486,-0.04845404,-0.02334845,-0.02639821,-0.005107788,-0.2551834,0.9665188
634795922167890000,0.04692082,0.05474096,-1.000978,-6.36,19.08,-41.7,17,279,5,0.3324445,0.188411,-0.08932354,5.766536,-0.04053473,-0.02277994,-0.02250137,-0.005832708,-0.2556156,0.966499
634795922168090000,0.05083089,0.04301075,-0.9814272,-6.66,18.96,-41.7,19,281,5,0.3324445,0.188411,-0.08932354,5.766121,-0.03591514,-0.02001584,-0.01991718,-0.005082982,-0.2557814,0.9665161
634795922168290000,0.03128055,0.01564027,-0.9814272,-6.66,18.96,-41.7,21,283,5,-0.4167776,-0.2341008,-0.05312115,5.768262,-0.04333138,-0.02277243,-0.02384704,-0.00549225,-0.2547888,0.966687
634795922168490000,0.003910068,0,-1.000978,-6.66,18.96,-41.7,21,283,5,-0.2433089,-0.09681299,-0.1893046,5.767316,-0.04831576,-0.02442145,-0.0264685,-0.00564183,-0.2552755,0.9664896
634795922168690000,0.01173021,0.007820137,-1.004888,-6.66,18.96,-41.7,21,283,5,0.009978809,0.04682834,-0.3170117,5.763975,-0.04833364,-0.023633,-0.02638546,-0.005214402,-0.2568819,0.9660685
634795922168890000,0.03128055,0.03519062,-1.004888,-6.66,18.96,-41.7,13,275,5,-0.02513466,-0.007478007,-0.2467728,5.761617,-0.04721355,-0.02271581,-0.02573263,-0.004884803,-0.258009,0.9657874
634795922169090000,0.03128055,0.04692082,-1.008798,-6.66,18.96,-41.7,14,276,5,-0.07724252,-0.04046708,-0.1350081,5.759923,-0.0470438,-0.02254593,-0.02563282,-0.004802986,-0.2588242,0.9655724
634795922169290000,0.03519062,0.04692082,-1.004888,-6.66,18.96,-41.7,14,276,5,-0.03995921,-0.05108762,-0.09562056,5.759454,-0.04788732,-0.02263653,-0.02605285,-0.004731429,-0.259054,0.9654998
634795922169490000,0.04301075,0.03519062,-1.012708,-7.26,18.72,-41.64,20,282,5,0.005810454,0.02872268,-0.1051665,5.758345,-0.04745317,-0.02065825,-0.02558974,-0.003818278,-0.2595687,0.965378
634795922169690000,0.04692082,0.03910068,-1.008798,-7.26,18.72,-41.64,20,282,5,0.01005948,0.04571792,-0.1179207,5.757914,-0.04716468,-0.01938212,-0.02528576,-0.003234232,-0.2597631,0.9653358
634795922169890000,0.05474096,0.04301075,-0.9970675,-7.26,18.72,-41.64,21,283,5,0.006863934,0.03398303,-0.06046271,5.757911,-0.04652834,-0.01784968,-0.02477998,-0.002577081,-0.2597483,0.9653549
634795922170090000,0.05865103,0.04301075,-1.000978,-7.26,18.72,-41.64,21,283,5,0.09410762,-0.09153967,-0.01153145,5.758043,-0.04502248,-0.0184325,-0.02412853,-0.003055612,-0.2596878,0.9653863
634795922170290000,0.05474096,0.04301075,-1.016618,-7.26,18.72,-41.64,21,283,5,0.08665326,0.004241026,0.005503714,5.758746,-0.04307556,-0.01886666,-0.02324381,-0.003526127,-0.2593498,0.9654973
634795922170510000,0.05474096,0.03519062,-1.004888,-7.02,18.72,-41.04,22,284,5,0.06216299,0.01273131,0.01935875,5.760658,-0.04023433,-0.01631677,-0.02153943,-0.002684054,-0.2583992,0.9657944
634795922170690000,0.04692082,0.02737048,-0.9970675,-7.02,18.72,-41.04,22,284,5,0.05150563,-0.07453825,0.03746729,5.762336,-0.03916621,-0.01614058,-0.02099851,-0.002754599,-0.2575861,0.9660233
634795922170890000,0.04301075,0.02346041,-1.000978,-7.02,18.72,-41.04,21,283,5,0.1036237,-0.06495159,0.0215104,5.763976,-0.03745842,-0.01636755,-0.0202003,-0.00310075,-0.256793,0.9662504
634795922171090000,0.04301075,0.02346041,-1.008798,-7.02,18.72,-41.04,21,283,5,0.09507426,0.0222906,-0.006161685,5.764755,-0.03593993,-0.0160408,-0.01942359,-0.003145419,-0.2564118,0.9663674
634795922171290000,0.05083089,0.03910068,-1.004888,-7.02,18.72,-41.04,20,282,5,0.01949756,0.04887345,0.0161996,5.765863,-0.03408217,-0.01416254,-0.01828396,-0.002486096,-0.2558592,0.966538
634795922171490000,0.05865103,0.04301075,-0.9970675,-6.36,18.78,-41.16,18,280,5,-0.003909433,-0.001140657,0.05557614,5.767797,-0.03378868,-0.0124836,-0.01792594,-0.001729515,-0.2549119,0.9667966
634795922171700000,0.05865103,0.03128055,-0.9853373,-6.36,18.78,-41.16,21,283,5,0.09399129,-0.007524733,0.03428174,5.770868,-0.03204679,-0.01099431,-0.01689225,-0.001257517,-0.2534154,0.9672092
634795922171890000,0.05474096,0.03128055,-0.9853373,-6.36,18.78,-41.16,21,283,5,0.131203,-0.05116425,-0.03915415,5.771579,-0.02944922,-0.01076245,-0.01560622,-0.001480075,-0.2530683,0.9673214
634795922172090000,0.05865103,0.03910068,-1.000978,-6.36,18.78,-41.16,20,282,5,0.0641234,-0.08732768,-0.0423479,5.771984,-0.02843547,-0.01121032,-0.01517215,-0.001828054,-0.2528741,0.9673785
634795922172290000,0.06647116,0.04301075,-1.008798,-6.36,18.78,-41.16,20,282,5,-0.03698534,-0.07240564,-0.022139,5.772729,-0.02898288,-0.01137304,-0.01545673,-0.001843276,-0.2525153,0.9674677
634795922172490000,0.06647116,0.04692082,-1.008798,-6.24,18.36,-40.56,21,283,5,0.0002536047,-0.02024872,0.002339556,5.773441,-0.02914166,-0.01100111,-0.01548606,-0.001648836,-0.2521689,0.9675579
634795922172690000,0.05083089,0.03910068,-0.9931574,-6.24,18.36,-40.56,22,284,5,0.07785127,-0.02664226,0.04598343,5.775176,-0.02852273,-0.009996175,-0.01505888,-0.001253763,-0.2513222,0.9677855
634795922172890000,0.04301075,0.02346041,-0.9892473,-6.24,18.36,-40.56,22,284,5,0.04480239,-0.04473218,0.002347216,5.778281,-0.0264318,-0.008898734,-0.01390774,-0.001007014,-0.2498121,0.9681939
634795922173090000,0.04301075,0.01955034,-0.9892473,-6.24,18.36,-40.56,20,282,5,-0.01481944,-0.09898946,-0.0221289,5.778917,-0.02631879,-0.00895679,-0.01385997,-0.001053649,-0.249504,0.968274
634795922173290000,0.04692082,0.02737048,-0.9970675,-6.24,18.36,-40.56,18,280,5,0.04688285,-0.09149978,-0.03805758,5.779674,-0.0264368,-0.01018846,-0.01407006,-0.001640585,-0.2491447,0.9683626
634795922173490000,0.04692082,0.03519062,-1.004888,-5.94,18.48,-40.56,18,280,5,0.09154826,-0.04360378,-0.02739011,5.780311,-0.02545595,-0.0109061,-0.01368384,-0.002114569,-0.2488395,0.9684458
634795922173690000,0.04301075,0.03519062,-0.9970675,-5.94,18.48,-40.56,18,280,5,0.07448575,0.02129171,-0.006088152,5.781115,-0.02376533,-0.01063752,-0.01283094,-0.002200026,-0.248447,0.968558
634795922173910000,0.03910068,0.03519062,-0.9892473,-5.94,18.48,-40.56,18,280,5,0.004226039,-0.00639591,0.04288983,5.782296,-0.02246118,-0.009394049,-0.01204383,-0.001766964,-0.2478672,0.9687175
634795922174090000,0.04301075,0.02346041,-0.9814272,-5.94,18.48,-40.56,18,280,5,0.02337368,-0.06598784,0.04930285,5.785975,-0.02231169,-0.008786917,-0.01189348,-0.001513244,-0.2460823,0.9691748
634795922174290000,0.04301075,0.01564027,-0.9892473,-5.94,18.48,-40.56,18,280,5,0.09253448,-0.05533558,-0.0155854,5.787516,-0.02115464,-0.009120583,-0.01137245,-0.001826066,-0.2453356,0.9693698
634795922174490000,0.05083089,0.01955034,-1.004888,-5.94,18.48,-40.56,18,280,5,0.04358321,-0.04575106,-0.06132431,5.787958,-0.01988888,-0.00914514,-0.01076152,-0.001995612,-0.2451206,0.9694308
634795922174690000,0.05474096,0.03128055,-1.004888,-5.94,18.48,-40.56,18,280,5,-0.04682953,-0.00425405,0.0025408,5.788976,-0.02014518,-0.008701682,-0.01083058,-0.0017548,-0.2446254,0.9695556
634795922174890000,0.04692082,0.03128055,-0.9970675,-6.12,18.36,-40.86,18,280,5,-0.04890689,-0.02768722,0.05043742,5.790402,-0.02084684,-0.008340716,-0.01112546,-0.001501885,-0.2439328,0.9697272
634795922175100000,0.04692082,0.02346041,-0.9970675,-6.12,18.36,-40.86,19,281,5,0.02985343,-0.02557612,0.02278694,5.792646,-0.02113032,-0.00793612,-0.01121219,-0.001283751,-0.2428428,0.97
634795922175290000,0.04692082,0.02346041,-0.9970675,-6.12,18.36,-40.86,19,281,5,0.04047323,-0.02877241,0.002584646,5.795259,-0.01984238,-0.007120251,-0.01048713,-0.001058083,-0.2415713,0.9703258
634795922175490000,0.03910068,0.02346041,-0.9892473,-6.12,18.36,-40.86,19,281,5,0.03085508,-0.02983174,0.008972871,5.796209,-0.01936579,-0.007070661,-0.01024934,-0.001096465,-0.2411097,0.9704431
634795922175690000,0.04301075,0.01955034,-0.9853373,-6.12,18.36,-40.86,18,280,5,0.07969908,-0.1447493,0.01422376,5.797589,-0.01806664,-0.007599592,-0.009681735,-0.001516443,-0.2404414,0.9706142
634795922175890000,0.05083089,0.01955034,-0.9970675,-6.18,18.72,-40.32,17,279,5,0.01048007,-0.07238042,0.01738919,5.79907,-0.01669264,-0.009257078,-0.009212191,-0.002492864,-0.239727,0.9707934
634795922176090000,0.05083089,0.02737048,-1.016618,-6.18,18.72,-40.32,18,280,5,-0.01189697,-0.008543625,0.03013797,5.800674,-0.0163548,-0.009915589,-0.009113543,-0.002484492,-0.2381038,0.9711938
634795922176290000,0.04692082,0.03128055,-1.000978,-6.18,18.72,-40.32,18,280,5,0.02319287,0.05102617,0.05139863,5.802413,-0.01652026,-0.009165882,-0.009113543,-0.002484492,-0.2381038,0.9711938
634795922176490000,0.04692082,0.02346041,-0.9814272,-6.18,18.72,-40.32,18,280,5,0.05828612,0.03716943,0.06201981,5.805994,-0.01561308,-0.00616002,-0.008313132,-0.001147723,-0.2363531,0.971631
634795922176690000,0.05083089,0.01564027,-0.9775171,-6.18,18.72,-40.32,18,280,5,0.07315963,0.01267512,0.02687293,5.807958,-0.01441669,-0.004959941,-0.007589449,-0.0007135167,-0.2353943,0.9718701
634795922176890000,0.04692082,0.01955034,-0.9775171,-6.18,18.72,-40.32,18,280,5,0.06568834,-0.01926718,-0.01251618,5.809013,-0.01322365,-0.00421226,-0.006921519,-0.0004942397,-0.2348789,0.9719999
634795922177090000,0.04692082,0.02346041,-0.9853373,-6.18,18.72,-40.32,18,280,5,0.0369466,-0.06503098,-0.02102466,5.809723,-0.01235413,-0.00432992,-0.006512433,-0.0006558634,-0.234534,0.9720859
634795922177290000,0.05865103,0.03910068,-1.008798,-6.36,19.02,-40.38,19,281,5,0.02843227,-0.0958833,-0.005054364,5.811613,-0.01137853,-0.005300641,-0.006150953,-0.001247884,-0.2336175,0.9723083
634795922177490000,0.05474096,0.05083089,-1.028348,-6.36,19.02,-40.38,18,280,5,0.07308566,-0.04160101,0.06518131,5.814065,-0.01009655,-0.004941106,-0.005484214,-0.001229546,-0.2324235,0.9725984
634795922177690000,0.04692082,0.03910068,-1.012708,-6.36,19.02,-40.38,18,280,5,0.1453693,0.1063011,0.1630502,5.817849,-0.00792098,-0.002275467,-0.004116137,-0.0001938432,-0.2305772,0.9730453
634795922177890000,0.03910068,0.01564027,-0.9775171,-6.3,18.54,-40.32,19,281,5,0.1580367,0.09135286,0.1960412,5.822215,-0.005788088,0.0001928806,-0.002795507,0.0007550616,-0.2284484,0.9735517
634795922178090000,0.02346041,0.003910068,-0.9736071,-6.3,18.54,-40.32,19,281,5,0.1004172,-0.07467905,0.1257496,5.82634,-0.004145622,0.0002468824,-0.001991037,0.0005895816,-0.2264411,0.9740227
634795922178290000,0.01955034,0.007820137,-0.9814272,-6.3,18.54,-40.32,18,280,5,0.09184743,-0.03530548,0.05867505,5.82864,-0.003086567,-0.0003291368,-0.001540619,0.0001874062,-0.2253213,0.9742833
634795922178500000,0.03128055,0.01173021,-0.9970675,-6.3,18.54,-40.32,16,278,5,0.102431,-0.0374301,0.04164001,5.833554,0.000344038,-0.001019478,5.402938E-05,-0.000535224,-0.2229266,0.9748351
634795922178690000,0.03910068,0.02346041,-1.016618,-6.3,18.54,-40.32,16,278,5,0.234395,0.05726594,0.06929826,5.835835,0.003822565,-0.0004966258,0.001808555,-0.0006660406,-0.2218137,0.9750872
634795922178890000,0.04692082,0.01955034,-1.004888,-6.3,18.54,-40.32,16,278,5,0.253551,0.170016,0.1320573,5.839004,0.008054256,0.002774119,0.004233687,0.0004659503,-0.2202728,0.975429
634795922179090000,0.05083089,-0.003910068,-0.9775171,-6.3,18.54,-40.32,17,279,5,0.2471657,-0.06838968,0.02561107,5.840829,0.0104773,0.004012108,0.005551124,0.0008078877,-0.2193862,0.975622
634795922179290000,0.03519062,-0.01955034,-0.9736071,-6.18,18.54,-40.8,18,280,5,0.1950186,-0.05454442,0.002189286,5.841968,0.01444459,0.003283978,0.007406448,2.177158E-05,-0.2188291,0.9757351
634795922179490000,0.02346041,-0.01955034,-0.9775171,-6.18,18.54,-40.8,18,280,5,0.0757789,-0.08752476,-0.01802088,5.842846,0.01670122,0.003017187,0.008478372,-0.0003515904,-0.2183995,0.9758226
634795922179690000,0.02737048,-0.003910068,-0.9892473,-6.18,18.54,-40.8,18,280,5,0.09387339,-0.1141146,-0.06268726,5.843306,0.01958394,0.0003961325,0.009599179,-0.001942996,-0.2181619,0.9758635
634795922179890000,0.04301075,0.003910068,-1.000978,-6.18,18.54,-40.8,14,276,5,0.05129682,-0.1226074,-0.08393803,5.842794,0.02021479,-0.0007640123,0.009779806,-0.002580381,-0.2184058,0.9758056
634795922180090000,0.05083089,-0.007820137,-1.004888,-6.18,18.54,-40.8,15,277,5,0.1427787,-0.1481375,-0.1126223,5.841921,0.02256727,-0.002612233,0.01072399,-0.003743696,-0.2188183,0.9756995
634795922180290000,0.04301075,-0.02346041,-0.9853373,-6.36,18.24,-40.98,18,280,5,0.03098992,-0.03426307,-0.02213581,5.843291,0.02390432,-0.002014399,0.0114442,-0.003590506,-0.2181505,0.9758415
634795922180490000,0.03128055,-0.02346041,-0.9775171,-6.36,18.24,-40.98,18,280,5,0.003282602,-0.1013022,-0.03808302,5.84381,0.02416873,-0.00199163,0.01157659,-0.003605219,-0.2178973,0.9758964
634795922180690000,0.02737048,-0.01564027,-0.9853373,-6.36,18.24,-40.98,18,280,5,-0.07227717,-0.09703808,-0.02104562,5.84409,0.02405071,-0.003099322,0.01139895,-0.004131251,-0.2177543,0.9759283
634795922180890000,0.03128055,-0.007820137,-1.004888,-6.36,18.24,-40.98,16,278,5,-0.0583885,-0.01936018,-0.01892622,5.845276,0.02212524,-0.00443995,0.01031609,-0.004569707,-0.2171718,0.9760682
634795922181090000,0.03910068,-0.007820137,-1.008798,-6.36,18.24,-40.98,15,277,5,-0.01903473,0.05830133,-0.01254289,5.846194,0.02146029,-0.003229976,0.01012479,-0.003902346,-0.2167318,0.9761709
634795922181290000,0.04692082,-0.01173021,-0.9970675,-6.36,18.24,-40.98,16,278,5,0.07032315,0.0146499,-0.0135936,5.846959,0.02203083,-0.001980186,0.01053994,-0.003350108,-0.2163644,0.9762501
634795922181490000,0.03910068,-0.01564027,-0.9853373,-6.36,18.24,-40.98,16,278,5,0.09899603,-0.1024011,-0.01783368,5.847712,0.02355218,-0.002634406,0.01121327,-0.003829848,-0.2159902,0.9763236
634795922181690000,0.03519062,-0.01173021,-0.9892473,-6.12,17.7,-41.58,17,279,5,0.05108068,-0.1194203,-0.03699644,5.847936,0.02425456,-0.00395751,0.0114137,-0.004550275,-0.215871,0.9763446
634795922181900000,0.03519062,-0.003910068,-0.9931574,-6.12,17.7,-41.58,17,279,5,0.02766592,-0.02579056,-0.04231927,5.848091,0.02485323,-0.004724503,0.01162351,-0.004988414,-0.2157896,0.976358
634795922182090000,0.03519062,0.003910068,-0.9892473,-6.12,17.7,-41.58,16,278,5,0.03086072,-0.04068524,-0.02102497,5.849139,0.02565479,-0.00441134,0.01205119,-0.004915714,-0.2152777,0.9764661
634795922182290000,0.04301075,-0.003910068,-0.9892473,-6.12,17.7,-41.58,16,278,5,0.1063685,-0.000265746,0.02367014,5.850513,0.02668619,-0.004132032,0.0125882,-0.004881679,-0.214606,0.9766074
634795922182490000,0.05083089,-0.01173021,-0.9931574,-6.12,17.7,-41.58,17,279,5,0.09780187,-0.01085968,0.0321402,5.851425,0.0277071,-0.003807664,0.01312377,-0.004826863,-0.2141604,0.9766984
634795922182690000,0.04692082,-0.01173021,-0.9931574,-5.82,17.7,-41.16,17,279,5,0.05631975,0.009362412,0.0672011,5.853065,0.02908158,-0.003402352,0.01384234,-0.004764798,-0.2133591,0.9768642
634795922182890000,0.04301075,-0.01564027,-0.9853373,-5.82,17.7,-41.16,17,279,5,0.07443765,-0.0693928,0.06080681,5.855119,0.02971649,-0.002864361,0.01421454,-0.004555151,-0.2123583,0.9770778
634795922183090000,0.03910068,-0.01955034,-0.9931574,-5.82,17.7,-41.16,17,279,5,0.1425118,-0.09596501,0.05655928,5.857081,0.03075433,-0.003466845,0.01466243,-0.00494531,-0.2113926,0.9772788
634795922183290000,0.03910068,-0.01564027,-1.000978,-5.82,17.7,-41.16,17,279,5,0.1339517,-0.0277982,0.04698263,5.860114,0.03448105,-0.004510641,0.01638189,-0.005824365,-0.2098918,0.9775701
634795922183490000,0.03910068,-0.01955034,-0.9853373,-5.82,17.7,-41.16,16,278,5,-0.1129643,0.05519838,0.05545674,5.862281,0.03290176,-0.002580046,0.01581777,-0.004697856,-0.2088528,0.9778079
634795922183690000,0.04301075,-0.02346041,-0.9736071,-6.24,16.74,-41.04,18,280,5,-0.108626,-0.03843876,0.03625716,5.864035,0.03053355,-0.002042055,0.01471972,-0.004174577,-0.2080047,0.9780082
634795922183890000,0.04692082,-0.01564027,-0.9892473,-6.24,16.74,-41.04,18,280,5,-0.08301808,-0.1139206,0.03411264,5.865479,0.02881908,-0.003245592,0.01375952,-0.004574905,-0.2072933,0.9781714
634795922184090000,0.04692082,-0.007820137,-1.008798,-6.24,16.74,-41.04,18,280,5,-0.05212202,-0.04573817,0.03092369,5.866853,0.02773499,-0.003963232,0.01315812,-0.004804498,-0.2066187,0.9783213
634795922184290000,0.04692082,-0.01564027,-1.008798,-6.24,16.74,-41.04,19,281,5,-0.03192228,0.02026305,0.01815288,5.868464,0.02690148,-0.002279043,0.01292757,-0.003884137,-0.2058438,0.9784918
634795922184490000,0.05083089,-0.007820137,-1.000978,-6.24,16.74,-41.04,19,281,5,-0.1287022,0.1362811,0.02983062,5.868983,0.02664161,-0.000576973,0.01297641,-0.003021288,-0.2056019,0.9785451
