Timestamp,Acc.X,Acc.Y,Acc.Z,Comp.X,Comp.Y,Comp.Z,Comp.TrueHeading,Comp.MagneticHeading,Comp.HeadingAccuracy,Gyro.X,Gyro.Y,Gyro.Z,Motion.Yaw,Motion.Pitch,Motion.Roll,Motion.X,Motion.Y,Motion.Z,Motion.W
634795913791480000,0.06647116,0.01564027,-0.9736071,0,0,0,0,0,0,0,0,0,0,0,0,0,0,0,0
634795913791680000,0.07038123,0.02346041,-0.9736071,0,0,0,0,0,0,0,0,0,0,0,0,0,0,0,0
634795913791880000,0.08602151,0.02737048,-1.004888,0,0,0,0,0,0,0,0,0,0,0,0,0,0,0,0
634795913792080000,0.09384164,0.03910068,-1.024438,0,0,0,0,0,0,0,0,0,0,0,0,0,0,0,0
634795913792280000,0.08602151,0.03128055,-1.012708,0,0,0,0,0,0,0,0,0,0,0,0,0,0,0,0
634795913792480000,0.07820137,0.01564027,-0.9970675,0,0,0,0,0,0,0,0,0,0,0,0,0,0,0,0
634795913792680000,0.07038123,0.007820137,-0.9853373,0,0,0,0,0,0,0,0,0,0,0,0,0,0,0,0
634795913792880000,0.07038123,0.007820137,-0.9853373,-6.48,-13.38,-39.6,168,70,5,0,0,0,0,0,0,0,0,0,0
634795913793080000,0.07038123,0.03519062,-1.016618,-4.02,-22.08,-44.76,155,57,5,0,0,0,0,0,0,0,0,0,0
634795913793280000,0.07038123,0.0742913,-1.036168,-2.28,-23.46,-43.74,162,64,5,0,0,0,0,0,0,0,0,0,0
634795913793480000,0.07038123,0.0742913,-1.016618,-2.28,-23.46,-43.74,162,64,5,0,0,0,0,0,0,0,0,0,0
634795913793680000,0.0742913,0.03519062,-0.9892473,-2.28,-23.46,-43.74,163,65,5,0.03915047,-0.01717848,0.08243228,0,0,0,0,0,0,0
634795913793880000,0.06256109,0.01173021,-0.9814272,-2.28,-23.46,-43.74,162,64,5,-0.06938478,-0.1171782,0.03664858,0,0,0,0,0,0,0
634795913794080000,0.05083089,0.03910068,-1.004888,-2.28,-23.46,-43.74,161,63,5,-0.1533965,-0.2353072,-0.07081944,0,0,0,0,0,0,0
634795913794280000,0.05474096,0.06256109,-1.032258,-2.28,-23.46,-43.74,161,63,5,-0.07241077,-0.04904434,-0.116493,0,0,0,0,0,0,0
634795913794480000,0.06647116,0.0742913,-1.036168,-1.86,-23.34,-44.46,164,66,5,0.05422277,0.1371529,-0.08559047,0,0,0,0,0,0,0
634795913794680000,0.0742913,0.07038123,-1.012708,-1.86,-23.34,-44.46,165,67,5,0.07227965,0.1285762,-0.02065338,0,0,0,0,0,0,0
634795913794900000,0.06647116,0.05083089,-0.9931574,-1.86,-23.34,-44.46,164,66,5,0.04990628,0.08596373,0.02084625,3.427872,-0.05187416,0.05982124,0.02589246,0.02992219,-0.9888874,0.1433072
634795913795080000,0.06256109,0.03910068,-0.9853373,-1.86,-23.34,-44.46,164,66,5,0.1147794,0.02528257,-0.01533752,3.426869,-0.05416751,0.06226444,0.026952,0.03121572,-0.9888821,0.1428682
634795913795280000,0.07038123,0.03910068,-0.9892473,-1.86,-23.34,-44.46,163,65,5,0.01152294,0.003996781,-0.03341793,3.426117,-0.05378437,0.06323075,0.02746896,0.03108412,-0.9889249,0.142502
634795913795480000,0.0742913,0.04301075,-0.9970675,-2.4,-22.8,-44.76,161,63,5,-0.08423109,0.06357634,-0.04936256,3.427329,-0.05276107,0.06462419,0.02821244,0.03069341,-0.9888294,0.1431024
634795913795680000,0.07820137,0.05474096,-0.9931574,-2.4,-22.8,-44.76,161,63,5,-0.06397602,0.06780229,-0.04083017,3.429756,-0.05191183,0.06621683,0.029024,0.03042143,-0.98864,0.1443068
634795913795880000,0.07820137,0.04692082,-0.9892473,-2.4,-22.8,-44.76,160,62,5,-0.0426708,-0.003509934,0.007063285,3.43356,-0.05137992,0.06691813,0.02935158,0.03026433,-0.9883585,0.1461867
634795913796090000,0.07820137,0.03128055,-0.9970675,-2.4,-22.8,-44.76,160,62,5,-0.141586,-0.048191,-0.03443582,3.436963,-0.05292726,0.0675007,0.02947348,0.03112122,-0.9880736,0.1478969
634795913796280000,0.07820137,0.03910068,-1.004888,-2.4,-22.8,-44.76,160,62,5,-0.1969257,0.0156716,-0.08016933,3.438686,-0.05479169,0.06781089,0.02946128,0.03209042,-0.9879106,0.1487789
634795913796480000,0.07820137,0.05474096,-1.004888,-2.4,-22.8,-44.76,160,62,5,-0.1574686,0.01140803,-0.08757953,3.442051,-0.05322552,0.06881511,0.03002113,0.03144109,-0.9876646,0.1504282
634795913796680000,0.08602151,0.05865103,-1.008798,-1.8,-22.5,-44.46,161,63,5,-0.1159042,-0.02583478,-0.03541054,3.447225,-0.05283689,0.07005024,0.0305793,0.0314202,-0.9872552,0.1529898
634795913796880000,0.1016618,0.05083089,-1.016618,-1.8,-22.5,-44.46,161,63,5,-0.1147885,-0.03114592,-0.01199001,3.448915,-0.05464482,0.06999027,0.03038401,0.03233375,-0.9870973,0.1538512
634795913797080000,0.1016618,0.06256109,-1.028348,-1.8,-22.5,-44.46,162,64,5,0.07575001,-0.04065765,0.02631272,3.450511,-0.05532002,0.069839,0.03023132,0.03267965,-0.9869659,0.1546469
634795913797280000,0.08602151,0.07038123,-1.020528,-1.8,-22.5,-44.46,161,63,5,0.1789358,0.02106319,0.02523671,3.453371,-0.05370665,0.07168888,0.03122345,0.03206936,-0.986734,0.1560531
634795913797480000,0.09775171,0.05083089,-1.008798,-1.8,-22.5,-44.46,160,62,5,0.113977,0.05190657,0.008204215,3.455938,-0.05181765,0.0751233,0.03302543,0.03144466,-0.9864943,0.1573239
634795913797680000,0.1173021,0.04301075,-1.004888,-1.8,-22.5,-44.46,160,62,5,-0.01479905,-0.04280752,0.09757189,3.455776,-0.05396152,0.07761705,0.03408968,0.032693,-0.9864198,0.1573057
634795913797880000,0.1055719,0.06647116,-1.012708,-1.14,-22.26,-45.06,163,65,5,-0.07011182,-0.1375101,0.2539943,3.461605,-0.05594683,0.07911766,0.03457526,0.03388943,-0.9858917,0.1602295
634795913798080000,0.0742913,0.0742913,-1.020528,-1.14,-22.26,-45.06,161,63,5,-0.01688302,0.02107504,0.2486731,3.467252,-0.05687999,0.08173418,0.035693,0.03465713,-0.9853616,0.163057
634795913798280000,0.07038123,0.04692082,-1.008798,-1.14,-22.26,-45.06,161,63,5,-0.05411752,0.1657325,0.04324504,3.469057,-0.05821132,0.08503175,0.03717755,0.03561151,-0.9851153,0.1640053
634795913798480000,0.08211143,0.03519062,-0.9931574,-1.14,-22.26,-45.06,161,63,5,-0.2158331,0.1571442,-0.007837186,3.462947,-0.06213879,0.08721626,0.03804689,0.03760627,-0.9854888,0.1610942
634795913798680000,0.08211143,0.04692082,-0.9853373,-1.14,-22.26,-45.06,164,66,5,-0.2637233,-0.002516783,0.004935247,3.460576,-0.06264687,0.08713793,0.03801214,0.0378054,-0.9856709,0.1599347
634795913798880000,0.08211143,0.06256109,-0.9853373,-1.08,-21.66,-45.24,162,64,5,-0.1774936,-0.03549393,-0.03230904,3.45919,-0.06263375,0.08583617,0.03739747,0.03767065,-0.9858131,0.1592357
634795913799080000,0.07820137,0.06256109,-0.9931574,-1.08,-21.66,-45.24,162,64,5,0.03004956,-0.05143858,-0.1216641,3.454844,-0.06044149,0.0832727,0.03638684,0.03631024,-0.9862564,0.1570219
634795913799280000,0.07820137,0.05083089,-1.008798,-1.08,-21.66,-45.24,163,65,5,0.01831983,0.07413047,0.006060817,3.453319,-0.05945969,0.08414423,0.03692121,0.03586528,-0.9863735,0.1562621
634795913799490000,0.08211143,0.04692082,-1.008798,-1.08,-21.66,-45.24,163,65,5,-0.1157387,0.05388077,-0.0194776,3.452176,-0.06052732,0.08461034,0.03708855,0.03640647,-0.9864323,0.1557235
634795913799680000,0.08211143,0.04692082,-0.9970675,-1.08,-21.66,-45.24,163,65,5,-0.1295101,-0.0131706,-0.06628381,3.450051,-0.06187582,0.08401369,0.03672851,0.03698692,-0.9865863,0.1546929
634795913799880000,0.08993158,0.05474096,-0.9931574,0.24,-21.42,-45.78,165,67,5,0.01099614,-0.05252103,-0.06727988,3.447796,-0.06126046,0.0829085,0.03627192,0.03655834,-0.9867969,0.1535563
634795913800080000,0.09384164,0.06647116,-1.008798,0.24,-21.42,-45.78,165,67,5,-0.08901679,-0.03653714,-0.04172013,3.442364,-0.05896139,0.08092129,0.03556315,0.03517741,-0.9872963,0.1508106
634795913800280000,0.08993158,0.05865103,-1.020528,0.24,-21.42,-45.78,165,67,5,-0.1038641,0.003907086,-0.0651109,3.440336,-0.06007791,0.0811162,0.03561147,0.03570696,-0.9874251,0.1498317
634795913800480000,0.09775171,0.06647116,-1.012708,0.24,-21.42,-45.78,164,66,5,0.02279178,-0.0460985,-0.06295558,3.437103,-0.06125188,0.08155191,0.03579736,0.03626074,-0.9876349,0.1482611
634795913800680000,0.1016618,0.0742913,-1.016618,0.24,-21.42,-45.78,165,67,5,0.2164681,-0.03011664,-0.02675434,3.434168,-0.05950427,0.08145022,0.03592854,0.0353377,-0.9878848,0.1467794
634795913800880000,0.1016618,0.06647116,-1.016618,0.24,-21.42,-45.78,164,66,5,0.2281746,0.0284113,0.02964396,3.432251,-0.05610108,0.08242428,0.03669189,0.0336919,-0.9880618,0.1457817
634795913801080000,0.09775171,0.05474096,-1.004888,0.24,-21.42,-45.78,164,66,5,0.1547192,-0.01628846,0.02111898,3.43113,-0.05547118,0.08489382,0.03797698,0.03353661,-0.988098,0.1452425
634795913801280000,0.1016618,0.05865103,-0.9970675,0.72,-21.48,-45.96,165,67,5,0.1035807,-0.01840868,-0.01080672,3.42869,-0.05430293,0.08676433,0.03902665,0.03304544,-0.9882506,0.1440344
634795913801480000,0.1016618,0.0742913,-1.008798,0.72,-21.48,-45.96,165,67,5,0.03012186,-0.01840015,0.05516677,3.427861,-0.05453181,0.08776128,0.03951668,0.03321288,-0.9882831,0.1436396
634795913801680000,0.1055719,0.06647116,-1.012708,0.72,-21.48,-45.96,164,66,5,0.1237242,0.08585653,0.07638122,3.427826,-0.05508375,0.08965385,0.04041313,0.03361853,-0.9882315,0.143653
634795913801880000,0.1094819,0.05083089,-0.9970675,0.72,-21.48,-45.96,164,66,5,0.3365692,-0.06526664,0.01783046,3.427203,-0.0544691,0.09243858,0.04184416,0.0334984,-0.9882186,0.1433607
634795913802080000,0.1016618,0.03910068,-0.9775171,0.72,-21.48,-45.96,165,67,5,0.3631749,0.1092847,-0.0289881,3.426464,-0.0523417,0.09292662,0.04224989,0.03246598,-0.9882946,0.1429556
634795913802280000,0.1055719,0.03519062,-0.9736071,0.42,-21.54,-45.78,163,65,5,-0.6116391,-0.1440194,0.03166674,3.425545,-0.04607367,0.0935619,0.04302149,0.03249248,-0.9882967,0.142701
634795913802480000,0.1016618,0.04692082,-0.9775171,0.42,-21.54,-45.78,163,65,5,-0.9532554,-0.3164239,-0.009843616,3.427072,-0.06587076,0.08989799,0.03977308,0.03895025,-0.9880837,0.1434993
634795913802680000,0.09384164,0.06647116,-0.9931574,0.42,-21.54,-45.78,163,65,5,-0.4871247,-0.001402733,-0.05452366,3.427001,-0.07387185,0.08956385,0.0390351,0.04287792,-0.9879331,0.1436174
634795913802880000,0.1016618,0.0742913,-1.016618,0.42,-21.54,-45.78,162,64,5,-0.1657033,-0.01311393,-0.06833212,3.426271,-0.07469225,0.09034872,0.0393799,0.0433239,-0.987949,0.1432846
634795913803080000,0.113392,0.07820137,-1.043988,0.42,-21.54,-45.78,163,65,5,0.1141985,-0.1152451,-0.09916353,3.423696,-0.07578921,0.08963215,0.0390035,0.04376537,-0.9881259,0.142023
634795913803280000,0.1173021,0.0742913,-1.079179,0.42,-21.54,-45.78,164,66,5,0.5313748,-0.02795185,-0.1714725,3.420502,-0.07095098,0.08843648,0.03882181,0.04123005,-0.9884836,0.1403323
634795913803480000,0.113392,0.09384164,-1.086999,0.42,-21.54,-45.78,164,66,5,0.9081105,0.09547363,-0.1512092,3.414012,-0.04306078,0.09107161,0.04216767,0.02748693,-0.9893489,0.1365874
634795913803690000,0.1016618,0.09775171,-1.020528,0.72,-21.36,-45,164,66,5,0.910239,0.2976413,-0.02879041,3.413293,-0.03402185,0.0954355,0.0449523,0.02329334,-0.9894068,0.1360626
634795913803880000,0.1016618,0.04692082,-0.9345064,0.72,-21.36,-45,165,67,5,0.5249895,0.3072193,0.2085078,3.414836,-0.02897,0.1015788,0.04831906,0.02124463,-0.989201,0.1367354
634795913804080000,0.08993158,-0.01173021,-0.9227762,0.72,-21.36,-45,165,67,5,-0.1613827,-0.2366056,0.02116554,3.415836,-0.03711915,0.1001424,0.04703831,0.0252016,-0.9890751,0.1374177
634795913804280000,0.0742913,-0.02346041,-0.9657869,0.72,-21.36,-45,163,65,5,-0.1921908,-0.1291004,-0.056509,3.416497,-0.04052305,0.09626567,0.04487788,0.02663705,-0.9890854,0.1377983
634795913804490000,0.08211143,-0.003910068,-0.9892473,0.72,-21.36,-45,163,65,5,-0.1197805,-0.08010583,-0.07244293,3.415259,-0.03783679,0.09069311,0.04232151,0.02490356,-0.9893411,0.1370917
634795913804680000,0.09775171,0.01564027,-0.969697,0.18,-21.6,-44.52,164,66,5,0.1600941,0.01462323,-0.005383996,3.414326,-0.02978945,0.0882908,0.04169373,0.0207403,-0.9895526,0.1364479
634795913804880000,0.1094819,0.01173021,-0.9462366,0.18,-21.6,-44.52,164,66,5,0.2590671,0.05291468,0.01057856,3.414478,-0.02169609,0.08866476,0.04242934,0.01676415,-0.9896096,0.1363542
634795913805080000,0.1212121,-0.01173021,-0.9384164,0.18,-21.6,-44.52,164,66,5,0.08343394,-0.08010197,0.04462052,3.416528,-0.01834488,0.08943569,0.04302375,0.01520231,-0.9894785,0.1372985
634795913805280000,0.1251222,-0.03128055,-0.9618768,0.18,-21.6,-44.52,162,64,5,-0.1761921,-0.2024706,0.04353812,3.420087,-0.01982307,0.08765613,0.04201347,0.01588702,-0.9892607,0.1390874
634795913805480000,0.1094819,-0.02346041,-0.9853373,0.18,-21.6,-44.52,158,60,5,-0.1868058,-0.2673883,0.05841671,3.422707,-0.02200317,0.08472549,0.04039,0.01681579,-0.9891241,0.1404223
634795913805680000,0.08993158,-0.01564027,-0.9931574,0.18,-21.6,-44.52,158,60,5,-0.04203776,-0.1673511,0.07222319,3.429001,-0.01865005,0.08307326,0.04001426,0.01329883,-0.9884309,0.1457
634795913805880000,0.08993158,-0.03128055,-0.9931574,0,-22.08,-44.34,158,60,5,-0.08671158,-0.04494502,0.07645028,3.436606,-0.01309943,0.08353101,0.04033727,0.01260935,-0.988217,0.1471117
634795913806080000,0.09384164,-0.05474096,-0.9853373,0,-22.08,-44.34,160,62,5,-0.2580083,-0.08214714,-0.05871435,3.437743,-0.01339817,0.08311652,0.04010331,0.01274937,-0.9881403,0.1476792
634795913806290000,0.09384164,-0.05474096,-0.9892473,0,-22.08,-44.34,163,65,5,-0.2771643,-0.08743218,-0.133167,3.437408,-0.01324892,0.08212411,0.03962601,0.01259603,-0.9881868,0.1475103
634795913806480000,0.09384164,-0.04692082,-0.9970675,0,-22.08,-44.34,163,65,5,-0.2909993,-0.06079244,-0.04374019,3.437404,-0.01101613,0.08070123,0.0390876,0.01138807,-0.9882289,0.1474647
634795913806680000,0.08993158,-0.03519062,-0.9775171,0,-22.08,-44.34,161,63,5,-0.1526267,0.0190245,0.06905338,3.438621,-0.009198666,0.07991611,0.03882726,0.01045592,-0.9881643,0.148031
634795913806880000,0.07820137,-0.03519062,-0.9384164,-0.24,-22.14,-43.98,161,63,5,0.08363604,0.07221285,0.1275445,3.445387,0.0005781651,0.08226812,0.04069268,0.005936836,-0.9876516,0.1511737
634795913807080000,0.07038123,-0.06647116,-0.911046,-0.24,-22.14,-43.98,162,64,5,0.1005925,-0.03422574,0.06788779,3.447271,0.004105806,0.08268224,0.04115977,0.004264874,-0.9875093,0.1520304
634795913807280000,0.06647116,-0.09384164,-0.914956,-0.24,-22.14,-43.98,162,64,5,-0.007973473,-0.1246468,-0.03215013,3.447851,0.006854296,0.08115172,0.04061218,0.002803068,-0.987501,0.1522674
634795913807480000,0.06647116,-0.08211143,-0.9618768,-0.24,-22.14,-43.98,162,64,5,-0.231424,-0.2757668,-0.08001111,3.446887,0.007066011,0.07732975,0.0387423,0.002388397,-0.987648,0.1518053
634795913807680000,0.05474096,-0.05865103,-1.040078,-0.24,-22.14,-43.98,162,64,5,-0.3282685,-0.253418,-0.04699646,3.446588,0.005627394,0.07125246,0.03563235,0.002631453,-0.9877787,0.1517112
634795913807880000,0.05474096,-0.05865103,-1.094819,-0.3,-22.38,-44.04,163,65,5,-0.293149,-0.177858,-0.0331501,3.446436,0.007286072,0.06755257,0.03393098,0.0015286,-0.9878555,0.1516229
634795913808080000,0.04301075,-0.06647116,-1.106549,-0.3,-22.38,-44.04,166,68,5,-0.1249564,-0.04587295,-0.02462558,3.442014,0.009056807,0.06140828,0.03103062,0.0001187422,-0.9882841,0.1494371
634795913808280000,0.02737048,-0.08602151,-1.086999,-0.3,-22.38,-44.04,166,68,5,-0.03659876,0.07542946,-0.02355246,3.439199,0.0100112,0.06203687,0.0314121,-0.0003500739,-0.9884838,0.1480278
634795913808480000,0.01955034,-0.1212121,-1.043988,-0.3,-22.38,-44.04,168,70,5,-0.06637452,0.02858236,-0.103346,3.436383,0.01056504,0.06216407,0.03151507,-0.000658731,-0.9886902,0.1466266
634795913808680000,0.03128055,-0.1173021,-1.028348,-0.3,-22.38,-44.04,170,72,5,-0.1418841,-0.02994363,-0.2044061,3.43001,0.01071405,0.06120193,0.03104765,-0.0009020622,-0.9891661,0.1434778
634795913808880000,0.03519062,-0.1016618,-1.016618,-0.48,-21.9,-44.1,169,71,5,-0.2727838,-0.03311486,-0.2342043,3.42273,0.01010847,0.05912924,0.02997619,-0.0008606476,-0.9897121,0.1398952
634795913809080000,0.03910068,-0.09384164,-0.969697,-0.48,-21.9,-44.1,169,71,5,-0.07263407,0.2275478,-0.05963092,3.414263,0.02293515,0.05843699,0.03049923,-0.00738569,-0.9902784,0.1355144
634795913809280000,0.04692082,-0.09775171,-0.8914956,-0.48,-21.9,-44.1,168,70,5,-0.006643097,0.2232909,-0.003221512,3.413764,0.02755809,0.05993509,0.03155168,-0.009580542,-0.9902722,0.1351832
634795913809480000,0.05865103,-0.1212121,-0.8328446,-0.48,-21.9,-44.1,166,68,5,0.009316034,0.134889,-0.05855323,3.413918,0.03305769,0.06192958,0.03291157,-0.0121653,-0.9902035,0.1351515
634795913809690000,0.05865103,-0.1407625,-0.8211144,-0.48,-21.9,-44.1,163,65,5,-0.04282151,0.07418934,-0.1638603,3.413586,0.03570437,0.06136226,0.03284213,-0.01381416,-0.9902522,0.1346515
634795913809880000,0.05474096,-0.1212121,-0.8406647,-0.48,-21.9,-44.1,158,60,5,-0.215181,-0.05032833,-0.2181358,3.413002,0.03627968,0.06136226,0.03284213,-0.01381416,-0.9902522,0.1346515
634795913810080000,0.05474096,-0.09775171,-0.8719453,-0.48,-21.9,-44.1,158,60,5,-0.205603,-0.2982762,-0.1627747,3.413002,0.03627968,0.06136226,0.03284213,-0.01381416,-0.9902522,0.1346515
634795913810280000,0.04301075,-0.08993158,-0.914956,0,-20.88,-44.46,160,62,5,0.05196818,-0.2631568,-0.1116417,3.413069,0.03907299,0.04973924,0.02727634,-0.01598521,-0.9903725,0.1347729
634795913810480000,0.02737048,-0.09775171,-0.9462366,0,-20.88,-44.46,162,64,5,0.1274752,-0.1609912,-0.09031852,3.411317,0.04315782,0.0463196,0.02584249,-0.01826264,-0.990491,0.1338913
634795913810680000,0.01955034,-0.1212121,-0.969697,0,-20.88,-44.46,166,68,5,-0.02047075,-0.07157124,-0.09241335,3.409672,0.04443073,0.04488384,0.02520112,-0.01901067,-0.9906026,0.1330782
634795913810890000,0.02737048,-0.1290323,-0.9814272,0,-20.88,-44.46,166,68,5,-0.1545072,-0.007710247,-0.1572763,3.405614,0.04401875,0.04410112,0.02474773,-0.01890928,-0.9908831,0.1310825
634795913811080000,0.04301075,-0.1212121,-1.008798,0,-20.88,-44.46,169,71,5,-0.1182624,-0.07260761,-0.1242273,3.400728,0.04882884,0.04127741,0.02361165,-0.02153653,-0.9911767,0.1286396
634795913811280000,0.04301075,-0.113392,-1.051808,0.9,-20.52,-44.82,172,74,5,0.05521464,-0.02253244,0.08862308,3.397649,0.05520415,0.03769827,0.02220978,-0.02496221,-0.9913284,0.1270914
634795913811480000,0.02737048,-0.1212121,-1.063539,0.9,-20.52,-44.82,170,72,5,0.08072294,-0.01295284,0.1439111,3.395924,0.06656051,0.03561211,0.0218708,-0.03074335,-0.9912945,0.1261452
634795913811680000,0.007820137,-0.1290323,-1.059628,0.9,-20.52,-44.82,170,72,5,0.1381389,-0.06826953,0.1076799,3.395572,0.0717144,0.03450811,0.02164291,-0.03337181,-0.991241,0.1259347
634795913811880000,0,-0.1251222,-1.079179,0.9,-20.52,-44.82,170,72,5,0.3360848,-0.2055414,0.03528761,3.392995,0.07674503,0.03202021,0.02068041,-0.03604993,-0.9913298,0.124653
634795913812080000,0.01173021,-0.113392,-1.13783,0.9,-20.52,-44.82,173,75,5,0.4276082,-0.2364039,-0.02962601,3.387382,0.08499241,0.02771628,0.01894812,-0.04046175,-0.9915387,0.1218787
634795913812280000,0.02737048,-0.1055719,-1.216031,0.9,-20.52,-44.82,176,78,5,0.2488183,-0.3066428,-0.01152339,3.380222,0.09247636,0.02271426,0.01676562,-0.04453982,-0.9918286,0.1183757
634795913812480000,0.05474096,-0.08211143,-1.247312,1.5,-20.16,-45.36,177,79,5,0.1380716,-0.1203864,0.03635568,3.376283,0.09526634,0.01906228,0.01502905,-0.04617101,-0.9920052,0.1164871
634795913812680000,0.08211143,-0.03519062,-1.216031,1.5,-20.16,-45.36,177,79,5,0.1326884,0.1882127,0.0959255,3.369182,0.09939266,0.01967299,0.01540102,-0.04823674,-0.9923144,0.1129181
634795913812880000,0.1055719,0.01564027,-1.176931,1.5,-20.16,-45.36,175,77,5,0.08049721,0.2424882,0.111846,3.368338,0.09965682,0.0240612,0.01757254,-0.04812516,-0.9923439,0.1123857
634795913813080000,0.1016618,0.03910068,-1.15738,1.5,-20.16,-45.36,172,74,5,-0.1376898,0.2008935,-0.01271984,3.368771,0.09809732,0.02862954,0.01976152,-0.04708749,-0.992338,0.1124999
634795913813280000,0.08602151,0.04692082,-1.16129,2.52,-20.28,-45.12,170,72,5,-0.1376898,0.2008935,-0.01271984,3.368585,0.09448194,0.03198099,0.02121671,-0.04510468,-0.9924165,0.1123616
634795913813480000,0.09384164,0.07038123,-1.200391,2.52,-20.28,-45.12,170,72,5,-0.6793804,-0.1077545,-0.265967,3.365805,0.0847311,0.03515756,0.02218919,-0.0401158,-0.9927607,0.1110141
634795913813680000,0.113392,0.1212121,-1.259042,2.52,-20.28,-45.12,172,74,5,-0.6549032,-0.08961947,-0.2084988,3.351048,0.05401564,0.03434312,0.01989296,-0.02505839,-0.9940615,0.1040217
634795913813880000,0.1290323,0.1759531,-1.251222,2.52,-20.28,-45.12,171,73,5,-0.3164796,-0.03957403,0.05543815,3.348136,0.04215908,0.03407931,0.01911687,-0.01920656,-0.9943458,0.1026931
634795913814080000,0.1368524,0.1915933,-1.16129,2.52,-20.28,-45.12,171,73,5,0.1602878,0.137054,0.2735869,3.349067,0.03851938,0.03531766,0.01955367,-0.01732377,-0.9943195,0.1031775
634795913814290000,0.1329423,0.1329423,-1.024438,2.52,-20.28,-45.12,171,73,5,0.269903,0.09336227,0.2735869,3.3523,0.03733515,0.03902757,0.02136358,-0.01650792,-0.9941313,0.1047584
634795913814480000,0.1212121,0.08211143,-0.9814272,2.52,-20.28,-45.12,169,71,5,0.03574795,-0.1237189,0.1852563,3.35513,0.03513908,0.04058766,0.02204564,-0.01530289,-0.9939864,0.1061729
634795913814680000,0.1055719,0.06256109,-0.9579667,2.7,-20.28,-45.12,167,69,5,-0.2696745,-0.3429493,0.07347082,3.356457,0.02052927,0.04238057,0.02216579,-0.007931123,-0.9939827,0.1069795
634795913814880000,0.1016618,0.07820137,-0.9462366,2.7,-20.28,-45.12,167,69,5,-0.24839,-0.4163809,0.02663047,3.355969,-5.483627E-06,0.03821885,0.01899831,0.002046947,-0.9940796,0.1069638
634795913815080000,0.09775171,0.08602151,-0.9266862,2.7,-20.28,-45.12,168,70,5,-0.02699219,-0.3642338,0.01066195,3.354978,-0.006267309,0.03587759,0.01750214,0.00502552,-0.9941443,0.1065286
634795913815280000,0.08993158,0.06647116,-0.8641251,2.7,-20.28,-45.12,168,70,5,0.03258793,-0.1130608,0.01278471,3.35384,-0.01081014,0.03671539,0.01768069,0.007318131,-0.9941831,0.1060034
634795913815480000,0.08602151,0.03910068,-0.7702835,2.7,-20.28,-45.12,168,70,5,-0.3558407,0.1220705,-0.006383128,3.352791,-0.01668596,0.03872824,0.01837518,0.0103357,-0.9941913,0.1055399
634795913815680000,0.08211143,0.02737048,-0.6999022,2.28,-19.56,-45.12,167,69,5,-0.4079877,-0.1918713,-0.05319298,3.351395,-0.02486586,0.0411067,0.01913583,0.01451352,-0.9941896,0.1049327
634795913815880000,0.06647116,0.03128055,-0.7155425,2.28,-19.56,-45.12,164,66,5,-0.4079877,-0.1918713,-0.05319298,3.350755,-0.03861737,0.03434277,0.0150583,0.0209913,-0.9941701,0.1046854
634795913816080000,0.05865103,0.04301075,-0.7663734,2.28,-19.56,-45.12,164,66,5,-0.1855367,-0.02158049,-0.01378554,3.350164,-0.04406571,0.03162265,0.01342785,0.02355411,-0.9941646,0.1044049
634795913816280000,0.06647116,0.04301075,-0.7781036,2.28,-19.56,-45.12,162,64,5,-0.01842696,0.09651361,0.04792996,3.349256,-0.04645705,0.03248191,0.01374143,0.02478115,-0.9941772,0.1039783
634795913816480000,0.06647116,0.04301075,-0.7702835,2.28,-19.56,-45.12,170,72,5,0.0837164,0.08051194,0.1213229,3.349022,-0.0465703,0.03436995,0.01467701,0.02493314,-0.9941683,0.1038836
634795913816680000,0.04692082,0.02737048,-0.7937439,2.28,-19.56,-45.12,168,70,5,0.1060224,0.03792031,0.09999627,3.349572,-0.04572463,0.03551674,0.01528432,0.02457606,-0.9941388,0.1041628
634795913816880000,0.03519062,0.003910068,-0.8289345,2.28,-19.56,-45.12,168,70,5,0.1996312,0.007049912,0.01164682,3.350106,-0.0441215,0.03643048,0.01581572,0.02383068,-0.9941226,0.1044246
634795913817080000,0.04692082,0,-0.8836755,1.8,-19.08,-45.18,166,68,5,0.3284025,-0.07061248,-0.1447483,3.343826,-0.03421736,0.03494334,0.01565233,0.01878116,-0.9945661,0.1012114
634795913817280000,0.07038123,0.01955034,-0.9501466,1.8,-19.08,-45.18,170,72,5,0.3539439,0.003899063,-0.05956928,3.341376,-0.02912068,0.0345335,0.01572621,0.01620672,-0.9947357,0.09995032
634795913817480000,0.08602151,0.04692082,-1.028348,1.8,-19.08,-45.18,171,73,5,0.316696,-0.07909989,0.05642366,3.34023,-0.02242279,0.03508639,0.01634328,0.01289355,-0.9948381,0.09932969
634795913817690000,0.07038123,0.04301075,-1.13392,1.8,-19.08,-45.18,171,73,5,0.2975399,-0.08331624,0.08619095,3.341002,-0.01700902,0.0352335,0.01668133,0.01021426,-0.9948283,0.09966972
634795913817880000,0.07038123,0.01564027,-1.212121,1.8,-19.08,-45.18,169,71,5,0.3337236,0.1912146,-0.005348821,3.341905,-0.01373577,0.03770017,0.01806747,0.008716807,-0.9947752,0.1000977
634795913818080000,0.1212121,0.007820137,-1.235582,1.14,-19.02,-45.54,167,69,5,0.326274,0.2880591,-0.1223789,3.340081,-0.008503198,0.04210353,0.02052529,0.00631543,-0.9948424,0.09914748
634795913818280000,0.1564027,0.02737048,-1.247312,1.14,-19.02,-45.54,169,71,5,0.2826408,0.1634938,-0.01699358,3.339558,0.0001835823,0.04873466,0.02425472,0.00231647,-0.9948103,0.09878943
634795913818480000,0.1329423,0.04301075,-1.255132,1.14,-19.02,-45.54,166,68,5,0.3049895,0.1049073,0.3054481,3.347066,0.005163431,0.05072856,0.02549244,3.370511E-05,-0.9944116,0.1024576
634795913818680000,0.07820137,0.03519062,-1.270772,1.14,-19.02,-45.54,166,68,5,0.1197755,-0.03130337,0.2948058,3.35663,0.008206367,0.05061268,0.02559756,-0.001362829,-0.9939117,0.1071729
634795913818890000,0.05474096,0.01955034,-1.298143,1.14,-19.02,-45.54,163,65,5,0.01864441,0.2379199,-0.1117131,3.362286,0.00944972,0.05043197,0.02557984,-0.001918075,-0.9936036,0.109968
634795913819080000,0.06256109,0.05865103,-1.302053,0.36,-19.74,-44.34,168,70,5,0.01864441,0.2379199,-0.1117131,3.360861,0.009316206,0.05297399,0.02683413,-0.00173078,-0.9936507,0.1092525
634795913819280000,0.0742913,0.1446725,-1.251222,0.36,-19.74,-44.34,170,72,5,-0.4102051,0.5837932,-0.4182099,3.344461,-0.005448103,0.0724287,0.03574451,0.006374508,-0.9941937,0.1012916
634795913819480000,0.08211143,0.2111437,-1.16911,0.36,-19.74,-44.34,170,72,5,-0.4580952,0.5837932,-0.4639716,3.335245,-0.01543951,0.08038974,0.03924887,0.01156203,-0.994451,0.09690277
634795913819680000,0.08602151,0.2463343,-1.11828,0.36,-19.74,-44.34,169,71,5,-0.1398444,-0.3357176,-0.5501739,3.325652,-0.0235064,0.08014739,0.03881147,0.01537538,-0.9948567,0.09228838
634795913819880000,0.09384164,0.2658846,-1.13001,0.36,-19.74,-44.34,169,71,5,-0.08978138,-0.4176629,-0.5789079,3.31887,-0.02791381,0.07600426,0.03660554,0.01725456,-0.9952113,0.08897821
634795913820080000,0.08993158,0.2815249,-1.13392,1.92,-20.46,-43.74,171,73,5,-0.1940358,-0.1590562,-0.5118617,3.308007,-0.03519678,0.06927955,0.03304606,0.02040407,-0.9957396,0.08365549
634795913820280000,0.08993158,0.2737048,-1.055718,1.92,-20.46,-43.74,171,73,5,-0.3121648,0.143162,-0.276668,3.298775,-0.04389071,0.0668323,0.03157696,0.02448602,-0.9960591,0.07917847
634795913820480000,0.1016618,0.2111437,-0.914956,1.92,-20.46,-43.74,171,73,5,-0.2578893,0.1452193,-0.140429,3.289465,-0.06359982,0.07209051,0.03357368,0.03434781,-0.996032,0.07492622
634795913820680000,0.1094819,0.1368524,-0.8093842,1.92,-20.46,-43.74,170,72,5,-0.1620579,-0.2698241,0.03836205,3.290275,-0.07050157,0.06794822,0.03123657,0.03764709,-0.9959546,0.07537731
634795913820880000,0.1016618,0.06647116,-0.7898338,1.92,-20.46,-43.74,168,70,5,-0.04600875,-0.4869261,0.04578906,3.29206,-0.07374548,0.06223106,0.02823185,0.03907904,-0.9959227,0.07621881
634795913821080000,0.08211143,0.02737048,-0.801564,1.92,-20.46,-43.74,168,70,5,0.1721439,-0.340063,-0.0744574,3.293486,-0.07463502,0.05496109,0.02454908,0.03927051,-0.9959683,0.07681434
634795913821280000,0.0742913,0.02346041,-0.7820137,1.92,-20.46,-43.74,164,66,5,0.1795935,-0.0931498,-0.1031529,3.293975,-0.07193279,0.05179596,0.02306713,0.03781217,-0.996051,0.07697121
634795913821480000,0.07820137,0.03128055,-0.7468231,2.34,-20.46,-43.32,167,69,5,0.03801203,0.06008701,-0.09034552,3.293438,-0.0700612,0.05273735,0.02361795,0.03690899,-0.9960912,0.07669757
634795913821680000,0.0742913,0.03519062,-0.7311828,2.34,-20.46,-43.32,168,70,5,-0.02473195,0.1132377,-0.04133841,3.293545,-0.07068539,0.05380559,0.02412408,0.03726115,-0.9960604,0.07677611
634795913821880000,0.07038123,0.02737048,-0.7116324,2.34,-20.46,-43.32,168,70,5,0.1795752,0.05574085,-0.1040984,3.293599,-0.0694344,0.0552417,0.02488654,0.03669266,-0.9960616,0.07681084
634795913822080000,0.0742913,0.02737048,-0.6920821,2.34,-20.46,-43.32,166,68,5,0.1997955,0.002520266,-0.1295905,3.292437,-0.06548976,0.05575728,0.02531498,0.03473255,-0.9961686,0.07619075
634795913822290000,0.06647116,0.03910068,-0.7350929,2.34,-20.46,-43.32,166,68,5,0.0911942,-0.06343942,-0.06677046,3.291723,-0.06256104,0.05502104,0.02507158,0.03323739,-0.996254,0.07578757
634795913822480000,0.05865103,0.04301075,-0.8172043,3.42,-20.16,-42.3,169,71,5,0.14116,-0.04639088,-0.05610735,3.291806,-0.06053471,0.05391204,0.02459449,0.03218804,-0.9963017,0.07578757
634795913822680000,0.06256109,0.05083089,-0.911046,3.42,-20.16,-42.3,172,74,5,0.1964754,-0.001683571,-0.05501844,3.291222,-0.05849338,0.05330014,0.02437606,0.03114119,-0.9963638,0.07546355
634795913822880000,0.07820137,0.06647116,-0.9892473,3.42,-20.16,-42.3,172,74,5,0.1858332,0.06960075,0.0801279,3.289389,-0.05162001,0.05448305,0.02525018,0.02773763,-0.9965193,0.0744799
634795913823080000,0.07820137,0.07038123,-1.028348,3.42,-20.16,-42.3,175,77,5,0.2081819,0.1376615,0.3099819,3.293302,-0.04800391,0.05741477,0.02679476,0.02609537,-0.9963758,0.07641582
634795913823280000,0.07038123,0.05083089,-1.075269,3.42,-20.16,-42.3,175,77,5,0.3135402,0.05248734,0.3876703,3.298861,-0.04305077,0.0589155,0.02766563,0.02376105,-0.9961969,0.07913264
634795913823480000,0.06647116,0.03910068,-1.184751,3.42,-20.16,-42.3,174,76,5,0.4412473,-0.212493,0.3993768,3.303047,-0.03831005,0.05722427,0.02696592,0.02139026,-0.9961088,0.08113793
634795913823680000,0.08602151,0.05083089,-1.290323,3.42,-20.16,-42.3,174,76,5,0.4082563,0.3089601,0.3227526,3.307358,-0.03072429,0.05489516,0.02607549,0.01757484,-0.9960415,0.08316662
634795913823880000,0.1212121,0.09384164,-1.282502,4.38,-19.38,-42.12,178,80,5,0.3752653,0.3494006,0.4249182,3.313366,-0.0162003,0.06470799,0.0315336,0.01084078,-0.9957376,0.08599436
634795913824080000,0.1407625,0.1329423,-1.227762,4.38,-19.38,-42.12,178,80,5,0.1688056,-0.02202564,0.537726,3.32,-0.01211429,0.06727076,0.03295543,0.009025401,-0.9954243,0.08923624
634795913824280000,0.1368524,0.113392,-1.266862,4.38,-19.38,-42.12,177,79,5,-0.01744762,-0.5126334,0.3514866,3.324715,-0.01228976,0.06373203,0.03116507,0.009029045,-0.9952711,0.09158015
634795913824480000,0.1329423,0.1055719,-1.376344,4.38,-19.38,-42.12,177,79,5,-0.007859237,-0.5626521,0.1524569,3.327964,-0.01452518,0.0541147,0.02626041,0.009745645,-0.9952526,0.09320962
634795913824680000,0.1485826,0.1524927,-1.388074,3.12,-18.96,-40.86,171,73,5,0.1953812,-0.06884202,0.1800935,3.32848,-0.01500678,0.04693794,0.0226639,0.009658106,-0.9953197,0.09345437
634795913824880000,0.1564027,0.1837732,-1.239492,3.12,-18.96,-40.86,172,74,5,0.2453998,0.2333649,0.4131588,3.338297,-0.01072717,0.05265403,0.0256699,0.007920552,-0.9947939,0.09829859
634795913825080000,0.1368524,0.1564027,-1.055718,3.12,-18.96,-40.86,171,73,5,0.05168651,0.1098744,0.5280951,3.344186,-0.01230812,0.05296898,0.02572307,0.008798199,-0.994491,0.1012482
634795913825280000,0.1094819,0.1055719,-0.969697,3.12,-18.96,-40.86,171,73,5,-0.1259968,-0.3807177,0.4259295,3.350712,-0.01695823,0.04694414,0.02245619,0.0108799,-0.9942081,0.1045349
634795913825480000,0.113392,0.08993158,-0.9892473,3.12,-18.96,-40.86,169,71,5,-0.1674359,-0.6914715,0.1183532,3.35228,-0.02355242,0.03654527,0.01693108,0.01362986,-0.994201,0.1053376
634795913825690000,0.1212121,0.1212121,-1.036168,3.12,-18.96,-40.86,170,72,5,-0.6899705,-0.420094,-0.2072777,3.349832,-0.03439045,0.02833199,0.01229988,0.01857158,-0.9943139,0.1041478
634795913825880000,0.09775171,0.1642229,-1.036168,2.1,-19.44,-39.48,167,69,5,-0.6899705,-0.2285335,-0.07209092,3.345336,-0.04985022,0.02411687,0.009457588,0.0260174,-0.9944044,0.1019556
634795913826080000,0.06647116,0.1798632,-0.9501466,2.1,-19.44,-39.48,168,70,5,-0.6899705,-0.2285335,-0.07209092,3.343211,-0.06955886,0.01912606,0.006009315,0.03555605,-0.9942425,0.1009036
634795913826280000,0.04692082,0.1524927,-0.8172043,2.1,-19.44,-39.48,168,70,5,-0.1450656,-0.0890765,0.1013529,3.342911,-0.07634877,0.01878667,0.005503807,0.03891351,-0.9941333,0.1007684
634795913826480000,0.05083089,0.1055719,-0.7390029,2.1,-19.44,-39.48,172,74,5,-0.3653076,-0.1518489,-0.118931,3.340502,-0.08404136,0.01750588,0.004531062,0.04266746,-0.9941069,0.09956486
634795913826680000,0.08602151,0.0742913,-0.7350929,2.1,-19.44,-39.48,173,75,5,-0.4706659,-0.1284182,-0.143353,3.336372,-0.09339236,0.0150125,0.002923682,0.04718576,-0.9941135,0.09747588
634795913826880000,0.1173021,0.07820137,-0.742913,-0.06,-18.66,-39.24,165,67,5,-0.2514355,-0.04112354,-0.04541271,3.333869,-0.09925484,0.01365554,0.002026135,0.05003147,-0.9941029,0.09620667
634795913827080000,0.113392,0.07038123,-0.7311828,-0.06,-18.66,-39.24,165,67,5,0.05615754,0.06422681,0.1493105,3.33453,-0.1042762,0.01293302,0.001408195,0.05249317,-0.9939456,0.09652142
634795913827280000,0.09384164,0.03128055,-0.7077224,-0.06,-18.66,-39.24,158,60,5,0.1870168,0.02589443,0.1088181,3.343944,-0.1021185,0.01505661,0.002325228,0.05153406,-0.9935226,0.1012507
634795913827480000,0.08211143,0.003910068,-0.7077224,-0.06,-18.66,-39.24,153,55,5,0.155067,-0.01880054,-0.07316026,3.345497,-0.09949134,0.01454925,0.002167129,0.05020503,-0.9935123,0.102007
634795913827680000,0.08211143,0.01564027,-0.7546432,-0.06,-18.66,-39.24,154,56,5,0.031582,-0.08688454,-0.2029597,3.345054,-0.09820247,0.01279294,0.001371328,0.04947549,-0.9935784,0.1017432
634795913827880000,0.08993158,0.04692082,-0.8211144,-0.06,-18.66,-39.24,154,56,5,0.06136117,-0.01024378,-0.1816752,3.34473,-0.09698867,0.01213205,0.00111265,0.04883901,-0.9936302,0.1015654
634795913828080000,0.08993158,0.05474096,-0.8797654,-0.06,-18.66,-39.24,155,57,5,0.1730905,0.3302417,-0.147505,3.344147,-0.09358501,0.0133208,0.001889895,0.04720736,-0.9937336,0.101301
634795913828280000,0.09384164,0.03519062,-0.9227762,-2.52,-17.94,-39.42,148,50,5,0.09641965,0.2270118,-0.138936,3.343811,-0.09030627,0.01803124,0.004404396,0.04581458,-0.9937982,0.1012348
634795913828480000,0.1016618,0.02737048,-0.969697,-2.52,-17.94,-39.42,154,56,5,0.2485691,-0.1710334,-0.1250517,3.346473,-0.08565234,0.02279651,0.00695007,0.04375048,-0.9937328,0.1026463
634795913828680000,0.1055719,0.05083089,-1.098729,-2.52,-17.94,-39.42,154,56,5,0.4465149,-0.1923179,-0.1526676,3.348594,-0.07722162,0.02045584,0.006177547,0.03944855,-0.9938162,0.1036259
634795913828880000,0.1173021,0.06256109,-1.17302,-2.52,-17.94,-39.42,154,56,5,0.304973,0.3025388,-0.1526076,3.349564,-0.07091307,0.0225693,0.007537053,0.03642603,-0.9938694,0.1041243
634795913829080000,0.1564027,0.05865103,-1.196481,-2.52,-17.94,-39.42,154,56,5,-0.1047492,0.3429794,-0.007839649,3.35036,-0.06768346,0.02927351,0.01102318,0.03517162,-0.9938303,0.104616
634795913829280000,0.1485826,0.07038123,-1.212121,-4.8,-16.8,-40.62,151,53,5,-0.02595713,-0.0805829,0.199661,3.35555,-0.0700097,0.03337371,0.0128442,0.03657332,-0.993474,0.1072752
634795913829480000,0.07820137,0.113392,-1.298143,-4.8,-16.8,-40.62,150,52,5,0.5380681,-0.587154,0.4082491,3.367574,-0.06766605,0.02872992,0.01045114,0.03522608,-0.9928979,0.1131571
634795913829680000,0.01564027,0.1251222,-1.395894,-4.8,-16.8,-40.62,150,52,5,0.6125638,-0.4328414,0.4603961,3.393863,-0.05044723,0.01653731,0.005027541,0.02605956,-0.9916797,0.1259636
634795913829880000,0.003910068,0.1016618,-1.411535,-4.8,-16.8,-40.62,151,53,5,0.1187457,0.2014035,0.2816063,3.398354,-0.05046033,0.02004874,0.006708859,0.02630161,-0.9913727,0.1282318
634795913830080000,0.01564027,0.1094819,-1.345064,-4.8,-16.8,-40.62,158,60,5,-0.375048,0.4504322,-0.07279153,3.400753,-0.05709672,0.0287683,0.01056919,0.03016016,-0.9910568,0.1295589
634795913830280000,0.03519062,0.1329423,-1.270772,-4.8,-16.8,-40.62,163,65,5,-0.1398067,0.2780277,-0.1844999,3.400468,-0.06377482,0.03666997,0.01405681,0.03397531,-0.9908887,0.1295687
634795913830480000,0.05865103,0.1603128,-1.204301,-4.8,-16.8,-41.34,157,59,5,-0.2174565,0.1726165,-0.3026289,3.398653,-0.06669044,0.04149973,0.0162934,0.03571494,-0.9908981,0.1287638
634795913830680000,0.08602151,0.1876833,-1.14956,-7.32,-15.96,-41.34,157,59,5,-0.3217506,0.02039943,-0.3547759,3.395471,-0.07778668,0.04444981,0.01710621,0.04137244,-0.9908499,0.1273287
634795913830880000,0.09384164,0.2111437,-1.13001,-7.32,-15.96,-41.34,154,56,5,-0.3079157,-0.189247,-0.2962435,3.394921,-0.08254218,0.04227054,0.01573558,0.04358714,-0.9908128,0.1270546
634795913831080000,0.08993158,0.1876833,-1.13001,-7.32,-15.96,-41.34,152,54,5,-0.2525759,-0.1381642,-0.1813072,3.39592,-0.08913922,0.03934896,0.01384559,0.046679,-0.9906378,0.1275402
634795913831280000,0.08602151,0.1368524,-1.075269,-9.48,-16.08,-41.64,147,49,5,-0.2142638,0.07254314,-0.1269806,3.397962,-0.09496712,0.03999841,0.0137449,0.0496204,-0.990358,0.1286058
634795913831480000,0.08211143,0.08993158,-0.9618768,-9.48,-16.08,-41.64,147,49,5,-0.1152465,0.1437959,-0.101396,3.400801,-0.09940838,0.04234767,0.01454899,0.05198896,-0.9900307,0.1300963
634795913831680000,0.08602151,0.04692082,-0.8328446,-9.48,-16.08,-41.64,144,46,5,0.1316292,-0.09888873,-0.02578743,3.411542,-0.1000993,0.04543948,0.01575261,0.05261422,-0.9892561,0.135488
634795913831880000,0.08602151,0.01564027,-0.7546432,-9.48,-16.08,-41.64,139,41,5,0.1912258,-0.3351467,-0.02258653,3.416137,-0.09843683,0.04356408,0.01481851,0.05170109,-0.9890128,0.1377045
634795913832080000,0.08211143,-0.003910068,-0.7390029,-9.48,-16.08,-41.64,132,34,5,0.1901615,-0.3255687,-0.05556211,3.42395,-0.09521054,0.03731811,0.01175655,0.04972802,-0.9886321,0.1414054
634795913832280000,0.07820137,-0.01173021,-0.7546432,-9.48,-16.08,-41.64,132,34,5,0.1379727,-0.08291398,-0.1183127,3.431885,-0.09217811,0.03265798,0.009476481,0.04794137,-0.9881932,0.1452086
634795913832480000,0.08211143,-0.007820137,-0.7390029,-10.74,-16.8,-42.96,122,24,5,0.1549369,0.07670676,-0.116138,3.43902,-0.08966684,0.03203237,0.009183095,0.04668856,-0.9877356,0.1487083
634795913832680000,0.08993158,0,-0.6959922,-10.74,-16.8,-42.96,123,25,5,0.3145707,0.08943382,-0.05332206,3.446743,-0.08560514,0.03362703,0.01009981,0.04483941,-0.9872289,0.1525338
634795913832880000,0.1016618,0.003910068,-0.6725318,-10.74,-16.8,-42.96,122,24,5,0.4635622,-0.02550937,-0.02031954,3.461274,-0.07349038,0.03427148,0.0110588,0.03898861,-0.9863405,0.1596519
634795913833080000,0.08993158,-0.003910068,-0.684262,-10.74,-16.8,-42.96,122,24,5,0.4316354,0.01386914,-0.003290141,3.470373,-0.06663895,0.03481257,0.01171026,0.03570605,-0.9857262,0.1641075
634795913833280000,0.06647116,-0.007820137,-0.7155425,-10.74,-16.8,-42.96,120,22,5,0.2602952,0.06279842,-0.006482645,3.479218,-0.06263018,0.03607011,0.01250947,0.03388829,-0.985047,0.1684586
634795913833480000,0.03910068,-0.007820137,-0.7741935,-10.74,-16.8,-42.96,119,21,5,0.193249,-0.07767668,-0.03733446,3.48733,-0.0593307,0.03490138,0.01208095,0.03221468,-0.9844229,0.1724172
634795913833680000,0.01564027,0.003910068,-0.8914956,-11.16,-18.3,-42.96,124,26,5,0.140017,-0.3426687,-0.03837095,3.495056,-0.0555787,0.03004563,0.009897982,0.02998993,-0.9838589,0.1761363
634795913833880000,0.007820137,0.01955034,-1.047898,-11.16,-18.3,-42.96,130,32,5,0.09314552,-0.2298609,-0.04686611,3.501282,-0.0525546,0.02373707,0.006973316,0.02797088,-0.9834068,0.1791091
634795913834080000,0.01173021,0.04301075,-1.15347,-11.16,-18.3,-42.96,130,32,5,0.1654764,-0.0776368,0.04678261,3.509633,-0.04735756,0.01834822,0.004684336,0.02495405,-0.9827589,0.1831381
634795913834280000,0.01955034,0.07038123,-1.200391,-11.16,-18.3,-42.96,138,40,5,0.3793856,-0.04994019,0.2308806,3.517427,-0.0412147,0.01695359,0.004476367,0.02182563,-0.9821193,0.1869381
634795913834480000,0.01564027,0.03910068,-1.247312,-11.16,-18.3,-42.96,147,49,5,0.4134408,0.08520444,0.2660001,3.526256,-0.03373122,0.01765108,0.005437904,0.01823995,-0.9813552,0.1912593
634795913834680000,0.04692082,-0.02346041,-1.255132,-11.16,-19.68,-42.36,149,51,5,0.4506887,0.3853159,0.204275,3.533891,-0.02611589,0.02346039,0.008959307,0.01509223,-0.9806432,0.1950142
634795913834880000,0.113392,-0.03910068,-1.192571,-11.16,-19.68,-42.36,149,51,5,0.4762301,0.456619,0.2202384,3.541094,-0.01716828,0.03178835,0.0138738,0.01156589,-0.9799291,0.1985262
634795913835080000,0.1759531,-0.007820137,-1.13783,-11.16,-19.68,-42.36,149,51,5,0.2303941,0.3299762,0.2202384,3.546991,-0.01234746,0.03653729,0.01665068,0.009723734,-0.9793221,0.201387
634795913835280000,0.2111437,0.04692082,-1.192571,-11.16,-19.68,-42.36,145,47,5,-0.2431645,-0.4777794,0.2308806,3.567369,-0.0149262,0.03806901,0.01702663,0.01131457,-0.9771906,0.2113785
634795913835480000,0.1994135,0.08993158,-1.294233,-11.16,-19.68,-42.36,135,37,5,-0.1143503,-0.5724955,0.2840919,3.577988,-0.01989794,0.02787638,0.0114532,0.0127289,-0.9761162,0.2165739
634795913835680000,0.1642229,0.1329423,-1.368524,-11.16,-19.68,-42.36,135,37,5,0.2474808,0.1383881,0.4713955,3.58958,-0.02200723,0.02129125,0.007934868,0.01309235,-0.974878,0.2222136
634795913835880000,0.1290323,0.1329423,-1.184751,-11.16,-19.68,-42.36,138,40,5,0.3315546,0.4236004,0.5267352,3.602688,-0.01820755,0.0273329,0.01122378,0.0119846,-0.9733815,0.228601
634795913836080000,0.1173021,0.07820137,-0.9775171,-10.68,-21,-41.88,145,47,5,0.01439447,0.09684008,0.4181843,3.610668,-0.0157938,0.03243244,0.01393615,0.01144791,-0.9724342,0.2324801
634795913836280000,0.1094819,0.03910068,-0.9266862,-10.68,-21,-41.88,149,51,5,-0.3825462,-0.5055044,0.1393396,3.620441,-0.0169878,0.03500295,0.01498683,0.01240021,-0.971256,0.2372427
634795913836500000,0.1094819,0.05865103,-0.969697,-10.68,-21,-41.88,140,42,5,-0.4197941,-0.6438537,-0.03520152,3.628772,-0.03483868,0.01967382,0.005343994,0.01927555,-0.970243,0.2413061
634795913836680000,0.1055719,0.1016618,-0.9657869,-10.68,-21,-41.88,140,42,5,-0.4080876,-0.3831185,-0.1351942,3.62969,-0.04342604,0.01415133,0.00161829,0.02277677,-0.9700777,0.2417195
634795913836880000,0.09384164,0.1251222,-0.911046,-10.68,-21,-41.88,137,39,5,-0.4400144,-0.1904937,-0.05108954,3.630974,-0.05012155,0.01397264,0.0007056786,0.02600308,-0.9698416,0.2423439
634795913837080000,0.07820137,0.1173021,-0.8680352,-10.44,-21.6,-39.78,143,45,5,-0.4676842,-0.2309343,0.01063889,3.632856,-0.06122541,0.01363838,-0.0008313882,0.03134596,-0.9694563,0.2432518
634795913837280000,0.06647116,0.08211143,-0.8484849,-10.44,-21.6,-39.78,143,45,5,-0.338913,-0.127687,-2.703629E-05,3.635219,-0.07034135,0.01041055,-0.003546433,0.03536828,-0.9690386,0.2443381
634795913837480000,0.07038123,0.06647116,-0.8054741,-10.44,-21.6,-39.78,143,45,5,-0.3048578,-0.06167004,0.007422415,3.638194,-0.08471751,0.007169008,-0.006935371,0.04192723,-0.9684182,0.2456825
634795913837690000,0.07820137,0.06647116,-0.7468231,-10.44,-21.6,-39.78,141,43,5,-0.2590961,-0.1819157,0.1265788,3.6404,-0.08874321,0.006108164,-0.007991743,0.04373747,-0.968068,0.2467133
634795913837880000,0.07820137,0.04692082,-0.742913,-10.44,-21.6,-39.78,139,41,5,-0.2005637,-0.277696,0.1307817,3.644902,-0.09379052,0.002676845,-0.01037811,0.0457344,-0.9674208,0.2487936
634795913838080000,0.07038123,0.01955034,-0.801564,-10.98,-21,-38.7,134,36,5,-0.1867012,-0.1659524,0.01582461,3.648665,-0.0979948,-0.001349449,-0.01293743,0.04724298,-0.9668779,0.2504956
634795913838280000,0.08602151,0.01955034,-0.8445748,-10.98,-21,-38.7,134,36,5,-0.1823899,0.08200715,-0.05971652,3.650532,-0.1018751,-0.002386808,-0.01397053,0.04897577,-0.9665565,0.2513463
634795913838480000,0.08993158,0.03128055,-0.8367546,-10.98,-21,-38.7,134,36,5,0.01559354,-0.009540479,0.06905034,3.652365,-0.1045248,-0.0008696317,-0.01361663,0.05043465,-0.9662507,0.252252
634795913838680000,0.06647116,0.01955034,-0.8484849,-10.98,-21,-38.7,135,37,5,0.3965708,-0.1670195,0.1317731,3.660928,-0.09871006,-0.003507972,-0.01436033,0.04723116,-0.9653192,0.2563626
634795913838880000,0.05865103,-0.003910068,-0.8954057,-10.98,-21,-38.7,135,37,5,0.3305889,-0.04248564,0.0423504,3.664838,-0.09218407,-0.005052924,-0.01435527,0.04385494,-0.9649727,0.2582604
634795913839080000,0.0742913,-0.007820137,-0.9345064,-10.98,-21,-38.7,135,37,5,0.1102547,0.2022361,-0.05874179,3.66644,-0.08881664,-0.002980113,-0.01295434,0.04248766,-0.9648281,0.2591021
634795913839280000,0.08602151,-0.003910068,-0.9657869,-11.04,-20.52,-37.86,137,39,5,0.04105704,0.2362913,-0.05765323,3.667429,-0.08753991,0.001162887,-0.01081123,0.04240332,-0.9647039,0.2596751
634795913839480000,0.09384164,0,-1.040078,-11.04,-20.52,-37.86,137,39,5,0.1942689,-0.08085332,-0.0586997,3.668813,-0.08575177,0.001834273,-0.010284,0.04162081,-0.9645574,0.2603663
634795913839680000,0.1094819,0.01564027,-1.14565,-11.04,-20.52,-37.86,137,39,5,0.2943061,-0.1808905,-0.0661215,3.670495,-0.07954835,0.0005912781,-0.01010828,0.03845855,-0.9644697,0.2611839
634795913839880000,0.1290323,0.03128055,-1.208211,-11.04,-20.52,-37.86,140,42,5,0.08036437,0.4395422,-0.05224739,3.673683,-0.0684967,0.006060958,-0.006080579,0.03383307,-0.9642207,0.2628627
634795913840080000,0.1368524,0.04301075,-1.196481,-11.04,-20.52,-37.86,140,42,5,0.08036437,0.4395422,-0.05224739,3.674993,-0.06876659,0.01426458,-0.002183677,0.03503888,-0.9639866,0.2636237
634795913840280000,0.1173021,0.06647116,-1.17302,-11.04,-20.52,-37.86,142,44,5,-0.1345772,0.3182206,-0.005413953,3.676516,-0.07073545,0.01763248,-0.0008474952,0.03643034,-0.9637219,0.2644092
634795913840480000,0.1094819,0.08993158,-1.216031,-10.62,-20.1,-37.02,144,46,5,0.07296683,-0.3692937,-0.06393332,3.678557,-0.0712235,0.01415908,-0.002622895,0.03620458,-0.9634725,0.2653363
634795913840680000,0.1173021,0.1055719,-1.325513,-10.62,-20.1,-37.02,145,47,5,-0.1771125,-0.1883754,-0.2586564,3.678513,-0.0701592,0.00564599,-0.006582587,0.03456431,-0.9635574,0.265178
634795913840880000,0.1094819,0.1485826,-1.399804,-10.62,-20.1,-37.02,145,47,5,-0.1302675,0.2000478,-0.0638952,3.674293,-0.07692218,0.001395583,-0.009448247,0.0372793,-0.9640177,0.263043
634795913841080000,0.05865103,0.1837732,-1.341154,-10.62,-20.1,-37.02,147,49,5,0.0942742,0.3224337,0.1159317,3.675631,-0.0776782,0.005676984,-0.007509557,0.03820156,-0.9638017,0.2637634
634795913841280000,0.003910068,0.1603128,-1.196481,-10.62,-20.1,-37.02,149,51,5,0.1644697,0.2042769,-0.005410329,3.677621,-0.07612658,0.01169705,-0.004441582,0.03824257,-0.9635247,0.2648351
634795913841480000,-0.01173021,0.1094819,-1.094819,-9.9,-19.26,-36.72,154,56,5,-0.1356295,-0.1820251,-0.43855,3.674236,-0.07560778,0.0125953,-0.003875621,0.03811797,-0.9639744,0.263221
634795913841680000,0.01564027,0.1094819,-1.106549,-9.9,-19.26,-36.72,154,56,5,-0.5293928,-0.2405575,-0.7046063,3.664557,-0.08091664,0.007916808,-0.006635368,0.04009458,-0.9651684,0.2584537
634795913841880000,0.03519062,0.172043,-1.14956,-9.9,-19.26,-36.72,154,56,5,-0.3399607,0.08722331,-0.5034677,3.651919,-0.09062839,0.003672719,-0.009658459,0.04429496,-0.9666061,0.2522243
634795913842080000,0.04301075,0.1955034,-1.063539,-9.9,-19.26,-36.72,153,55,5,-0.0951493,0.3777306,-0.2257049,3.638737,-0.09987091,0.007826447,-0.008491726,0.04934178,-0.9680013,0.2459012
634795913842290000,0.05474096,0.1212121,-0.9188661,-9.9,-19.26,-36.72,151,53,5,0.0176572,0.4171069,-0.1171043,3.635845,-0.1006293,0.01578248,-0.004660607,0.05069188,-0.9682651,0.2446861
634795913842480000,0.06647116,0.04692082,-0.8093842,-9.9,-19.26,-36.72,151,53,5,-0.2047528,0.2574731,-0.2043362,3.632852,-0.1033161,0.02160072,-0.002093182,0.05270504,-0.9684987,0.2433695
634795913842680000,0.08602151,0.03128055,-0.7859238,-9.9,-19.26,-36.72,151,53,5,-0.3196891,0.02650509,-0.2703181,3.629517,-0.1090412,0.02266204,-0.002183141,0.05560947,-0.9687354,0.2417742
634795913842880000,0.1016618,0.05474096,-0.8054741,-8.34,-19.08,-36.66,140,42,5,-0.178121,-0.04903549,-0.174516,3.627516,-0.1124451,0.02167034,-0.003017883,0.05714187,-0.9688926,0.2407751
634795913843080000,0.1094819,0.05865103,-0.7781036,-8.34,-19.08,-36.66,136,38,5,0.09432669,0.18081,0.05962796,3.627549,-0.1142921,0.02121186,-0.003463375,0.05798161,-0.9688411,0.2407763
634795913843280000,0.1016618,0.02737048,-0.7038123,-8.34,-19.08,-36.66,135,37,5,0.182637,0.3436365,0.175596,3.63577,-0.1087754,0.03201127,0.002201955,0.05661186,-0.967858,0.2450325
634795913843490000,0.07820137,-0.003910068,-0.6412512,-8.34,-19.08,-36.66,135,37,5,0.2017931,0.1892981,0.2075227,3.641526,-0.1049292,0.03454578,0.003741824,0.05506986,-0.9672191,0.2478719
634795913843680000,0.05083089,-0.02346041,-0.6490713,-6.42,-18.78,-37.8,134,36,5,0.3731333,-0.300265,0.1372468,3.645838,-0.100889,0.03266132,0.003216642,0.05289093,-0.9668188,0.2499071
634795913843880000,0.03910068,-0.02346041,-0.7155425,-6.42,-18.78,-37.8,131,33,5,0.2741604,-0.1927783,-0.00750035,3.650355,-0.09388901,0.02755034,0.001508791,0.04887535,-0.966499,0.2519709
634795913844080000,0.02346041,-0.007820137,-0.801564,-6.42,-18.78,-37.8,134,36,5,0.009146619,0.07966134,-0.09367566,3.651986,-0.08811449,0.02358472,0.0002818783,0.04558749,-0.9664764,0.2526758
634795913844280000,0.02346041,0.01173021,-0.8484849,-6.42,-18.78,-37.8,134,36,5,-0.005742996,0.1328154,-0.04895369,3.650757,-0.08541155,0.02533805,0.001498224,0.04450106,-0.9666724,0.2521145
634795913844480000,0.03910068,0.007820137,-0.8914956,-6.42,-18.78,-37.8,147,49,5,0.2549848,-0.2056033,0.003198937,3.651024,-0.0818975,0.0229578,0.0007846611,0.0425037,-0.9667416,0.2521971
634795913844680000,0.05083089,-0.003910068,-0.9853373,-6.42,-18.78,-37.8,149,51,5,0.3518292,-0.2417869,0.04043338,3.652074,-0.07517767,0.01770771,-0.0009269277,0.03859485,-0.9667974,0.2526121
634795913844880000,0.04301075,-0.01564027,-1.067449,-5.28,-17.7,-39.12,150,52,5,0.2273149,0.006188837,-0.0234188,3.652267,-0.06900262,0.01617408,-0.0008919631,0.03541629,-0.9669001,0.2526829
634795913845080000,0.05083089,-0.007820137,-1.083089,-5.28,-17.7,-39.12,150,52,5,0.03680439,0.1434186,0.01808691,3.652067,-0.06508875,0.01918721,0.001062954,0.03390389,-0.9669676,0.2526316
634795913845280000,0.05083089,0.007820137,-1.15347,-5.28,-17.7,-39.12,151,53,5,0.1974829,-0.2418388,0.1127757,3.653297,-0.06239295,0.01778471,0.0007053156,0.03242414,-0.9668688,0.2532051
634795913845480000,0.03910068,0.003910068,-1.305963,-5.28,-17.7,-39.12,153,55,5,0.2911347,-0.3748669,0.1744638,3.657623,-0.05218458,0.009021163,-0.00229717,0.02637598,-0.9665296,0.2551862
634795913845690000,0.06256109,0.007820137,-1.352884,-5.28,-17.7,-39.12,155,57,5,0.2315381,0.5201442,-0.05862002,3.656775,-0.04495,0.01330006,0.0007039813,0.02342482,-0.9667027,0.2548267
634795913845880000,0.1251222,0.05474096,-1.282502,-5.28,-17.7,-39.12,155,57,5,-0.0877353,0.4616118,-0.02561202,3.654741,-0.04251742,0.02241254,0.005442721,0.02340308,-0.9669251,0.2539256
634795913846080000,0.1603128,0.1094819,-1.227762,-4.8,-17.1,-39.36,158,60,5,-0.2037134,0.142325,0.1339911,3.65467,-0.04514456,0.02909231,0.008339749,0.0255192,-0.9668422,0.2539603
634795913846280000,0.1603128,0.113392,-1.270772,-4.8,-17.1,-39.36,158,60,5,-0.1408539,-0.196091,0.1041307,3.656506,-0.04793024,0.03048014,0.008632209,0.02704957,-0.9665578,0.2548724
634795913846480000,0.1407625,0.1094819,-1.313783,-4.8,-17.1,-39.36,152,54,5,-0.05461311,0.1103997,0.1221817,3.658922,-0.05169559,0.02823305,0.007031642,0.02859219,-0.9662197,0.2560316
634795913846680000,0.1368524,0.1251222,-1.239492,-4.8,-17.1,-39.36,153,55,5,-0.05778264,0.2231546,0.1785478,3.663598,-0.05580544,0.03253269,0.008510241,0.03114634,-0.9655107,0.2583533
634795913846890000,0.1290323,0.1329423,-1.086999,-4.8,-17.1,-39.36,153,55,5,-0.1939725,0.06666143,0.1817405,3.666441,-0.05893039,0.03548872,0.00948689,0.03304882,-0.9650571,0.2597737
634795913847080000,0.113392,0.1290323,-1.000978,-4.8,-17.1,-39.36,155,57,5,-0.4185239,-0.2068368,0.1551155,3.668498,-0.06314373,0.03563201,0.008972649,0.0351097,-0.964716,0.2607876
634795913847280000,0.1094819,0.1173021,-0.9970675,-4.8,-16.92,-40.08,154,56,5,-0.3993679,-0.3526357,0.08057945,3.670717,-0.07161617,0.03153825,0.005849907,0.03867114,-0.964321,0.2618313
634795913847480000,0.1173021,0.1212121,-1.000978,-4.8,-16.92,-40.08,151,53,5,-0.4089459,-0.3877551,0.01990748,3.671441,-0.08081388,0.02742636,0.002647395,0.04257053,-0.9640889,0.2621323
634795913847680000,0.113392,0.1251222,-0.969697,-4.8,-16.92,-40.08,151,53,5,-0.5004693,-0.2919749,0.04437458,3.672665,-0.1009991,0.02180576,-0.002738909,0.05156356,-0.96352,0.2626077
634795913847880000,0.0742913,0.1016618,-0.8914956,-4.8,-16.92,-40.08,151,53,5,-0.5164326,-0.2036442,0.08585183,3.673856,-0.1086128,0.02082121,-0.004245734,0.05509989,-0.9631723,0.2631447
634795913848080000,0.04301075,0.07038123,-0.8054741,-4.8,-16.92,-40.08,150,52,5,-0.3291291,-0.3632779,0.09326503,3.675517,-0.1153886,0.01633561,-0.007345674,0.05776901,-0.9628155,0.263809
634795913848280000,0.02346041,0.05083089,-0.7820137,-5.1,-16.8,-40.5,150,52,5,-0.352542,-0.4452233,-0.01210765,3.676012,-0.1201971,0.006789207,-0.01259065,0.05882518,-0.9627108,0.2637598
634795913848480000,0.01564027,0.03910068,-0.801564,-5.1,-16.8,-40.5,150,52,5,-0.3206153,-0.297296,-0.03551015,3.675603,-0.1263833,-0.001041889,-0.01716311,0.06077473,-0.9626488,0.2632855
634795913848680000,0.02346041,0.03519062,-0.8093842,-5.1,-16.8,-40.5,151,53,5,-0.05772468,-0.1685247,-0.00570589,3.674815,-0.1301653,-0.004992723,-0.01953784,0.06208251,-0.9626668,0.2627488
634795913848880000,0.03910068,0.03910068,-0.7937439,-5.1,-16.8,-40.5,152,54,5,0.08060483,-0.03652715,-0.0003844892,3.672643,-0.1308527,-0.01133895,-0.02261541,0.06160285,-0.9629725,0.2614925
634795913849080000,0.04692082,0.03128055,-0.7820137,-5.1,-16.8,-40.5,151,53,5,0.03588112,0.04859375,-0.06635073,3.670844,-0.1291687,-0.01103163,-0.02219258,0.06085232,-0.9632568,0.2606551
634795913849280000,0.03910068,0.01955034,-0.7781036,-5.1,-16.8,-40.5,151,53,5,-0.003494615,-0.00462728,-0.1748496,3.667513,-0.128624,-0.0112406,-0.02212131,0.06059952,-0.9637073,0.2590496
634795913849480000,0.06647116,0.02737048,-0.8289345,-5.88,-15.96,-41.34,142,44,5,0.02097603,-0.06420363,-0.2812721,3.664762,-0.128129,-0.01227999,-0.02247509,0.06025698,-0.9640834,0.2576963
634795913849680000,0.1094819,0.05083089,-0.914956,-5.88,-15.96,-41.34,143,45,5,-0.006691209,0.06030899,-0.3014924,3.659503,-0.1273885,-0.01408029,-0.02309036,0.05972835,-0.9647889,0.2551118
634795913849880000,0.1368524,0.07038123,-0.9462366,-5.88,-15.96,-41.34,141,43,5,0.287031,0.21455,-0.1258796,3.655641,-0.1258571,-0.01256943,-0.02205201,0.0563671,-0.9655166,0.2534268
634795913850080000,0.1329423,0.06647116,-0.9227762,-5.88,-15.96,-41.34,141,43,5,0.5626653,0.1559691,0.1082396,3.660474,-0.1075876,-0.005573392,-0.01648309,0.05125436,-0.9651701,0.2560232
634795913850300000,0.09775171,0.03910068,-0.9736071,-5.88,-15.96,-41.34,141,43,5,0.6062985,-0.1696688,0.2551027,3.664567,-0.1010485,-0.006252646,-0.016072,0.04797858,-0.96481,0.2580337
634795913850480000,0.05474096,0,-1.106549,-7.32,-15.96,-42.84,136,38,5,0.2316515,0.02827331,-0.1088869,3.669585,-0.09788395,-0.010463,-0.01780985,0.0458634,-0.9642528,0.260377
634795913850680000,0.05865103,0.01173021,-1.16911,-7.32,-15.96,-42.84,140,42,5,0.3689366,0.1463533,-0.1940049,3.669948,-0.09285878,-0.008040309,-0.01599549,0.04375359,-0.9643081,0.2606519
634795913850880000,0.08602151,0.05865103,-1.1652,-7.32,-15.96,-42.84,145,47,5,0.2263304,-0.05479566,0.08377065,3.667886,-0.08598375,-0.006157636,-0.01414962,0.04069887,-0.9647141,0.2597506
634795913851080000,0.06647116,0.05865103,-1.184751,-7.32,-15.96,-42.84,145,47,5,0.3029546,-0.2633687,0.2668174,3.674702,-0.07129884,-0.01755643,-0.01790915,0.03203843,-0.9636359,0.264686
634795913851280000,0.01173021,0.02346041,-1.251222,-7.32,-15.96,-42.84,147,49,5,0.3721293,-0.4581219,0.02096471,3.678345,-0.07129884,-0.01755643,-0.01790915,0.03203843,-0.9636359,0.264686
634795913851480000,-0.01564027,0.03910068,-1.321603,-7.32,-15.96,-42.84,149,51,5,0.06987913,-0.1569461,-0.4621824,3.67386,-0.06786251,-0.02286434,-0.01994484,0.02972341,-0.9642786,0.2624605
634795913851680000,0.01173021,0.1094819,-1.329423,-7.32,-15.96,-42.84,149,51,5,-0.4813808,0.06653918,-0.78145,3.661615,-0.0717833,-0.02379024,-0.02071244,0.03161928,-0.9658064,0.2564952
634795913851880000,0.05474096,0.1798632,-1.286412,-8.52,-16.14,-43.26,151,53,5,-0.5878032,0.1111889,-0.7037615,3.648375,-0.08160281,-0.02290821,-0.02130379,0.03661599,-0.9673161,0.2500108
634795913852080000,0.07038123,0.2228739,-1.231672,-8.52,-16.14,-43.26,154,56,5,-0.2419301,-0.03461805,-0.4185492,3.641646,-0.08687853,-0.02287328,-0.02181442,0.03924556,-0.9680514,0.246699
634795913852280000,0.04692082,0.230694,-1.16911,-8.52,-16.14,-43.26,155,57,5,0.1465133,-0.08034704,-0.1109744,3.634948,-0.08743524,-0.0256809,-0.02311039,0.03924495,-0.9688599,0.2433858
634795913852480000,0.02737048,0.1955034,-1.094819,-8.52,-16.14,-43.26,153,55,5,0.1092495,-0.2654929,-0.1236975,3.634325,-0.08476424,-0.02845478,-0.02411702,0.03761932,-0.9689832,0.2430534
634795913852680000,0.01955034,0.1524927,-1.043988,-8.52,-16.14,-43.26,153,55,5,-0.1365648,-0.3144472,-0.2513837,3.631738,-0.08535671,-0.03311884,-0.02639961,0.03737094,-0.9692746,0.2416873
634795913852880000,0.02346041,0.1407625,-1.016618,-9.9,-16.56,-44.52,152,54,5,-0.2972628,-0.2867774,-0.2939527,3.628984,-0.08842063,-0.03676438,-0.0284829,0.03845197,-0.969537,0.2402259
634795913853080000,0.02346041,0.1407625,-0.9775171,-9.9,-16.56,-44.52,151,53,5,-0.146095,-0.28997,-0.1289608,3.624636,-0.09442759,-0.04220187,-0.03175003,0.04077522,-0.9699154,0.2378936
634795913853280000,0.02346041,0.1016618,-0.9188661,-9.9,-16.56,-44.52,147,49,5,-0.02687642,-0.2825205,-0.07465656,3.622781,-0.0992341,-0.04567968,-0.03396755,0.04272048,-0.970018,0.2368241
634795913853480000,0.03519062,0.04301075,-0.8680352,-9.9,-16.56,-44.52,147,49,5,-0.05027349,-0.228245,-0.1608122,3.6218,-0.1033142,-0.05301642,-0.03798485,0.04384065,-0.9700022,0.2360733
634795913853700000,0.04692082,0.01173021,-0.8172043,-9.9,-16.56,-44.52,144,46,5,-0.147062,-0.06539668,-0.2895835,3.619873,-0.1048012,-0.05463945,-0.03890422,0.04440558,-0.9701855,0.2350641
634795913853880000,0.06647116,0.01173021,-0.797654,-10.56,-18.42,-45.36,139,41,5,-0.1438044,-0.04516049,-0.3012899,3.616508,-0.1075029,-0.05603027,-0.03981917,0.0456178,-0.9705087,0.233338
634795913854080000,0.08993158,0.02346041,-0.7859238,-10.56,-18.42,-45.36,133,35,5,-0.05862356,-0.006835336,-0.2087023,3.6143,-0.1095347,-0.05736446,-0.04065179,0.04649103,-0.970709,0.2321857
634795913854280000,0.09384164,0.02737048,-0.7741935,-10.56,-18.42,-45.36,133,35,5,0.1116181,0.1782855,-0.1064898,3.614319,-0.1092133,-0.05624055,-0.04006987,0.04646682,-0.9707228,0.2322352
634795913854480000,0.09775171,0.01955034,-0.7311828,-10.56,-18.42,-45.36,128,30,5,0.129653,0.2612669,-0.05325197,3.616786,-0.1063092,-0.04897249,-0.03626355,0.04586698,-0.9705493,0.2337001
634795913854680000,0.1016618,0.01955034,-0.6999022,-10.56,-18.42,-45.36,128,30,5,0.140237,0.2335971,-0.006417645,3.619829,-0.1043262,-0.04463375,-0.03399657,0.04536531,-0.9702601,0.2353343
634795913854890000,0.08211143,0.01564027,-0.7468231,-10.38,-19.8,-47.22,127,29,5,0.1763759,-0.01546598,0.1106111,3.624723,-0.1021075,-0.04343033,-0.03326055,0.0443506,-0.9697361,0.2377788
634795913855080000,0.05865103,0.003910068,-0.8328446,-10.38,-19.8,-47.22,125,27,5,0.2125596,-0.01544935,0.1595093,3.6305,-0.09924865,-0.04355288,-0.03310398,0.04285428,-0.9691069,0.2406231
634795913855280000,0.04692082,0,-0.8875855,-10.38,-19.8,-47.22,125,27,5,0.2061742,0.1335115,0.1551941,3.635884,-0.09588003,-0.04167354,-0.03189988,0.04136424,-0.9685348,0.2433353
634795913855480000,0.05083089,0.007820137,-0.9423265,-10.38,-19.8,-47.22,134,36,5,0.185954,0.1547346,0.1700536,3.63918,-0.09367274,-0.03967249,-0.03072941,0.04049004,-0.9681855,0.2450168
634795913855680000,0.05083089,0.01955034,-0.9931574,-10.38,-19.8,-47.22,137,39,5,0.2870554,0.1791419,0.2743476,3.652537,-0.08394813,-0.03262674,-0.02637171,0.03647583,-0.9667362,0.2517839
634795913855880000,0.03519062,0.01173021,-1.040078,-10.38,-19.8,-47.22,139,41,5,0.2295872,0.03324241,0.4531375,3.66155,-0.07816028,-0.02863371,-0.02386707,0.03407598,-0.9657025,0.2562968
634795913856080000,0.01173021,-0.01173021,-1.14174,-10.38,-19.8,-47.22,139,41,5,0.2455506,-0.06889669,0.2839256,3.670249,-0.07297182,-0.02712798,-0.02261315,0.03166639,-0.9646665,0.2605853
634795913856280000,0.007820137,-0.007820137,-1.251222,-9.9,-21.48,-49.14,144,46,5,0.2636424,0.2588857,0.05190117,3.673854,-0.06905412,-0.02674949,-0.0219738,0.02978659,-0.9642561,0.2623746
634795913856480000,0.05865103,0.05474096,-1.262952,-9.9,-21.48,-49.14,150,52,5,0.1497486,0.524942,0.180654,3.675572,-0.06403231,-0.02291024,-0.01948815,0.02785399,-0.9641086,0.2633227
634795913856680000,0.1016618,0.1251222,-1.204301,-9.9,-21.48,-49.14,152,54,5,0.04011139,0.4547032,0.3924348,3.67857,-0.06100201,-0.0132978,-0.01449738,0.02834606,-0.9628257,0.26843
634795913856880000,0.09384164,0.1173021,-1.212121,-9.9,-21.48,-49.14,152,54,5,0.06456348,-0.02313085,0.5520686,3.695613,-0.05979704,-0.003523111,-0.009869063,0.02827283,-0.9614604,0.2733076
634795913857100000,0.05474096,0.07038123,-1.333333,-9.9,-21.48,-49.14,151,53,5,-0.04292357,-0.4647843,0.4552241,3.701741,-0.06056141,-0.007789731,-0.01211044,0.02802001,-0.9606199,0.2761846
634795913857280000,0.05083089,0.0742913,-1.419355,-8.28,-23.52,-49.5,154,56,5,-0.05459576,-0.3296277,0.2157734,3.706631,-0.06272888,-0.01472044,-0.01580686,0.02806444,-0.9599223,0.2784095
634795913857480000,0.08993158,0.1329423,-1.321603,-8.28,-23.52,-49.5,157,59,5,0.07309418,0.1258393,0.1646518,3.70872,-0.06217384,-0.01464355,-0.01572175,0.02779232,-0.9596385,0.2794178
634795913857680000,0.113392,0.1603128,-1.14956,-8.28,-23.52,-49.5,157,59,5,0.01986218,0.2290435,0.2561751,3.711428,-0.06149602,-0.01041079,-0.01363426,0.02804088,-0.959263,0.2807884
634795913857880000,0.1094819,0.1368524,-1.047898,-8.28,-23.52,-49.5,158,60,5,-0.03757682,-0.424397,0.2732027,3.72052,-0.06392431,-0.01143003,-0.01459595,0.02899624,-0.9579444,0.2851126
634795913858080000,0.1016618,0.1173021,-1.032258,-8.28,-23.52,-49.5,156,58,5,-0.1939873,-0.4765441,0.147606,3.724261,-0.06653953,-0.01860702,-0.01846031,0.02918978,-0.957379,0.2867627
634795913858290000,0.1094819,0.1251222,-1.040078,-8.28,-23.52,-49.5,153,55,5,-0.4057681,-0.4478099,-0.009907581,3.725361,-0.0733707,-0.02583253,-0.02291452,0.03140879,-0.9571157,0.2870857
634795913858480000,0.1055719,0.1485826,-1.028348,-8.28,-23.52,-49.5,153,55,5,-0.5068694,-0.3105249,0.04542845,3.724665,-0.08283567,-0.0311383,-0.02679845,0.03518301,-0.9570514,0.2865253
634795913858680000,0.08211143,0.1524927,-0.9736071,-5.88,-25.5,-49.86,155,57,5,-0.4238599,-0.1445058,0.1752367,3.724861,-0.09288979,-0.03393352,-0.02957904,0.03958866,-0.9568314,0.2864119
634795913858880000,0.06256109,0.113392,-0.8875855,-5.88,-25.5,-49.86,155,57,5,-0.2099507,-0.2339007,0.257182,3.726191,-0.0986681,-0.03316879,-0.03006903,0.04244297,-0.9565232,0.2869814
634795913859080000,0.04692082,0.06256109,-0.8406647,-5.88,-25.5,-49.86,156,58,5,-0.1194291,-0.3892776,0.2444113,3.732075,-0.108078,-0.03919137,-0.03443234,0.04597271,-0.9554601,0.2894773
634795913859280000,0.04301075,0.03910068,-0.8523949,-3.96,-26.46,-49.32,159,61,5,-0.09384253,-0.2913689,0.1763009,3.733513,-0.1099224,-0.04349625,-0.03678757,0.04619981,-0.9552006,0.2900068
634795913859480000,0.05083089,0.04301075,-0.8445748,-3.96,-26.46,-49.32,159,61,5,-0.00975701,-0.02529628,0.1124015,3.733031,-0.1101801,-0.04376221,-0.03694071,0.04629291,-0.9552642,0.2897635
634795913859680000,0.05865103,0.04301075,-0.801564,-3.96,-26.46,-49.32,159,61,5,-0.007627564,0.2002651,0.1453445,3.732592,-0.1101775,-0.0414778,-0.03583977,0.04663306,-0.9553328,0.2896211
634795913859880000,0.05865103,0.02737048,-0.7663734,-3.96,-26.46,-49.32,158,60,5,0.02855448,0.2013024,0.1964073,3.732748,-0.1100237,-0.0374192,-0.03388378,0.04714911,-0.9553195,0.2898167
634795913860080000,0.05865103,0.007820137,-0.7702835,-3.96,-26.46,-49.32,156,58,5,0.4606077,-0.1647874,0.05271915,3.734061,-0.1054716,-0.03660082,-0.03286297,0.04083696,-0.9554292,0.2905271
634795913860280000,0.06256109,0.003910068,-0.8093842,-3.96,-26.46,-49.32,156,58,5,0.3595063,0.03104841,-0.02284053,3.731786,-0.09007119,-0.04010379,-0.03225517,0.03724025,-0.9558744,0.2896152
634795913860480000,0.08211143,0.007820137,-0.8172043,-3.96,-26.46,-49.32,153,55,5,0.3467356,0.1906127,-0.08028239,3.729432,-0.085783,-0.0383172,-0.03073887,0.03548713,-0.9562976,0.2886005
634795913860680000,0.09384164,0.007820137,-0.801564,-2.52,-26.94,-48.78,158,60,5,0.3243869,0.08413217,0.006998091,3.725948,-0.07926416,-0.03533781,-0.02831669,0.03285146,-0.9569192,0.2870966
634795913860880000,0.08211143,0.007820137,-0.8250244,-2.52,-26.94,-48.78,155,57,5,0.4020754,-0.07869147,0.08466334,3.724241,-0.0728085,-0.03446937,-0.0269489,0.0299108,-0.9572678,0.2863871
634795913861080000,0.05865103,0.007820137,-0.8875855,-2.52,-26.94,-48.78,155,57,5,0.4499655,-0.1978685,0.09208059,3.723953,-0.06528926,-0.03651416,-0.02684677,0.02602152,-0.957407,0.286311
634795913861280000,0.04692082,0.003910068,-0.9853373,-2.52,-26.94,-48.78,153,55,5,0.4254883,-0.1425288,-0.02606099,3.720809,-0.05219316,-0.04139638,-0.02727821,0.01909311,-0.9579787,0.2849011
634795913861480000,0.0742913,0.01564027,-1.051808,-2.52,-26.94,-48.78,160,62,5,0.3062951,0.1660759,-0.236748,3.713972,-0.04675531,-0.03772962,-0.02468925,0.01709709,-0.9590184,0.2817484
634795913861690000,0.1173021,0.03910068,-1.067449,-1.02,-27.9,-48.54,167,69,5,-0.01087286,0.3704072,-0.2218488,3.706397,-0.04597902,-0.02997983,-0.02079688,0.01789856,-0.9601232,0.2782277
634795913861880000,0.08993158,0.04692082,-1.12219,-1.02,-27.9,-48.54,165,67,5,0.1349208,-0.2000248,0.1133856,3.704262,-0.04541683,-0.03080487,-0.02109592,0.01753619,-0.9604216,0.2771972
634795913862080000,0.03128055,0.04692082,-1.204301,-1.02,-27.9,-48.54,165,67,5,0.5584823,-0.5863385,0.08035128,3.703882,-0.03756976,-0.03895819,-0.0239205,0.01263964,-0.9604886,0.2770023
634795913862280000,-0.01955034,0.08993158,-1.329423,-1.02,-27.9,-48.54,162,64,5,0.4062982,-0.3852,-0.143114,3.701837,-0.03148198,-0.04528332,-0.02610526,0.008864457,-0.9607548,0.2760253
634795913862480000,0,0.1564027,-1.364614,-1.02,-27.9,-48.54,170,72,5,-0.1939388,0.05751499,-0.4708954,3.679415,-0.03461099,-0.04523956,-0.02639807,0.01067021,-0.9637739,0.2651969
634795913862680000,0.02737048,0.2111437,-1.321603,-1.02,-27.9,-48.54,173,75,5,-0.1619888,0.3267432,-0.1122378,3.669397,-0.0415411,-0.03819966,-0.02385009,0.01506553,-0.9650988,0.2603626
634795913862890000,0.02346041,0.2072336,-1.216031,-1.02,-27.9,-48.54,173,75,5,0.2690111,0.13727,0.1633513,3.665824,-0.04175997,-0.0333966,-0.02153306,0.01583669,-0.9655892,0.2586953
634795913863080000,0,0.1603128,-1.1261,-0.42,-28.44,-48.06,173,75,5,0.1923869,0.1255123,-0.009085528,3.665024,-0.0390687,-0.03131914,-0.02017619,0.01481491,-0.9657241,0.2583616
634795913863280000,-0.003910068,0.1329423,-1.090909,-0.42,-28.44,-48.06,172,74,5,-0.2045743,0.02438564,-0.2836435,3.661027,-0.03674435,-0.0284543,-0.01846459,0.01410036,-0.9662688,0.2564855
634795913863480000,0.01955034,0.1564027,-1.110459,-0.42,-28.44,-48.06,173,75,5,-0.647292,-0.09263794,-0.4241212,3.655408,-0.0388174,-0.02766907,-0.01830831,0.02298884,-0.9688622,0.2456044
634795913863680000,0.04301075,0.1994135,-1.13001,-0.42,-28.44,-48.06,173,75,5,-0.358887,0.02230461,-0.2261753,3.630141,-0.06373072,-0.03031743,-0.02240521,0.02724644,-0.969826,0.2412328
634795913863880000,0.05474096,0.1915933,-1.067449,-0.42,-28.44,-48.06,173,75,5,-0.1939321,0.1691198,-0.0143606,3.626183,-0.06728768,-0.02896559,-0.02212114,0.02917877,-0.9702557,0.2392974
634795913864080000,0.05083089,0.1212121,-0.9618768,0.78,-29.4,-47.52,173,75,5,-0.2120239,0.0935068,0.01117593,3.622422,-0.07195377,-0.02559078,-0.02098276,0.03188712,-0.9706411,0.2374846
634795913864280000,0.05083089,0.06647116,-0.8914956,0.78,-29.4,-47.52,172,74,5,-0.07896867,-0.09591097,-0.07713883,3.61867,-0.07602452,-0.02460313,-0.0209231,0.03401978,-0.9710194,0.2356403
634795913864480000,0.06647116,0.05474096,-0.8836755,0.78,-29.4,-47.52,171,73,5,-0.1459703,-0.09588159,-0.08029729,3.613636,-0.07903862,-0.0251869,-0.02147236,0.03546823,-0.9715561,0.2331518
634795913864680000,0.06256109,0.06256109,-0.8758553,0.78,-29.4,-47.52,171,73,5,-0.1991565,0.04246997,0.001657445,3.608001,-0.08460402,-0.02529025,-0.0220636,0.0382218,-0.9721066,0.2303507
634795913864880000,0.05474096,0.05865103,-0.8211144,0.78,-29.4,-47.52,170,72,5,-0.1065084,0.1328832,0.100603,3.606833,-0.0864985,-0.02291035,-0.02110236,0.03943025,-0.9722064,0.2298153
634795913865080000,0.05083089,0.03519062,-0.7859238,0.78,-29.4,-47.52,168,70,5,0.01162507,-0.1416793,0.07817191,3.606326,-0.08654546,-0.02298319,-0.0211332,0.03945009,-0.9722638,0.2295666
634795913865280000,0.04692082,0.02737048,-0.797654,2.58,-29.82,-47.52,172,74,5,0.01162507,-0.1416793,0.07817191,3.604701,-0.0864005,-0.02545833,-0.02228771,0.0391124,-0.9724504,0.2287227
634795913865480000,0.05474096,0.03519062,-0.8406647,2.58,-29.82,-47.52,172,74,5,-0.1511478,-0.09908114,-0.0005844754,3.6019,-0.08704113,-0.0279609,-0.02352256,0.03916927,-0.9727533,0.2272965
634795913865680000,0.06256109,0.06256109,-0.8836755,2.58,-29.82,-47.52,173,75,5,-0.148951,0.0307624,0.09091941,3.599844,-0.08830619,-0.0293678,-0.02430966,0.03964883,-0.9729585,0.2251354
634795913865880000,0.06256109,0.07038123,-0.8954057,2.58,-29.82,-47.52,172,74,5,0.07879729,0.1456499,0.259051,3.597903,-0.09102082,-0.02733135,-0.0235864,0.04122397,-0.9731265,0.2253202
634795913866080000,0.05083089,0.05865103,-0.8680352,3.3,-29.4,-47.82,173,75,5,0.2671437,0.06898329,0.3260972,3.60026,-0.08682799,-0.02479851,-0.02192831,0.03944485,-0.9729485,0.2265727
634795913866290000,0.02737048,0.03128055,-0.8758553,3.3,-29.4,-47.82,175,77,5,0.2054186,-0.07361072,0.3090696,3.602487,-0.08282113,-0.0248748,-0.02155317,0.03746291,-0.9727721,0.227698
634795913866480000,0.01955034,0.02346041,-0.9305963,3.3,-29.4,-47.82,175,77,5,0.1660423,-0.0416569,0.2324454,3.603374,-0.08072709,-0.02560937,-0.02168811,0.03635072,-0.9727087,0.2281363
634795913866680000,0.03519062,0.02346041,-0.9853373,3.3,-29.4,-47.82,177,79,5,0.1372425,0.07645711,0.2100966,3.603469,-0.07754016,-0.02549696,-0.02127155,0.03481256,-0.9727551,0.2282191
634795913866880000,0.03910068,0.02737048,-1.047898,3.3,-29.4,-47.82,178,80,5,0.09569193,0.07217078,0.216482,3.603067,-0.07502532,-0.02406704,-0.02028241,0.03375728,-0.9728462,0.2280785
634795913867080000,0.02346041,0.03128055,-1.102639,3.3,-29.4,-47.82,178,80,5,0.17973,0.1593896,0.2654363,3.603923,-0.06647205,-0.01674664,-0.01575911,0.03042755,-0.9728922,0.2287064
634795913867280000,0.01955034,0.03519062,-1.110459,3.3,-29.4,-47.82,177,79,5,0.4021531,0.2700431,0.2090324,3.603526,-0.06101871,-0.01306248,-0.01333771,0.02819951,-0.9730178,0.228613
634795913867480000,0.05865103,0.06647116,-1.086999,3.48,-29.46,-47.46,178,80,5,0.3521345,0.2381163,0.1547008,3.602297,-0.05272126,-0.008041501,-0.009931069,0.02474343,-0.9732645,0.228136
634795913867680000,0.1016618,0.1173021,-1.102639,3.48,-29.46,-47.46,178,80,5,0.1243725,0.1443916,0.2004428,3.60076,-0.04629517,-0.003733039,-0.007084297,0.02211353,-0.9735088,0.2274689
634795913867880000,0.1251222,0.1681329,-1.15347,3.48,-29.46,-47.46,175,77,5,0.1243725,0.1443916,0.2004428,3.600547,-0.04367017,-0.0005787611,-0.005248094,0.0211952,-0.9735548,0.2274079
634795913868080000,0.113392,0.1955034,-1.216031,3.48,-29.46,-47.46,175,77,5,-0.04803787,-0.1078321,0.3313425,3.603655,-0.04490781,0.0004279613,-0.004932835,0.02190449,-0.9731845,0.2289282
634795913868280000,0.09384164,0.1955034,-1.270772,3.48,-29.46,-47.46,172,74,5,0.0881692,-0.09927764,0.3760399,3.606778,-0.04613066,-0.0006941556,-0.00565378,0.0223623,-0.972815,0.2304322
634795913868480000,0.08993158,0.1955034,-1.235582,3.54,-30.66,-47.52,172,74,5,0.2328844,-0.06412503,0.4356365,3.61039,-0.04468513,-0.001585364,-0.005959608,0.02154578,-0.9724156,0.2321827
634795913868680000,0.09775171,0.2072336,-1.110459,3.54,-30.66,-47.52,174,76,5,0.2680038,-0.05665729,0.4441503,3.614978,-0.04071546,-0.001605868,-0.005553709,0.01960047,-0.9719209,0.234424
634795913868880000,0.09775171,0.2111437,-1.059628,3.54,-30.66,-47.52,174,76,5,0.03597929,-0.1108989,0.3568839,3.618898,-0.03820229,-0.001991987,-0.005482697,0.01832321,-0.9714841,0.2363322
634795913869080000,0.08602151,0.2150538,-1.067449,3.54,-30.66,-47.52,174,76,5,-0.2587804,-0.3024595,0.2547182,3.620651,-0.03923059,-0.002940893,-0.006081543,0.01870522,-0.9712685,0.2371712
634795913869280000,0.07038123,0.2228739,-1.098729,3.54,-30.66,-47.52,173,75,5,-0.223661,-0.4312307,0.2302411,3.62292,-0.05000257,-0.01382637,-0.01267004,0.02263046,-0.9708949,0.238099
634795913869480000,0.06256109,0.2228739,-1.094819,3.54,-30.66,-47.52,173,75,5,-0.06716944,-0.3013952,0.2217273,3.623514,-0.05271864,-0.0185883,-0.01531168,0.02337665,-0.9707887,0.2383044
634795913869690000,0.06256109,0.1994135,-1.028348,3.54,-30.66,-47.52,173,75,5,0.04988934,0.10831,0.1684955,3.623315,-0.05360388,-0.01757514,-0.01492301,0.02392878,-0.9708028,0.2382155
634795913869880000,0.07038123,0.172043,-0.9345064,2.76,-33,-47.34,173,75,5,-0.1310159,0.1284801,0.05352282,3.622248,-0.05424237,-0.01553893,-0.01399773,0.02448905,-0.9709237,0.2377214
634795913870080000,0.08993158,0.1524927,-0.8993157,2.76,-33,-47.34,174,76,5,-0.3225764,-0.03116446,-0.02523022,3.619066,-0.06144977,-0.01214933,-0.01316397,0.02841244,-0.9712054,0.236178
634795913870280000,0.1055719,0.1564027,-0.9384164,2.76,-33,-47.34,173,75,5,-0.4385769,-0.2759235,-0.1262971,3.61469,-0.08112668,-0.01702285,-0.01767279,0.03747476,-0.9720056,0.2312759
634795913870480000,0.113392,0.1876833,-0.9931574,2.76,-33,-47.34,173,75,5,-0.3981364,-0.2237765,-0.09965134,3.604845,-0.08932018,-0.01807451,-0.01903538,0.04137874,-0.9723771,0.2289295
634795913870680000,0.09775171,0.2072336,-1.000978,2.76,-33,-47.34,170,72,5,0.005214994,0.1305923,-0.200697,3.601423,-0.09374142,-0.01645148,-0.01867772,0.04374658,-0.9726716,0.2272616
634795913870880000,0.0742913,0.1837732,-0.9736071,1.8,-34.5,-47.1,169,71,5,0.09669845,0.1592617,-0.002730186,3.59514,-0.09619284,-0.0117526,-0.01652859,0.04552644,-0.9733168,0.2242959
634795913871080000,0.06647116,0.1524927,-0.9618768,1.8,-34.5,-47.1,170,72,5,-0.1767667,0.09005047,-0.1165731,3.591543,-0.09791898,-0.006872535,-0.01426324,0.04694068,-0.9736634,0.2226496
634795913871280000,0.08602151,0.1485826,-0.9657869,1.8,-34.5,-47.1,171,73,5,-0.3810979,0.1485308,-0.2134003,3.586412,-0.1033485,-0.003614664,-0.01315374,0.04998079,-0.9740855,0.2201949
634795913871480000,0.1016618,0.172043,-0.969697,1.8,-34.5,-47.1,171,73,5,-0.3364004,0.1005925,-0.2868318,3.572047,-0.1181962,0.002932072,-0.0111845,0.05801354,-0.975203,0.2132808
634795913871680000,0.1055719,0.2033236,-0.9618768,1.8,-34.5,-47.1,170,72,5,-0.1171292,0.06225085,-0.04948969,3.569288,-0.1207716,0.004862309,-0.01043589,0.05948931,-0.9754062,0.2119773
634795913871880000,0.1016618,0.2033236,-0.9579667,0.78,-35.34,-47.52,168,70,5,0.04889617,0.05904013,0.08033139,3.567435,-0.1226673,0.007743001,-0.009175636,0.06072721,-0.9755229,0.2111488
634795913872080000,0.08602151,0.1681329,-0.9462366,0.78,-35.34,-47.52,168,70,5,0.1201571,0.039862,0.08349498,3.566388,-0.1227596,0.01090109,-0.00761278,0.06110872,-0.9756026,0.2107311
634795913872280000,0.06256109,0.1446725,-0.9345064,0.78,-35.34,-47.52,168,70,5,0.1137179,-0.003776858,0.07494889,3.565612,-0.12256,0.01329327,-0.006400908,0.06126509,-0.9756679,0.2104231
634795913872480000,0.05865103,0.1329423,-0.9423265,0.78,-35.34,-47.52,169,71,5,0.01684899,-0.07612361,-0.02509488,3.559747,-0.1252596,0.01456058,-0.005882647,0.06273235,-0.976185,0.2075902
634795913872680000,0.07038123,0.1251222,-0.9618768,0.78,-35.34,-47.52,170,72,5,-0.2342549,0.08244319,-0.2559771,3.555742,-0.1275756,0.01543081,-0.005570201,0.06396391,-0.9765161,0.205655
634795913872880000,0.08211143,0.1290323,-0.9853373,0.12,-35.76,-47.82,169,71,5,-0.4055952,0.09304757,-0.2453348,3.548647,-0.1335752,0.01753175,-0.0049232,0.06712586,-0.9770207,0.2022396
634795913873080000,0.08211143,0.1368524,-1.004888,0.12,-35.76,-47.82,169,71,5,-0.2832093,0.05152147,-0.2527844,3.542115,-0.1406503,0.01913595,-0.004623859,0.07075824,-0.9774138,0.1990835
634795913873280000,0.08211143,0.1564027,-1.000978,0.12,-35.76,-47.82,169,71,5,0.09567954,0.2398575,-0.1059085,3.535906,-0.1438532,0.02136957,-0.003625656,0.07255585,-0.9778857,0.1961172
634795913873480000,0.0742913,0.1485826,-0.9892473,0.12,-35.76,-47.82,168,70,5,0.1882457,0.1866219,-0.02288302,3.532188,-0.1412227,0.02638078,-0.0007831738,0.07175876,-0.9782795,0.1944712
634795913873680000,0.08602151,0.113392,-0.9892473,0.12,-35.76,-47.82,169,71,5,0.01582741,0.06739061,-0.01968578,3.52974,-0.1390402,0.02977407,0.001176525,0.07101648,-0.9785488,0.1933848
634795913873880000,0.1055719,0.09775171,-1.004888,0.12,-35.76,-47.82,169,71,5,-0.221469,-0.01988113,-0.05053306,3.525421,-0.1432314,0.03143251,0.001741056,0.07322204,-0.9787897,0.1913296
634795913874080000,0.1055719,0.1055719,-1.016618,0.12,-35.76,-47.82,169,71,5,-0.2608453,0.002472741,-0.04093786,3.523062,-0.147361,0.03230929,0.001864089,0.07532357,-0.9788477,0.1902085
634795913874280000,0.09775171,0.1094819,-1.004888,0.48,-34.98,-48.3,168,70,5,-0.0596448,0.06734181,0.0165295,3.521496,-0.1492107,0.03459775,0.002868443,0.07644154,-0.9788922,0.1895241
634795913874480000,0.09775171,0.1016618,-0.9931574,0.48,-34.98,-48.3,167,69,5,0.03932034,0.008802243,0.02716332,3.520177,-0.1491034,0.03671503,0.003965973,0.07658435,-0.9789872,0.1889522
634795913874680000,0.1016618,0.08602151,-1.004888,0.48,-34.98,-48.3,168,70,5,0.09675391,0.04817417,0.03672817,3.519204,-0.1473987,0.03789103,0.004739887,0.07585712,-0.9791252,0.1885128
634795913874880000,0.09384164,0.07820137,-1.024438,0.48,-34.98,-48.3,168,70,5,0.01904309,0.205619,0.0005384136,3.51711,-0.1436667,0.04249263,0.007423862,0.07444962,-0.9793862,0.1876319
634795913875080000,0.08993158,0.07038123,-1.016618,0.48,-34.98,-48.3,167,69,5,-0.1852328,0.2492522,-0.03031327,3.514527,-0.1448052,0.04765547,0.009944053,0.07547057,-0.9794932,0.1865437
634795913875280000,0.1094819,0.08211143,-1.000978,1.14,-34.44,-48.72,169,71,5,-0.2448294,0.01082111,-0.0185993,3.512362,-0.1475019,0.0501318,0.0109893,0.07700609,-0.9795455,0.1855812
634795913875480000,0.113392,0.09384164,-1.004888,1.14,-34.44,-48.72,169,71,5,-0.07133103,-0.04237583,-0.02497561,3.510594,-0.1482115,0.04996181,0.01090858,0.07732848,-0.9796847,0.1847132
634795913875680000,0.1016618,0.1016618,-1.024438,1.14,-34.44,-48.72,169,71,5,0.1563747,-0.05938054,0.01121002,3.509349,-0.1450732,0.04972255,0.01112824,0.07576255,-0.9799239,0.1840778
634795913875880000,0.08993158,0.09384164,-1.024438,1.14,-34.44,-48.72,167,69,5,0.186173,0.03533611,0.01226866,3.508717,-0.1419985,0.05009853,0.01161907,0.07268853,-0.9803228,0.1830433
634795913876080000,0.09384164,0.07820137,-1.000978,1.14,-34.44,-48.72,167,69,5,0.09459829,0.1565987,-0.01433538,3.504948,-0.1359565,0.05567861,0.01504629,0.07179988,-0.9805487,0.1820522
634795913876280000,0.1055719,0.06647116,-0.9853373,1.14,-34.44,-48.72,168,70,5,0.02008171,0.0405613,-0.06114856,3.504948,-0.1359565,0.05567861,0.01504629,0.07179988,-0.9805487,0.1805909
634795913876480000,0.113392,0.0742913,-1.000978,1.14,-34.44,-48.72,168,70,5,-0.3693991,-0.1648418,-0.01746557,3.499393,-0.1381321,0.05595052,0.01518402,0.07284883,-0.9809666,0.1793532
634795913876680000,0.1212121,0.1055719,-1.016618,1.98,-34.56,-49.62,170,72,5,-0.4566656,-0.06157528,-0.0004337161,3.498168,-0.1438331,0.05431879,0.01391821,0.07549306,-0.9808971,0.1787411
634795913876880000,0.1173021,0.1251222,-1.000978,1.98,-34.56,-49.62,168,70,5,-0.3917479,0.09165113,0.0517012,3.497478,-0.1481655,0.05453014,0.01366147,0.07763141,-0.9807884,0.1784402
634795913877080000,0.1055719,0.113392,-0.9814272,1.98,-34.56,-49.62,168,70,5,-0.2853253,-0.01372197,0.1144571,3.497458,-0.1581073,0.0578382,0.01439795,0.08279382,-0.9803236,0.1786163
634795913877280000,0.1094819,0.09775171,-0.9853373,1.98,-34.56,-49.62,168,70,5,-0.2140223,-0.206335,0.06547024,3.497629,-0.1606121,0.05502104,0.01278519,0.0837774,-0.9802628,0.1786137
634795913877480000,0.1212121,0.1055719,-1.020528,2.88,-33.42,-50.4,170,72,5,0.009489234,-0.2499683,-0.02498539,3.496317,-0.15925,0.05109465,0.011035,0.08276024,-0.9805153,0.1778173
634795913877680000,0.1212121,0.1173021,-1.055718,2.88,-33.42,-50.4,169,71,5,0.2074252,-0.1690871,-0.06966415,3.494953,-0.1560969,0.04946422,0.01057062,0.08106527,-0.9807965,0.1770721
634795913877880000,0.1094819,0.1290323,-1.055718,2.88,-33.42,-50.4,169,71,5,0.5192432,0.04377202,-0.04298683,3.491673,-0.1498899,0.04826153,0.01065755,0.07789936,-0.9813552,0.1753872
634795913878080000,0.113392,0.1173021,-0.9970675,2.88,-33.42,-50.4,169,71,5,0.347903,-0.07861461,0.09534256,3.488722,-0.1413948,0.04836666,0.01156284,0.07372234,-0.9819323,0.1738952
634795913878280000,0.113392,0.07820137,-0.969697,2.88,-33.42,-50.4,170,72,5,-0.02458528,-0.396818,0.08360245,3.489117,-0.1344564,0.03981411,0.007949761,0.0695866,-0.982291,0.1737814
634795913878480000,0.09775171,0.05083089,-1.020528,2.88,-33.42,-50.4,170,72,5,-0.02458528,-0.396818,0.08360245,3.489117,-0.1344564,0.03981411,0.007949761,0.0695866,-0.982291,0.1737814
634795913878680000,0.08602151,0.05865103,-1.051808,2.88,-33.42,-50.4,169,71,5,-0.1384379,0.02568437,-0.1239118,3.487728,-0.1363735,0.03915107,0.007506325,0.07046623,-0.9823545,0.1730855
634795913878880000,0.09775171,0.09384164,-1.020528,3,-33,-50.1,171,73,5,0.01269698,0.009710066,-0.1142892,3.483939,-0.1360254,0.04012501,0.008148387,0.07036285,-0.9826775,0.1712537
634795913879080000,0.113392,0.1055719,-1.004888,3,-33,-50.1,171,73,5,0.112694,-0.1371298,-0.0387089,3.481119,-0.1330733,0.03949082,0.00818645,0.06884742,-0.9830309,0.1698359
634795913879280000,0.1173021,0.1016618,-1.020528,3,-33,-50.1,171,73,5,0.09987591,-0.1914053,0.0368511,3.479552,-0.1274483,0.03540838,0.006707668,0.06573545,-0.9834122,0.1689204
634795913879480000,0.1094819,0.08602151,-1.032258,3,-33,-50.1,171,73,5,0.08813238,-0.1137021,0.08577913,3.479381,-0.125489,0.03557324,0.006959848,0.06478509,-0.9834883,0.1688343
634795913879680000,0.09775171,0.06256109,-1.020528,3,-33,-50.1,171,73,5,0.05511291,-0.007267692,-0.01107539,3.478229,-0.1244895,0.03635609,0.007466364,0.06435458,-0.9836071,0.1682872
634795913879880000,0.1016618,0.06256109,-1.000978,2.4,-33.48,-50.34,169,71,5,-0.003434683,-0.003031422,-0.06956831,3.475855,-0.1233187,0.03803885,0.008468767,0.06390844,-0.9838201,0.1671634
634795913880080000,0.1094819,0.0742913,-1.000978,2.4,-33.48,-50.34,170,72,5,0.03699776,-0.007279039,-0.0578378,3.473244,-0.1224008,0.03876877,0.008987497,0.06350537,-0.9840553,0.1658962
634795913880280000,0.1055719,0.07820137,-1.004888,2.4,-33.48,-50.34,170,72,5,0.06783351,0.06506993,-0.04717853,3.470935,-0.1206076,0.03940058,0.009519667,0.06266388,-0.9842939,0.1647691
634795913880480000,0.1016618,0.0742913,-0.9970675,2.4,-33.48,-50.34,169,71,5,0.03056264,0.007587412,-0.02587925,3.46882,-0.1184871,0.04124904,0.01066976,0.06175907,-0.9845062,0.1637691
634795913880680000,0.1016618,0.06647116,-0.9853373,2.4,-33.48,-50.34,169,71,5,0.06885204,-0.0456114,-0.04821492,3.465957,-0.1157923,0.0427146,0.01169889,0.06053406,-0.9847999,0.1623842
634795913880880000,0.1094819,0.06647116,-0.9970675,2.64,-33.06,-49.44,170,72,5,0.07520293,-0.01580136,-0.09288383,3.463709,-0.1135147,0.04273295,0.0119596,0.05940058,-0.9850501,0.161264
634795913881080000,0.1094819,0.07820137,-1.004888,2.64,-33.06,-49.44,170,72,5,0.01346251,0.001228104,-0.05135523,3.460974,-0.1115236,0.04328513,0.01247212,0.05844679,-0.9853194,0.1599191
634795913881280000,0.1016618,0.08993158,-0.9970675,2.64,-33.06,-49.44,170,72,5,-0.01952161,-0.04452281,-0.02792975,3.459107,-0.1107557,0.04387617,0.0128791,0.05810301,-0.9854821,0.1590096
634795913881480000,0.1016618,0.08993158,-1.004888,2.64,-33.06,-49.44,169,71,5,0.04325919,-0.04982413,-0.004510498,3.457629,-0.1100071,0.04386568,0.01297611,0.05772375,-0.9856212,0.1582761
634795913881700000,0.1212121,0.09384164,-1.020528,2.64,-33.06,-49.44,170,72,5,0.08153676,0.00232831,0.01251491,3.455938,-0.1069684,0.04494476,0.0137962,0.05629868,-0.9858245,0.1574495
634795913881880000,0.1212121,0.08602151,-1.020528,2.88,-34.38,-48.84,170,72,5,0.02936981,0.0650993,0.04655653,3.455434,-0.1059604,0.04714715,0.01497566,0.05596871,-0.9858583,0.1572477
634795913882080000,0.1173021,0.0742913,-1.004888,2.88,-34.38,-48.84,170,72,5,0.02404142,0.04060125,0.03589856,3.454891,-0.1052275,0.04900717,0.01596569,0.05574711,-0.9858923,0.1570191
634795913882280000,0.113392,0.0742913,-0.9892473,2.88,-34.38,-48.84,169,71,5,0.01977429,0.02568944,0.0188613,3.454087,-0.1044669,0.05041623,0.01674261,0.05547428,-0.9859532,0.1566502
634795913882480000,0.113392,0.0742913,-0.9892473,2.88,-34.38,-48.84,169,71,5,0.0250793,-0.02855866,-0.02264162,3.453496,-0.1039987,0.05051315,0.01684334,0.05524593,-0.9860104,0.1563576
634795913882680000,0.1173021,0.0742913,-0.9970675,2.88,-34.38,-48.84,169,71,5,-0.06749235,0.0001761681,-0.01944062,3.452226,-0.1030238,0.05069292,0.017043,0.05476824,-0.9861334,0.1557271
634795913882880000,0.1251222,0.0742913,-1.000978,2.88,-34.38,-48.84,169,71,5,-0.1100151,-0.01684617,-0.0002819414,3.449461,-0.1046326,0.05227148,0.01777326,0.05565787,-0.9862767,0.1544152
634795913883080000,0.1173021,0.08211143,-0.9970675,2.76,-34.5,-48.66,169,71,5,-0.0280416,-0.007262344,0.04546987,3.44897,-0.1052246,0.05302322,0.01811225,0.05600239,-0.9862855,0.1541965
634795913883280000,0.1094819,0.07820137,-0.9892473,2.76,-34.5,-48.66,169,71,5,0.02410084,-0.01364572,0.05077228,3.448947,-0.104738,0.05373251,0.01850036,0.05581588,-0.9862886,0.1541975
634795913883480000,0.1055719,0.06647116,-0.9853373,2.76,-34.5,-48.66,169,71,5,-0.02698017,-0.07854196,0.04011511,3.448807,-0.1039588,0.05415654,0.01877351,0.0554624,-0.9863143,0.1541312
634795913883680000,0.1094819,0.06256109,-1.000978,2.76,-34.5,-48.66,169,71,5,-0.01737986,-0.1019034,0.004986244,3.44854,-0.1041911,0.05342829,0.0184037,0.05551936,-0.9863413,0.1539845
634795913883880000,0.113392,0.06647116,-1.012708,2.76,-34.5,-48.66,170,72,5,0.05816532,-0.1007987,-0.002463466,3.446843,-0.1021016,0.05156649,0.01769203,0.05433306,-0.9865595,0.1530849
634795913884080000,0.1212121,0.0742913,-1.028348,2.76,-34.5,-48.66,170,72,5,0.04324174,-0.03798908,0.007115563,3.44621,-0.1009953,0.05158615,0.01780343,0.05378314,-0.9866377,0.1527635
634795913884280000,0.1094819,0.07820137,-1.020528,2.82,-34.14,-48.48,170,72,5,-0.02593067,0.03543743,0.06882372,3.446018,-0.1003811,0.05276144,0.01843549,0.05356672,-0.9866499,0.1526901
634795913884480000,0.1055719,0.06647116,-0.9970675,2.82,-34.14,-48.48,169,71,5,0.01238693,-0.01245746,0.0464537,3.44606,-0.0999639,0.05403339,0.01909398,0.05345667,-0.9866355,0.152736
634795913884680000,0.1055719,0.05865103,-0.9853373,2.82,-34.14,-48.48,169,71,5,0.02727471,-0.04968954,-0.002505689,3.445338,-0.09892844,0.05413091,0.01924031,0.05294628,-0.9867164,0.152372
634795913884880000,0.1055719,0.06647116,-0.9892473,2.82,-34.14,-48.48,170,72,5,-0.01848592,-0.04647874,-0.01952699,3.444049,-0.09840751,0.05402016,0.01925934,0.05266849,-0.9868303,0.151728
634795913885100000,0.1055719,0.0742913,-0.9970675,2.82,-34.14,-48.48,170,72,5,0.05494329,-0.08792478,0.01772053,3.442456,-0.09750986,0.05303835,0.01888424,0.0521374,-0.9869908,0.1509119
634795913885280000,0.1094819,0.0742913,-1.008798,3,-34.5,-48.54,170,72,5,0.05494329,-0.08792478,0.01772053,3.441603,-0.09564018,0.05231512,0.01869007,0.05115302,-0.9871147,0.1504578
634795913885480000,0.1094819,0.07038123,-1.016618,3,-34.5,-48.54,170,72,5,0.04320307,-0.04745059,-0.006754086,3.44051,-0.09440494,0.05218517,0.01874648,0.05052355,-0.9872311,0.1499038
634795913885680000,0.1094819,0.07038123,-1.008798,3,-34.5,-48.54,170,72,5,-0.003625166,-0.03785682,0.01133599,3.439691,-0.0939703,0.05230534,0.01885898,0.05031015,-0.9873009,0.149498
634795913885880000,0.1094819,0.06647116,-1.000978,3,-34.5,-48.54,170,72,5,0.0474322,-0.04634804,0.0038824,3.439107,-0.09340549,0.05255663,0.01903995,0.05004427,-0.9873555,0.1492094
634795913886080000,0.1055719,0.06256109,-0.9931574,3,-34.5,-48.54,170,72,5,0.04102862,-0.0846317,-0.00995252,3.438168,-0.09213566,0.05276573,0.01926108,0.04942366,-0.9874527,0.148738
634795913886290000,0.1016618,0.05865103,-0.9970675,3.24,-34.14,-48.6,171,73,5,-0.00580269,-0.08246994,-0.05569976,3.435596,-0.09016037,0.05137539,0.01878342,0.04832247,-0.9877142,0.147421
634795913886480000,0.1094819,0.06256109,-1.004888,3.24,-34.14,-48.6,171,73,5,-0.09516487,-0.04413864,-0.08121255,3.433193,-0.091115,0.05110323,0.01863717,0.04875185,-0.987871,0.1462374
634795913886680000,0.1173021,0.0742913,-1.016618,3.24,-34.14,-48.6,171,73,5,-0.0610734,-0.01645938,-0.05458422,3.431715,-0.09197402,0.05117941,0.01864837,0.04916787,-0.9879577,0.1455164
634795913886880000,0.1173021,0.07820137,-1.024438,3.24,-34.14,-48.6,170,72,5,0.01981141,-0.03347663,-0.01732582,3.429989,-0.09206295,0.05149448,0.01884007,0.04921813,-0.9880754,0.1446716
634795913887080000,0.113392,0.07820137,-1.020528,3.24,-34.14,-48.6,170,72,5,0.2017611,-0.09835728,0.02417409,3.42907,-0.089823,0.05140245,0.01897873,0.04809615,-0.988198,0.1441943
634795913887280000,0.1055719,0.06647116,-1.008798,3.24,-34.14,-48.6,170,72,5,0.206018,-0.1419905,0.04757098,3.428705,-0.08568024,0.05044401,0.01881198,0.04597764,-0.9883366,0.143956
634795913887480000,0.1016618,0.06256109,-1.008798,3.24,-34.14,-48.6,170,72,5,0.0974317,-0.08238342,0.03904076,3.428727,-0.08017658,0.04813814,0.01806757,0.04309432,-0.9884918,0.1438729
634795913887680000,0.1016618,0.05474096,-1.016618,3.24,-34.14,-48.6,171,73,5,0.04419461,0.004889439,0.002851966,3.42797,-0.07878566,0.04865694,0.01844022,0.04243668,-0.988569,0.1434952
634795913887880000,0.09775171,0.05474096,-1.008798,3.24,-34.14,-48.6,171,73,5,-0.007955149,0.0006335161,-0.04396206,3.426327,-0.07839632,0.04932081,0.0188311,0.04227581,-0.9886847,0.142691
634795913888080000,0.1055719,0.06647116,-1.016618,3.24,-34.14,-48.6,171,73,5,0.01226754,-0.09193619,-0.03117697,3.424531,-0.07816219,0.04917371,0.01881294,0.04213291,-0.9888202,0.1417983
634795913888280000,0.1173021,0.07038123,-1.028348,3.24,-34.14,-48.6,171,73,5,0.1846484,-0.04720856,0.0241626,3.423622,-0.07561612,0.048455,0.01865654,0.04081529,-0.9889476,0.1413127
634795913888500000,0.1212121,0.05474096,-1.008798,3.24,-34.14,-48.6,171,73,5,0.2931993,0.05707024,0.1209709,3.425311,-0.06690001,0.05175376,0.02087295,0.03675283,-0.9889485,0.1421137
634795913888680000,0.113392,0.02346041,-0.9775171,4.02,-34.5,-48.24,171,73,5,0.056904,0.01233123,0.0559821,3.425957,-0.06454396,0.05371678,0.02199968,0.03573275,-0.988914,0.1424368
634795913888880000,0.1094819,0.02346041,-0.9775171,4.02,-34.5,-48.24,171,73,5,-0.03567559,-0.04831243,-0.00468071,3.425433,-0.06398892,0.05429673,0.02233539,0.03549333,-0.9889529,0.1421794
634795913889080000,0.1016618,0.05474096,-0.9970675,4.02,-34.5,-48.24,171,73,5,-0.03458855,-0.07489725,0.002772387,3.42427,-0.0644784,0.05432403,0.0223349,0.0357243,-0.9890266,0.1416098
634795913889280000,0.1016618,0.08211143,-1.004888,4.02,-34.5,-48.24,171,73,5,0.176111,-0.01953702,0.07193094,3.423828,-0.06410527,0.05394244,0.02218041,0.03550811,-0.9890701,0.1413818
634795913889480000,0.1094819,0.0742913,-0.9970675,4.02,-34.5,-48.24,172,74,5,0.2867905,0.08792371,0.1836413,3.42619,-0.05533695,0.05704093,0.02429579,0.03141681,-0.9889999,0.1424877
634795913889690000,0.113392,0.03910068,-0.9736071,3.9,-34.56,-47.88,171,73,5,0.138844,0.1059761,0.2070542,3.428708,-0.05296779,0.06002176,0.02590058,0.03048801,-0.9888082,0.1437367
634795913889880000,0.1094819,0.01955034,-0.9579667,3.9,-34.56,-47.88,171,73,5,0.03026458,0.05592692,0.1357163,3.429933,-0.05233764,0.06154704,0.02668154,0.03030117,-0.988703,0.1443504
634795913890080000,0.1055719,0.03910068,-0.969697,3.9,-34.56,-47.88,171,73,5,0.002598189,-0.1217687,0.07502632,3.430237,-0.05220627,0.0609132,0.02637298,0.030195,-0.9886934,0.1444924
634795913890280000,0.113392,0.05865103,-0.9931574,3.9,-34.56,-47.88,171,73,5,0.1739207,-0.1739158,0.1196913,3.431056,-0.04988646,0.05838215,0.02527722,0.02887755,-0.9887107,0.1448407
634795913890480000,0.1251222,0.05474096,-1.008798,3.9,-34.56,-47.88,171,73,5,0.1952052,-0.09727924,0.2026836,3.433194,-0.04607749,0.05693686,0.0248096,0.02691739,-0.9886314,0.1458359
634795913890680000,0.1251222,0.03519062,-1.000978,3.9,-34.56,-47.88,171,73,5,0.007837013,0.15063,0.2314177,3.436467,-0.04379177,0.05836606,0.02564044,0.02593277,-0.9883987,0.1474375
634795913890880000,0.1173021,0.02737048,-0.9853373,3.9,-34.56,-47.88,171,73,5,-0.06664326,0.1601478,0.2005552,3.441443,-0.04342794,0.06438828,0.02857863,0.02626429,-0.9879329,0.1499425
634795913891080000,0.1094819,0.02346041,-0.9736071,3.18,-34.92,-47.4,169,71,5,-0.2102693,0.1473175,0.1568843,3.443671,-0.04538798,0.06824171,0.0303048,0.02755235,-0.9876692,0.1511047
634795913891280000,0.1094819,0.02346041,-0.9657869,3.18,-34.92,-47.4,169,71,5,-0.2198474,-0.02723783,0.1344867,3.44525,-0.04898906,0.07111454,0.03142827,0.02957017,-0.9874433,0.1519658
634795913891480000,0.1251222,0.02737048,-0.9892473,3.18,-34.92,-47.4,169,71,5,-0.06547254,0.0557918,0.09718483,3.446726,-0.0516448,0.07066058,0.0309795,0.03087018,-0.987299,0.1527315
634795913891680000,0.1251222,0.03128055,-1.004888,3.18,-34.92,-47.4,170,72,5,-0.1452415,0.2142974,0.09715011,3.447531,-0.05239796,0.07203054,0.03158582,0.03135801,-0.9871991,0.1531544
634795913891880000,0.1094819,0.03910068,-0.9931574,3.36,-35.28,-47.16,170,72,5,-0.1228331,0.198309,0.09605317,3.44849,-0.05560231,0.07964956,0.03508583,0.03353235,-0.9869156,0.1537606
634795913892080000,0.1016618,0.04301075,-0.9814272,3.36,-35.28,-47.16,170,72,5,0.01869668,-0.1890852,0.1300219,3.450982,-0.05393529,0.0784868,0.03459929,0.03266461,-0.9867758,0.1549489
634795913892280000,0.1212121,0.03519062,-0.9931574,3.36,-35.28,-47.16,171,73,5,0.01869668,-0.1890852,0.1300219,3.450982,-0.05393529,0.0784868,0.03459929,0.03266461,-0.9867758,0.1549489
634795913892480000,0.1368524,0.03519062,-1.020528,3.36,-35.28,-47.16,171,73,5,-0.1706807,-0.168865,0.09699255,3.452,-0.05592036,0.07573223,0.03306896,0.03345042,-0.9867225,0.1554559
634795913892680000,0.1290323,0.05083089,-1.036168,3.36,-35.28,-47.16,170,72,5,-0.04505252,0.001425216,0.06823158,3.452384,-0.0574882,0.07465982,0.03241127,0.03414794,-0.9866881,0.1556592
634795913892880000,0.1212121,0.05083089,-1.020528,3.36,-35.28,-47.16,169,71,5,0.02305236,0.1663333,0.09161629,3.452715,-0.05715847,0.07675958,0.03346754,0.03415204,-0.9866251,0.1558402
634795913893090000,0.1212121,0.04692082,-0.9853373,3.3,-35.34,-47.22,170,72,5,-0.1503879,0.170521,0.1479757,3.455581,-0.0591433,0.08383631,0.03675362,0.03572718,-0.9862089,0.1573683
634795913893280000,0.1251222,0.04692082,-0.9892473,3.3,-35.34,-47.22,170,72,5,-0.08223241,-0.008285115,0.1926732,3.457301,-0.05975628,0.08397508,0.03674282,0.0360718,-0.9860587,0.1582291
634795913893480000,0.1329423,0.03519062,-1.012708,3.3,-35.34,-47.22,170,72,5,-0.214131,-0.1615011,0.09578424,3.459702,-0.06167889,0.08265053,0.03589308,0.03695966,-0.985864,0.1594323
634795913893680000,0.1290323,0.03519062,-1.040078,3.3,-35.34,-47.22,169,71,5,-0.1864356,-0.1263657,0.02659496,3.460563,-0.06502509,0.0805118,0.03455508,0.03845623,-0.9857802,0.1598892
634795913893880000,0.1329423,0.04301075,-1.059628,3.3,-35.34,-47.22,169,71,5,-0.0693244,-0.1401841,0.004241897,3.459496,-0.06791043,0.0769968,0.03261218,0.03958457,-0.985886,0.1593652
634795913894080000,0.1368524,0.05083089,-1.075269,3.3,-35.34,-47.22,169,71,5,0.1126288,-0.1060848,0.0223315,3.459052,-0.06571412,0.07500029,0.03181111,0.03833824,-0.9860072,0.159084
634795913894290000,0.1251222,0.05865103,-1.059628,3.36,-35.28,-47.88,170,72,5,0.2615997,-0.1826798,0.1010571,3.459564,-0.06285882,0.07321358,0.0311476,0.03679848,-0.9860582,0.1592678
634795913894480000,0.113392,0.05474096,-1.040078,3.36,-35.28,-47.88,170,72,5,0.376536,-0.2018358,0.02441473,3.459656,-0.05644321,0.06958508,0.02986695,0.0333514,-0.9862353,0.1591724
634795913894680000,0.1055719,0.03519062,-1.024438,3.36,-35.28,-47.88,170,72,5,-0.1970887,-0.06984125,0.0829132,3.459857,-0.05458092,0.06799841,0.02922925,0.03231127,-0.9862806,0.1592266
