Timestamp,Acc.X,Acc.Y,Acc.Z,Comp.X,Comp.Y,Comp.Z,Comp.TrueHeading,Comp.MagneticHeading,Comp.HeadingAccuracy,Gyro.X,Gyro.Y,Gyro.Z,Motion.Yaw,Motion.Pitch,Motion.Roll,Motion.X,Motion.Y,Motion.Z,Motion.W
634796821372720000,0.08602151,0.05865103,-0.9892473,0,0,0,0,0,0,0,0,0,0,0,0,0,0,0,0
634796821372920000,0.06256109,0.04692082,-0.9892473,0,0,0,0,0,0,0,0,0,0,0,0,0,0,0,0
634796821373120000,0.09384164,0.02737048,-1.000978,0,0,0,0,0,0,0,0,0,0,0,0,0,0,0,0
634796821373320000,0.1290323,0.02737048,-1.004888,0,0,0,0,0,0,0,0,0,0,0,0,0,0,0,0
634796821373530000,0.1368524,0.06256109,-0.9970675,0,0,0,0,0,0,0,0,0,0,0,0,0,0,0,0
634796821373720000,0.09775171,0.07820137,-0.9970675,0,0,0,0,0,0,0,0,0,0,0,0,0,0,0,0
634796821373920000,0.03910068,0.08993158,-1.004888,-7.5,13.86,-31.98,32,294,5,0,0,0,0,0,0,0,0,0,0
634796821374120000,0.04301075,0.08993158,-1.024438,-7.5,13.86,-31.98,32,294,5,0,0,0,0,0,0,0,0,0,0
634796821374320000,0.07820137,0.0742913,-1.032258,-6.6,14.88,-31.74,31,293,5,0,0,0,0,0,0,0,0,0,0
634796821374540000,0.08211143,0.07038123,-1.016618,-7.74,12.96,-30.6,35,297,5,0,0,0,0,0,0,0,0,0,0
634796821374720000,0.06647116,0.08602151,-1.012708,-7.74,12.96,-30.6,35,297,5,0,0,0,0,0,0,0,0,0,0
634796821374920000,0.05083089,0.09775171,-1.016618,-7.74,12.96,-30.6,36,298,5,-0.04196731,0.1158271,0.1164977,0,0,0,0,0,0,0
634796821375120000,0.05865103,0.113392,-1.024438,-7.74,12.96,-30.6,36,298,5,0.07508171,0.3041772,0.1824566,0,0,0,0,0,0,0
634796821375320000,0.08211143,0.113392,-1.012708,-7.74,12.96,-30.6,36,298,5,0.1016689,0.3584528,0.2228972,0,0,0,0,0,0,0
634796821375520000,0.09775171,0.08993158,-0.9892473,-7.32,14.76,-30.18,33,295,5,0.1271392,0.3020488,0.1728623,0,0,0,0,0,0,0
634796821375730000,0.1055719,0.07820137,-0.9736071,-7.32,14.76,-30.18,33,295,5,0.1164359,0.1136595,0.1419599,0,0,0,0,0,0,0
634796821375920000,0.09775171,0.08211143,-0.9775171,-7.32,14.76,-30.18,34,296,5,0.1100214,0.007248533,0.0834209,5.645659,-0.08635926,0.08818769,-0.02715048,0.05533476,-0.3109887,0.9484129
634796821376120000,0.09384164,0.08602151,-0.9931574,-7.32,14.76,-30.18,34,296,5,0.08340501,0.04666371,0.01959378,5.649982,-0.08251762,0.09234881,-0.02479671,0.0566547,-0.3089332,0.9490709
634796821376320000,0.1055719,0.09775171,-1.008798,-7.32,14.76,-30.18,34,296,5,0.05786638,0.1648083,0.03982778,5.652599,-0.08128022,0.09539246,-0.0238097,0.05787497,-0.3076451,0.949441
634796821376520000,0.1055719,0.09384164,-1.000978,-7.32,14.76,-30.18,34,296,5,0.09083618,0.1477851,0.05578084,5.652599,-0.08128022,0.09539246,-0.0238097,0.05787497,-0.3076451,0.949441
634796821376720000,0.09775171,0.08602151,-0.9775171,-5.64,15,-28.74,28,290,5,0.1514273,0.1275587,0.04725523,5.675985,-0.08151674,0.1032621,-0.02341598,0.06137239,-0.2963045,0.952832
634796821376920000,0.08993158,0.07820137,-0.9618768,-5.64,15,-28.74,28,290,5,0.1811944,0.09025588,0.04300705,5.684158,-0.08076786,0.1035722,-0.02326337,0.06131448,-0.2924226,0.9540379
634796821377120000,0.08993158,0.06256109,-0.9579667,-5.64,15,-28.74,28,290,5,0.1620068,0.01679358,-0.04103737,5.69651,-0.07945442,0.1021867,-0.02321505,0.06032005,-0.2866021,0.9558671
634796821377320000,0.09775171,0.05865103,-0.9775171,-5.64,15,-28.74,28,290,5,0.06616946,-0.06729809,-0.1133519,5.706553,-0.07867479,0.09950565,-0.02352748,0.0588111,-0.2818914,0.9573531
634796821377520000,0.1016618,0.0742913,-1.004888,-5.64,15,-28.74,28,290,5,-0.04767603,-0.06407955,-0.1196696,5.715747,-0.07805967,0.09788215,-0.02373101,0.05783964,-0.2775472,0.9586757
634796821377720000,0.1055719,0.08602151,-1.012708,-5.82,14.4,-29.64,29,291,5,-0.01142458,0.06258687,-0.03875439,5.721555,-0.0774877,0.09779966,-0.0236359,0.05765236,-0.274781,0.9594858
634796821377940000,0.1094819,0.09384164,-0.9970675,-5.82,14.4,-29.64,29,291,5,0.1119828,0.02955193,-0.03131545,5.728106,-0.07639885,0.09872531,-0.02317442,0.05787074,-0.2716445,0.9603766
634796821378120000,0.113392,0.08602151,-0.9892473,-5.82,14.4,-29.64,29,291,5,0.1757871,-0.06617577,-0.07277489,5.733799,-0.0736823,0.09951686,-0.02192572,0.05781929,-0.268969,0.9611617
634796821378320000,0.1094819,0.08211143,-0.9970675,-5.82,14.4,-29.64,30,292,5,0.1055047,-0.06508589,-0.09723718,5.733119,-0.07322883,0.09894824,-0.02176571,0.05749267,-0.2693224,0.961086
634796821378520000,0.1055719,0.08602151,-1.004888,-5.82,14.4,-29.64,31,293,5,0.01502588,-0.01402671,-0.04189705,5.730495,-0.07392692,0.09977649,-0.02191211,0.05801312,-0.2705425,0.9607086
634796821378720000,0.1094819,0.08993158,-0.9931574,-5.82,14.4,-29.64,30,292,5,-0.04878729,-0.05554809,0.04326864,5.730206,-0.07576727,0.1004177,-0.02269971,0.05857297,-0.2706123,0.9606367
634796821378920000,0.113392,0.07820137,-0.9853373,-4.98,14.82,-30.36,27,289,5,0.009778189,-0.05549126,0.06883132,5.732344,-0.07767582,0.1002643,-0.02370027,0.05873225,-0.2695331,0.9609062
634796821379130000,0.113392,0.06256109,-0.9892473,-4.98,14.82,-30.36,27,289,5,0.05446596,-0.1054307,0.00816251,5.734537,-0.07836055,0.1001389,-0.02411082,0.05873796,-0.2684623,0.9611953
634796821379320000,0.1055719,0.06256109,-0.9853373,-4.98,14.82,-30.36,28,290,5,0.05018618,-0.1426504,-0.03760822,5.740461,-0.07676077,0.09873092,-0.02370475,0.05777728,-0.2656964,0.9620319
634796821379520000,0.09775171,0.0742913,-0.9931574,-4.98,14.82,-30.36,28,290,5,0.0257091,-0.1575495,-0.03441969,5.744167,-0.07505416,0.0978694,-0.02310574,0.05709383,-0.2639831,0.9625587
634796821379720000,0.1055719,0.07038123,-1.004888,-4.98,14.82,-30.36,26,288,5,0.02145263,-0.08515654,0.01560261,5.747326,-0.07373881,0.09779953,-0.02257191,0.056851,-0.2625017,0.9629908
634796821379920000,0.1094819,0.06256109,-1.008798,-4.98,14.82,-30.36,26,288,5,-0.02005566,-0.07764343,0.0305089,5.75317,-0.07310581,0.09725642,-0.0225043,0.05644115,-0.2597178,0.963771
634796821380120000,0.1055719,0.05083089,-1.004888,-4.02,13.86,-30.66,25,287,5,0.006604242,-0.0116155,-0.002502517,5.763086,-0.07165003,0.09798419,-0.02198733,0.05649414,-0.2549604,0.9650493
634796821380320000,0.1055719,0.04692082,-1.000978,-4.02,13.86,-30.66,24,286,5,0.006604242,-0.0116155,-0.002502517,5.766416,-0.06985735,0.09889888,-0.02109863,0.05667152,-0.2533826,0.9654742
634796821380520000,0.1016618,0.04692082,-0.9970675,-4.02,13.86,-30.66,23,285,5,0.007662189,-0.0104556,-0.02373583,5.771747,-0.06690597,0.1001939,-0.01965936,0.05686994,-0.2508622,0.9661509
634796821380720000,0.1094819,0.05083089,-0.9970675,-4.02,13.86,-30.66,23,285,5,-0.01788933,0.005546944,-0.01206713,5.776952,-0.06443167,0.1010479,-0.01850381,0.05692377,-0.2483984,0.9668069
634796821380920000,0.1094819,0.05474096,-0.9931574,-4.02,13.86,-30.66,23,285,5,-0.04343062,0.00130611,0.0177366,5.782251,-0.06263375,0.1019036,-0.01767829,0.05706714,-0.2458682,0.9674604
634796821381120000,0.1094819,0.05083089,-0.9892473,-4.32,14.28,-31.56,25,287,5,-0.02001182,0.02155416,0.006046085,5.785611,-0.06173706,0.1025534,-0.01725978,0.05724201,-0.2442548,0.9678662
634796821381340000,0.1094819,0.04301075,-0.9892473,-4.32,14.28,-31.56,25,287,5,-0.06575008,-0.01246688,-0.01740774,5.793034,-0.06015491,0.1044774,-0.01647138,0.05791841,-0.2406657,0.9687384
634796821381520000,0.1094819,0.04692082,-0.9931574,-4.32,14.28,-31.56,25,287,5,-0.1093339,-0.04754523,-0.006809649,5.796009,-0.06023526,0.1045086,-0.01659265,0.0579186,-0.2392216,0.969094
634796821381720000,0.1094819,0.05083089,-1.004888,-4.32,14.28,-31.56,25,287,5,-0.07416279,-0.03472877,0.03997305,5.798344,-0.05981063,0.104636,-0.01643904,0.05791027,-0.2380996,0.9693734
634796821381920000,0.1094819,0.03910068,-1.000978,-4.32,14.28,-31.56,25,287,5,-0.002842351,0.08981208,0.07080642,5.802421,-0.05815649,0.1065965,-0.01552051,0.05863132,-0.2361308,0.9698266
634796821382120000,0.1055719,0.02737048,-0.9931574,-4.32,14.28,-31.56,25,287,5,-0.01454425,0.04513612,0.06970686,5.805888,-0.05670738,0.108453,-0.01469872,0.05933444,-0.2344545,0.9702033
634796821382320000,0.1016618,0.02737048,-0.9970675,-4.32,14.28,-31.56,25,287,5,-0.07624058,-0.02294961,0.07072969,5.809463,-0.05572677,0.1087712,-0.01429134,0.05934827,-0.2327423,0.9706207
634796821382520000,0.1016618,0.01955034,-1.004888,-4.68,14.04,-31.32,25,287,5,-0.1357827,0.0355615,0.08135577,5.815773,-0.05427146,0.1102769,-0.01359664,0.05986651,-0.2296928,0.971325
634796821382720000,0.1016618,0.01564027,-1.008798,-4.68,14.04,-31.32,24,286,5,-0.1037684,0.09936275,0.06541517,5.81903,-0.05237985,0.1119034,-0.01258722,0.06041818,-0.2281363,0.9716713
634796821382920000,0.08993158,0.02737048,-0.9892473,-4.68,14.04,-31.32,23,285,5,0.08249446,0.05782434,0.1005561,5.822916,-0.0472095,0.1126758,-0.01010305,0.0601837,-0.2263893,0.9721233
634796821383120000,0.113392,0.01564027,-0.9266862,-4.68,14.04,-31.32,23,285,5,0.3325874,0.1642008,0.1675833,5.828152,-0.03914022,0.1163267,-0.005922995,0.06102813,-0.2240262,0.9726524
634796821383320000,0.1251222,0,-0.9227762,-4.68,14.04,-31.32,23,285,5,-0.2410222,-0.08163747,0.1452255,5.83169,-0.0398848,0.1159011,-0.006440925,0.06089334,-0.2222891,0.9730561
634796821383520000,0.09384164,0.01173021,-1.012708,-5.22,14.04,-30.3,25,287,5,-0.6550058,-0.5435112,0.0005096663,5.829265,-0.05506325,0.1045358,-0.01503416,0.05707085,-0.223223,0.9729791
634796821383720000,0.08602151,0.03128055,-1.040078,-5.22,14.04,-30.3,25,287,5,-0.2016459,0.02689508,-0.08778399,5.828156,-0.05456138,0.1058866,-0.01460539,0.0576796,-0.2237506,0.9728286
634796821383920000,0.1016618,0.03519062,-1.036168,-5.22,14.04,-30.3,29,291,5,0.07827289,0.08440145,-0.2037328,5.826833,-0.05201888,0.10542,-0.01338373,0.05717719,-0.2244762,0.9727086
634796821384130000,0.1016618,0.04301075,-1.024438,-5.22,14.04,-30.3,23,285,5,0.4677793,0.2695772,-0.2729074,5.8242,-0.04759765,0.1064276,-0.0110438,0.05718515,-0.225865,0.972416
634796821384320000,0.1094819,0.05474096,-0.9501466,-5.22,14.04,-30.3,24,286,5,0.6774317,0.2610634,-0.1824483,5.819553,-0.03575682,0.1112432,-0.004602166,0.05819816,-0.2283864,0.9718186
634796821384520000,0.1212121,0.03910068,-0.8797654,-5.22,14.04,-30.3,24,286,5,0.3847697,-0.02095205,-0.01959759,5.817025,-0.02672195,0.1123582,-1.07597E-05,0.05770747,-0.229861,0.9715111
634796821384740000,0.1094819,-0.01564027,-0.8914956,-5.7,14.52,-30.36,30,292,5,-0.2846283,-0.4924038,0.08891539,5.814862,-0.02653027,0.1093842,-0.0002008484,0.05624149,-0.2309552,0.9713375
634796821384920000,0.0742913,-0.04692082,-0.9501466,-5.7,14.52,-30.36,33,295,5,-0.6358227,-0.5839272,0.038857,5.812207,-0.04117656,0.09310197,-0.009141896,0.05003836,-0.2320851,0.9713646
634796821385120000,0.05865103,-0.02737048,-0.9814272,-5.7,14.52,-30.36,33,295,5,-0.6038959,-0.4179081,-0.07502137,5.81344,-0.04607224,0.08690596,-0.0122741,0.04759086,-0.2314643,0.9716011
634796821385320000,0.06647116,0.003910068,-0.9970675,-5.7,14.52,-30.36,33,295,5,-0.2824999,-0.2731734,-0.08459121,5.817724,-0.04138041,0.08239615,-0.01061683,0.04483495,-0.229561,0.9722031
634796821385520000,0.0742913,0.003910068,-1.004888,-5.7,14.52,-30.36,21,283,5,0.1122726,-0.07309834,0.01649443,5.822444,-0.0355494,0.07857573,-0.008323608,0.04228938,-0.2274463,0.9728363
634796821385720000,0.0742913,-0.01173021,-0.9931574,-5.58,14.7,-30.12,21,283,5,0.05473468,-0.05286434,-0.002668536,5.826577,-0.02991533,0.07676351,-0.005874603,0.04011792,-0.2245456,0.9736264
634796821385920000,0.08993158,-0.01955034,-0.9775171,-5.58,14.7,-30.12,21,283,5,-0.04319596,-0.09326435,-0.007979445,5.832209,-0.02417374,0.07489395,-0.003402436,0.03918827,-0.222968,0.9740318
634796821386120000,0.1016618,-0.01564027,-0.9814272,-5.58,14.7,-30.12,21,283,5,-0.1165948,-0.1507179,-0.0568989,5.834428,-0.02222752,0.07354963,-0.00264758,0.03831374,-0.2219377,0.9743042
634796821386320000,0.1055719,-0.003910068,-1.008798,-5.58,14.7,-30.12,21,283,5,-0.1453097,-0.2018007,-0.03771677,5.83554,-0.02005696,0.07277583,-0.001697334,0.03769504,-0.2214444,0.9744427
634796821386520000,0.1055719,0.003910068,-1.040078,-5.58,14.7,-30.12,21,283,5,-0.2389514,-0.08152818,0.03250485,5.837009,-0.0195663,0.07314563,-0.001444912,0.03781983,-0.2207347,0.9745993
634796821386720000,0.113392,0,-1.040078,-5.58,14.7,-30.12,24,286,5,-0.2283092,0.04190885,0.06439137,5.838009,-0.02029324,0.07444405,-0.001674648,0.03853183,-0.220222,0.974687
634796821386920000,0.1212121,-0.01173021,-1.004888,-5.58,14.7,-30.12,24,286,5,-0.1144298,0.07700114,0.01540712,5.839702,-0.02176356,0.07761884,-0.002074538,0.04023883,-0.2193384,0.9748165
634796821387120000,0.1251222,-0.02346041,-0.9814272,-5.58,14.7,-30.12,24,286,5,-0.03993677,0.0003775655,0.001532812,5.840402,-0.01854682,0.08459198,0.0002456381,0.04328407,-0.2189991,0.9747645
634796821387320000,0.1329423,-0.03128055,-0.9970675,-5.7,14.82,-30.12,23,285,5,-0.06867223,-0.1390189,0.03450719,5.841133,-0.01630187,0.08456527,0.001321147,0.04302571,-0.2186919,0.974844
634796821387520000,0.1290323,-0.03910068,-1.043988,-5.7,14.82,-30.12,25,287,5,-0.1133729,-0.2518268,0.005788649,5.84131,-0.01432538,0.08426809,0.002248151,0.04266491,-0.2186505,0.9748675
634796821387720000,0.1094819,-0.03910068,-1.098729,-5.7,14.82,-30.12,25,287,5,-0.1495557,-0.2145789,-0.0388838,5.840715,-0.01123405,0.08462667,0.003806886,0.04250055,-0.219003,0.9747907
634796821387920000,0.1016618,-0.04301075,-1.12219,-5.7,14.82,-30.12,25,287,5,-0.1644431,-0.14434,-0.01652411,5.840851,-0.01177597,0.08267712,0.003326018,0.04160997,-0.2189397,0.9748451
634796821388130000,0.1016618,-0.05474096,-1.102639,-5.58,14.82,-29.52,22,284,5,-0.1484436,-0.1145333,-0.02610671,5.842643,-0.01261377,0.08129787,0.00272958,0.04103196,-0.2180593,0.9750687
634796821388320000,0.09775171,-0.05865103,-1.051808,-5.58,14.82,-29.52,19,281,5,-0.09944611,0.03976816,-0.06223715,5.845466,-0.0127027,0.08321059,0.002835982,0.04197805,-0.2166667,0.9753386
634796821388520000,0.09775171,-0.06256109,-0.9892473,-5.58,14.82,-29.52,19,281,5,-0.08132395,0.08764658,-0.05899776,5.846938,-0.01215672,0.08575523,0.003346791,0.04316215,-0.215941,0.9754462
634796821388720000,0.1016618,-0.05865103,-0.9423265,-5.58,14.82,-29.52,21,283,5,-0.1015206,0.07592244,-0.07281097,5.848412,-0.0102098,0.08836615,0.004546199,0.04422852,-0.2152452,0.9755474
634796821388920000,0.1094819,-0.05474096,-0.9032258,-5.58,14.82,-29.52,21,283,5,-0.047238,0.0939154,0.07081185,5.850811,-0.005570173,0.0910145,0.007040787,0.04502928,-0.2141602,0.9757347
634796821389120000,0.1173021,-0.05865103,-0.8602151,-6.18,15.72,-28.74,23,285,5,0.04640659,0.1023893,0.1091258,5.854939,0.0007331371,0.09456623,0.01040133,0.04610826,-0.2122703,0.9760672
634796821389320000,0.1251222,-0.0742913,-0.8367546,-6.18,15.72,-28.74,25,287,5,0.04321497,0.04276522,0.1122699,5.857429,0.009637356,0.09945881,0.01512977,0.04759383,-0.2096775,0.9764944
634796821389520000,0.1290323,-0.09384164,-0.8445748,-6.18,15.72,-28.74,28,290,5,-0.04189771,-0.123255,0.04948765,5.862571,0.01189566,0.09948217,0.01618901,0.04738409,-0.2087875,0.9766783
634796821389720000,0.1212121,-0.1055719,-0.9032258,-6.18,15.72,-28.74,28,290,5,-0.06209501,-0.316944,-0.05159629,5.862864,0.01378918,0.09640193,0.01678646,0.04568436,-0.208695,0.976769
634796821389920000,0.09384164,-0.08211143,-0.9931574,-6.18,15.72,-28.74,27,289,5,-0.03549076,-0.3861186,-0.1047218,5.861864,0.01687741,0.09138977,0.0177949,0.04290486,-0.2092576,0.9767568
634796821390120000,0.05474096,-0.02346041,-1.106549,-6.78,16.32,-28.5,24,286,5,0.0326055,-0.3009806,-0.002527739,5.861652,0.01889491,0.08796918,0.01842788,0.04102093,-0.209404,0.9767946
634796821390320000,0.02346041,0.03519062,-1.216031,-6.78,16.32,-28.5,20,282,5,0.431679,-0.007261017,0.1730033,5.869733,0.03300905,0.08339023,0.0246929,0.03740539,-0.205724,0.9775831
634796821390520000,0.04301075,0.05083089,-1.247312,-6.78,16.32,-28.5,20,282,5,0.8265065,0.4535279,0.1985447,5.869733,0.03300905,0.08339023,0.0246929,0.03740539,-0.205724,0.9775831
634796821390720000,0.0742913,0.06647116,-1.200391,-6.78,16.32,-28.5,15,277,5,0.6721938,0.609969,0.251756,5.882409,0.05362844,0.09678304,0.03586889,0.04205715,-0.2000162,0.9782321
634796821390920000,0.07038123,0.09775171,-1.13783,-6.78,16.32,-28.5,16,278,5,0.2496965,0.4439499,0.3081599,5.889167,0.0575366,0.1039847,0.0383379,0.04531993,-0.1968578,0.9786334
634796821391120000,0.06256109,0.08993158,-1.192571,-6.78,16.32,-28.5,19,281,5,-0.1717123,0.04270605,0.1410459,5.892607,0.05254292,0.1054509,0.03595638,0.0465911,-0.1950718,0.9790217
634796821391320000,0.06256109,0.08602151,-1.407625,-6.78,16.32,-28.5,19,281,5,-0.128067,-0.3308308,-0.3016906,5.888945,0.04439544,0.1002011,0.03154419,0.04475616,-0.1966422,0.9789452
634796821391530000,0.05083089,0.1642229,-1.466276,-7.56,17.1,-29.04,23,285,5,0.1911921,-0.1637475,-0.4442967,5.882542,0.04027652,0.09427166,0.02908623,0.04216431,-0.1996531,0.9785268
634796821391720000,0.05083089,0.2111437,-1.356794,-7.56,17.1,-29.04,16,278,5,0.3401836,0.2150913,-0.317654,5.870171,0.0412991,0.09604049,0.03002643,0.04274304,-0.2057323,0.9772132
634796821391920000,0.05474096,0.1642229,-1.188661,-7.56,17.1,-29.04,16,278,5,0.2848439,0.4087802,-0.1207607,5.867106,0.03933262,0.1002215,0.02956052,0.04494368,-0.2072068,0.9768171
634796821392120000,0.04692082,0.08602151,-1.063539,-7.56,17.1,-29.04,16,278,5,-0.08023269,-0.1584935,-0.2441949,5.864203,0.0354321,0.1006715,0.02776778,0.04552733,-0.208538,0.9765593
634796821392320000,0.03910068,0.04301075,-1.008798,-7.56,17.1,-29.04,20,282,5,-0.1696045,-0.3575036,-0.3921221,5.858227,0.02830624,0.0961821,0.02395503,0.0440056,-0.2112839,0.9761397
634796821392520000,0.05083089,0.05083089,-1.016618,-7.56,17.1,-29.04,20,282,5,-0.3398805,-0.3649532,-0.5006731,5.851197,0.02090383,0.08837949,0.01966595,0.04090874,-0.2145489,0.975658
634796821392720000,0.06256109,0.07038123,-1.012708,-8.64,17.64,-29.46,24,286,5,-0.4441746,-0.1020809,-0.42937,5.836519,-0.002173185,0.07441831,0.007180366,0.03651717,-0.2212884,0.974498
634796821392920000,0.08602151,0.07038123,-0.9462366,-8.64,17.64,-29.46,24,286,5,-0.3249814,0.04264932,-0.3197548,5.829039,-0.01460791,0.07258987,0.001057275,0.03699771,-0.2247142,0.9737215
634796821393120000,0.1094819,0.05474096,-0.8445748,-8.64,17.64,-29.46,25,287,5,-0.1940817,0.03411701,-0.2250388,5.822867,-0.02362943,0.07253515,-0.003223915,0.03799447,-0.2275495,0.9730197
634796821393320000,0.113392,0.02737048,-0.7663734,-8.64,17.64,-29.46,31,293,5,-0.04187206,-0.09677248,-0.1366938,5.816744,-0.02812386,0.07174528,-0.005383997,0.03813823,-0.23045,0.9723216
634796821393520000,0.1016618,-0.003910068,-0.7155425,-9.42,17.7,-30.24,40,302,5,0.1241305,-0.1765894,-0.2292721,5.812671,-0.02771544,0.06979454,-0.005335459,0.03715395,-0.2324587,0.9718817
634796821393740000,0.09775171,-0.01564027,-0.6920821,-9.42,17.7,-30.24,40,302,5,0.1538977,-0.1574333,-0.3910343,5.804721,-0.02438664,0.06720006,-0.003879405,0.03552216,-0.2364079,0.9709966
634796821393920000,0.1094819,0.007820137,-0.6959922,-9.42,17.7,-30.24,40,302,5,0.04744314,-0.2830119,-0.4516951,5.785038,-0.01914835,0.05900108,-0.002003892,0.0309438,-0.2461142,0.9687447
634796821394120000,0.113392,0.03910068,-0.7350929,-9.42,17.7,-30.24,40,302,5,-0.05896682,-0.354315,-0.318667,5.780247,-0.01876044,0.05540454,-0.002189659,0.02915947,-0.2484692,0.9681983
634796821394320000,0.1016618,0.05474096,-0.7702835,-9.42,17.7,-30.24,42,304,5,0.03362939,-0.2808834,-0.1345448,5.775274,-0.01681471,0.05119264,-0.001705198,0.02688326,-0.2509352,0.967629
634796821394520000,0.08211143,0.04301075,-0.7820137,-9.42,17.7,-30.24,42,304,5,0.4124722,0.05433782,0.1698475,5.773319,-0.01225448,0.04975259,0.0003452817,0.02561404,-0.2519507,0.967401
634796821394720000,0.06647116,0.007820137,-0.7820137,-10.26,17.58,-30.96,43,305,5,0.5795556,0.06814466,0.2283799,5.77261,-0.004230976,0.05060804,0.004342843,0.0250153,-0.2523903,0.9672924
634796821394930000,0.0742913,-0.01955034,-0.8250244,-10.26,17.58,-30.96,40,302,5,0.6338311,-0.02126931,0.2634993,5.773588,0.002926111,0.05122459,0.007870222,0.02441402,-0.2520037,0.9673862
634796821395120000,0.0742913,-0.01564027,-0.8954057,-10.26,17.58,-30.96,37,299,5,0.6146751,-0.2607158,0.318839,5.781585,0.02612424,0.04836071,0.01864938,0.02017886,-0.2483917,0.9682699
634796821395320000,0.06256109,0.003910068,-1.047898,-10.26,17.58,-30.96,37,299,5,0.4656835,-0.3256336,0.3060683,5.787378,0.03688669,0.0418148,0.02300344,0.01573909,-0.2456503,0.9689577
634796821395520000,0.07820137,0.06647116,-1.227762,-10.26,17.58,-30.96,34,296,5,0.4060869,-0.1532291,0.2571139,5.790265,0.04071045,0.03904665,0.02449686,0.01396343,-0.2442612,0.9692994
634796821395720000,0.1564027,0.1329423,-1.259042,-10.26,17.58,-30.96,27,289,5,0.6008402,0.326708,0.1921962,5.79447,0.04611754,0.03948426,0.02714217,0.01357222,-0.2422633,0.9697359
634796821395920000,0.2346041,0.1837732,-1.235582,-10.56,17.7,-31.08,26,288,5,0.5997759,0.5980854,0.09428471,5.796061,0.05541992,0.04606843,0.03661123,0.01949708,-0.2433639,0.9690477
634796821396120000,0.2424242,0.1759531,-1.274682,-10.56,17.7,-31.08,26,288,5,0.1538515,0.3341575,0.1325864,5.792802,0.06160044,0.05563556,0.03661123,0.01949708,-0.2453616,0.9685345
634796821396320000,0.2228739,0.1407625,-1.427175,-10.56,17.7,-31.08,31,293,5,-0.2867257,-0.3309867,0.04105186,5.781019,0.05477047,0.05047476,0.0327821,0.01763336,-0.2489503,0.9678007
634796821396520000,0.1915933,0.1603128,-1.544477,-10.56,17.7,-31.08,31,293,5,-0.2952395,-0.5278683,0.02190538,5.774094,0.04857707,0.04065239,0.02861511,0.01354998,-0.2521575,0.9671681
634796821396720000,0.1485826,0.2111437,-1.509286,-10.56,17.7,-31.08,29,291,5,-0.01426266,0.08298921,0.5529252,5.777269,0.04433322,0.03474438,0.02580259,0.01126804,-0.2505427,0.9676961
634796821396920000,0.1368524,0.1798632,-1.372434,-10.86,17.64,-32.76,27,289,5,-0.01426266,0.08298921,0.5529252,5.777269,0.04433322,0.03474438,0.02580259,0.01126804,-0.2505427,0.9676961
634796821397140000,0.1368524,0.09775171,-1.223851,-10.86,17.64,-32.76,27,289,5,0.003822358,0.06798683,0.5901731,5.783943,0.04260564,0.03654242,0.02514992,0.01243862,-0.2473169,0.9685283
634796821397320000,0.1173021,0.03128055,-1.12219,-10.86,17.64,-32.76,30,292,5,-0.06320808,-0.1182245,0.4060621,5.789944,0.04112029,0.03739023,0.02449596,0.01310651,-0.2444068,0.9692747
634796821397520000,0.08211143,0.003910068,-1.055718,-10.86,17.64,-32.76,30,292,5,-0.1355366,-0.2640233,0.1644621,5.793858,0.03707337,0.03157723,0.02180506,0.008854922,-0.2426453,0.9698721
634796821397720000,0.04692082,0.01564027,-0.9853373,-10.86,17.64,-32.76,30,292,5,-0.1727277,-0.2086836,0.08035241,5.793342,0.03417945,0.02680099,0.01982614,0.008854922,-0.2426453,0.9698721
634796821397920000,0.02346041,0.03519062,-0.8914956,-10.86,17.64,-32.76,30,292,5,-0.2919209,-0.0809667,0.1814326,5.793786,0.02961349,0.02365911,0.01722963,0.00788888,-0.2423912,0.9699935
634796821398120000,0.02737048,0.03128055,-0.7741935,-10.14,17.4,-33.42,29,291,5,-0.3642882,-0.001145446,0.3325526,5.797338,0.02033806,0.02353311,0.01269977,0.00897436,-0.2406283,0.9704928
634796821398330000,0.02737048,-0.01173021,-0.6725318,-10.14,17.4,-33.42,31,293,5,-0.3100128,-0.007543354,0.3410664,5.801394,0.01532841,0.02308881,0.01019636,0.009382165,-0.2386359,0.9710103
634796821398520000,0.01564027,-0.06256109,-0.6412512,-10.14,17.4,-33.42,37,299,5,-0.2206178,-0.1341767,0.1250211,5.808718,0.005092144,0.01971364,0.00479107,0.008982243,-0.2350268,0.9719356
634796821398720000,0.007820137,-0.07820137,-0.6803519,-10.14,17.4,-33.42,37,299,5,-0.2280674,-0.1927091,-0.1218484,5.808259,0.00220561,0.01688361,0.003057618,0.00794542,-0.2352382,0.9719005
634796821398920000,0.01564027,-0.04301075,-0.7038123,-10.14,17.4,-33.42,33,295,5,-0.2770218,-0.140562,-0.1739565,5.807701,0.000305891,0.01580441,0.002009644,0.007643857,-0.2355025,0.9718416
634796821399120000,0.04301075,0.007820137,-0.684262,-9.36,17.52,-34.32,27,289,5,-0.1397201,0.01481209,-0.1228437,5.807806,-0.0008590221,0.01622403,0.001492642,0.007984941,-0.2354471,0.9718533
634796821399320000,0.06256109,0.02737048,-0.6568915,-9.36,17.52,-34.32,30,292,5,0.1327047,0.2393168,-0.07070594,5.808784,0.001722336,0.02039599,0.003233269,0.009709956,-0.2349788,0.9719467
634796821399520000,0.0742913,0.02346041,-0.6686217,-9.36,17.52,-34.32,30,292,5,0.2582833,0.259537,-0.05687761,5.80727,0.006342411,0.02802622,0.008003108,0.01247213,-0.2368338,0.9714372
634796821399720000,0.08211143,0.03910068,-0.7585533,-9.36,17.52,-34.32,43,305,5,0.6265052,-0.01083638,-0.04726234,5.801596,0.01790857,0.02862966,0.01210845,0.01176566,-0.2385647,0.9709798
634796821399920000,0.0742913,0.07820137,-0.8680352,-9.36,17.52,-34.32,43,305,5,0.7478269,0.08279606,0.09639518,5.799145,0.03055,0.02897119,0.01829881,0.01040099,-0.2398259,0.9705877
634796821400120000,0.07820137,0.08602151,-0.9775171,-9.36,17.52,-34.32,41,303,5,0.4062106,0.3466889,0.3198637,5.799837,0.04264402,0.03081679,0.024385,0.009854645,-0.2395648,0.9705241
634796821400320000,0.1016618,0.05083089,-1.075269,-9.36,17.52,-34.32,41,303,5,0.06883077,0.4137351,0.2198266,5.802232,0.04608512,0.03472102,0.02650757,0.011369,-0.2384547,0.9707252
634796821400530000,0.1094819,0.03910068,-1.180841,-8.28,16.92,-35.64,37,299,5,0.03689741,0.319019,0.04737942,5.804009,0.03978753,0.04282308,0.02439939,0.01607481,-0.2376145,0.97092
634796821400720000,0.08602151,0.09384164,-1.259042,-8.28,16.92,-35.64,29,291,5,0.3774369,0.2157139,0.1218308,5.803776,0.04007459,0.04763532,0.02511057,0.01837436,-0.2377642,0.9708244
634796821400920000,0.0742913,0.1407625,-1.282502,-8.28,16.92,-35.64,25,287,5,0.6743557,0.3583201,0.3559603,5.808792,0.05415916,0.05527317,0.03279895,0.02048955,-0.2355304,0.9710972
634796821401120000,0.07038123,0.1329423,-1.302053,-8.28,16.92,-35.64,24,286,5,0.3955288,0.1390679,0.4091716,5.81496,0.06193995,0.05763733,0.03678907,0.0208349,-0.2326408,0.9716433
634796821401320000,0.07038123,0.09775171,-1.352884,-8.28,16.92,-35.64,24,286,5,0.04964236,0.1560299,0.146287,5.817919,0.06198215,0.05816925,0.03683972,0.02114307,-0.2312093,0.9719764
634796821401520000,0.09775171,0.08993158,-1.391984,-5.76,16.26,-36.24,20,282,5,-0.3366514,0.2666785,-0.2974896,5.814385,0.0530982,0.06159818,0.03295753,0.02377895,-0.2328627,0.9716601
634796821401730000,0.113392,0.1251222,-1.372434,-5.76,16.26,-36.24,16,278,5,-0.576102,0.2091831,-0.4305177,5.810869,0.04491425,0.0638982,0.02929282,0.02579803,-0.2344883,0.971335
634796821401920000,0.1055719,0.1524927,-1.302053,-5.76,16.26,-36.24,16,278,5,-0.500542,-0.003705011,-0.3475082,5.799662,0.02178454,0.06387055,0.01821389,0.02839305,-0.2396148,0.9702818
634796821402120000,0.08602151,0.1446725,-1.223851,-5.76,16.26,-36.24,19,281,5,-0.2557703,-0.2325051,-0.3464439,5.791249,0.01618314,0.0570594,0.01479038,0.02569694,-0.2436123,0.9694194
634796821402320000,0.05083089,0.1329423,-1.16129,-5.76,16.26,-36.24,22,284,5,-0.1237498,-0.3261569,-0.5582247,5.785116,0.0142653,0.05220878,0.01334323,0.02353822,-0.2465587,0.9687501
634796821402520000,0.02346041,0.1290323,-1.071359,-4.92,15.18,-37.56,21,283,5,-0.4281182,-0.194193,-0.5976011,5.77542,0.009324789,0.04532575,0.01020326,0.0207636,-0.2511989,0.967659
634796821402720000,0.02346041,0.113392,-0.9618768,-4.92,15.18,-37.56,21,283,5,-0.601587,-0.1441744,-0.6029221,5.766925,-0.0005502701,0.04027903,0.004874754,0.01954121,-0.255216,0.9666743
634796821402920000,0.04692082,0.08602151,-0.856305,-4.92,15.18,-37.56,20,282,5,-0.512192,-0.03559548,-0.5720596,5.754474,-0.02629542,0.03415561,-0.008227114,0.01991706,-0.26101,0.9650955
634796821403120000,0.08993158,0.06256109,-0.7585533,-4.92,15.18,-37.56,23,285,5,-0.2503926,0.0005782805,-0.5007566,5.747705,-0.03481197,0.03315926,-0.01239739,0.02058969,-0.264198,0.964169
634796821403320000,0.1290323,0.04692082,-0.6920821,-4.92,15.18,-37.56,29,291,5,-0.03327132,-0.199492,-0.3730496,5.741419,-0.03771758,0.03062403,-0.01407153,0.01979588,-0.2672256,0.9633279
634796821403520000,0.1290323,0.02737048,-0.6686217,-4.92,15.18,-37.56,29,291,5,0.03377061,-0.2867585,-0.2687555,5.734569,-0.03682542,0.02577496,-0.01423152,0.01739015,-0.2705841,0.9624341
634796821403720000,0.09384164,-0.003910068,-0.6920821,-4.38,14.34,-37.86,47,309,5,0.06352986,-0.3282632,-0.2006451,5.728217,-0.03434873,0.02034688,-0.01372931,0.01448691,-0.2737144,0.9616039
634796821403940000,0.08211143,-0.01955034,-0.7233627,-4.38,14.34,-37.86,46,308,5,0.1656268,-0.1537303,-0.204902,5.724475,-0.03220606,0.01757991,-0.01305409,0.01288783,-0.2755535,0.9611107
634796821404120000,0.09775171,-0.007820137,-0.7350929,-4.38,14.34,-37.86,36,298,5,0.3518662,0.135728,-0.104839,5.72175,-0.01993942,0.01868617,-0.006990552,0.01173868,-0.2769299,0.960793
634796821404320000,0.09775171,0,-0.7272727,-4.38,14.34,-37.86,31,293,5,0.4284904,0.1835641,-0.009030261,5.724269,-0.009868145,0.02323317,-0.00153813,0.0125264,-0.2757578,0.9611443
634796821404520000,0.06647116,-0.02346041,-0.7468231,-4.38,14.34,-37.86,31,293,5,0.4135913,0.1196642,0.0729205,5.726219,-0.004056692,0.02534663,0.001533752,0.01274227,-0.2748502,0.9614014
634796821404720000,0.03128055,-0.05083089,-0.801564,-4.38,14.34,-37.86,35,297,5,0.4423254,-0.1304278,0.0824865,5.730097,0.004563808,0.02496302,0.005602833,0.01138393,-0.2730385,0.9619194
634796821404920000,0.01955034,-0.06647116,-0.9032258,-3.96,13.62,-37.56,27,289,5,0.5689682,-0.2432357,0.01649539,5.734968,0.01472425,0.02156937,0.01000598,0.00838887,-0.2707424,0.9625633
634796821405130000,0.003910068,-0.06256109,-1.036168,-3.96,13.62,-37.56,16,278,5,0.6072803,-0.1857675,-0.0686257,5.741319,0.02709579,0.01803756,0.0154662,0.005063318,-0.267713,0.9633613
634796821405320000,-0.01955034,-0.05474096,-1.110459,-3.96,13.62,-37.56,16,278,5,0.6040877,0.5495668,-0.3239905,5.749412,0.04561686,0.02467358,0.02525004,0.005882354,-0.2639123,0.9641982
634796821405520000,0.01564027,-0.01564027,-1.075269,-3.96,13.62,-37.56,16,278,5,0.7488222,0.4910344,-0.2058615,5.752529,0.05772734,0.0343045,0.03234128,0.008977672,-0.2625559,0.9643329
634796821405720000,0.1094819,0.0742913,-1.043988,-3.96,13.62,-37.56,4,266,5,0.5923812,-0.1326015,0.2028278,5.760128,0.07141947,0.04109061,0.03978918,0.0106035,-0.2590469,0.9649866
634796821405920000,0.1407625,0.09384164,-1.12219,-4.26,12.66,-38.28,12,274,5,0.5487478,-0.0389547,0.3018008,5.76722,0.07767773,0.03840184,0.0424319,0.008645698,-0.2556117,0.9658092
634796821406120000,0.1642229,0.03128055,-1.235582,-4.26,12.66,-38.28,12,274,5,0.317811,0.3984188,-0.1089649,5.771247,0.08604431,0.0366962,0.0462415,0.006845581,-0.2536694,0.9661608
634796821406320000,0.2658846,0.02346041,-1.384164,-4.26,12.66,-38.28,32,294,5,-0.4250171,-0.598762,-0.3771497,5.758682,0.08168483,0.03272033,0.04366741,0.005202632,-0.2596503,0.9647009
634796821406520000,0.2932551,0.1094819,-1.591398,-4.26,12.66,-38.28,33,295,5,-0.6101922,-0.8626899,-0.08978983,5.753475,0.07368279,0.02134526,0.03833847,0.0006520703,-0.2619565,0.9643177
634796821406720000,0.226784,0.2150538,-1.650049,-4.26,12.66,-38.28,33,295,5,-0.1887591,-0.2316044,0.2997175,5.752699,0.06792521,0.01305818,0.03447848,-0.002604093,-0.2622013,0.9643936
634796821406920000,0.2033236,0.230694,-1.434995,-4.26,12.66,-38.28,28,290,5,0.3284469,0.5750725,0.7286003,5.759567,0.07115077,0.01845181,0.03674077,-0.000299856,-0.2589709,0.9651861
634796821407120000,0.2189638,0.1485826,-1.13783,-4.26,12.66,-38.28,28,290,5,0.3561168,0.5729441,0.8786561,5.770926,0.0775454,0.02814328,0.04105679,0.003782731,-0.2536505,0.9664168
634796821407330000,0.2150538,0.04301075,-0.9657869,-4.74,11.76,-38.22,43,305,5,-0.1313253,-0.205036,0.5625812,5.779082,0.07826161,0.02631593,0.04116025,0.002976539,-0.2496772,0.9674494
634796821407520000,0.1994135,0.02346041,-0.9736071,-4.74,11.76,-38.22,43,305,5,-0.4442075,-0.4540647,0.3465434,5.779082,0.07826161,0.02631593,0.04116025,0.002976539,-0.2496772,0.9674494
634796821407720000,0.172043,0.05083089,-1.012708,-4.74,11.76,-38.22,46,308,5,-0.6836582,-0.3689267,0.1379422,5.774618,0.05390477,0.02366817,0.02905647,0.004670489,-0.2517518,0.9673443
634796821407920000,0.1368524,0.09384164,-0.9931574,-4.74,11.76,-38.22,42,304,5,-0.7964661,-0.2231278,0.1985936,5.77302,0.03678155,0.02650964,0.02113705,0.008183595,-0.2524964,0.9673324
634796821408120000,0.1016618,0.07820137,-0.8758553,-4.8,10.86,-38.58,44,306,5,-0.7389979,-0.01347002,0.2954381,5.772942,0.02118802,0.03131282,0.01420041,0.01247499,-0.2524789,0.9674178
634796821408320000,0.08602151,0.03519062,-0.7194526,-4.8,10.86,-38.58,44,306,5,-0.4335653,0.2046462,0.2858601,5.772072,0.01299024,0.03589332,0.01081943,0.01572094,-0.2528506,0.9673171
634796821408520000,0.08602151,0.003910068,-0.6138808,-4.8,10.86,-38.58,47,309,5,-0.1643012,0.0694577,0.1378848,5.770406,0.007695674,0.04063069,0.008872608,0.01867425,-0.2536112,0.9670852
634796821408720000,0.08993158,-0.003910068,-0.6177908,-4.8,10.86,-38.58,49,311,5,-0.2324015,-0.3626176,0.09314876,5.767368,0.001708984,0.03960574,0.005876589,0.01892874,-0.2550254,0.9667312
634796821408920000,0.08211143,0.003910068,-0.6647117,-4.8,10.86,-38.58,49,311,5,-0.1195876,-0.3157917,0.1367488,5.766586,-0.0003902912,0.03342116,0.004079621,0.01620528,-0.255398,0.9666916
634796821409120000,0.07820137,0.01564027,-0.688172,-4.8,10.86,-38.58,50,312,5,0.06877521,-0.03909613,0.1697019,5.766899,0.000838995,0.03150582,0.004426883,0.01512326,-0.2552602,0.966744
634796821409320000,0.09384164,0.007820137,-0.6803519,-4.8,10.86,-38.58,50,312,5,0.2592628,0.309954,0.09411784,5.767026,0.003590584,0.03389442,0.006060718,0.01592703,-0.2552167,0.9667337
634796821409520000,0.1055719,-0.007820137,-0.684262,-5.34,11.04,-38.82,48,310,5,0.2667124,0.1343349,0.1185747,5.765982,0.008893489,0.0391308,0.009301159,0.0177765,-0.2557615,0.9665318
634796821409720000,0.1055719,-0.01173021,-0.7468231,-5.34,11.04,-38.82,48,310,5,0.2539417,-0.3445654,0.1259871,5.765034,0.0143013,0.03146029,0.013989,0.01255678,-0.2569653,0.9662378
634796821409920000,0.08602151,-0.01173021,-0.8680352,-5.34,11.04,-38.82,48,310,5,0.3656853,-0.437153,0.05892137,5.761692,0.02866387,0.02536952,0.01711567,0.008560031,-0.2579305,0.965974
634796821410120000,0.05865103,-0.007820137,-0.9579667,-5.34,11.04,-38.82,44,306,5,0.4795574,0.09385985,0.01847815,5.760793,0.03743768,0.02456534,0.02125276,0.007030454,-0.2583939,0.9657803
634796821410320000,0.0742913,-0.003910068,-1.024438,-6.54,11.52,-38.46,38,300,5,0.3337586,-0.07430293,-0.009184893,5.760412,0.04335737,0.02577591,0.02426855,0.006845586,-0.2586082,0.9656532
634796821410520000,0.08211143,-0.01173021,-1.13783,-6.54,11.52,-38.46,31,293,5,0.1773174,-0.211588,0.009975842,5.760245,0.04781771,0.02554178,0.02639236,0.006153583,-0.2587007,0.9655773
634796821410720000,0.07820137,-0.01955034,-1.255132,-6.54,11.52,-38.46,31,293,5,0.3071529,0.06509555,-0.02726267,5.759369,0.0496459,0.02387404,0.02706198,0.005100023,-0.2591117,0.9654547
634796821410920000,0.08602151,-0.01173021,-1.309873,-6.54,11.52,-38.46,28,290,5,0.3209879,0.4173272,-0.000649275,5.758638,0.06042719,0.03160787,0.03326782,0.007424381,-0.2595876,0.9651178
634796821411120000,0.1094819,-0.003910068,-1.325513,-6.54,11.52,-38.46,24,286,5,0.1145239,0.2651429,0.1578909,5.761743,0.06231952,0.03591096,0.03472298,0.009309608,-0.2581512,0.9654354
634796821411320000,0.1055719,0.007820137,-1.348974,-6.54,11.52,-38.46,24,286,5,0.06555891,-0.02755653,0.2557996,5.764358,0.06279587,0.03553474,0.03489274,0.00911212,-0.2568859,0.9657687
634796821411520000,0.09775171,0.01955034,-1.395894,-6.54,11.52,-38.46,24,286,5,0.1964171,0.01502557,0.04720776,5.76587,0.06514192,0.03451562,0.03588889,0.008345645,-0.2561527,0.9659338
634796821411720000,0.1055719,0.03910068,-1.442815,-6.96,12.06,-38.64,25,287,5,0.1229572,0.07248031,-0.1198533,5.763372,0.06752133,0.03544891,0.03716763,0.00844533,-0.2573814,0.9655579
634796821411920000,0.113392,0.09384164,-1.391984,-6.96,12.06,-38.64,25,287,5,-0.1250238,0.05756073,-0.1453507,5.759729,0.06570101,0.03629637,0.03641384,0.009022574,-0.2591438,0.9651099
634796821412120000,0.09384164,0.1446725,-1.274682,-6.96,12.06,-38.64,25,287,5,0.04319645,-0.1510369,-0.1090937,5.752501,0.06193947,0.03400934,0.03433375,0.008281895,-0.2625838,0.9642626
634796821412320000,0.05865103,0.1603128,-1.180841,-6.96,12.06,-38.64,31,293,5,0.130404,-0.3521754,-0.3059582,5.747905,0.06214213,0.03062415,0.03400375,0.006544609,-0.2647563,0.9636934
634796821412520000,0.03128055,0.1485826,-1.13392,-6.96,12.06,-38.64,31,293,5,0.1771637,-0.3766526,-0.5017757,5.736551,0.06300712,0.02332282,0.03347315,0.002721091,-0.2701283,0.9622385
634796821412720000,0.03910068,0.1524927,-1.086999,-7.98,12.42,-38.7,43,305,5,0.08875752,-0.1521011,-0.6465103,5.721436,0.06387924,0.01777077,0.0331433,-0.0003189602,-0.2773165,0.9602067
634796821412920000,0.06647116,0.1564027,-0.9970675,-7.98,12.42,-38.7,41,303,5,-0.1347492,-0.01692822,-0.5124179,5.706954,0.06193971,0.01515543,0.03183981,-0.001536459,-0.2842266,0.9582271
634796821413120000,0.08211143,0.1329423,-0.8719453,-7.98,12.42,-38.7,44,306,5,-0.1773138,0.02350063,-0.2793526,5.686935,0.04659796,0.01603281,0.02462249,0.0008178774,-0.293818,0.9555439
634796821413320000,0.09775171,0.0742913,-0.7390029,-7.98,12.42,-38.7,44,306,5,-0.06236361,0.09584144,-0.02496788,5.683106,0.04311299,0.01739013,0.02316032,0.001934126,-0.2956571,0.9550114
634796821413520000,0.113392,0.007820137,-0.6608016,-7.98,12.42,-38.7,52,314,5,-0.01659097,0.1138938,0.01760825,5.677976,0.041852,0.01871681,0.0227611,0.002695703,-0.2981163,0.9542543
634796821413720000,0.113392,-0.03910068,-0.629521,-7.98,12.42,-38.7,57,319,5,-0.1751138,-0.3948037,0.03994463,5.673656,0.03954577,0.01717388,0.02143596,0.002256915,-0.3001614,0.9536449
634796821413920000,0.1016618,-0.05083089,-0.6334311,-7.98,12.42,-38.7,57,319,5,-0.1186708,-0.3948037,0.04738612,5.670166,0.03663826,0.01030982,0.01901928,-0.0006132929,-0.301768,0.9531915
634796821414120000,0.07820137,-0.05083089,-0.6568915,-7.98,12.42,-38.7,57,319,5,-0.1016136,-0.1372612,0.06866115,5.669465,0.03614521,0.004582166,0.01791932,-0.003275088,-0.3020563,0.9531161
634796821414320000,0.08211143,-0.04301075,-0.6803519,-9.12,12,-39.12,54,316,5,-0.02602192,0.02023921,0.07396174,5.669475,0.03619384,0.003259897,0.01774284,-0.003912547,-0.3020402,0.953122
634796821414520000,0.09775171,-0.04301075,-0.6920821,-9.12,12,-39.12,54,316,5,0.06232845,-0.001063492,0.07926243,5.670627,0.03849411,0.005189418,0.01913232,-0.003329328,-0.3015038,0.9532672
634796821414720000,0.09775171,-0.04692082,-0.7272727,-9.12,12,-39.12,48,310,5,0.1208097,-0.05853251,0.116477,5.671537,0.04170203,0.005404949,0.02069548,-0.003700805,-0.3010661,0.9533715
634796821414920000,0.07038123,-0.04692082,-0.7937439,-10.02,11.94,-39.18,51,313,5,0.1281763,-0.2383799,0.2037265,5.673155,0.04536247,0.003095627,0.02209715,-0.00533479,-0.3002636,0.9535853
634796821415120000,0.03128055,-0.07038123,-0.8954057,-10.02,11.94,-39.18,51,313,5,0.1483691,-0.2894626,0.2707727,5.675648,0.049232,-0.00131166,0.02329052,-0.007987995,-0.299012,0.9539316
634796821415320000,0.003910068,-0.08993158,-1.000978,-10.02,11.94,-39.18,49,311,5,0.2813973,-0.2766919,0.2345891,5.678956,0.05434036,-0.005991458,0.02504526,-0.01094218,-0.2973509,0.954377
634796821415520000,-0.003910068,-0.08211143,-1.059628,-10.02,11.94,-39.18,43,305,5,0.4442238,-0.1053427,0.2537451,5.688248,0.06845903,-0.008848547,0.03142353,-0.01425811,-0.2927817,0.9555565
634796821415720000,0.007820137,-0.07820137,-1.090909,-10.02,11.94,-39.18,27,289,5,0.4133612,0.2617995,0.147304,5.694049,0.07733464,-0.005194902,0.03623893,-0.01370699,-0.2900124,0.9562383
634796821415920000,0.01955034,-0.08211143,-1.13783,-10.02,11.94,-39.18,27,289,5,0.2760762,0.002108541,0.09724038,5.698301,0.0841999,-0.001352787,0.04010577,-0.01278055,-0.2880087,0.9567022
634796821416120000,0.01955034,-0.05474096,-1.216031,-11.1,11.64,-39.06,29,291,5,0.2164796,-0.2437178,0.08762373,5.701072,0.08858155,-0.003311634,0.04193932,-0.01429034,-0.2866129,0.9570214
634796821416320000,0.02346041,-0.01173021,-1.239492,-11.1,11.64,-39.06,29,291,5,0.3048102,-0.02234724,0.007782687,5.701851,0.09296321,-0.006803274,0.0435417,-0.01657178,-0.2861288,0.9570579
634796821416520000,0.03128055,0.007820137,-1.247312,-11.1,11.64,-39.06,32,294,5,0.2015804,0.2553835,-0.1433278,5.701486,0.09949803,-0.002903461,0.04720039,-0.0157208,-0.287787,0.9564014
634796821416720000,0.05083089,0,-1.337243,-11.1,11.64,-39.06,32,294,5,-0.1038119,-0.1543697,-0.3263746,5.690735,0.09683084,-0.005749464,0.0454502,-0.01687371,-0.2914353,0.9553612
634796821416920000,0.09384164,0.05083089,-1.446725,-11.1,11.64,-39.06,34,296,5,-0.4315932,-0.6960603,-0.5307058,5.678599,0.08874869,-0.01733923,0.03976833,-0.02147411,-0.297039,0.9537952
634796821417120000,0.1290323,0.1837732,-1.391984,-12.18,10.68,-39.66,37,299,5,-0.2783448,-0.2214159,-0.3583013,5.669291,0.08327389,-0.02172935,0.0363972,-0.02292392,-0.3014393,0.9525146
634796821417320000,0.1407625,0.2424242,-1.204301,-12.18,10.68,-39.66,41,303,5,0.2271977,0.3553775,0.2579002,5.662787,0.08278179,-0.01645923,0.03689299,-0.02046053,-0.3046519,0.951529
634796821417520000,0.1407625,0.1564027,-1.055718,-12.18,10.68,-39.66,71,333,5,0.3197853,-0.04904376,0.3302675,5.660457,0.08521771,-0.01191306,0.03872396,-0.01871431,-0.3058328,0.9511133
634796821417720000,0.1251222,0.02737048,-1.012708,-12.18,10.68,-39.66,71,333,5,0.2516749,-0.3597975,0.09187233,5.649596,0.09678841,-0.01591778,0.04349025,-0.02262345,-0.3107818,0.9492162
634796821417920000,0.1055719,-0.01955034,-1.008798,-12.18,10.68,-39.66,66,328,5,-0.05906292,-0.3672471,-0.2657066,5.640101,0.09603237,-0.01895058,0.04254475,-0.02414718,-0.3152201,0.9477569
634796821418120000,0.1055719,0.007820137,-0.9853373,-12.18,10.68,-39.66,53,315,5,-0.4325888,-0.5417801,-0.451946,5.632185,0.09166073,-0.02040315,0.04014763,-0.02430546,-0.3189872,0.9465963
634796821418320000,0.09384164,0.0742913,-0.9501466,-12.3,9.48,-39.84,51,313,5,-0.6773606,-0.5683857,-0.291248,5.619447,0.08023381,-0.02642405,0.03361344,-0.0255466,-0.3250192,0.9447645
634796821418520000,0.07038123,0.1055719,-0.8954057,-12.3,9.48,-39.84,51,313,5,-0.8125172,-0.3576691,0.02910199,5.611706,0.06500053,-0.03048599,0.02565752,-0.02508842,-0.3287877,0.9437218
634796821418720000,0.05474096,0.05865103,-0.8211144,-12.3,9.48,-39.84,63,325,5,-0.5975437,-0.04053326,0.2568373,5.607081,0.04765915,-0.03158629,0.01723991,-0.02279584,-0.3311594,0.9431419
634796821418920000,0.04692082,-0.01173021,-0.7468231,-12.3,9.48,-39.84,67,329,5,-0.3549004,0.2946587,0.26003,5.602467,0.03478741,-0.02490306,0.01223797,-0.01754089,-0.3335454,0.9424914
634796821419140000,0.05865103,-0.05083089,-0.7194526,-12.3,9.48,-39.84,63,325,5,-0.1388513,0.4542925,0.08121976,5.599681,0.03252506,-0.01731491,0.01241983,-0.01360535,-0.334949,0.9420562
634796821419320000,0.0742913,-0.03519062,-0.7390029,-12.3,9.48,-39.84,63,325,5,-0.1739273,0.04560002,0.05566526,5.598187,0.03025341,-0.01576388,0.01160044,-0.01250306,-0.3356808,0.9418214
634796821419520000,0.0742913,-0.003910068,-0.7390029,-12.3,9.48,-39.84,63,325,5,-0.09724093,-0.1182685,0.2025153,5.599253,0.0295589,-0.01686645,0.01109501,-0.01289974,-0.3351742,0.9420025
634796821419720000,0.05865103,0,-0.7194526,-11.7,8.28,-39.12,55,317,5,0.2177773,0.07117463,0.314259,5.600922,0.03209305,-0.01636624,0.01238342,-0.01307852,-0.3343756,0.9422678
634796821419920000,0.04692082,-0.02737048,-0.7155425,-11.7,8.28,-39.12,61,323,5,0.4040167,0.6171036,0.1088646,5.601138,0.04780316,0.001999497,0.02285724,-0.007051276,-0.3343789,0.9421352
634796821420120000,0.06256109,-0.05474096,-0.7585533,-11.7,8.28,-39.12,62,324,5,0.1602758,0.03283964,-0.01880038,5.598392,0.05294013,0.008001685,0.02627327,-0.005118869,-0.3357251,0.9415796
634796821420330000,0.08211143,-0.03128055,-0.8523949,-11.7,8.28,-39.12,62,324,5,0.1527748,-0.2789702,0.04612331,5.596315,0.05497503,0.006230116,0.02692745,-0.006322416,-0.3366751,0.9412146
634796821420520000,0.06647116,0.007820137,-0.9501466,-11.7,8.28,-39.12,57,319,5,0.2815461,-0.09698253,0.08757839,5.594466,0.05915999,0.002322674,0.02823121,-0.008891908,-0.3374785,0.9408678
634796821420720000,0.04301075,0.007820137,-1.032258,-10.68,7.5,-38.64,56,318,5,0.41351,0.1732745,0.09179369,5.59281,0.06600261,0.003525853,0.03164511,-0.009506649,-0.3382432,0.9404785
634796821420920000,0.05083089,-0.007820137,-1.102639,-10.68,7.5,-38.64,56,318,5,0.3602987,0.1253331,0.08755413,5.590407,0.07159042,0.008424044,0.0350907,-0.008190606,-0.3394247,0.9399428
634796821421120000,0.0742913,-0.007820137,-1.15347,-10.68,7.5,-38.64,56,318,5,0.1304148,0.2444977,0.1236826,5.588334,0.07622886,0.01470268,0.03832873,-0.006066617,-0.3404853,0.9394487
634796821421320000,0.09775171,-0.02737048,-1.176931,-10.68,7.5,-38.64,52,314,5,0.02610298,0.2902594,0.08317538,5.586809,0.07676888,0.01929796,0.0393602,-0.00402964,-0.3412764,0.9391299
634796821421520000,0.1055719,-0.01564027,-1.200391,-8.4,7.2,-37.68,44,306,5,0.05163938,0.0773617,0.03525662,5.584252,0.07762361,0.02048409,0.03995886,-0.003669439,-0.3424944,0.9386626
634796821421720000,0.08211143,0.04692082,-1.247312,-8.4,7.2,-37.68,45,307,5,-0.004783391,-0.271698,0.07780689,5.582526,0.07804871,0.01791715,0.03971555,-0.004981605,-0.3432605,0.938387
634796821421920000,0.07038123,0.07820137,-1.333333,-8.4,7.2,-37.68,45,307,5,-0.3123442,-0.205716,-0.07225321,5.579638,0.07514405,0.0131247,0.0375217,-0.006786513,-0.3445443,0.9379954
634796821422120000,0.09775171,0.08211143,-1.399804,-8.4,7.2,-37.68,50,312,5,-0.5986207,0.1837281,-0.3542633,5.57171,0.06627679,0.01241481,0.033218,-0.005723662,-0.3482769,0.9367855
634796821422320000,0.1055719,0.1485826,-1.360704,-8.4,7.2,-37.68,51,313,5,-0.5986207,0.1837281,-0.3542633,5.555509,0.04766464,0.0176506,0.02540894,-0.0002348352,-0.3559456,0.9341612
634796821422540000,0.0742913,0.2033236,-1.247312,-7.08,7.68,-37.2,57,319,5,-0.02178662,0.2836925,0.1905606,5.551644,0.04343152,0.02020955,0.02388987,0.001667905,-0.3577714,0.9335021
634796821422720000,0.04692082,0.1837732,-1.13392,-7.08,7.68,-37.2,57,319,5,-0.01005194,0.3603167,0.02553705,5.548083,0.04334521,0.02587235,0.02486892,0.004282609,-0.3594784,0.9328122
634796821422920000,0.05474096,0.1407625,-1.075269,-7.08,7.68,-37.2,71,333,5,-0.3165369,0.1325291,-0.2841449,5.538404,0.04076409,0.03046012,0.02452149,0.006768225,-0.3640146,0.9310458
634796821423120000,0.05865103,0.1446725,-1.032258,-7.08,7.68,-37.2,71,333,5,-0.5740793,-0.03882933,-0.2256125,5.528821,0.03454447,0.03126717,0.02181209,0.008171581,-0.3684528,0.9293546
634796821423320000,0.05474096,0.1642229,-0.9657869,-7.08,7.68,-37.2,64,326,5,-0.4942625,0.02714209,-0.05958351,5.51219,0.01146936,0.03074288,0.01109285,0.01208643,-0.3760512,0.9264536
634796821423520000,0.04692082,0.1329423,-0.8914956,-7.08,7.68,-37.2,64,326,5,-0.374005,0.2090772,0.06173167,5.506179,6.103515E-05,0.03489422,0.006636943,0.01613454,-0.3787464,0.9253361
634796821423730000,0.04692082,0.07038123,-0.8367546,-7.08,7.68,-37.2,75,337,5,-0.3442067,0.3421054,0.06170315,5.501832,-0.006600856,0.03966391,0.004500599,0.01959294,-0.3806767,0.9244897
634796821423920000,0.05083089,0.01173021,-0.7937439,-6.06,8.16,-37.26,67,329,5,-0.3889042,0.1217804,-0.06174985,5.496572,-0.01388693,0.04278684,0.001786248,0.02241841,-0.3830105,0.9234702
634796821424120000,0.07038123,-0.01564027,-0.7741935,-6.06,8.16,-37.26,56,318,5,-0.2548118,-0.2240866,-0.1351615,5.493134,-0.02023816,0.04087686,-0.001473199,0.02275539,-0.3845413,0.9228261
634796821424320000,0.09775171,-0.003910068,-0.7898338,-6.06,8.16,-37.26,48,310,5,-0.02706943,-0.3326375,-0.1500221,5.491286,-0.02202558,0.03535556,-0.003341729,0.02055495,-0.3854212,0.9225057
634796821424520000,0.1016618,0.01173021,-0.801564,-6.06,8.16,-37.26,48,310,5,0.2006713,-0.07934194,-0.1020972,5.489289,-0.01584816,0.03434587,-0.0006681982,0.0188994,-0.386411,0.9221328
634796821424720000,0.1094819,0.007820137,-0.7468231,-6.06,8.16,-37.26,51,313,5,0.1506257,0.135594,0.1256556,5.489489,-0.01240277,0.03942585,0.001900392,0.0205758,-0.3863179,0.9221342
634796821424920000,0.1290323,-0.007820137,-0.6999022,-4.98,8.88,-37.5,49,311,5,0.1506257,0.135594,0.1256556,5.491522,-0.008358716,0.04115283,0.004077815,0.02059494,-0.3854115,0.9225059
634796821425120000,0.1173021,-0.01564027,-0.7233627,-4.98,8.88,-37.5,52,314,5,0.3964618,-0.04851698,0.07343868,5.492992,-0.003475189,0.04067695,0.006224324,0.01943892,-0.3847846,0.9227807
634796821425320000,0.08211143,-0.01564027,-0.7820137,-4.98,8.88,-37.5,52,314,5,0.3677277,-0.03042877,0.05106164,5.493911,0.004702806,0.04089665,0.01003143,0.01797137,-0.3844363,0.9229221
634796821425520000,0.03910068,-0.01564027,-0.8445748,-4.98,8.88,-37.5,54,316,5,0.3081311,-0.06233733,0.06487378,5.495234,0.0122323,0.04119718,0.01355265,0.01667161,-0.3838904,0.9231287
634796821425720000,0.03519062,-0.01173021,-0.9266862,-4.98,8.88,-37.5,43,305,5,0.2996173,0.03451174,0.04782522,5.501014,0.02272201,0.04062772,0.01824327,0.01444785,-0.3813021,0.9241575
634796821425930000,0.06647116,0,-1.000978,-4.98,8.88,-37.5,43,305,5,0.3006815,0.1823963,0.06163876,5.50581,0.02820134,0.04292714,0.02117815,0.01451666,-0.3791296,0.9249873
634796821426120000,0.1055719,0.01173021,-1.055718,-4.62,9.84,-38.34,26,288,5,0.2527913,0.02378722,0.1701493,5.511857,0.03267694,0.04505909,0.02360711,0.0147259,-0.3763698,0.9260517
634796821426320000,0.1290323,0.007820137,-1.13783,-4.62,9.84,-38.34,29,291,5,0.3985902,-0.4423347,0.3074344,5.519211,0.037817,0.04041815,0.02507245,0.01170133,-0.3729772,0.9274279
634796821426520000,0.09384164,-0.007820137,-1.274682,-4.62,9.84,-38.34,33,295,5,0.6486831,-0.4327567,0.2095256,5.524436,0.04501128,0.03282213,0.0269767,0.006906718,-0.370539,0.9283994
634796821426720000,0.03519062,-0.01955034,-1.356794,-4.62,9.84,-38.34,33,295,5,0.6124994,0.07062228,0.1381955,5.528877,0.05701208,0.02759457,0.03157543,0.003324302,-0.3660013,0.9298944
634796821426920000,0.05474096,-0.003910068,-1.302053,-4.62,9.84,-38.34,23,285,5,0.1218796,0.6836159,0.1488002,5.541739,0.06448054,0.04490113,0.03816598,0.009237397,-0.3626848,0.9310842
634796821427130000,0.1485826,0.01955034,-1.208211,-3.54,10.2,-39.72,15,277,5,-0.4229988,0.584643,0.06682867,5.546342,0.0577507,0.05191445,0.03626833,0.01380823,-0.3605713,0.931924
634796821427320000,0.230694,0.04692082,-1.247312,-3.54,10.2,-39.72,15,277,5,-0.5028156,-0.04644068,-0.04917464,5.549551,0.048321,0.0517075,0.03181205,0.01546273,-0.3590049,0.9326652
634796821427520000,0.230694,0.08993158,-1.376344,-3.54,10.2,-39.72,37,299,5,-0.08240341,-0.5295989,0.063666,5.548744,0.04101657,0.04077876,0.02645386,0.0116638,-0.359263,0.9327884
634796821427720000,0.1642229,0.1524927,-1.407625,-3.54,10.2,-39.72,37,299,5,0.2209181,0.1599998,0.3382238,5.54887,0.04008102,0.03185606,0.02441743,0.007670416,-0.359144,0.9329312
634796821427920000,0.1368524,0.172043,-1.278592,-3.54,10.2,-39.72,37,299,5,-0.03235565,0.3302759,0.4755088,5.552238,0.04263067,0.03125596,0.02548742,0.006975506,-0.3575782,0.9335093
634796821428120000,0.172043,0.1212121,-1.090909,-3.54,10.2,-39.72,37,299,5,-0.3515995,0.08334105,0.3893066,5.565005,0.03999591,0.03881121,0.02553548,0.01113712,-0.3516495,0.9357171
634796821428320000,0.2033236,0.08211143,-1.040078,-3,10.86,-41.16,40,302,5,-0.5580592,-0.4370622,0.1296236,5.566243,0.03059268,0.03352821,0.02020204,0.01033027,-0.3509926,0.9361033
634796821428520000,0.1876833,0.1016618,-1.036168,-3,10.86,-41.16,40,302,5,-0.4441871,-0.6669348,0.01786431,5.565446,0.0232439,0.02562416,0.01537984,0.007913343,-0.3513028,0.9361022
634796821428720000,0.1446725,0.1212121,-1.036168,-3,10.86,-41.16,46,308,5,-0.1834258,-0.5743473,-0.02151224,5.563337,0.01707339,0.01399577,0.01045397,0.003542655,-0.3522377,0.9358455
634796821428920000,0.09384164,0.1251222,-0.9853373,-3,10.86,-41.16,48,310,5,-0.08970611,-0.2976487,0.01041239,5.560643,0.01508522,0.005712747,0.008065169,5.906451E-06,-0.3534724,0.9354102
634796821429120000,0.0742913,0.08993158,-0.8797654,-3,10.86,-41.16,47,309,5,-0.120501,0.07269145,0.1689499,5.561838,0.009282588,0.005581975,0.005327557,0.0009734946,-0.3529116,0.935641
634796821429330000,0.08602151,0.03128055,-0.7624633,-3,10.86,-41.16,47,309,5,-0.2854298,0.3472449,0.2508952,5.566088,0.002247095,0.01238334,0.003224801,0.005403605,-0.3509153,0.9363861
634796821429520000,0.08602151,-0.007820137,-0.6686217,-2.4,11.34,-41.82,37,299,5,-0.2896867,0.2397581,0.2157758,5.572129,-0.003329515,0.01758695,0.001500292,0.008822845,-0.3480577,0.9374304
634796821429720000,0.07820137,-0.03128055,-0.6373411,-2.4,11.34,-41.82,37,299,5,-0.1725937,0.02899894,0.1998124,5.578146,-0.00688672,0.01980579,0.0001875516,0.01048255,-0.3452129,0.9384658
634796821429920000,0.06647116,-0.03519062,-0.6647117,-2.4,11.34,-41.82,38,300,5,0.1466946,-0.2402488,0.1763995,5.584069,-0.00554204,0.01734876,0.0003673932,0.009098677,-0.3424458,0.9394935
634796821430120000,0.04692082,-0.01955034,-0.7077224,-2.4,11.34,-41.82,38,300,5,0.3520901,-0.09657259,0.1476253,5.588941,-0.001005173,0.01521385,0.002115225,0.006077482,-0.3372235,0.9413885
634796821430320000,0.04692082,-0.01173021,-0.7233627,-2.4,11.34,-41.82,35,297,5,0.3542185,0.1045511,0.1050246,5.601269,0.01271319,0.01751935,0.008919418,0.006129664,-0.3344231,0.9423609
634796821430530000,0.0742913,-0.003910068,-0.7350929,-1.92,11.46,-42.48,21,283,5,0.2499244,0.08749397,0.0209463,5.605736,0.01635265,0.0178299,0.01067349,0.005691303,-0.3323286,0.9430861
634796821430720000,0.1055719,0.01564027,-0.7781036,-1.92,11.46,-42.48,29,291,5,0.2690867,-0.2679541,-0.07158967,5.608355,0.01816654,0.01523864,0.01109296,0.004182441,-0.3310913,0.9435242
634796821430920000,0.1173021,0.03519062,-0.8406647,-1.92,11.46,-42.48,29,291,5,0.4202066,-0.1466325,-0.0151719,5.610383,0.02320838,0.01065528,0.01271187,0.001198346,-0.3301237,0.9438514
634796821431120000,0.1016618,0.03910068,-0.9032258,-1.92,11.46,-42.48,36,298,5,0.3957295,-0.04977458,-0.01622889,5.61167,0.03070116,0.007982969,0.01580775,-0.001289415,-0.3295011,0.944022
634796821431320000,0.09384164,0.02737048,-0.9736071,-1.92,11.46,-42.48,37,299,5,0.3063345,-0.1263804,-0.06622694,5.612436,0.03788948,0.007045626,0.01904728,-0.002908794,-0.329125,0.9440898
634796821431520000,0.113392,0.01955034,-1.063539,-1.92,11.46,-42.48,37,299,5,0.1924624,-0.2455736,-0.1268508,5.613882,0.04499149,0.002881527,0.02171909,-0.006027366,-0.3283872,0.9442742
634796821431720000,0.1446725,0.02346041,-1.15347,-1.92,11.46,-42.48,37,299,5,0.0424034,-0.1093452,-0.222613,5.61344,0.04536009,0.001268148,0.02162672,-0.006854452,-0.3285783,0.9442043
634796821431920000,0.1681329,0.02737048,-1.219941,-2.4,11.52,-42.72,25,287,5,-0.1576218,-0.05827018,-0.213035,5.611851,0.04322505,0.0008661747,0.02054744,-0.006709767,-0.329331,0.9439671
634796821432120000,0.1642229,0.04301075,-1.270772,-2.4,11.52,-42.72,25,287,5,-0.008570543,-0.3487981,-0.02675887,5.611475,0.0414722,-0.001871586,0.01926775,-0.007716969,-0.3294875,0.9439318
634796821432320000,0.1016618,0.06647116,-1.325513,-2.4,11.52,-42.72,26,288,5,0.4266906,-0.4211654,0.08815882,5.613039,0.04420137,-0.009005307,0.01938937,-0.01151809,-0.3286607,0.9441788
634796821432520000,0.04301075,0.06647116,-1.364614,-2.4,11.52,-42.72,26,288,5,0.4884157,-0.1146644,-0.01401201,5.615634,0.05812549,-0.01443374,0.0250909,-0.01633535,-0.3272672,0.9444574
634796821432740000,0.05083089,0.07038123,-1.368524,-2.4,11.52,-42.72,18,280,5,-0.02455276,0.1598404,-0.2279076,5.615363,0.05492258,-0.01264191,0.02386993,-0.01496843,-0.3274466,0.9444495
634796821432920000,0.07820137,0.1173021,-1.341154,-2.64,10.92,-42.72,12,274,5,-0.5556011,0.1374443,-0.2513206,5.615766,0.04444694,-0.01045609,0.01928348,-0.01221698,-0.3273554,0.9446255
634796821433120000,0.07820137,0.1603128,-1.286412,-2.64,10.92,-42.72,13,275,5,-0.1001036,0.1607355,-0.009693273,5.617246,0.0364685,-0.007568359,0.01599505,-0.009535266,-0.3267289,0.9449347
634796821433320000,0.05474096,0.1642229,-1.212121,-2.64,10.92,-42.72,13,275,5,0.114838,0.1723706,-0.07778474,5.619157,0.03430986,-0.005153894,0.01537743,-0.008027203,-0.3258568,0.94526
634796821433520000,0.04692082,0.1524927,-1.11828,-2.64,10.92,-42.72,21,283,5,-0.02249167,0.06057525,-0.138402,5.619011,0.03518081,-0.003272056,0.01609518,-0.006649092,-0.3264665,0.9450484
634796821433720000,0.04692082,0.1446725,-1.024438,-2.64,10.92,-42.72,30,292,5,-0.2182837,-0.2225132,-0.1894531,5.616076,0.03082514,-0.004968762,0.01374919,-0.007393113,-0.3273277,0.9447819
634796821433930000,0.05474096,0.1251222,-0.9657869,-2.64,10.92,-42.72,31,293,5,-0.3012932,-0.4023673,-0.1926457,5.613461,0.02230358,-0.01120651,0.008690634,-0.008956438,-0.3285546,0.9444025
634796821434120000,0.0742913,0.1055719,-0.9462366,-2.64,10.92,-42.72,31,293,5,-0.3140639,-0.3704405,-0.2054164,5.611295,0.01437616,-0.01651895,0.004063231,-0.01016703,-0.329586,0.9440621
634796821434320000,0.08993158,0.08993158,-0.9032258,-3.06,10.56,-43.56,41,303,5,-0.2385039,-0.1544028,-0.152191,5.607287,0.005619049,-0.02047443,-0.0007436082,-0.01058943,-0.3315071,0.943393
634796821434520000,0.1055719,0.0742913,-0.8211144,-3.06,10.56,-43.56,43,305,5,-0.09800196,-0.001145659,-0.01595528,5.604619,-0.0005614758,-0.02013314,-0.003614921,-0.009399139,-0.3327972,0.9429446
634796821434720000,0.1094819,0.05083089,-0.7507331,-3.06,10.56,-43.56,46,308,5,0.02120424,0.09567998,0.09577154,5.604114,-0.000677824,-0.01784325,-0.003290814,-0.008299303,-0.3330389,0.9428709
634796821434920000,0.1094819,0.01173021,-0.7155425,-3.06,10.56,-43.56,51,313,5,0.07229204,0.08181867,0.08510619,5.604087,0.001002789,-0.01590979,-0.002176652,-0.007667657,-0.3330476,0.9428763
634796821435120000,0.1094819,-0.003910068,-0.6999022,-3.9,10.68,-43.14,53,315,5,0.1404099,-0.02783548,0.04465053,5.603631,0.002888203,-0.01385641,-0.000947481,-0.007013303,-0.333259,0.9428087
634796821435320000,0.1094819,0.007820137,-0.6959922,-3.9,10.68,-43.14,53,315,5,0.1404099,-0.02783548,0.04465053,5.603657,0.006068707,-0.01373053,0.0005729463,-0.007483944,-0.3332357,0.9428137
634796821435520000,0.1055719,0.01955034,-0.7038123,-3.9,10.68,-43.14,49,311,5,0.2553462,-0.006561725,0.09890367,5.604517,0.00981617,-0.0134933,0.002382431,-0.007995455,-0.3328166,0.9429547
634796821435720000,0.08993158,0.01564027,-0.7233627,-3.9,10.68,-43.14,50,312,5,0.2191626,0.06362467,0.2255063,5.606459,0.01554537,-0.01252151,0.005253633,-0.008485557,-0.3318811,0.9432685
634796821435920000,0.06256109,-0.01564027,-0.7585533,-3.9,10.68,-43.14,50,312,5,0.2287406,-0.07792218,0.1925154,5.613205,0.02477479,-0.01081753,0.009920299,-0.009179986,-0.3286664,0.9443493
634796821436130000,0.03519062,-0.04692082,-0.8406647,-3.9,10.68,-43.14,46,308,5,0.3213282,-0.2279779,0.08605676,5.615921,0.02882552,-0.01294374,0.01149807,-0.01083392,-0.3273479,0.9447718
634796821436320000,0.01955034,-0.05083089,-0.9071358,-4.5,10.32,-42.78,37,299,5,0.3500623,-0.1673171,0.04453836,5.619692,0.0352087,-0.01661837,0.01393723,-0.01358795,-0.3254946,0.9453436
634796821436520000,0.02346041,-0.03910068,-0.9814272,-4.5,10.32,-42.78,19,281,5,0.2957868,-0.0566132,0.08176709,5.624169,0.04147601,-0.01850295,0.01662715,-0.01546133,-0.3233125,0.9460198
634796821436720000,0.03910068,-0.02346041,-1.043988,-4.5,10.32,-42.78,19,281,5,0.2766307,-0.1215135,0.08812721,5.629522,0.04677939,-0.01940656,0.01903424,-0.01669504,-0.320726,0.9468336
634796821436920000,0.03519062,-0.01173021,-1.13392,-4.5,10.32,-42.78,19,281,5,0.2989795,-0.1587614,0.1487494,5.63357,0.05059958,-0.02058196,0.0206901,-0.01782212,-0.3187607,0.9474418
634796821437120000,0.01955034,-0.007820137,-1.204301,-4.5,10.32,-42.78,21,283,5,0.3117502,-0.0746781,0.1359353,5.64418,0.06044888,-0.02334905,0.0250234,-0.02056966,-0.3135945,0.9490044
634796821437330000,0.01955034,-0.007820137,-1.251222,-5.7,10.38,-42.24,20,282,5,0.2510893,0.0349191,0.04120042,5.648092,0.06466507,-0.02291798,0.02713267,-0.02097317,-0.3117012,0.9495611
634796821437520000,0.03910068,0.01173021,-1.243402,-5.7,10.38,-42.24,20,282,5,0.2393829,0.2008898,-0.02158833,5.649798,0.06772017,-0.02091587,0.0289134,-0.02047431,-0.3108942,0.949784
634796821437720000,0.06256109,0.04301075,-1.200391,-5.7,10.38,-42.24,19,281,5,0.202135,0.1742631,0.02735953,5.652469,0.07137394,-0.01732457,0.03123364,-0.01929555,-0.3096541,0.9501403
634796821437920000,0.0742913,0.03910068,-1.219941,-5.7,10.38,-42.24,23,285,5,0.1063493,-0.2035445,0.08160874,5.655046,0.0734086,-0.01884043,0.03199125,-0.0202893,-0.3083811,0.9505083
634796821438120000,0.07820137,0.03519062,-1.337243,-5.7,10.38,-42.24,30,292,5,0.08399981,-0.792061,-0.3930194,5.653594,0.07443929,-0.03159964,0.03048965,-0.02653229,-0.3088101,0.9502646
634796821438320000,0.08211143,0.1055719,-1.391984,-5.7,10.38,-42.24,30,292,5,0.2627779,-0.05880444,-0.2238076,5.640584,0.0799818,-0.05515587,0.02921879,-0.03876339,-0.3143822,0.9480546
634796821438520000,0.08602151,0.1915933,-1.282502,-5.7,10.38,-42.24,30,292,5,0.1393193,0.5105398,0.02204362,5.637965,0.08426738,-0.05227768,0.03165574,-0.03811525,-0.3156092,0.9475948
634796821438720000,0.1055719,0.1798632,-1.083089,-7.38,9.84,-41.7,40,302,5,-0.2554774,0.6967791,0.3083202,5.638955,0.08343291,-0.041188,0.03303768,-0.03271615,-0.3154164,0.9478136
634796821438920000,0.1446725,0.09775171,-0.914956,-7.38,9.84,-41.7,58,320,5,-0.3736064,0.1220866,0.2966137,5.63991,0.0788424,-0.03331733,0.03212292,-0.02824828,-0.3152087,0.9480578
634796821439120000,0.1603128,0.07038123,-0.8523949,-7.38,9.84,-41.7,67,329,5,-0.1064705,-0.490898,0.208283,5.639031,0.07253956,-0.03130782,0.02944147,-0.02631541,-0.3157519,0.9480197
634796821439320000,0.1446725,0.09384164,-0.8954057,-7.38,9.84,-41.7,67,329,5,0.03509132,-0.5664579,0.1284335,5.634085,0.07232808,-0.04808569,0.02659755,-0.03429683,-0.3177581,0.9471779
634796821439540000,0.113392,0.1251222,-0.9736071,-7.38,9.84,-41.7,63,325,5,-0.04045526,-0.5015402,0.06349083,5.630717,0.07294607,-0.05469524,0.02577137,-0.03756659,-0.3192008,0.9465915
634796821439720000,0.08602151,0.1485826,-0.9931574,-7.98,9.48,-41.34,65,327,5,-0.294785,-0.3717048,0.1528425,5.627216,0.06822419,-0.06024337,0.02257666,-0.03947676,-0.3208302,0.9460443
634796821439920000,0.07820137,0.1446725,-0.9736071,-7.98,9.48,-41.34,65,327,5,-0.3458678,-0.1567313,0.2848065,5.625635,0.0583837,-0.06114733,0.0177455,-0.03833913,-0.3217509,0.9458814
634796821440120000,0.0742913,0.1094819,-0.911046,-7.98,9.48,-41.34,65,327,5,-0.2500875,0.03164501,0.3412104,5.625821,0.04929709,-0.05860746,0.01386178,-0.03567491,-0.3218757,0.946008
634796821440320000,0.0742913,0.06647116,-0.8367546,-7.98,9.48,-41.34,67,329,5,-0.1340308,0.1231248,0.3295039,5.626284,0.04392123,-0.05474794,0.01195025,-0.03298197,-0.3215972,0.9463089
634796821440520000,0.06647116,0.03910068,-0.7820137,-7.98,9.48,-41.34,67,329,5,-0.1031215,0.115624,0.2635219,5.626616,0.03886938,-0.0496006,0.01039623,-0.02973286,-0.321804,0.9462823
634796821440730000,0.04692082,0.03128055,-0.7663734,-8.76,9.96,-40.8,56,318,5,-0.05193474,-0.09190131,0.1474363,5.625917,0.03737473,-0.05064535,0.009509962,-0.02998979,-0.3221427,0.9461682
634796821440920000,0.03519062,0.03910068,-0.7937439,-8.76,9.96,-40.8,56,318,5,0.1087609,-0.0173981,0.1229129,5.625785,0.03736544,-0.05173468,0.009327624,-0.03050413,-0.3221911,0.9461371
634796821441120000,0.01955034,0.02737048,-0.8367546,-8.76,9.96,-40.8,54,316,5,0.153449,0.1092161,0.07924552,5.626035,0.03960395,-0.05195081,0.01035554,-0.03096564,-0.3220359,0.9461643
634796821441320000,0.01955034,0.007820137,-0.856305,-8.76,9.96,-40.8,53,315,5,-0.1285519,0.5178519,0.00154718,5.62572,0.04227042,-0.04967653,0.01197955,-0.03032137,-0.3221757,0.9461184
634796821441520000,0.05865103,-0.007820137,-0.8367546,-8.76,9.96,-40.8,43,305,5,-0.3477823,0.3273556,-0.07506182,5.62446,0.03603315,-0.03571117,0.01127057,-0.02271821,-0.3230319,0.9460483
634796821441720000,0.1055719,-0.003910068,-0.8406647,-8.76,9.96,-40.8,43,305,5,-0.284993,0.04637092,-0.1037682,5.622093,0.03055429,-0.03295052,0.009101229,-0.02053833,-0.3242397,0.9457082
634796821441920000,0.09775171,0.02737048,-0.8954057,-8.82,10.86,-40.02,44,306,5,0.01941283,-0.1739214,-0.05798249,5.619585,0.03008986,-0.0349313,0.008533248,-0.02141023,-0.3254106,0.9452919
634796821442120000,0.06647116,0.03128055,-0.969697,-8.82,10.86,-40.02,49,311,5,0.3078015,-0.1505084,0.01225893,5.617839,0.03421664,-0.03737926,0.01006446,-0.02324714,-0.3261637,0.9449738
634796821442320000,0.05474096,0.007820137,-1.036168,-8.82,10.86,-40.02,49,311,5,0.5600228,0.005928658,-0.07925572,5.616198,0.04043627,-0.03846037,0.01280613,-0.0247825,-0.3268513,0.944664
634796821442520000,0.07038123,0.01955034,-1.086999,-8.82,10.86,-40.02,49,311,5,0.5993991,0.1037974,-0.1292385,5.613206,0.04974699,-0.03530908,0.01768276,-0.02484242,-0.3281919,0.9441187
634796821442720000,0.1016618,0.04301075,-1.11437,-8.82,10.86,-40.02,38,300,5,0.4450865,0.2474231,-0.02705206,5.61127,0.06557298,-0.02510715,0.02680934,-0.02265112,-0.329082,0.9436489
634796821442940000,0.09384164,0.05474096,-1.106549,-8.82,10.86,-40.02,39,301,5,0.4323158,0.2399735,0.1272566,5.612663,0.07190657,-0.02235341,0.03026731,-0.02237331,-0.3284032,0.9437874
634796821443120000,0.03128055,0.08993158,-1.106549,-8.94,11.82,-39.3,41,303,5,0.7249777,0.09306677,0.2953919,5.616064,0.0842855,-0.02106845,0.03636005,-0.02373769,-0.3266815,0.9441365
634796821443320000,-0.007820137,0.1055719,-1.176931,-8.94,11.82,-39.3,41,303,5,1.578486,0.5581369,-0.1132504,5.619648,0.102828,-0.02317095,0.04481717,-0.0276768,-0.3247002,0.9443491
634796821443520000,0.1055719,0.07820137,-1.278592,-8.94,11.82,-39.3,41,303,5,-0.1561814,0.275053,-0.3271393,5.618651,0.1285379,-0.01286423,0.05861691,-0.02701656,-0.3251164,0.9434689
634796821443720000,0.1681329,0.1251222,-1.337243,-8.94,11.82,-39.3,35,297,5,-1.252333,-0.179372,-0.4846447,5.606111,0.1148484,-0.006423473,0.05306996,-0.02208488,-0.331385,0.941743
634796821443920000,0.09384164,0.2150538,-1.360704,-8.94,11.82,-39.3,38,300,5,-0.6584957,0.1781879,-0.2441297,5.598554,0.09888577,-0.004916071,0.04573105,-0.01890224,-0.3351438,0.9408666
634796821444120000,0.04692082,0.2189638,-1.282502,-8.94,11.82,-39.3,38,300,5,-0.272182,0.1004656,-0.2058176,5.592414,0.09213329,-0.001874804,0.04301376,-0.01647187,-0.3381594,0.939961
634796821444320000,0.0742913,0.2072336,-1.200391,-8.94,11.82,-39.3,38,300,5,-0.2253561,-0.09854738,-0.3920571,5.586398,0.08839869,-0.002077579,0.04117616,-0.01605964,-0.3410117,0.9390195
634796821444520000,0.0742913,0.2346041,-1.184751,-8.7,11.88,-39.24,49,311,5,-0.007180239,-0.318842,-0.3707725,5.574187,0.08431888,-0.005847692,0.03851208,-0.0173696,-0.3466952,0.9370259
634796821444720000,0.05083089,0.2189638,-1.204301,-8.7,11.88,-39.24,54,316,5,0.2652411,-0.6742932,-0.2356159,5.56462,0.0849607,-0.01368546,0.03735132,-0.02133132,-0.3510049,0.9353852
634796821444920000,0.06256109,0.1798632,-1.196481,-8.7,11.88,-39.24,59,321,5,0.2248005,-0.2709519,-0.2473224,5.549249,0.09252715,-0.02907073,0.03795405,-0.0301437,-0.357738,0.9325634
634796821445120000,0.0742913,0.1681329,-1.13392,-8.7,11.88,-39.24,59,321,5,-0.05617024,-0.2815941,-0.2004965,5.543283,0.09051537,-0.03393185,0.03604753,-0.03215704,-0.3604319,0.9315339
634796821445320000,0.05865103,0.1290323,-1.040078,-8.7,11.88,-39.24,54,316,5,-0.3637313,-0.1198254,-0.0184858,5.540941,0.08542561,-0.03618586,0.03323112,-0.03232795,-0.3615514,0.9311988
634796821445520000,0.06256109,0.09384164,-0.9227762,-8.04,12.42,-38.22,45,307,5,-0.1913269,0.04723826,-0.07061335,5.539113,0.07882404,-0.03579855,0.03019924,-0.03098174,-0.3625158,0.9309729
634796821445720000,0.08602151,0.09384164,-0.8406647,-8.04,12.42,-38.22,45,307,5,0.140706,0.07593744,-0.1855139,5.535859,0.07477951,-0.03268743,0.02883548,-0.02884793,-0.3641557,0.9304445
634796821445920000,0.08993158,0.1016618,-0.8328446,-8.04,12.42,-38.22,45,307,5,0.2364862,-0.08794312,-0.1823212,5.532156,0.07842445,-0.03355122,0.03031792,-0.02996938,-0.3658063,0.9297141
634796821446120000,0.08602151,0.09384164,-0.8602151,-8.04,12.42,-38.22,47,309,5,-0.1445031,-0.02405587,-0.1396313,5.524511,0.08150673,-0.03586983,0.03120412,-0.03172979,-0.3692591,0.9282603
634796821446330000,0.09384164,0.09775171,-0.8758553,-8.04,12.42,-38.22,55,317,5,-0.2988157,0.04403729,0.02002979,5.521231,0.07778525,-0.03603351,0.02939546,-0.03116682,-0.370836,0.9277097
634796821446520000,0.09384164,0.1016618,-0.8758553,-8.04,12.42,-38.22,55,317,5,-0.0306281,0.01420888,0.2360493,5.521666,0.07287574,-0.03557348,0.02721021,-0.03003718,-0.3707187,0.9278605
634796821446720000,0.08211143,0.08993158,-0.8758553,-7.68,12.54,-37.98,52,314,5,-0.0306281,0.01420888,0.2360493,5.524047,0.07295489,-0.03563022,0.02727209,-0.0300457,-0.3696113,0.9283001
634796821446920000,0.06647116,0.05083089,-0.8914956,-7.68,12.54,-37.98,52,314,5,0.3343932,0.1067652,0.137065,5.526383,0.07745433,-0.03465438,0.02957688,-0.03038995,-0.3684794,0.9286682
634796821447120000,0.05474096,0.03128055,-0.9266862,-7.68,12.54,-37.98,49,311,5,0.1705025,-0.108174,-0.1502287,5.526283,0.08342122,-0.03383839,0.03249677,-0.03111217,-0.3691541,0.9281797
634796821447320000,0.03519062,0.06256109,-0.9775171,-7.68,12.54,-37.98,42,304,5,0.1246941,0.01426741,-0.1491127,5.522964,0.08957553,-0.03582573,0.03493129,-0.03322577,-0.3698468,0.9278412
634796821447520000,0.03128055,0.113392,-1.000978,-7.08,12.6,-37.8,34,296,5,-0.04878686,0.2536849,-0.1075663,5.522461,0.0888009,-0.03351474,0.03499302,-0.03201991,-0.3701482,0.9277611
634796821447720000,0.04301075,0.1212121,-0.9814272,-7.08,12.6,-37.8,34,296,5,-0.2509816,0.3281806,-0.07454918,5.522917,0.08288074,-0.0275923,0.033353,-0.02817024,-0.3701603,0.9279414
634796821447920000,0.04692082,0.1055719,-0.9618768,-7.08,12.6,-37.8,38,300,5,-0.3552756,0.2345288,-0.1298514,5.522758,0.07330561,-0.02168953,0.03000369,-0.02366203,-0.3704789,0.9280546
634796821448120000,0.04692082,0.1016618,-0.9618768,-7.08,12.6,-37.8,42,304,5,-0.3212204,-0.03256318,-0.1915385,5.520696,0.06256461,-0.01881003,0.02553266,-0.02036232,-0.3716046,0.9278166
634796821448320000,0.06256109,0.1329423,-0.9853373,-7.08,12.6,-37.8,41,303,5,-0.09453195,-0.1826029,-0.2170799,5.517715,0.05409932,-0.01940536,0.02146611,-0.01909746,-0.3730617,0.9273615
634796821448540000,0.07038123,0.1642229,-1.051808,-7.08,12.6,-37.8,45,307,5,-0.03174532,-0.1996305,-0.1010524,5.513193,0.04701662,-0.02358782,0.01735604,-0.01975458,-0.375169,0.9265834
634796821448720000,0.06647116,0.1564027,-1.083089,-7.08,12.6,-37.8,45,307,5,-0.158376,-0.1623826,0.04049974,5.512505,0.0423553,-0.02628636,0.01468258,-0.02013517,-0.3754998,0.9264874
634796821448920000,0.07038123,0.1329423,-1.086999,-7.08,13.44,-37.2,43,305,5,-0.2871472,-0.2102727,0.2437561,5.51557,0.0370307,-0.02986824,0.01157445,-0.02077671,-0.3740915,0.9270868
634796821449120000,0.07038123,0.113392,-1.075269,-7.08,13.44,-37.2,40,302,5,-0.1487887,-0.2698693,0.3480501,5.521207,0.03231621,-0.03543591,0.008409535,-0.02245157,-0.3714662,0.9281369
634796821449320000,0.05865103,0.07820137,-1.043988,-7.08,13.44,-37.2,40,302,5,0.1278927,-0.05276845,0.3789127,5.52641,0.03127599,-0.0384444,0.007428708,-0.0236349,-0.3690297,0.9290873
634796821449520000,0.05083089,0.06256109,-1.012708,-7.08,13.44,-37.2,38,300,5,0.1896178,0.103657,0.3278299,5.540403,0.03458261,-0.03566885,0.009638024,-0.02288908,-0.3625128,0.9316478
634796821449730000,0.05083089,0.05865103,-0.9814272,-7.08,13.44,-37.2,33,295,5,0.005463608,0.1492882,0.2863251,5.547329,0.03306985,-0.0315969,0.009744224,-0.02068482,-0.3593454,0.9329244
634796821449920000,0.06647116,0.06256109,-0.9618768,-7.38,14.1,-37.2,31,293,5,-0.01902815,0.2056098,0.2841966,5.554145,0.0308752,-0.02768063,0.009487975,-0.01843177,-0.3562247,0.9341704
634796821450120000,0.07820137,0.05474096,-0.9384164,-7.38,14.1,-37.2,32,294,5,-0.01902815,0.2056098,0.2841966,5.559097,0.0291431,-0.02405798,0.009365501,-0.01640822,-0.3539596,0.9350699
634796821450320000,0.08602151,0.03128055,-0.9071358,-7.38,14.1,-37.2,32,294,5,-0.06480228,0.3024543,0.238435,5.565038,0.02622032,-0.01716459,0.009257687,-0.01264089,-0.3512585,0.9361475
634796821450520000,0.1016618,0.02346041,-0.8914956,-7.38,14.1,-37.2,35,297,5,0.08198438,0.05545419,0.03514945,5.56894,0.02524924,-0.01355719,0.009458018,-0.01076346,-0.3494635,0.9368404
634796821450720000,0.1173021,0.04301075,-0.914956,-7.38,14.1,-37.2,36,298,5,0.2426824,-0.003087024,-0.08082661,5.571097,0.0299511,-0.01165473,0.01200456,-0.01068095,-0.348442,0.9371926
634796821450920000,0.1251222,0.07820137,-0.969697,-7.38,14.1,-37.2,38,300,5,0.1330411,-0.1105542,-0.0169448,5.570633,0.03268361,-0.01242542,0.01314803,-0.01152119,-0.3486379,0.9370944
634796821451120000,0.1212121,0.09384164,-1.008798,-7.38,14.1,-37.2,38,300,5,-0.04793208,0.1246419,0.129915,5.571241,0.03369904,-0.01295793,0.01353445,-0.01194357,-0.3483427,0.9371935
634796821451320000,0.1173021,0.07038123,-0.9970675,-7.08,15.06,-37.2,37,299,5,-0.1298835,0.1926886,0.1128628,5.574202,0.03066969,-0.007393717,0.01309759,-0.008789257,-0.3470172,0.9377261
634796821451520000,0.1212121,0.03910068,-0.9618768,-7.08,15.06,-37.2,38,300,5,-0.1862816,0.04578293,-0.03612245,5.575656,0.02560544,-0.002444982,0.01158611,-0.005581853,-0.3463886,0.9380029
634796821451720000,0.1251222,0.02346041,-0.9657869,-7.08,15.06,-37.2,35,297,5,-0.1724266,-0.123411,-0.1350565,5.573837,0.01769471,-0.0003814697,0.008230357,-0.003251393,-0.3472695,0.9377236
634796821451920000,0.1212121,0.05083089,-1.004888,-7.08,15.06,-37.2,35,297,5,-0.2788298,-0.2255766,-0.1711822,5.571545,0.01304483,-0.001957893,0.00577282,-0.003189759,-0.3483457,0.9373429
634796821452120000,0.113392,0.1016618,-1.047898,-6.18,15.96,-37.26,30,292,5,-0.3852523,-0.1233936,-0.1168603,5.570184,0.006110191,-0.002351403,0.002452657,-0.002167976,-0.3489919,0.93712
634796821452320000,0.1212121,0.1212121,-1.075269,-6.18,15.96,-37.26,30,292,5,-0.3543898,0.149059,-0.04340846,5.570293,-0.001310587,3.123283E-05,-0.0006086589,0.0002432724,-0.3489459,0.9371426
634796821452520000,0.1485826,0.09775171,-1.051808,-6.18,15.96,-37.26,32,294,5,-0.1755915,0.3214487,0.06087646,5.571873,-0.005780458,0.004808307,-0.001872214,0.003260074,-0.3481966,0.937414
634796821452720000,0.172043,0.05474096,-1.008798,-6.18,15.96,-37.26,32,294,5,0.05212668,0.2980357,0.1363992,5.574936,-0.005908966,0.01046479,-0.0009566561,0.005932206,-0.3467489,0.9379387
634796821452920000,0.1642229,0.01173021,-0.9736071,-6.18,15.96,-37.26,34,296,5,0.1180265,0.02446481,0.1426937,5.580653,-0.002193213,0.01696348,0.001888793,0.00834107,-0.3440655,0.9389067
634796821453120000,0.1368524,-0.003910068,-0.9736071,-6.18,15.96,-37.26,34,296,5,-0.02139957,-0.07132801,0.02879816,5.583209,-0.001224995,0.01960039,0.002784955,0.009415909,-0.3428648,0.9393334
634796821453320000,0.1212121,0.007820137,-0.9931574,-6.12,16.62,-37.2,31,293,5,-0.1554607,-0.03833735,-0.04144113,5.584424,-0.002058267,0.02122331,0.002665592,0.01032262,-0.3422861,0.9395353
634796821453520000,0.1290323,0.04301075,-1.016618,-6.12,16.62,-37.2,31,293,5,-0.1798738,-0.02344341,-0.02440895,5.585292,-0.00473547,0.02312696,0.001728627,0.01167579,-0.3418588,0.9396772
634796821453720000,0.1368524,0.05083089,-1.020528,-6.12,16.62,-37.2,26,288,5,-0.1212777,-0.007496961,-0.03398049,5.586614,-0.007227897,0.02511585,0.0008890241,0.01303684,-0.3412153,0.9398944
634796821453920000,0.1446725,0.03519062,-1.004888,-6.12,16.62,-37.2,28,290,5,-0.002028752,0.03824461,-0.09674561,5.587195,-0.008556843,0.02653086,0.0005019498,0.01522409,-0.3409828,0.939946
634796821454120000,0.1446725,0.03519062,-0.9931574,-6.12,16.62,-37.2,29,291,5,0.07780431,-0.01286075,-0.1680041,5.585495,-0.008040428,0.03084838,0.00149429,0.01586849,-0.3417107,0.93967
634796821454320000,0.1446725,0.05865103,-0.9970675,-6.06,16.8,-37.38,29,291,5,0.08949535,-0.09055388,-0.1797106,5.583695,-0.006858587,0.03128362,0.002138286,0.0158691,-0.3425637,0.9393581
634796821454520000,0.1407625,0.07038123,-1.016618,-6.06,16.8,-37.38,29,291,5,0.001154561,-0.07140358,-0.130709,5.582657,-0.007181883,0.03202426,0.002121729,0.01627125,-0.3430457,0.9391754
634796821454720000,0.1368524,0.05865103,-1.024438,-6.06,16.8,-37.38,31,293,5,-0.06161461,0.02224771,-0.07108618,5.582557,-0.009062528,0.03436184,0.001640588,0.01769135,-0.3430653,0.9391435
634796821454920000,0.1407625,0.04692082,-1.016618,-6.06,16.8,-37.38,31,293,5,-0.02961219,0.1521195,-0.0561732,5.582873,-0.01021194,0.04100728,0.001577319,0.02124911,-0.3426838,0.9392092
634796821455120000,0.1407625,0.04301075,-0.9970675,-6.06,16.8,-37.38,29,291,5,-0.06255922,0.1105731,-0.06999238,5.583237,-0.01161051,0.04100728,0.001577319,0.02124911,-0.3426838,0.9392092
634796821455320000,0.1407625,0.04692082,-0.9775171,-6.06,16.8,-37.38,29,291,5,-0.1050639,-0.002268418,-0.05613936,5.583447,-0.01543856,0.04729879,0.0008559026,0.0248591,-0.3424972,0.9391896
634796821455520000,0.1407625,0.05083089,-0.9853373,-6.06,16.8,-37.38,29,291,5,-0.1081896,-0.06289084,-0.05718687,5.583763,-0.01784873,0.04806625,-0.0001483241,0.02563217,-0.3423125,0.9392365
634796821455720000,0.1368524,0.05083089,-1.012708,-6.06,16.8,-38.1,31,293,5,-0.0485521,-0.0596974,-0.07419235,5.583754,-0.01950311,0.04860449,-0.0008329584,0.02616802,-0.3422908,0.9392292
634796821455920000,0.1368524,0.06256109,-1.032258,-6.06,16.8,-38.1,31,293,5,-0.00385858,0.03181936,-0.02735313,5.583869,-0.02009272,0.04928994,-0.0009939156,0.02659075,-0.3422223,0.9392422
634796821456120000,0.1485826,0.06256109,-1.020528,-6.06,16.8,-38.1,31,293,5,-0.02409014,0.08607793,0.0130886,5.584901,-0.0206368,0.05193388,-0.0008108614,0.0279248,-0.3417067,0.9393914
634796821456320000,0.1603128,0.05083089,-1.004888,-6.06,16.8,-38.1,29,291,5,-0.0613393,0.01792707,0.03330536,5.588484,-0.02334833,0.05577743,-0.001480779,0.03019033,-0.3399462,0.939959
634796821456520000,0.1524927,0.04692082,-1.000978,-6.06,16.8,-38.1,29,291,5,-0.0135128,-0.06296436,0.1003089,5.591149,-0.0241003,0.05624104,-0.001795905,0.03053356,-0.3386772,0.9404054
634796821456720000,0.1407625,0.03519062,-0.9892473,-6.3,16.92,-38.4,32,294,5,-0.01247061,-0.07253142,0.1013409,5.59401,-0.02450752,0.05689203,-0.001921155,0.03090585,-0.3373187,0.9408811
634796821456920000,0.1290323,0.01955034,-0.9775171,-6.3,16.92,-38.4,31,293,5,-0.02951598,-0.1533557,0.03108145,5.59581,-0.02474379,0.05710829,-0.002023785,0.03104562,-0.3364654,0.9411818
634796821457120000,0.1290323,0.02737048,-0.9853373,-6.3,16.92,-38.4,31,293,5,-0.07743219,-0.1618695,0.01085372,5.597649,-0.02533555,0.05623507,-0.002477622,0.03073202,-0.3356004,0.9414998
634796821457320000,0.1329423,0.04301075,-0.9970675,-6.3,16.92,-38.4,30,292,5,-0.06148648,-0.1320712,0.04701854,5.601413,-0.02731252,0.05415129,-0.003815292,0.03007597,-0.3338202,0.9421492
634796821457520000,0.1407625,0.05474096,-1.016618,-6.3,16.92,-38.4,29,291,5,0.01084337,-0.02775682,0.08849023,5.604265,-0.0270493,0.05498576,-0.00359509,0.03041989,-0.3324713,0.9426158
634796821457720000,0.1446725,0.05083089,-1.016618,-6.18,16.92,-38.7,30,292,5,-0.007300282,0.01056072,0.09376527,5.607055,-0.02717805,0.05662977,-0.003425475,0.03121122,-0.331136,0.9430605
634796821457920000,0.1407625,0.04301075,-0.9970675,-6.18,16.92,-38.7,30,292,5,-0.04990781,-0.01604214,0.05008149,5.608475,-0.02778339,0.05748546,-0.003591466,0.03171229,-0.3304472,0.9432847
634796821458120000,0.1446725,0.04301075,-0.9892473,-6.18,16.92,-38.7,30,292,5,-0.04143019,-0.03945893,0.0425771,5.610328,-0.02880764,0.05830729,-0.003968285,0.03226528,-0.3295475,0.9435791
634796821458320000,0.1524927,0.03519062,-0.9892473,-6.18,16.92,-38.7,30,292,5,0.04898594,0.001027814,0.01912286,5.611794,-0.0283761,0.05961037,-0.003573498,0.0328062,-0.3288477,0.9438062
634796821458520000,0.1485826,0.03910068,-0.9970675,-6.18,16.92,-38.7,31,293,5,-0.03517723,-0.1170785,-0.05426919,5.612539,-0.02703714,0.0605458,-0.002799822,0.03302629,-0.328507,0.9439198
634796821458720000,0.1407625,0.05865103,-1.024438,-6.18,16.92,-38.7,31,293,5,-0.1532944,-0.1309134,0.03620825,5.613775,-0.02951431,0.05949902,-0.00416161,0.03293669,-0.3278949,0.9441307
634796821458920000,0.1446725,0.06256109,-1.051808,-6.06,17.22,-38.4,30,292,5,0.02549562,-0.01063152,0.06068553,5.615133,-0.03098678,0.05929195,-0.004913271,0.03307708,-0.3272317,0.9443523
634796821459120000,0.1564027,0.05865103,-1.047898,-6.06,17.22,-38.4,29,291,5,0.2532213,0.1032384,0.09472127,5.617414,-0.02937126,0.06132709,-0.003855132,0.03376896,-0.3261571,0.9447044
634796821459320000,0.1524927,0.04692082,-1.016618,-6.06,17.22,-38.4,29,291,5,0.3447446,0.1063938,0.1127808,5.620285,-0.02396488,0.06468236,-0.0008023241,0.03447047,-0.3248549,0.9451352
634796821459520000,0.1407625,0.02346041,-0.9931574,-6.06,17.22,-38.4,29,291,5,0.1627357,0.02657198,0.09252758,5.623129,-0.01814651,0.06626236,0.00215564,0.03427488,-0.3235944,0.9455724
634796821459720000,0.1290323,0.003910068,-0.9853373,-6.06,17.22,-38.4,29,291,5,-0.01611068,-0.03618623,0.04674365,5.626773,-0.01804399,0.06788051,0.002402548,0.03502758,-0.3218566,0.9461372
634796821459920000,0.1251222,0.01173021,-0.9892473,-5.82,16.86,-38.34,28,290,5,-0.1586845,-0.1308986,-0.04158172,5.627068,-0.01991391,0.06715381,0.0013956,0.03498502,-0.3216916,0.9461969
634796821460120000,0.1290323,0.03128055,-1.000978,-5.82,16.86,-38.34,28,290,5,-0.1021503,-0.0787197,-0.01704632,5.627732,-0.02227926,0.06628919,0.0001255895,0.03495657,-0.3213453,0.9463167
634796821460320000,0.1368524,0.04692082,-1.008798,-5.82,16.86,-38.34,26,288,5,-0.05427188,-0.1201672,0.04469534,5.62897,-0.023736,0.06594526,-0.0006407438,0.0350275,-0.3207378,0.9465199
634796821460520000,0.1368524,0.05083089,-1.008798,-5.82,16.86,-38.34,26,288,5,0.04787096,-0.02542946,-0.001041015,5.631149,-0.02438783,0.06504762,-0.001131268,0.03470609,-0.3197048,0.9468807
634796821460730000,0.1407625,0.05474096,-1.000978,-5.82,16.86,-38.34,29,291,5,0.1627644,0.08420765,0.02984514,5.63239,-0.02331257,0.06618106,-0.000462369,0.03507044,-0.3191237,0.9470639
634796821460920000,0.1446725,0.04301075,-0.9892473,-5.82,16.86,-38.34,29,291,5,0.1371955,-0.04456881,0.04050048,5.635014,-0.01901364,0.06901121,0.001978958,0.03572689,-0.3179274,0.9474397
634796821461120000,0.1329423,0.03128055,-0.9892473,-6.24,16.86,-38.34,31,293,5,0.04667998,-0.1041565,0.01817697,5.636485,-0.01789951,0.06877887,0.002443633,0.03544156,-0.3172525,0.9476755
634796821461320000,0.1290323,0.03910068,-0.9970675,-6.24,16.86,-38.34,31,293,5,-0.05445344,-0.135019,0.009710426,5.637359,-0.01891827,0.06756246,0.001752281,0.03502765,-0.3168325,0.9478329
634796821461520000,0.1290323,0.05474096,-1.000978,-6.24,16.86,-38.34,31,293,5,-0.02256521,-0.1105193,0.100135,5.63935,-0.01980996,0.06663429,0.001147835,0.03473026,-0.315882,0.948162
634796821461720000,0.1251222,0.05474096,-0.9970675,-6.24,16.86,-38.34,29,291,5,0.0348508,-0.07964376,0.1362537,5.642563,-0.0196085,0.06633258,0.001140106,0.03455731,-0.3143647,0.9486724
634796821461920000,0.113392,0.05474096,-0.9931574,-6.24,16.86,-38.34,30,292,5,0.3093705,0.0341964,0.1574727,5.646314,-0.01749635,0.06597209,0.002021272,0.03405821,-0.312625,0.9492637
634796821462120000,0.1055719,0.05474096,-0.9892473,-6.24,16.86,-38.34,30,292,5,0.349811,0.04270169,0.1712653,5.652782,-0.009292364,0.06799829,0.00612311,0.03375708,-0.3096754,0.9502232
634796821462320000,0.08602151,0.04692082,-0.969697,-6.24,16.86,-38.34,30,292,5,0.3604532,0.04908225,0.1936141,5.656929,-0.003562927,0.06963538,0.009029128,0.03366636,-0.3077903,0.9508156
634796821462520000,0.06256109,0.04301075,-0.9462366,-6.66,17.16,-38.04,29,291,5,0.3998296,-0.09460177,0.2468253,5.661426,0.002209902,0.07047749,0.01182853,0.03320479,-0.3057434,0.9514613
634796821462730000,0.06647116,0.03519062,-0.9501466,-6.66,17.16,-38.04,27,289,5,0.6009681,-0.2372079,0.3181284,5.667618,0.009719133,0.06797516,0.0149229,0.03091243,-0.3029259,0.9523957
634796821462920000,0.1173021,0.01564027,-0.914956,-6.66,17.16,-38.04,25,287,5,0.6765282,0.5471308,0.3947527,5.672936,0.01996207,0.06467819,0.01922773,0.02784162,-0.3005477,0.9531664
634796821463120000,0.1603128,-0.04301075,-0.9618768,-6.66,17.16,-38.04,25,287,5,-0.5303215,-0.713976,0.3000366,5.688087,0.02165723,0.05365992,0.01821337,0.02247293,-0.2933332,0.9555725
634796821463320000,0.1524927,-0.05865103,-1.16129,-6.66,17.16,-38.04,25,287,5,-0.485624,-0.4841034,-0.1001164,5.687264,0.01400971,0.0471127,0.01360893,0.0204599,-0.2936403,0.9556001
634796821463520000,0.1290323,0.01173021,-1.235582,-6.18,16.26,-38.52,31,293,5,0.8350727,-0.03285532,-0.3980995,5.682728,0.02318621,0.04696858,0.01801534,0.0190027,-0.2958975,0.9548607
634796821463720000,0.1016618,0.003910068,-1.184751,-6.18,16.26,-38.52,21,283,5,1.518305,0.002283053,-0.1937682,5.678766,0.05086303,0.05004215,0.03171258,0.01631095,-0.2980482,0.9538844
