Timestamp,Acc.X,Acc.Y,Acc.Z,Comp.X,Comp.Y,Comp.Z,Comp.TrueHeading,Comp.MagneticHeading,Comp.HeadingAccuracy,Gyro.X,Gyro.Y,Gyro.Z,Motion.Yaw,Motion.Pitch,Motion.Roll,Motion.X,Motion.Y,Motion.Z,Motion.W
634796821674920000,0.08211143,0.04301075,-1.000978,0,0,0,0,0,0,0,0,0,0,0,0,0,0,0,0
634796821675120000,0.06647116,0.01173021,-0.9892473,0,0,0,0,0,0,0,0,0,0,0,0,0,0,0,0
634796821675320000,0.06256109,0.003910068,-0.9775171,0,0,0,0,0,0,0,0,0,0,0,0,0,0,0,0
634796821675520000,0.07038123,0.02346041,-0.9853373,0,0,0,0,0,0,0,0,0,0,0,0,0,0,0,0
634796821675720000,0.08211143,0.05474096,-1.000978,0,0,0,0,0,0,0,0,0,0,0,0,0,0,0,0
634796821675920000,0.08211143,0.07038123,-1.008798,0,0,0,0,0,0,0.04332724,-0.008619383,0.1723903,0,0,0,0,0,0,0
634796821676120000,0.08993158,0.04692082,-1.008798,-3.48,17.82,-37.92,18,280,5,0.165664,0.1296778,0.125523,0,0,0,0,0,0,0
634796821676320000,0.1016618,0.01955034,-1.004888,-3.48,17.82,-37.92,18,280,5,0.06448244,0.02960727,0.04989408,0,0,0,0,0,0,0
634796821676520000,0.09775171,0.007820137,-1.000978,-3.54,17.34,-38.4,18,280,5,-0.02385793,0.008301806,-0.03633029,0,0,0,0,0,0,0
634796821676720000,0.08993158,0.01955034,-0.9853373,-3.54,17.34,-38.4,17,279,5,-0.1430398,0.02636894,-0.1086525,0,0,0,0,0,0,0
634796821676920000,0.09384164,0.03910068,-0.9892473,-3.54,17.34,-38.4,17,279,5,-0.3548206,-0.1236848,-0.1181475,0,0,0,0,0,0,0
634796821677120000,0.09775171,0.05865103,-1.012708,-3.54,17.34,-38.4,17,279,5,-0.2750037,-0.2077586,-0.095723,0,0,0,0,0,0,0
634796821677330000,0.08602151,0.08993158,-1.020528,-3.3,16.38,-38.16,18,280,5,0.03573868,-0.0342919,0.01607268,0,0,0,0,0,0,0
634796821677520000,0.0742913,0.08602151,-1.012708,-3.3,16.38,-38.16,19,281,5,0.09853063,0.1338195,0.09059888,0,0,0,0,0,0,0
634796821677720000,0.08602151,0.03910068,-0.9931574,-3.3,16.38,-38.16,19,281,5,0.04001474,0.1071776,0.09274074,0,0,0,0,0,0,0
634796821677920000,0.09775171,0.01955034,-0.9814272,-3.3,16.38,-38.16,19,281,5,-0.1323433,0.001818748,-0.04025452,0,0,0,0,0,0,0
634796821678120000,0.1016618,0.03910068,-0.9931574,-3.3,16.38,-38.16,17,279,5,-0.4058492,-0.1375815,-0.1093834,5.952159,-0.06809496,0.08538377,-0.02651745,0.04767466,-0.16308,0.9851035
634796821678320000,0.08993158,0.07038123,-1.024438,-3.3,16.38,-38.16,17,279,5,0.0741404,-0.3919314,0.003440333,5.952159,-0.06809496,0.08538377,-0.02651745,0.04767466,-0.16308,0.9851144
634796821678520000,0.07038123,0.08993158,-1.032258,-3.3,16.38,-38.16,17,279,5,0.4636468,0.1987,0.005603477,5.952695,-0.05159163,0.08107102,-0.01875687,0.04419842,-0.1632734,0.9854118
634796821678720000,0.08602151,0.06647116,-1.024438,-2.4,16.86,-38.1,16,278,5,0.4753533,0.2465901,0.01727579,5.957486,-0.04996228,0.0832628,-0.01788105,0.04510219,-0.1609142,0.9857752
634796821678920000,0.09775171,0.04301075,-1.016618,-2.4,16.86,-38.1,15,277,5,0.1709849,0.070972,0.03218271,5.957486,-0.04996228,0.0832628,-0.01788105,0.04510219,-0.1609142,0.9857752
634796821679120000,0.08993158,0.03519062,-1.000978,-2.4,16.86,-38.1,14,276,5,-0.05994814,0.03372699,0.0204823,5.971444,-0.04978633,0.08575523,-0.01791397,0.04619218,-0.1539953,0.9868287
634796821679320000,0.08602151,0.03128055,-0.9853373,-1.98,17.4,-37.5,12,274,5,-0.2685252,0.08586839,-0.03170687,5.974979,-0.05028724,0.08820343,-0.01805392,0.04740645,-0.1522005,0.987047
634796821679540000,0.08993158,0.03910068,-0.9814272,-1.98,17.4,-37.5,12,274,5,-0.3142869,-0.03757131,-0.0689423,5.978497,-0.05188226,0.0897957,-0.01880306,0.0482803,-0.1504007,0.9872665
634796821679720000,0.09384164,0.06256109,-0.9931574,-1.98,17.4,-37.5,12,274,5,-0.09717367,-0.2376205,-0.058286,5.991318,-0.05232715,0.08672345,-0.01955684,0.0466733,-0.1441081,0.9882672
634796821679920000,0.08993158,0.07820137,-1.004888,-1.98,17.4,-37.5,12,274,5,0.1380224,-0.1045635,-0.03808988,5.99528,-0.05060363,0.0856471,-0.01887497,0.04598009,-0.1422067,0.9885883
634796821680120000,0.08602151,0.07038123,-1.004888,-1.98,17.4,-37.5,14,276,5,0.2689221,0.09660206,-0.02642161,5.997191,-0.04910135,0.08713567,-0.0180696,0.04659158,-0.1412736,0.9887085
634796821680320000,0.08993158,0.05083089,-1.004888,-1.98,17.4,-37.5,14,276,5,0.1390613,0.08273414,-0.00833734,5.997191,-0.04910135,0.08713567,-0.0180696,0.04659158,-0.1412736,0.9887085
634796821680520000,0.08602151,0.04301075,-0.9931574,-1.98,17.4,-37.5,13,275,5,-0.2036788,0.03371103,-0.04763247,6.008267,-0.0589633,0.0892576,-0.0230596,0.0482091,-0.1355277,0.9893313
634796821680730000,0.08602151,0.04692082,-0.9814272,-1.98,17.4,-37.5,13,275,5,-0.2036788,0.03371103,-0.04763247,6.011542,-0.05988264,0.08907104,-0.02360608,0.04814056,-0.1338891,0.9895448
634796821680920000,0.08211143,0.06256109,-0.9931574,-1.44,17.4,-37.08,10,272,5,-0.09934331,-0.2440723,-0.02205031,6.011542,-0.05988264,0.08907104,-0.02360608,0.04814056,-0.1338891,0.9895448
634796821681120000,0.07038123,0.07820137,-1.008798,-1.44,17.4,-37.08,10,272,5,0.03690476,0.004944071,0.03647143,6.024045,-0.0603683,0.083274,-0.02452482,0.04515333,-0.1277915,0.9904691
634796821681320000,0.0742913,0.07038123,-1.004888,-1.44,17.4,-37.08,10,272,5,0.09116938,0.1442819,0.04178181,6.03045,-0.06008648,0.08457195,-0.02444725,0.0456998,-0.1246025,0.9908522
634796821681520000,0.09384164,0.05474096,-1.000978,-1.44,17.4,-37.08,10,272,5,0.03150626,0.03994325,0.02153493,6.034702,-0.06033278,0.08537614,-0.02461605,0.04606124,-0.1224758,0.9910964
634796821681720000,0.09775171,0.05083089,-0.9970675,-1.14,18.66,-36.9,7,269,5,-0.09089316,0.01438343,0.005520681,6.034702,-0.06033278,0.08537614,-0.0264343,0.04578995,-0.116438,0.9917896
634796821681920000,0.08993158,0.05083089,-0.9892473,-1.14,18.66,-36.9,7,269,5,-0.1419585,0.01435843,-0.01154577,6.050639,-0.06478762,0.08521795,-0.02720122,0.04604024,-0.1144751,0.9919858
634796821682120000,0.08211143,0.05474096,-0.9853373,-1.14,18.66,-36.9,7,269,5,-0.08342676,-0.1122917,-0.05729596,6.052756,-0.06480432,0.08455955,-0.02729641,0.04568588,-0.1134368,0.9921188
634796821682320000,0.08602151,0.06647116,-1.004888,-1.14,18.66,-36.9,9,271,5,0.05383243,-0.1484754,-0.08064814,6.052756,-0.06480432,0.08455955,-0.02729641,0.04568588,-0.1134368,0.9921188
634796821682520000,0.09384164,0.07820137,-1.024438,-1.14,18.66,-36.9,8,270,5,0.1506748,-0.03248323,-0.02959556,6.059532,-0.05980277,0.08123707,-0.02515621,0.04366926,-0.110245,0.9926259
634796821682720000,0.09775171,0.07038123,-1.020528,-1.62,18.3,-36.54,10,272,5,0.09954803,0.08454131,0.005547712,6.06388,-0.05867982,0.08255827,-0.02462061,0.04420949,-0.108089,0.9928525
634796821682940000,0.1016618,0.05474096,-1.004888,-1.62,18.3,-36.54,10,272,5,-0.04842662,0.01108476,0.0098127,6.066019,-0.05996251,0.08352756,-0.02525162,0.04473284,-0.1069826,0.9929331
634796821683120000,0.09384164,0.05865103,-1.000978,-1.62,18.3,-36.54,11,273,5,-0.0707892,-0.1080833,-0.0136126,6.068776,-0.06377554,0.08248054,-0.02726323,0.04437953,-0.105547,0.9930494
634796821683320000,0.08602151,0.06256109,-1.000978,-1.62,18.3,-36.54,11,273,5,0.09526867,-0.07184926,-0.06039487,6.068709,-0.06213688,0.08199799,-0.02647421,0.04405439,-0.1056253,0.9930769
634796821683520000,0.08993158,0.07038123,-1.004888,-1.62,18.3,-36.54,11,273,5,0.009062496,-0.06653526,-0.03060178,6.068508,-0.06092572,0.08205605,-0.02586524,0.04402182,-0.1057505,0.993081
634796821683720000,0.08993158,0.07820137,-1.008798,-1.62,18.3,-36.54,11,273,5,-0.1111569,-0.06546465,0.01729612,6.068508,-0.06092572,0.08205605,-0.02586524,0.04402182,-0.1057505,0.993081
634796821683920000,0.08993158,0.0742913,-0.9970675,-1.26,17.4,-37.32,11,273,5,-0.09731787,-0.05162738,0.02264896,6.07066,-0.06337023,0.08123219,-0.02717066,0.04371292,-0.1046431,0.9931771
634796821684130000,0.08993158,0.06647116,-0.9892473,-1.26,17.4,-37.32,11,273,5,-0.05050889,-0.05696138,-0.008185581,6.07204,-0.06734943,0.08083414,-0.0291981,0.0437033,-0.1038782,0.9932003
634796821684320000,0.08993158,0.06647116,-0.9931574,-1.26,17.4,-37.32,11,273,5,-0.05046547,-0.08036455,-0.04007775,6.07204,-0.06734943,0.08083414,-0.0291981,0.0437033,-0.1038782,0.9932003
634796821684520000,0.08993158,0.0742913,-1.000978,-1.26,17.4,-37.32,11,273,5,-0.04508251,-0.1101528,-0.05176507,6.071573,-0.06975031,0.07910752,-0.0304724,0.04297792,-0.1040909,0.9931714
634796821684720000,0.08993158,0.08602151,-1.004888,-1.26,17.4,-37.32,11,273,5,-0.04078134,-0.08355051,-0.01346275,6.071591,-0.07025766,0.07838296,-0.03076339,0.04264433,-0.104085,0.9931774
634796821684920000,0.09384164,0.08602151,-1.004888,-1.26,17.4,-37.32,11,273,5,-0.04073931,-0.02715276,0.04080123,6.072015,-0.07082438,0.07842624,-0.03105152,0.04268871,-0.103862,0.9931899
634796821685120000,0.09384164,0.07820137,-0.9970675,-1.26,18.12,-37.5,10,272,5,-0.01628777,-0.0101343,0.02590762,6.072995,-0.07242203,0.07906521,-0.03183195,0.04307326,-0.103328,0.9932043
634796821685320000,0.09384164,0.07820137,-1.000978,-1.26,18.12,-37.5,11,273,5,-0.03114893,-0.03780969,0.007838564,6.073666,-0.07531857,0.07987808,-0.03324188,0.04361526,-0.1029157,0.9931772
634796821685520000,0.08993158,0.07820137,-1.004888,-1.26,18.12,-37.5,11,273,5,-0.05027519,-0.05696861,0.03127483,6.074137,-0.0761354,0.07991254,-0.0336559,0.04366644,-0.102663,0.9931872
634796821685720000,0.08602151,0.07820137,-0.9970675,-1.26,18.12,-37.5,11,273,5,0.0125325,-0.05804625,0.03767624,6.075101,-0.0763166,0.07996702,-0.03376407,0.04368657,-0.1021792,0.9932325
634796821685920000,0.08602151,0.07820137,-0.9970675,-1.26,18.12,-37.5,11,273,5,-0.02144991,-0.05276961,0.06961428,6.076317,-0.07613134,0.08007764,-0.03369282,0.04371154,-0.1015773,0.9932956
634796821686120000,0.08993158,0.07820137,-1.004888,-1.44,18.12,-37.32,10,272,5,-0.004401127,-0.05596941,0.08131597,6.078055,-0.07656907,0.07989704,-0.03395758,0.0436146,-0.100708,0.9933794
634796821686340000,0.08993158,0.0742913,-1.008798,-1.44,18.12,-37.32,10,272,5,0.06691281,-0.04850856,0.06426623,6.079302,-0.07677317,0.07971978,-0.03409532,0.04351561,-0.1000883,0.9934416
634796821686520000,0.08602151,0.07038123,-1.012708,-1.44,18.12,-37.32,10,272,5,0.06155178,-0.05275365,0.05463148,6.082136,-0.07465315,0.07938205,-0.03312089,0.04319486,-0.09873299,0.9936242
634796821686720000,0.08602151,0.07038123,-1.012708,-1.44,18.12,-37.32,11,273,5,0.01793196,-0.04211788,0.0343681,6.083156,-0.0738833,0.07930017,-0.03276455,0.04309947,-0.09824459,0.9936885
634796821686920000,0.08211143,0.0742913,-1.008798,-1.44,18.12,-37.32,10,272,5,-0.01509244,-0.04000561,0.04921585,6.08375,-0.07363486,0.07931661,-0.03265315,0.04308578,-0.09795444,0.9937215
634796821687120000,0.08211143,0.08211143,-1.008798,-1.44,18.12,-37.32,10,272,5,0.01044726,-0.04001242,0.06298469,6.085272,-0.07337093,0.07915615,-0.03256273,0.04296836,-0.09720691,0.9938029
634796821687320000,0.08211143,0.07820137,-1.012708,-1.2,18.6,-37.08,8,270,5,0.04877405,-0.07298297,0.05656358,6.086919,-0.07190943,0.07786465,-0.03197522,0.04219967,-0.09551903,0.9940186
634796821687530000,0.07820137,0.0742913,-1.012708,-1.2,18.6,-37.08,8,270,5,0.07857289,-0.04529119,0.02890086,6.088784,-0.07190943,0.07786465,-0.03197522,0.04219967,-0.09551903,0.9940186
634796821687720000,0.0742913,0.0742913,-1.000978,-1.2,18.6,-37.08,8,270,5,0.01681473,-0.03996463,0.03635543,6.092002,-0.07156825,0.07696235,-0.03191717,0.0416837,-0.0939441,0.9941923
634796821687920000,0.0742913,0.0742913,-0.9931574,-1.2,18.6,-37.08,8,270,5,-0.0002518222,-0.02932675,0.01504943,6.09386,-0.07190775,0.07650828,-0.03214644,0.04144418,-0.09302261,0.9942815
634796821688120000,0.07820137,0.08211143,-0.9931574,-1.2,18.6,-37.08,8,270,5,0.009275441,-0.05166292,0.006523606,6.095377,-0.07186961,0.07578432,-0.03219322,0.04105817,-0.09228297,0.994365
634796821688320000,0.07820137,0.08602151,-0.9853373,-1.5,19.02,-36.54,8,270,5,0.002866145,-0.07931712,0.05122457,6.096567,-0.07191991,0.07522762,-0.03226894,0.04076459,-0.09170172,0.9944284
634796821688520000,0.0742913,0.08211143,-0.9853373,-1.5,19.02,-36.54,9,271,5,0.0294407,-0.07397727,0.0533378,6.098662,-0.07264018,0.07400775,-0.03272675,0.04015695,-0.09066908,0.9945328
634796821688720000,0.07038123,0.0742913,-0.9814272,-1.5,19.02,-36.54,9,271,5,0.04326456,-0.0601349,0.043717,6.102361,-0.07337784,0.0722264,-0.03324934,0.03924336,-0.08885019,0.9947161
634796821688920000,0.07038123,0.07038123,-0.9892473,-1.5,19.02,-36.54,9,271,5,0.01773273,-0.1399412,0.01706327,6.104035,-0.07366537,0.0704466,-0.03350586,0.03834317,-0.08804779,0.9948139
634796821689120000,0.06256109,0.07038123,-1.024438,-1.5,19.02,-36.54,8,270,5,0.2391006,-0.1207771,0.04468129,6.10501,-0.0734055,0.06878459,-0.03347019,0.03748886,-0.08760057,0.9948872
634796821689320000,0.04301075,0.06647116,-0.9892473,-1.5,19.02,-36.54,8,270,5,0.4977073,0.3868501,0.04142912,6.107426,-0.06689572,0.06827021,-0.03029951,0.03691112,-0.0865294,0.9951041
634796821689520000,0.07820137,0.01955034,-0.9345064,-1.5,19.02,-36.54,8,270,5,-0.1067431,0.2878772,-0.1618448,6.108439,-0.06884122,0.07694137,-0.03090004,0.04129483,-0.08589888,0.994968
634796821689740000,0.1094819,0.03519062,-0.9657869,-1.74,18.72,-36.54,7,269,5,-0.7357002,-0.2825533,-0.1969642,6.108295,-0.06884122,0.07694137,-0.03090004,0.04129483,-0.08589888,0.994968
634796821689920000,0.09775171,0.06647116,-0.9853373,-1.74,18.72,-36.54,5,267,5,-0.4409098,-0.03884357,-0.06288058,6.104515,-0.08268619,0.07334828,-0.03787035,0.04017343,-0.08757091,0.9946272
634796821690120000,0.09775171,0.06647116,-0.9892473,-1.74,18.72,-36.54,5,267,5,-0.1940095,-0.01969252,-0.05966811,6.101271,-0.08191705,0.07570684,-0.03731406,0.04137298,-0.08914709,0.994459
634796821690320000,0.09384164,0.05865103,-0.9931574,-1.74,18.72,-36.54,5,267,5,-0.002407409,0.04307707,-0.1383609,6.097198,-0.0804367,0.07797264,-0.03638688,0.04250749,-0.09115404,0.9942636
634796821690520000,0.08602151,0.05865103,-1.008798,-1.74,18.72,-36.54,12,274,5,0.4126289,0.1206887,-0.03406956,6.093783,-0.07550382,0.0808388,-0.03372485,0.04376471,-0.0928968,0.9941416
634796821690720000,0.08602151,0.04692082,-0.9931574,-1.8,18.66,-36.48,12,274,5,0.2327749,0.08446458,0.06382128,6.092547,-0.06985235,0.08276022,-0.03079598,0.04447597,-0.09359706,0.9941394
634796821690930000,0.07820137,0.007820137,-0.9423265,-1.8,18.66,-36.48,12,274,5,-0.4334401,-0.202886,0.08299095,6.093063,-0.06229996,0.08496594,-0.02694713,0.04521152,-0.09346975,0.9942299
634796821691120000,0.06256109,-0.01955034,-0.9305963,-1.8,18.66,-36.48,10,272,5,-0.6622485,-0.4316944,0.09254876,6.09752,-0.07360148,0.07757771,-0.03301415,0.04199407,-0.09114608,0.9944038
634796821691320000,0.05083089,-0.02346041,-0.9462366,-1.8,18.66,-36.48,10,272,5,-0.4525962,-0.3422995,-0.03621259,6.099846,-0.08018803,0.07089769,-0.03664814,0.0389312,-0.08999541,0.9945059
634796821691520000,0.05474096,-0.007820137,-0.9618768,-1.8,18.66,-36.48,10,272,5,-0.1503452,-0.06346836,-0.05744548,6.10055,-0.08063769,0.06899881,-0.0369732,0.03799444,-0.08967797,0.9945589
634796821691720000,0.05474096,-0.003910068,-0.9657869,-1.8,18.66,-36.48,7,269,5,-0.006685806,-0.04750796,0.06178403,6.103057,-0.07873582,0.06885278,-0.03608156,0.03779138,-0.08847057,0.9947075
634796821691940000,0.05865103,-0.01564027,-0.9657869,-2.4,18.36,-36.3,7,269,5,0.03795748,-0.01452219,0.09050065,6.107512,-0.06932902,0.0680815,-0.03152021,0.03692115,-0.08644522,0.9950731
634796821692120000,0.05865103,-0.03519062,-0.9853373,-2.4,18.36,-36.3,7,269,5,0.02938813,-0.08262301,0.03830626,6.113518,-0.05348516,0.06487631,-0.02388211,0.03456876,-0.08379263,0.9955971
634796821692320000,0.05865103,-0.03910068,-1.020528,-2.4,18.36,-36.3,8,270,5,-0.01746971,-0.1773275,-0.02451388,6.114387,-0.04913235,0.06281149,-0.02181797,0.03334905,-0.0834635,0.9957137
634796821692520000,0.05865103,-0.03910068,-1.051808,-2.4,18.36,-36.3,8,270,5,-0.02918714,-0.1560429,-0.07132766,6.114971,-0.04260635,0.06009674,-0.01869329,0.03171952,-0.08331345,0.995843
634796821692720000,0.05083089,-0.04301075,-1.051808,-2.4,18.36,-36.3,7,269,5,-0.008987938,-0.1773275,-0.04573964,6.115871,-0.03724027,0.05733347,-0.01615174,0.0301128,-0.0829786,0.9959653
634796821692920000,0.04692082,-0.06256109,-1.032258,-2.82,18.9,-36.18,7,269,5,0.08565893,-0.01981958,0.02769583,6.117545,-0.03366899,0.05624318,-0.01444361,0.02940959,-0.08220971,0.9960763
634796821693130000,0.05474096,-0.08602151,-1.012708,-2.82,18.9,-36.18,7,269,5,0.03137589,0.01953111,0.01169329,6.120981,-0.02424359,0.05661118,-0.009784211,0.02918834,-0.08063284,0.9962684
634796821693320000,0.06647116,-0.09384164,-0.9970675,-2.82,18.9,-36.18,7,269,5,-0.01225117,-0.03688996,-0.03722254,6.122447,-0.01657462,0.05641782,-0.005992819,0.02877824,-0.08001485,0.9963601
634796821693520000,0.07820137,-0.08993158,-0.9853373,-2.82,18.9,-36.18,5,267,5,-0.04843216,-0.02306482,-0.08404897,6.122801,-0.009358883,0.05620932,-0.002411544,0.02838507,-0.07994254,0.9963923
634796821693720000,0.08602151,-0.08211143,-0.9775171,-2.82,18.9,-36.18,7,269,5,-0.1058732,-0.07307372,-0.08294953,6.122605,-0.002995253,0.05603683,0.0007547169,0.02804452,-0.08013096,0.9963895
634796821693920000,0.08993158,-0.08211143,-0.9814272,-2.58,19.14,-36.12,8,270,5,-0.08350083,-0.0751713,-0.0425177,6.122221,0.003391266,0.05593908,0.003937755,0.02773909,-0.0804111,0.9963679
634796821694120000,0.08211143,-0.08993158,-0.9775171,-2.58,19.14,-36.12,8,270,5,0.05377346,0.06105409,-0.002073525,6.12236,0.007800102,0.05667496,0.0061618,0.02792874,-0.08040319,0.996352
634796821694320000,0.07820137,-0.1094819,-0.9423265,-2.58,19.14,-36.12,9,271,5,0.1590925,0.1706298,0.02031628,6.123924,0.0256598,0.06534397,0.01538035,0.03153996,-0.07991505,0.9961838
634796821694520000,0.08602151,-0.1329423,-0.8914956,-2.58,19.14,-36.12,8,270,5,0.1590816,0.176955,0.01605247,6.124852,0.03515768,0.06906939,0.02024257,0.03302508,-0.07962962,0.9960716
634796821694720000,0.1055719,-0.1446725,-0.8758553,-2.58,19.14,-36.12,8,270,5,0.0845715,0.02048636,-0.03188013,6.124909,0.03936147,0.06921136,0.02234081,0.032929,-0.07967174,0.9960266
634796821694920000,0.1094819,-0.1368524,-0.914956,-2.58,19.14,-36.12,8,270,5,0.08983867,-0.1646802,-0.05524136,6.124112,0.04367637,0.06619251,0.02438398,0.03124375,-0.0801108,0.9959978
634796821695120000,0.09775171,-0.1173021,-0.9657869,-2.46,19.14,-36.12,11,273,5,0.103622,-0.006097345,0.0288585,6.12334,0.04856109,0.06391323,0.0267385,0.02990245,-0.0805465,0.9959434
634796821695320000,0.09384164,-0.1173021,-0.9970675,-2.46,19.14,-36.12,10,272,5,0.2249144,-0.05291463,0.1129139,6.123708,0.05387783,0.06416464,0.02939044,0.02981883,-0.08044554,0.9958793
634796821695520000,0.1094819,-0.1329423,-1.024438,-2.46,19.14,-36.12,8,270,5,0.4782,0.06945083,0.1192546,6.126231,0.06608056,0.06645679,0.0355175,0.03051364,-0.0794044,0.9957421
634796821695720000,0.1212121,-0.1446725,-1.051808,-2.46,19.14,-36.12,8,270,5,0.4750073,-0.04229494,0.09793352,6.130451,0.08752655,0.06996452,0.04626092,0.03150408,-0.07769889,0.9954046
634796821695920000,0.113392,-0.1407625,-1.098729,-2.46,19.14,-36.12,8,270,5,0.3377222,-0.07419796,0.02022561,6.131488,0.09766483,0.06998861,0.0512909,0.03114838,-0.07734201,0.9951971
634796821696120000,0.08993158,-0.1173021,-1.1261,-2.46,19.14,-36.12,8,270,5,0.2302355,-0.07523675,-0.002134612,6.131319,0.1035573,0.06891263,0.05418559,0.03038032,-0.07749138,0.9950558
634796821696320000,0.05474096,-0.08211143,-1.14565,-1.92,19.14,-36.24,6,268,5,0.2408778,-0.05180561,0.05319594,6.132425,0.1087365,0.06783044,0.05670591,0.02967242,-0.07699164,0.9949755
634796821696530000,0.03910068,-0.05083089,-1.1652,-1.92,19.14,-36.24,4,266,5,0.6239988,0.09186245,0.2096434,6.134737,0.1127615,0.06714642,0.05864931,0.02924486,-0.07588314,0.9949607
634796821696720000,0.05865103,-0.04692082,-1.16911,-1.92,19.14,-36.24,4,266,5,0.8879266,0.3845033,0.2745612,6.150132,0.1378789,0.07609594,0.07120542,0.03328848,-0.06888673,0.9945232
634796821696920000,0.08211143,-0.05083089,-1.15738,-1.92,19.14,-36.24,4,266,5,-0.07411863,-0.03694647,-0.07340801,6.155871,0.142874,0.07980764,0.07370631,0.03517394,-0.06624314,0.9944556
634796821697120000,0.08602151,-0.04301075,-1.180841,-1.92,19.14,-36.24,2,264,5,-0.5881394,-0.2817182,-0.3628772,6.154103,0.1344132,0.07742667,0.06945659,0.03420782,-0.06689661,0.9947515
634796821697320000,0.09384164,-0.003910068,-1.262952,-1.32,18.48,-35.94,3,265,5,-0.9223061,-0.3668563,-0.555502,6.149577,0.1237965,0.07397484,0.06414226,0.03269932,-0.06886341,0.9950248
634796821697520000,0.1055719,0.06256109,-1.305963,-1.32,18.48,-35.94,3,265,5,-0.6392223,-0.05397109,-0.3990609,6.140845,0.1043775,0.06839084,0.05443043,0.03034845,-0.07275095,0.9954013
634796821697720000,0.1173021,0.09775171,-1.235582,-1.32,18.48,-35.94,3,265,5,-0.1539091,0.2003331,-0.2266564,6.132756,0.08419465,0.07112408,0.04460869,0.03226219,-0.07652198,0.9955469
634796821697920000,0.1173021,0.06256109,-1.11828,-1.32,18.48,-35.94,4,266,5,0.2845529,0.1928628,-0.1063102,6.130835,0.08470058,0.07322836,0.04496985,0.03324733,-0.07752779,0.9954204
634796821698120000,0.08602151,0.007820137,-1.051808,-1.32,18.48,-35.94,7,269,5,0.1962222,-0.188116,-0.1871328,6.128415,0.08450651,0.07118105,0.04483595,0.03218142,-0.07868848,0.9953704
634796821698320000,0.05865103,0,-1.028348,-1.32,18.48,-35.94,7,269,5,-0.1389709,-0.2626118,-0.3925283,6.122635,0.08102465,0.06668711,0.04301942,0.02995681,-0.08142417,0.9953
634796821698520000,0.05083089,0.01955034,-0.9970675,-1.62,18.06,-35.94,7,269,5,-0.3816142,-0.1700242,-0.4404184,6.115891,0.07267689,0.06318796,0.03882289,0.0284236,-0.08459653,0.9952529
634796821698720000,0.05474096,0.03910068,-0.9345064,-1.62,18.06,-35.94,7,269,5,-0.489101,-0.1742249,-0.2807846,6.10733,0.04212689,0.05764675,0.02350202,0.0268529,-0.08836291,0.9954489
634796821698920000,0.04692082,0.02346041,-0.8875855,-1.62,18.06,-35.94,7,269,5,-0.489101,-0.1742249,-0.2807846,6.10733,0.04212689,0.05764675,0.02350202,0.0268529,-0.08836291,0.9954489
634796821699120000,0.03519062,-0.007820137,-0.8680352,-1.62,18.06,-35.94,7,269,5,-0.1921822,-0.1891241,-0.3073902,6.102546,0.02783847,0.0504589,0.01613274,0.02386652,-0.09050886,0.9954789
634796821699320000,0.03519062,-0.01564027,-0.8484849,-1.62,18.06,-35.94,5,267,5,-0.08890593,-0.0848201,-0.2499221,6.099805,0.02356863,0.04745615,0.0139035,0.02254586,-0.09180787,0.9954244
634796821699520000,0.03519062,-0.007820137,-0.7898338,-1.56,18.24,-36.36,4,266,5,-0.05591548,0.05671779,-0.1328027,6.099329,0.02175999,0.04670382,0.01297427,0.02225133,-0.09202111,0.9954239
634796821699720000,0.04301075,-0.01173021,-0.742913,-1.56,18.24,-36.36,4,266,5,0.02707163,0.2184135,0.04174924,6.101773,0.02098274,0.04913246,0.0126698,0.02351144,-0.09080581,0.9955105
634796821699930000,0.06256109,-0.05083089,-0.6920821,-1.56,18.24,-36.36,4,266,5,0.2558507,-0.1998663,0.02475868,6.110089,0.02983451,0.04884076,0.01696692,0.02303486,-0.0867673,0.9958177
634796821700120000,0.05083089,-0.08211143,-0.7194526,-1.56,18.24,-36.36,8,270,5,0.2558507,-0.1998663,0.02475868,6.110089,0.02983451,0.04884076,0.01696692,0.02303486,-0.0867673,0.9958177
634796821700320000,0.03128055,-0.08211143,-0.7702835,-1.56,18.24,-36.36,12,274,5,0.4303836,-0.1647469,-0.05502575,6.110918,0.03928471,0.04621815,0.02155054,0.02132772,-0.08643979,0.9957956
634796821700520000,0.01173021,-0.06256109,-0.8367546,-1.56,18.24,-36.36,12,274,5,0.432512,-0.04871488,-0.108185,6.111865,0.04924512,0.0455426,0.02647095,0.02057312,-0.08606601,0.9957252
634796821700720000,0.007820137,-0.05474096,-0.8993157,-1.56,18.24,-36.36,8,270,5,0.337796,-0.04550039,-0.03255868,6.113525,0.05436015,0.04524386,0.02898791,0.0202283,-0.08528792,0.9957291
634796821700920000,0.01173021,-0.06256109,-0.9462366,-1.62,18.18,-36.54,4,266,5,0.6187515,-0.09547895,0.146243,6.1186,0.06219864,0.04497802,0.03282882,0.01984487,-0.08283633,0.9958246
634796821701120000,0.01564027,-0.08602151,-1.008798,-1.62,18.18,-36.54,0,262,5,0.6347148,-0.2242502,0.1898612,6.132161,0.08376455,0.04020929,0.04325761,0.01687036,-0.07619869,0.996011
634796821701320000,0.01564027,-0.1173021,-1.086999,-1.62,18.18,-36.54,0,262,5,0.6549351,-0.1912592,0.1845401,6.139477,0.09582638,0.03523636,0.04902718,0.0141137,-0.07254045,0.9960598
634796821701520000,0.003910068,-0.113392,-1.14956,-1.62,18.18,-36.54,0,262,5,0.7028252,-0.1273909,0.2196595,6.144101,0.103795,0.03281987,0.05288053,0.01274345,-0.07023263,0.9960465
634796821701720000,-0.007820137,-0.0742913,-1.192571,-1.62,18.18,-36.54,359,5,5,0.6794122,-0.02413575,0.2377513,6.15179,0.1166298,0.03039753,0.05914552,0.01131381,-0.06641494,0.9959733
634796821701920000,-0.01173021,-0.04301075,-1.219941,-1.74,17.64,-36.84,358,4,5,0.5517052,0.06631424,0.1824116,6.159568,0.1277432,0.02980828,0.06461792,0.01090263,-0.06258584,0.9958859
634796821702120000,0.02346041,-0.01955034,-1.216031,-1.74,17.64,-36.84,357,3,5,0.3292822,0.1545905,0.002536379,6.169665,0.1365883,0.03200591,0.06902822,0.01206845,-0.05768023,0.9958727
634796821702320000,0.07038123,0.01173021,-1.235582,-1.74,17.64,-36.84,357,3,5,0.04726339,-0.2104422,-0.1145045,6.169665,0.1365883,0.03200591,0.06902822,0.01206845,-0.05768023,0.9958727
634796821702520000,0.09775171,0.05083089,-1.305963,-1.74,17.64,-36.84,0,262,5,-0.1208415,-0.4722416,-0.1857815,6.166606,0.1293299,0.02020299,0.06509407,0.006298765,-0.0587834,0.9961263
634796821702720000,0.09775171,0.1055719,-1.395894,-1.74,17.64,-36.84,4,266,5,-0.2464201,-0.7127565,-0.3688282,6.158955,0.1214545,0.008060217,0.06082205,0.000247617,-0.06220437,0.9962084
634796821702920000,0.09775171,0.1798632,-1.427175,-1.2,16.38,-36.84,5,267,5,-0.2868606,0.07157864,-0.1272379,6.152153,0.1127307,-0.00047791,0.05619904,-0.003926288,-0.06535183,0.9962708
634796821703120000,0.1290323,0.2150538,-1.329423,-1.2,16.38,-36.84,5,267,5,-0.3485857,0.5217459,0.1462354,6.150486,0.1027737,0.001500368,0.05130089,-0.002657951,-0.06625199,0.9964797
634796821703330000,0.1876833,0.1524927,-1.11437,-1.2,16.38,-36.84,6,268,5,-0.3837051,0.451507,0.2899058,6.152216,0.09535407,0.006855964,0.04778059,0.0002980424,-0.06552611,0.9967062
634796821703520000,0.1994135,0.09384164,-1.008798,-1.2,16.38,-36.84,6,268,5,-0.3698702,0.2184194,0.2515937,6.154337,0.07315754,0.0194366,0.0371182,0.007337247,-0.06468792,0.997188
634796821703720000,0.1798632,0.04301075,-0.9266862,-1.2,16.38,-36.84,6,268,5,-0.3198516,-0.2391859,0.1302286,6.14923,0.06065654,0.02169466,0.03097951,0.00878843,-0.06722093,0.9972183
634796821703920000,0.1446725,0.04301075,-0.8954057,-1.2,16.38,-36.84,12,274,5,-0.16871,-0.5520681,0.1823259,6.144032,0.05096054,0.01758504,0.02602593,0.006997166,-0.06971881,0.9972026
634796821704120000,0.1055719,0.05865103,-0.856305,-1.5,14.58,-37.56,29,291,5,0.02499681,-0.3424157,0.3334459,6.141847,0.04972577,0.01115835,0.02519169,0.003808135,-0.07072577,0.9971704
634796821704320000,0.08211143,0.02737048,-0.7624633,-1.5,14.58,-37.56,29,291,5,0.09094185,-0.1072117,0.4249693,6.141816,0.05016994,0.006063222,0.02523364,0.001251644,-0.0706788,0.9971792
634796821704520000,0.07820137,-0.02346041,-0.684262,-1.5,14.58,-37.56,24,286,5,-0.02720982,0.05454007,0.4090059,6.147992,0.04688668,0.004838824,0.02355092,0.0008299102,-0.06758296,0.9974353
634796821704720000,0.07038123,-0.05474096,-0.6373411,-1.5,14.58,-37.56,24,286,5,-0.219814,-0.03805401,0.3579231,6.151075,0.04189444,0.001644015,0.02095425,-0.000562517,-0.06600977,0.9975988
634796821704920000,0.06647116,-0.05474096,-0.6412512,-1.5,14.58,-37.56,22,284,5,-0.233649,-0.3030461,0.2876842,6.152983,0.04012894,-0.002256751,0.01994718,-0.002430945,-0.06501951,0.9976817
634796821705120000,0.05865103,-0.04692082,-0.6764418,-1.5,14.58,-37.56,20,282,5,0.3218851,-0.06891261,0.2791704,6.156537,0.04330802,-0.007339478,0.02137657,-0.005031696,-0.06318746,0.9977601
634796821705320000,0.05083089,-0.05083089,-0.7116324,-1.74,13.2,-37.98,22,284,5,0.3303989,0.02047241,0.2717209,6.159666,0.05005812,-0.009069443,0.02469871,-0.006069242,-0.06158709,0.9977776
634796821705520000,0.05083089,-0.05474096,-0.7077224,-1.74,13.2,-37.98,22,284,5,0.3431696,0.1438761,0.3079045,6.167521,0.06379509,-0.00641048,0.0316535,-0.005041594,-0.0576679,0.9978212
634796821705720000,0.06256109,-0.05474096,-0.7077224,-1.74,13.2,-37.98,19,281,5,0.2942153,0.03315531,0.2749135,6.170334,0.06788659,-0.005587101,0.03372521,-0.004701403,-0.0562684,0.9978349
634796821705920000,0.05865103,-0.06256109,-0.7898338,-1.74,13.2,-37.98,15,277,5,0.2420682,-0.1669068,0.1876471,6.172693,0.07299709,-0.007827759,0.03621849,-0.005920225,-0.05503803,0.9978096
634796821706120000,0.03519062,-0.06256109,-0.9227762,-1.74,13.2,-37.98,17,279,5,0.1846001,-0.1190044,0.02050955,6.171851,0.07693172,-0.01067543,0.03809947,-0.007465119,-0.05539154,0.9977096
634796821706320000,0.02737048,-0.03519062,-1.040078,-1.74,13.2,-37.98,17,279,5,0.1462774,0.1725825,-0.09763498,6.169978,0.0801301,-0.009660721,0.03971663,-0.007084746,-0.05633454,0.9975965
634796821706520000,0.03519062,0.01564027,-1.13392,-2.04,12.66,-38.58,15,277,5,0.1185867,0.160821,0.02580939,6.169316,0.08223581,-0.00599885,0.04086903,-0.005331095,-0.05673183,0.9975384
634796821706730000,0.03519062,0.03128055,-1.212121,-2.04,12.66,-38.58,7,269,5,0.2281918,0.2214278,0.1694532,6.17095,0.08226848,-0.003354788,0.04096381,-0.003979818,-0.05597148,0.9975837
634796821706920000,0.02737048,-0.01173021,-1.286412,-2.04,12.66,-38.58,6,268,5,0.4101743,0.2352628,0.1492298,6.176236,0.09061956,0.003884077,0.04533314,-0.0004836719,-0.05348177,0.9975392
634796821707120000,0.01955034,-0.04692082,-1.352884,-2.04,12.66,-38.58,6,268,5,0.2037146,-0.169177,-0.09762041,6.175494,0.09431028,0.003317594,0.04715849,-0.0008824025,-0.05383784,0.9974351
634796821707320000,0,-0.02346041,-1.399804,-2.04,12.66,-38.58,3,265,5,0.04618714,-0.1595989,-0.2306522,6.173165,0.09536838,-0.0005270243,0.0475795,-0.002883628,-0.05490737,0.997353
634796821707520000,-0.02346041,0.02737048,-1.438905,-2.1,12.48,-39.06,2,264,5,-0.1400378,0.1766678,-0.3966713,6.170678,0.0948863,-0.001689434,0.04730294,-0.003508887,-0.05612067,0.9972966
634796821707720000,-0.01173021,0.07820137,-1.450635,-2.1,12.48,-39.06,0,262,5,-0.3475617,0.2021339,-0.4158273,6.165831,0.09099746,0.001203418,0.04544002,-0.002067225,-0.05861029,0.9972441
634796821707920000,0.007820137,0.1290323,-1.399804,-2.1,12.48,-39.06,0,262,5,-0.3092496,0.1435357,-0.2476798,6.159778,0.07473611,0.007855654,0.03752998,0.001613899,-0.06176755,0.9973834
634796821708120000,0.01955034,0.1564027,-1.294233,-2.1,12.48,-39.06,0,262,5,-0.0676492,0.1009173,-0.1454884,6.158587,0.07061719,0.009337424,0.03552284,0.002458967,-0.06238341,0.9974169
634796821708320000,0.007820137,0.1368524,-1.180841,-2.1,12.48,-39.06,4,266,5,0.1249375,0.004038754,-0.1582161,6.157327,0.06975341,0.009397863,0.03509552,0.002493926,-0.06301243,0.9973924
634796821708520000,0.003910068,0.09384164,-1.059628,-1.56,12.06,-38.76,6,268,5,-0.01023606,-0.1683578,-0.4125659,6.151522,0.06694174,0.007271885,0.03363095,0.00142462,-0.06586802,0.9972604
634796821708720000,0.01564027,0.08602151,-0.9853373,-1.56,12.06,-38.76,6,268,5,-0.2720118,-0.363111,-0.5945485,6.14356,0.06029915,0.002178431,0.0301475,-0.001016743,-0.06975707,0.9971079
634796821708920000,0.03128055,0.09775171,-0.9266862,-1.56,12.06,-38.76,5,267,5,-0.3805628,-0.4514418,-0.611576,6.125702,0.03635836,-0.01204336,0.01764793,-0.007431875,-0.0785366,0.9967273
634796821709120000,0.05474096,0.09384164,-0.856305,-1.56,12.06,-38.76,8,270,5,-0.3443792,-0.3609826,-0.4657772,6.125702,0.03635836,-0.01204336,0.01764793,-0.007431875,-0.0785366,0.9967273
634796821709320000,0.07820137,0.05865103,-0.7624633,-1.56,12.06,-38.76,15,277,5,-0.1708568,-0.08001748,-0.1550211,6.114591,0.02578449,-0.01836896,0.01207237,-0.01023639,-0.08406916,0.9963342
634796821709520000,0.07820137,0.01173021,-0.6686217,-1.56,12.06,-38.76,24,286,5,-0.2485452,-0.07891867,0.05461306,6.109622,0.02066946,-0.01991642,0.009432136,-0.0108157,-0.08656105,0.9961432
634796821709720000,0.0742913,-0.04301075,-0.6099707,-1.56,12.06,-38.76,24,286,5,-0.3379402,-0.1438355,0.02801872,6.10589,0.01539993,-0.02162742,0.006711875,-0.01145234,-0.08844098,0.995993
634796821709920000,0.07820137,-0.06256109,-0.5904203,-1.74,11.82,-39,34,296,5,-0.3528393,-0.2875058,-0.06133618,6.101293,0.009708881,-0.02487087,0.003704593,-0.01282443,-0.09075294,0.995784
634796821710120000,0.07038123,-0.03910068,-0.6256109,-1.74,11.82,-39,29,291,5,-0.3049492,-0.4226625,-0.1166387,6.096797,0.005652666,-0.03061688,0.001389229,-0.01550436,-0.09300502,0.995544
634796821710320000,0.05474096,0,-0.6920821,-1.74,11.82,-39,29,291,5,-0.1431714,-0.3864788,-0.07407666,6.089582,0.003601074,-0.04193413,-0.0002346085,-0.02104136,-0.09659147,0.9951016
634796821710520000,0.05083089,0.02737048,-0.7468231,-1.74,11.82,-39,29,291,5,0.01222984,-0.08636548,0.02168488,6.087637,0.005280256,-0.04320526,0.0005182283,-0.02175538,-0.09753817,0.9949939
634796821710720000,0.05474096,0.03128055,-0.7663734,-1.74,11.82,-39,28,290,5,0.07394937,0.2669134,0.1153077,6.087868,0.006785393,-0.03850484,0.001498857,-0.01949014,-0.09741995,0.9950514
634796821710920000,0.04301075,0.01173021,-0.7859238,-2.58,12.24,-39.54,27,289,5,0.01647599,0.2722346,0.2472578,6.088962,0.006893157,-0.03423333,0.001770296,-0.0173692,-0.09688555,0.9951424
634796821711120000,0.01564027,-0.003910068,-0.8523949,-2.58,12.24,-39.54,27,289,5,0.3570059,-0.1832898,0.2217164,6.090607,0.007877587,-0.03462982,0.002255401,-0.01761233,-0.09605708,0.9952174
634796821711320000,-0.01173021,-0.003910068,-0.969697,-2.58,12.24,-39.54,27,289,5,0.5262177,-0.1960605,0.1972392,6.092208,0.01163483,-0.03680551,0.008099724,-0.0209588,-0.09347275,0.9953682
634796821711520000,-0.03519062,0.003910068,-1.083089,-2.58,12.24,-39.54,21,283,5,0.6113557,-0.1162331,0.271735,6.101916,0.02991867,-0.04264224,0.01296459,-0.02258327,-0.09016254,0.9955866
634796821711720000,-0.03910068,0,-1.15347,-2.58,12.24,-39.54,11,273,5,0.6400898,0.1583162,0.2664139,6.109565,0.03983402,-0.04124129,0.01804908,-0.02226382,-0.08625636,0.9958606
634796821711920000,-0.03910068,0.003910068,-1.200391,-2.58,12.24,-39.54,3,265,5,0.6305118,0.1848785,0.2770561,6.118073,0.05035495,-0.03835094,0.02350377,-0.02117855,-0.08193971,0.996135
634796821712120000,-0.07038123,-0.01173021,-1.302053,-4.02,12.06,-39.9,4,266,5,0.4219236,0.1848503,0.1887254,6.123953,0.05798578,-0.03566158,0.02747498,-0.02007105,-0.07897092,0.9962961
634796821712320000,-0.0742913,-0.01955034,-1.345064,-4.02,12.06,-39.9,4,266,5,0.201629,0.4508869,0.1099463,6.126802,0.0611794,-0.03292096,0.02920224,-0.01879047,-0.07756298,0.9963825
634796821712520000,-0.003910068,0.01173021,-1.352884,-4.02,12.06,-39.9,0,262,5,0.0175002,0.626484,0.05457401,6.130982,0.06268001,-0.02364826,0.03034353,-0.014166,-0.07561588,0.9965745
634796821712720000,0.1016618,0.05865103,-1.364614,-4.02,12.06,-39.9,0,262,5,-0.3655922,0.09968256,-0.001807788,6.135836,0.05487013,-0.004214048,0.02720215,-0.004119679,-0.07352237,0.996914
634796821712920000,0.1837732,0.113392,-1.399804,-4.02,12.06,-39.9,0,262,5,-0.3485647,-0.2249049,0.07910898,6.133413,0.0471561,-0.004920244,0.02332574,-0.004216403,-0.07473735,0.9969215
634796821713120000,0.1759531,0.172043,-1.395894,-4.02,12.06,-39.9,0,262,5,-0.03353067,-0.04717945,0.4047607,6.129414,0.04190993,-0.00890839,0.02054928,-0.006049438,-0.07669933,0.9968241
634796821713320000,0.1212121,0.1681329,-1.278592,-5.22,12.12,-40.56,33,295,5,0.18356,0.2603402,0.5165043,6.128017,0.04198098,-0.009038091,0.02057542,-0.006131229,-0.07739386,0.9967694
634796821713520000,0.1094819,0.1016618,-1.102639,-5.22,12.12,-40.56,33,295,5,0.08563945,0.2624687,0.4388159,6.125093,0.04475498,-0.004935145,0.02211086,-0.004226087,-0.07888872,0.9966292
634796821713720000,0.1173021,0.03519062,-0.969697,-5.22,12.12,-40.56,33,295,5,-0.2144438,-0.06959448,0.2025579,6.114336,0.04093862,-0.002339125,0.02029636,-0.002891091,-0.0842827,0.996231
634796821713920000,0.1094819,0.01173021,-0.8954057,-5.22,12.12,-40.56,39,301,5,-0.3357655,-0.2835037,-0.0155878,6.104377,0.03331804,-0.005150795,0.01636169,-0.004052075,-0.08922956,0.9958684
634796821714120000,0.08993158,0.03128055,-0.856305,-5.22,12.12,-40.56,37,299,5,-0.3740776,-0.5570096,-0.3369838,6.090022,0.02574134,-0.01207983,0.01222773,-0.007252331,-0.09634465,0.9952465
634796821714320000,0.06256109,0.07038123,-0.8054741,-4.98,12.48,-41.1,36,298,5,-0.347472,-0.6517256,-0.4285071,6.079717,0.02213216,-0.01960516,0.0100126,-0.0108749,-0.1014401,0.9947318
634796821714520000,0.03910068,0.1016618,-0.7311828,-4.98,12.48,-41.1,36,298,5,-0.2697836,-0.5357251,-0.3572041,6.06568,0.01742577,-0.02991724,0.007036814,-0.01581471,-0.1083926,0.9939575
634796821714720000,0.03128055,0.09775171,-0.6764418,-4.98,12.48,-41.1,38,300,5,-0.2825018,-0.03551374,-0.1028031,6.053994,0.01386666,-0.03773272,0.00236366,-0.01928587,-0.1194297,0.9926525
634796821714920000,0.05474096,0.06256109,-0.6608016,-4.98,12.48,-41.1,42,304,5,-0.4208511,-0.003553348,-0.0005833977,6.035191,0.00144124,-0.03811931,-0.001642237,-0.01900128,-0.1236433,0.9921434
634796821715120000,0.06647116,0.03519062,-0.6568915,-4.98,12.48,-41.1,51,313,5,-0.3431626,-0.02905601,0.09520432,6.029198,-0.005849123,-0.0387026,-0.005351251,-0.01882383,-0.1266848,0.9917499
634796821715320000,0.04301075,0.02346041,-0.6647117,-5.28,12.48,-41.22,50,312,5,-0.03452561,-0.1205481,0.1207226,6.025632,-0.008677244,-0.03921187,-0.00681944,-0.01888511,-0.1284793,0.9915089
634796821715520000,0.03128055,0.01173021,-0.7077224,-5.28,12.48,-41.22,50,312,5,0.1623452,-0.2131357,0.1355961,6.021116,-0.007226944,-0.04181945,-0.006313568,-0.02025681,-0.1307054,0.9911942
634796821715720000,0.04301075,0.01564027,-0.7663734,-5.28,12.48,-41.22,48,310,5,0.2315198,-0.08967609,0.164323,6.019232,-0.003305673,-0.04507267,-0.00460347,-0.022121,-0.1315971,0.9910458
634796821715920000,0.05474096,0.01564027,-0.8172043,-5.28,12.48,-41.22,41,303,5,0.1442436,0.04017343,0.188792,6.019135,0.003368139,-0.04475486,-0.001276537,-0.02240247,-0.1315715,0.9910527
634796821716120000,0.04301075,0,-0.8836755,-5.28,12.48,-41.22,33,295,5,0.08674901,0.05828537,0.1685535,6.017514,0.00528717,-0.0434488,-0.0002574259,-0.02188127,-0.1323568,0.9909605
634796821716320000,0.03910068,0.003910068,-0.9736071,-5.28,12.48,-41.22,33,295,5,0.2069616,0.1625638,0.07590066,6.015738,0.007083654,-0.04194188,0.0007136996,-0.02125418,-0.1332218,0.9908581
634796821716520000,0.04692082,0.02737048,-1.063539,-5.22,13.2,-41.04,25,287,5,0.3431824,0.3828584,0.2142434,6.01405,0.01143527,-0.03840184,0.003089046,-0.01979279,-0.1340261,0.9907753
634796821716720000,0.06256109,0.04301075,-1.13001,-5.22,13.2,-41.04,22,284,5,0.3974579,0.3402894,0.3696203,6.016086,0.01707006,-0.02934444,0.006504514,-0.01567687,-0.1330097,0.9909694
634796821716920000,0.03910068,0.02346041,-1.216031,-5.22,13.2,-41.04,23,285,5,0.4911097,0.295592,0.4121893,6.020282,0.0238893,-0.02335322,0.01031022,-0.01314026,-0.1309167,0.9912527
634796821717120000,0.02737048,-0.01173021,-1.266862,-5.22,13.2,-41.04,23,285,5,0.6347801,0.5616482,0.2993814,6.027824,0.04314423,-0.008113979,0.02087823,-0.006769637,-0.1272167,0.9916321
634796821717320000,0.07820137,-0.02346041,-1.282502,-5.22,13.2,-41.04,17,279,5,0.4698252,0.4605468,0.2142434,6.029854,0.04910421,-0.001788616,0.02423999,-0.003988186,-0.1262673,0.991692
634796821717520000,0.1094819,0,-1.325513,-5.04,13.44,-40.98,12,274,5,0.3612742,-0.08220981,0.3132164,6.033475,0.05563068,-9.536742E-05,0.02758928,-0.003510694,-0.1244814,0.9918321
634796821717720000,0.03519062,0.04692082,-1.423265,-5.04,13.44,-40.98,16,278,5,0.5911468,-0.527056,0.4515657,6.038294,0.06421971,-0.008632778,0.0313368,-0.008203044,-0.1219381,0.992009
634796821717920000,-0.02346041,0.04692082,-1.474096,-5.04,13.44,-40.98,16,278,5,0.7741936,0.2274797,0.372813,6.042421,0.0770626,-0.01201606,0.0375213,-0.01058615,-0.1197705,0.9920359
634796821718120000,0.03128055,0.01955034,-1.391984,-5.04,13.44,-40.98,13,275,5,0.393201,0.838345,0.09398641,6.045438,0.08554744,-0.0004264116,0.04243362,-0.005282681,-0.1184766,0.9920357
634796821718320000,0.1094819,0.05474096,-1.231672,-5.04,13.44,-40.98,7,269,5,-0.1942324,0.3498656,-0.1794838,6.043051,0.07731462,0.01973045,0.03954835,0.005157757,-0.1200619,0.9919649
634796821718520000,0.1094819,0.1251222,-1.102639,-5.04,13.44,-40.98,12,274,5,0.07717131,-0.08222482,-0.08470263,6.038509,0.07417344,0.02232456,0.03816007,0.00654651,-0.1223527,0.9917312
634796821718720000,0.06647116,0.1407625,-1.055718,-5.04,13.44,-40.98,12,274,5,0.1548558,-0.3908501,-0.2581295,6.031506,0.07530474,0.01876926,0.03852114,0.004579331,-0.125764,0.9913015
634796821718920000,0.04301075,0.1016618,-1.055718,-4.32,13.02,-40.98,23,285,5,-0.02710381,-0.4866304,-0.4997086,6.019797,0.07579255,0.0110935,0.03828641,0.0005197129,-0.1314255,0.9905863
634796821719120000,0.04692082,0.08993158,-1.024438,-4.32,13.02,-40.98,34,296,5,-0.3687201,-0.4727955,-0.6827554,6.003416,0.07039165,0.002502084,0.0350191,-0.003668216,-0.1393861,0.9896119
634796821719320000,0.06647116,0.1055719,-0.9305963,-4.32,13.02,-40.98,34,296,5,-0.5751798,-0.3642445,-0.5827182,5.980073,0.04976416,-0.008497356,0.02395285,-0.007954848,-0.150824,0.9882384
634796821719520000,0.09384164,0.09384164,-0.8132942,-4.32,13.02,-40.98,25,287,5,-0.5996569,-0.2801707,-0.3762585,5.970551,0.03533649,-0.01259589,0.01647119,-0.008970582,-0.1555444,0.9876509
634796821719720000,0.1055719,0.04692082,-0.7077224,-3.3,12,-40.86,46,308,5,-0.4623719,-0.2109961,-0.1357259,5.962987,0.0261941,-0.0166502,0.01160176,-0.01030558,-0.159289,0.98711
634796821719920000,0.08602151,-0.01173021,-0.6529814,-3.3,12,-40.86,48,310,5,-0.2889032,-0.2386659,-0.08248436,5.954784,0.02068615,-0.02111232,0.008477729,-0.01210402,-0.1633381,0.9864595
634796821720120000,0.0742913,-0.05083089,-0.6529814,-3.3,12,-40.86,48,310,5,-0.2250497,-0.2780422,-0.18675,5.946468,0.017555,-0.02611363,0.006464849,-0.01434197,-0.1674309,0.9857583
634796821720320000,0.08602151,-0.03128055,-0.688172,-3.3,12,-40.86,39,301,5,-0.2112148,-0.3259324,-0.2367686,5.940106,0.01586127,-0.03140855,0.005132649,-0.01682626,-0.1705506,0.9851919
634796821720520000,0.09384164,0.01564027,-0.7233627,-3.3,12,-40.86,32,294,5,-0.2293066,-0.09605654,0.03781544,5.931688,0.01158762,-0.04000938,0.002205914,-0.0207077,-0.1746935,0.9844026
634796821720720000,0.09384164,0.02346041,-0.7350929,-3.3,12,-40.86,35,297,5,-0.08984169,0.05080057,0.2634313,5.932471,0.009845256,-0.03954983,0.001396504,-0.02032879,-0.1743276,0.9844769
634796821720920000,0.07820137,-0.003910068,-0.7116324,-3.3,12,-40.86,35,297,5,0.2815799,0.1518755,0.276202,5.934167,0.0123837,-0.03795468,0.002802026,-0.0197625,-0.1734743,0.9846361
634796821721120000,0.06256109,-0.03519062,-0.7116324,-2.1,11.76,-40.98,37,299,5,0.3028644,0.2423346,0.1655215,5.935855,0.01893925,-0.03377569,0.006407862,-0.01826834,-0.1726038,0.9848011
634796821721320000,0.04301075,-0.05474096,-0.7937439,-2.1,11.76,-40.98,31,293,5,0.007012265,-0.1386747,0.1261397,5.93768,0.02308583,-0.03109479,0.008697243,-0.01729819,-0.1716854,0.9849616
634796821721520000,0.01564027,-0.04692082,-0.914956,-2.1,11.76,-40.98,24,286,5,-0.1004658,-0.4451716,0.1580086,5.944381,0.02258968,-0.04183412,0.007604513,-0.02251863,-0.1683125,0.9854471
634796821721720000,-0.01564027,-0.01173021,-1.055718,-2.1,11.76,-40.98,24,286,5,0.0878904,-0.4824194,0.2846514,5.952393,0.02504754,-0.04992604,0.008239405,-0.02667912,-0.1642706,0.9860201
634796821721940000,-0.03128055,-0.007820137,-1.16129,-1.62,11.58,-40.02,358,4,5,0.5784982,0.211408,0.2388897,5.972186,0.04124689,-0.05016374,0.01648345,-0.02796414,-0.1542809,0.9874936
634796821722120000,-0.01564027,-0.03128055,-1.204301,-1.62,11.58,-40.02,358,4,5,0.5784982,0.211408,0.2388897,5.972186,0.04124689,-0.05016374,0.01648345,-0.02796414,-0.1542809,0.9874936
634796821722320000,0.01564027,-0.01564027,-1.239492,-1.62,11.58,-40.02,356,2,5,0.5572137,0.1996719,-0.004819332,5.977026,0.04899955,-0.04698753,0.02062323,-0.0269443,-0.1518255,0.9878247
634796821722520000,0.02737048,0.01955034,-1.317693,-1.62,11.58,-40.02,356,2,5,0.3326622,0.07828238,-0.06969727,5.980922,0.05623794,-0.04502344,0.02440007,-0.02647632,-0.1498335,0.9880555
634796821722720000,0.03128055,0.04301075,-1.345064,-1.62,11.58,-40.02,358,4,5,0.4145947,0.4443066,0.1462669,5.984601,0.06335855,-0.04017675,0.02840056,-0.02448116,-0.1451254,0.9887025
634796821722920000,0.05474096,0.05083089,-1.325513,-1.62,11.58,-40.02,2,264,5,0.378411,0.4975179,0.08767439,5.994873,0.06850863,-0.03323734,0.03150179,-0.02135513,-0.1429901,0.9889922
634796821723130000,0.1094819,0.05865103,-1.333333,-1.62,11.58,-40.02,4,266,5,0.2113276,0.1952567,0.01634832,5.998892,0.07288098,-0.02623904,0.03420452,-0.0181391,-0.1410893,0.9892395
634796821723320000,0.1485826,0.08211143,-1.360704,-1.62,11.58,-40.02,4,266,5,0.2294195,-0.169769,0.01318299,5.999382,0.07513141,-0.02668309,0.03529068,-0.01850879,-0.1408174,0.9892333
634796821723520000,0.1407625,0.1212121,-1.329423,-1.86,11.16,-39,9,271,5,0.3315851,0.146293,0.2185809,5.998532,0.07906795,-0.02928197,0.03704482,-0.02008679,-0.1411476,0.9890913
634796821723720000,0.1290323,0.1329423,-1.192571,-1.86,11.16,-39,20,282,5,0.09638781,0.3814867,0.3622513,5.999944,0.08271836,-0.02701604,0.03902482,-0.01919653,-0.1404611,0.9891306
634796821723920000,0.1446725,0.09384164,-1.040078,-1.86,11.16,-39,30,292,5,-0.1526447,0.2569724,0.3154254,6.004681,0.07871865,-0.01802921,0.03771645,-0.01438183,-0.138338,0.9895622
634796821724120000,0.1485826,0.05865103,-0.9423265,-1.86,11.16,-39,30,292,5,-0.3591044,-0.06975592,0.1525886,6.00237,0.07157564,-0.01959646,0.03405602,-0.01470249,-0.1395032,0.9895266
634796821724320000,0.1407625,0.04692082,-0.8993157,-0.96,10.68,-37.74,32,294,5,-0.38571,-0.2847254,-0.0592007,5.998113,0.06486058,-0.02112782,0.03059422,-0.01505689,-0.1416325,0.9893318
634796821724520000,0.1212121,0.06256109,-0.8914956,-0.96,10.68,-37.74,34,296,5,-0.4740407,-0.6689106,-0.2177386,5.99059,0.05496549,-0.02682567,0.02522879,-0.01726959,-0.1453435,0.9889088
634796821724720000,0.06647116,0.1016618,-0.8836755,-0.96,10.68,-37.74,34,296,5,-0.5059675,-0.8625997,-0.1198104,5.982959,0.04624009,-0.04132223,0.01976429,-0.02387839,-0.1490059,0.9883504
634796821724920000,0.01564027,0.1055719,-0.8367546,-0.96,10.68,-37.74,34,296,5,-0.3537833,-0.6699749,0.2228637,5.981528,0.03878688,-0.05496871,0.0150364,-0.03007649,-0.1496452,0.9884075
634796821725120000,0.007820137,0.03910068,-0.7546432,-0.96,10.68,-37.74,27,289,5,-0.1260113,-0.07720443,0.3973966,5.993552,0.02995705,-0.0613898,0.01038581,-0.03252587,-0.143772,0.9890217
634796821725340000,0.03128055,-0.04301075,-0.684262,-0.96,10.68,-37.74,12,274,5,-0.180211,0.106855,0.2281848,6.000344,0.02436375,-0.06156599,0.007716378,-0.03218479,-0.1405013,0.9895272
634796821725520000,0.06647116,-0.04301075,-0.7038123,-1.08,9.66,-37.26,8,270,5,-0.2249085,-0.5806208,0.04190845,6.004572,0.01881409,-0.06910276,0.004513714,-0.03551379,-0.1384458,0.9897228
634796821725720000,0.06256109,0,-0.7546432,-1.08,9.66,-37.26,12,274,5,0.03904779,-0.2815736,0.1493536,6.006689,0.01695085,-0.07653439,0.003116308,-0.03905858,-0.1373813,0.9897429
634796821725920000,0.05474096,0.01173021,-0.7781036,-1.08,9.66,-37.26,12,274,5,0.2816825,0.1441254,0.2653541,6.009127,0.01864505,-0.08127928,0.003677705,-0.04151824,-0.1361066,0.989817
634796821726120000,0.06256109,-0.007820137,-0.7585533,-1.08,9.66,-37.26,23,285,5,0.2891321,0.2175131,0.2781248,6.013158,0.02331161,-0.07952154,0.00619021,-0.04095354,-0.1340293,0.9901114
634796821726320000,0.06647116,-0.03910068,-0.7507331,-1.08,9.66,-37.26,21,283,5,0.2029298,0.1163512,0.1610434,6.020242,0.03091335,-0.07389747,0.01047014,-0.03864193,-0.1304222,0.9906499
634796821726530000,0.05474096,-0.04301075,-0.8093842,-1.14,8.76,-37.62,22,284,5,0.2529484,-0.2337821,-0.018799,6.019844,0.03541946,-0.07650268,0.01252268,-0.04022837,-0.1305028,0.9905523
634796821726720000,0.04692082,-0.01955034,-0.8954057,-1.14,8.76,-37.62,22,284,5,0.3902335,-0.1220361,-0.05279652,6.018439,0.0424192,-0.0800972,0.01572239,-0.04247565,-0.1310095,0.990346
634796821726920000,0.04301075,0.003910068,-0.9618768,-1.14,8.76,-37.62,22,284,5,0.3902335,-0.1220361,-0.05279652,6.018795,0.04976368,-0.07942653,0.01941118,-0.04262098,-0.1306864,0.990317
634796821727120000,0.03519062,0,-1.024438,-1.14,8.76,-37.62,13,275,5,0.2327281,0.05029699,0.05791142,6.019892,0.05386949,-0.07782722,0.02157338,-0.04208571,-0.1300808,0.9903749
634796821727320000,0.03910068,-0.01564027,-1.098729,-1.14,8.76,-37.62,13,275,5,0.184838,-0.00928951,0.001512487,6.022855,0.05685424,-0.07145393,0.02353042,-0.03908981,-0.1286556,0.9906392
634796821727520000,0.07038123,-0.03519062,-1.15738,-1.14,8.76,-37.62,13,275,5,0.1209766,0.1737111,-0.04208978,6.023117,0.05749344,-0.06720185,0.02412965,-0.03702211,-0.128584,0.9907135
634796821727720000,0.1016618,-0.05083089,-1.219941,-1.14,8.76,-37.62,9,271,5,-0.01098187,0.1619176,-0.1622928,6.021643,0.05690908,-0.06589592,0.02389859,-0.03635541,-0.1293461,0.9906446
634796821727920000,0.07038123,-0.01955034,-1.298143,-1.68,8.34,-38.22,11,273,5,0.04120113,-0.3042226,0.01016453,6.018404,0.05619239,-0.06988227,0.02322003,-0.03832072,-0.130899,0.9903827
634796821728120000,0.01173021,0.02737048,-1.360704,-1.68,8.34,-38.22,15,277,5,-0.09818863,-0.02327343,0.08252726,6.016934,0.05733275,-0.07514477,0.02340492,-0.04101765,-0.1315174,0.9901884
634796821728320000,-0.01955034,0.01955034,-1.399804,-1.68,8.34,-38.22,15,277,5,-0.4696032,0.190584,-0.1132702,6.017679,0.05561375,-0.07624459,0.02249586,-0.04007057,-0.1312969,0.9903324
634796821728520000,-0.003910068,0.01564027,-1.395894,-1.68,8.34,-38.22,11,273,5,-0.5025942,0.2980435,-0.2824819,6.01614,0.04054498,-0.06955504,0.01545057,-0.03715092,-0.1323202,0.9903901
634796821728740000,0.04301075,0.07038123,-1.305963,-1.68,8.34,-38.22,5,267,5,-0.3333824,0.3597686,-0.3399501,6.013088,0.03337049,-0.06307411,0.01227955,-0.03348561,-0.1340317,0.990335
634796821728920000,0.05865103,0.1524927,-1.247312,-2.58,8.22,-39.12,6,268,5,-0.2290883,0.01814516,-0.06430431,6.00955,0.02832961,-0.05960619,0.009961852,-0.03144827,-0.1358988,0.9901734
634796821729120000,0.02346041,0.1876833,-1.176931,-2.58,8.22,-39.12,19,281,5,-0.0343033,-0.2862178,0.1974901,6.008576,0.02545476,-0.06175005,0.00837626,-0.03231827,-0.1364079,0.99009
634796821729320000,-0.02737048,0.1446725,-1.1261,-2.58,8.22,-39.12,19,281,5,0.1221278,-0.1446759,0.1985543,6.0053,0.02542209,-0.06653428,0.007975146,-0.03469722,-0.1379896,0.9897936
634796821729520000,-0.03519062,0.06256109,-1.016618,-2.58,8.22,-39.12,39,301,5,-0.0002787414,0.08518197,0.1431871,6.003667,0.02339029,-0.06662786,0.006934759,-0.03460899,-0.1388322,0.9896867
634796821729720000,-0.01955034,0.02737048,-0.9071358,-2.58,8.22,-39.12,18,280,5,-0.2897347,0.07558703,0.02821251,6.005258,0.01714206,-0.06584978,0.003924019,-0.03378699,-0.1381575,0.989826
634796821729930000,-0.003910068,0.01955034,-0.8367546,-2.7,8.1,-39.84,10,272,5,-0.480231,-0.1425775,-0.08885907,6.006447,0.006980419,-0.06776333,-0.001217397,-0.03403235,-0.137731,0.9898841
634796821730120000,0.01955034,0.02737048,-0.8132942,-2.7,8.1,-39.84,10,272,5,-0.3855149,-0.3139178,-0.1984514,6.004303,5.531311E-05,-0.07329845,-0.005065371,-0.0362892,-0.1388952,0.989629
634796821730320000,0.03910068,0.03910068,-0.8054741,-2.7,8.1,-39.84,16,278,5,-0.1279389,0.2128508,-0.3421218,5.998104,-0.002140283,-0.07591689,-0.006449582,-0.03741249,-0.1419963,0.9891389
634796821730520000,0.05865103,0.05865103,-0.7507331,-2.7,8.1,-39.84,27,289,5,-0.1864308,0.2532913,-0.1462904,5.991873,-0.003199339,-0.07423472,-0.006967664,-0.03648384,-0.1451,0.9887196
634796821730720000,0.08211143,0.05474096,-0.6568915,-2.7,8.1,-39.84,36,298,5,-0.06185853,0.061684,-0.01324033,5.978137,-0.007178306,-0.0667876,-0.008618199,-0.03245477,-0.1519662,0.9878151
634796821730920000,0.08602151,0.01564027,-0.6177908,-2.7,8.1,-39.84,36,298,5,0.2201593,-0.05111567,-0.07920452,5.970646,-0.003909588,-0.06714344,-0.007153807,-0.0328523,-0.1556113,0.987246
634796821731120000,0.07038123,-0.007820137,-0.6412512,-2.7,8.1,-39.84,61,323,5,0.3095542,0.1670254,-0.2090271,5.963446,0.001312971,-0.0664978,-0.004644108,-0.03292334,-0.1590801,0.9867057
634796821731320000,0.07038123,0.003910068,-0.6608016,-2.7,7.98,-41.16,56,318,5,0.1201161,0.3255949,-0.2026418,5.954149,0.007894993,-0.06166601,-0.001156551,-0.03105785,-0.163578,0.9860407
634796821731520000,0.07820137,0.01564027,-0.6490713,-2.7,7.98,-41.16,46,308,5,0.3276067,-0.1714355,0.03471301,5.942832,0.01519489,-0.05617845,0.002728379,-0.02896517,-0.1690746,0.9851738
634796821731720000,0.05474096,0.007820137,-0.6803519,-2.7,7.98,-41.16,46,308,5,0.3276067,-0.1714355,0.03471301,5.942832,0.01519489,-0.05617845,0.002728379,-0.02896517,-0.1705414,0.9848621
634796821731920000,0.02346041,-0.03128055,-0.8054741,-2.7,7.98,-41.16,47,309,5,0.3403774,-0.211876,-0.06106161,5.934958,0.02769852,-0.06193935,0.008269263,-0.03289156,-0.1727131,0.9843881
634796821732140000,0.007820137,-0.05083089,-0.9501466,-2.7,7.98,-41.16,43,305,5,0.2116062,-0.1714355,-0.1014692,5.93246,0.03236675,-0.06481349,0.010274,-0.0347218,-0.1738347,0.9841089
634796821732320000,0.01173021,-0.02346041,-1.028348,-2.7,7.98,-41.16,43,305,5,0.2275695,-0.01924287,-0.1216423,5.931318,0.03716254,-0.06438196,0.01265154,-0.03493347,-0.1743175,0.9839883
634796821732520000,0.007820137,0.007820137,-1.071359,-2.7,8.4,-42.06,10,272,5,0.3010011,0.111621,-0.1088222,5.93119,0.04200863,-0.06126153,0.01530751,-0.03382189,-0.1743363,0.9839861
634796821732720000,0,0.01955034,-1.15347,-2.7,8.4,-42.06,10,272,5,0.1722298,-0.0618634,-0.002377362,5.932034,0.04565286,-0.05959081,0.01726114,-0.03331045,-0.1738823,0.9840515
634796821732920000,0.007820137,0.01173021,-1.286412,-2.7,8.4,-42.06,12,274,5,0.1370495,-0.2172306,-0.06724859,5.934126,0.04695034,-0.06874048,0.01713733,-0.03790564,-0.1726998,0.9840956
634796821733120000,0.01955034,0.007820137,-1.376344,-2.7,8.4,-42.06,10,272,5,0.3073255,0.4032197,-0.03954075,5.934369,0.05023551,-0.06776249,0.01884365,-0.03770598,-0.1725334,0.9841013
634796821733330000,0.02737048,0.02346041,-1.329423,-2.7,8.4,-42.06,9,271,5,-0.05451879,0.5075138,0.05943932,5.936085,0.05355191,-0.05890834,0.02127558,-0.03361821,-0.1717668,0.984334
634796821733520000,0.05474096,0.01564027,-1.290323,-2.7,8.4,-42.06,9,271,5,-0.3120481,0.08713643,0.001982661,5.938061,0.05015373,-0.05218994,0.02021462,-0.03000036,-0.1709501,0.9846154
634796821733720000,0.113392,0.03910068,-1.360704,-3.06,8.34,-42.84,12,274,5,-0.2492588,-0.3385536,-0.1512215,5.936358,0.04445934,-0.05449259,0.01718684,-0.03066161,-0.1718425,0.9844971
634796821733920000,0.1173021,0.09775171,-1.431085,-3.06,8.34,-42.84,15,277,5,-0.175814,-0.2544798,-0.004327023,5.93308,0.04127169,-0.05933106,0.01514535,-0.03279375,-0.1734437,0.9841811
634796821734120000,0.1094819,0.1251222,-1.348974,-3.06,8.34,-42.84,28,290,5,-0.0523499,0.2382463,0.2830018,5.9295,0.03759336,-0.05945766,0.013266,-0.03256078,-0.1752636,0.9838935
634796821734320000,0.1212121,0.1016618,-1.1652,-3.06,8.34,-42.84,28,290,5,-0.1012805,0.3893663,0.2989652,5.928993,0.0353291,-0.05325806,0.01269118,-0.02931609,-0.1756191,0.9839398
634796821734520000,0.1290323,0.0742913,-1.036168,-3.6,8.46,-43.26,43,305,5,-0.3460523,-0.073577,0.2116988,5.92705,0.03120589,-0.05283177,0.01067234,-0.02875464,-0.1766387,0.9837978
634796821734720000,0.1251222,0.07820137,-0.9892473,-3.6,8.46,-43.26,49,311,5,-0.3715937,-0.3385691,0.137168,5.922669,0.02449703,-0.05596661,0.007029157,-0.02971932,-0.1788628,0.9834
634796821734920000,0.1212121,0.08602151,-0.9931574,-3.6,8.46,-43.26,54,316,5,-0.3290247,-0.4864964,0.04668501,5.916935,0.01725459,-0.05967116,0.003047002,-0.03090161,-0.1817621,0.9828522
634796821735120000,0.113392,0.1055719,-0.9892473,-3.6,8.46,-43.26,54,316,5,-0.3354101,-0.513102,-0.01929003,5.9095,0.01046753,-0.06805813,-0.003916022,-0.03389237,-0.1885249,0.9814756
634796821735320000,0.08211143,0.1212121,-0.9501466,-3.6,8.46,-43.26,55,317,5,-0.3088044,-0.5503499,0.07541867,5.897878,-0.0001597404,-0.07248139,-0.007015643,-0.03554717,-0.1913413,0.9808546
634796821735530000,0.04692082,0.1094819,-0.8719453,-3.6,8.46,-43.26,59,321,5,-0.002256285,-0.09378674,0.3680641,5.894627,-0.003061295,-0.07345628,-0.008589956,-0.0357337,-0.192984,0.9805134
634796821735720000,0.03910068,0.06256109,-0.7937439,-3.78,9,-43.26,59,321,5,-0.04907165,-0.06078501,0.3648714,5.893284,-0.004760027,-0.07179188,-0.009285579,-0.03474756,-0.1936768,0.9804059
634796821735920000,0.05474096,0.02346041,-0.7702835,-3.78,9,-43.26,46,308,5,-0.05756396,-0.3268413,0.2222652,5.892577,-0.005678654,-0.07355642,-0.009919176,-0.03552011,-0.1940353,0.9803011
634796821736120000,0.07038123,0.02346041,-0.8211144,-3.78,9,-43.26,46,308,5,0.06906489,-0.3470616,0.1328218,5.892406,-0.006489754,-0.07931924,-0.01087841,-0.03826506,-0.1941213,0.9801705
634796821736320000,0.06256109,0.04692082,-0.8602151,-3.78,9,-43.26,42,304,5,0.2712518,0.2308043,0.3147966,5.891866,-0.004606009,-0.08494865,-0.01051214,-0.0412039,-0.194334,0.9800133
634796821736520000,0.05865103,0.04301075,-0.8093842,-3.78,9,-43.26,43,305,5,0.2574169,0.7639811,0.4829441,5.897386,0.004679918,-0.0709964,-0.004508647,-0.03528069,-0.1915029,0.9808474
634796821736730000,0.06647116,-0.003910068,-0.7116324,-3.66,9.48,-42.9,43,305,5,0.1275633,0.7671738,0.4425036,5.901918,0.007756233,-0.05640196,-0.001536425,-0.02842078,-0.1892969,0.9815073
634796821736920000,0.0742913,-0.04301075,-0.6803519,-3.66,9.48,-42.9,43,305,5,0.04239488,0.2329327,0.2424292,5.904178,0.008831739,-0.04934359,-0.0003114756,-0.02505899,-0.1882059,0.9818098
634796821737120000,0.07820137,-0.04692082,-0.7390029,-3.66,9.48,-42.9,43,305,5,0.2009378,-0.158711,0.01151748,5.903523,0.01224923,-0.05002927,0.00129312,-0.02571755,-0.18848,0.9817394
634796821737320000,0.0742913,-0.01564027,-0.8445748,-3.66,9.48,-42.9,38,300,5,0.4052691,-0.1150711,-0.08317259,5.901353,0.01778173,-0.05177521,0.003814582,-0.02709992,-0.1894617,0.9815066
634796821737520000,0.0742913,0.02346041,-0.9345064,-3.66,9.48,-42.9,36,298,5,0.4031406,0.06476962,-0.008691944,5.897656,0.03300738,-0.04934394,0.01146701,-0.02736983,-0.1910889,0.981124
634796821737720000,0.08602151,0.02737048,-1.000978,-3.66,9.48,-42.9,36,298,5,0.1562233,0.21262,0.08065338,5.897045,0.03497672,-0.04577875,0.0127673,-0.02581321,-0.1914008,0.9810894
634796821737920000,0.08993158,-0.007820137,-1.098729,-3.66,9.48,-42.9,34,296,5,-0.009810901,0.07635509,0.05081197,5.895468,0.03459644,-0.04370868,0.01276011,-0.02477151,-0.1922008,0.98096
634796821738120000,0.09384164,-0.007820137,-1.14565,-3.36,10.14,-42.84,31,293,5,0.3807463,0.3243221,-0.1907397,5.891192,0.03786445,-0.03914439,0.01475445,-0.02287883,-0.1943086,0.9805626
634796821738320000,0.1016618,0.04301075,-1.14565,-3.36,10.14,-42.84,24,286,5,0.3552049,0.08805167,-0.05023738,5.886566,0.04488015,-0.03366756,0.01867988,-0.02091892,-0.1965647,0.9800897
634796821738520000,0.06256109,0.09775171,-1.16129,-3.36,10.14,-42.84,24,286,5,0.1679013,-0.06943928,0.1742973,5.884857,0.05142736,-0.03189099,0.02204574,-0.02143793,-0.1971924,0.9798508
634796821738720000,0.01564027,0.1055719,-1.223851,-3.36,10.14,-42.84,23,285,5,-0.140712,0.2114798,0.0008130761,5.884516,0.05328298,-0.03123259,0.0230166,-0.0205752,-0.1975151,0.9798136
634796821738920000,0.02737048,0.09775171,-1.305963,-3.36,10.14,-42.84,29,291,5,-0.4184748,0.2338285,-0.3014121,5.880571,0.04646372,-0.02713656,0.02004641,-0.01793464,-0.199569,0.9795145
634796821739120000,0.04692082,0.1524927,-1.348974,-2.52,10.8,-43.26,13,275,5,-0.5834296,0.0571221,-0.3705867,5.874581,0.03511953,-0.02525878,0.01463054,-0.01592663,-0.2026191,0.9790188
634796821739320000,0.02346041,0.2228739,-1.305963,-2.52,10.8,-43.26,13,275,5,-0.1226076,0.02517577,0.02744946,5.873262,0.02903414,-0.02554405,0.0116124,-0.01545735,-0.2033099,0.9789236
634796821739520000,-0.01173021,0.2033236,-1.1652,-2.52,10.8,-43.26,13,275,5,0.3690614,0.2443738,0.3052027,5.87567,0.02913785,-0.02443218,0.01179434,-0.01490952,-0.2021398,0.9791722
634796821739720000,-0.02737048,0.1055719,-1.040078,-2.52,10.8,-43.26,20,282,5,0.329685,0.1091864,0.1285313,5.880106,0.03496217,-0.02294779,0.0148288,-0.01473859,-0.1999375,0.9795856
634796821739920000,-0.01564027,0.05083089,-1.024438,-2.52,10.8,-43.26,30,292,5,-0.2130733,-0.3580003,-0.3609986,5.87612,0.02772927,-0.03074169,0.01046987,-0.01785357,-0.2018787,0.9791918
634796821740130000,0.007820137,0.07038123,-1.059628,-2.52,10.8,-43.26,5,267,5,-0.4631662,-0.7879473,-0.5929997,5.869347,0.01680303,-0.04469359,0.003629625,-0.02359311,-0.2052036,0.9784282
634796821740320000,0.01564027,0.1094819,-1.063539,-2.52,10.8,-43.26,5,267,5,-0.03640535,-0.6102217,-0.6057703,5.861979,0.01428032,-0.0556519,0.001163503,-0.02869901,-0.2087692,0.9775431
634796821740520000,0.003910068,0.113392,-1.004888,-1.62,11.16,-43.62,359,5,5,0.1742979,-0.2579632,-0.4972194,5.856675,0.0166018,-0.05989838,0.001771728,-0.03102139,-0.2112972,0.9769279
634796821740720000,0.01564027,0.06647116,-0.8719453,-1.62,11.16,-43.62,6,268,5,-0.1672812,0.2581686,-0.1587618,5.854782,0.01639962,-0.05848181,-0.0007316821,-0.02690621,-0.2119855,0.9769021
634796821740920000,0.04692082,0.007820137,-0.7350929,-1.62,11.16,-43.62,11,273,5,-0.06613502,-0.02814979,-0.2513317,5.855072,0.006366253,-0.05093741,-0.002300082,-0.02556062,-0.2122765,0.9768726
634796821741120000,0.07038123,-0.01955034,-0.7038123,-1.62,11.16,-43.62,11,273,5,0.00730812,-0.2580156,-0.35669,5.851151,0.006332159,-0.05448067,-0.002746672,-0.02728217,-0.2141763,0.9764101
634796821741320000,0.0742913,-0.007820137,-0.7468231,-1.62,11.16,-43.62,13,275,5,-0.001198764,-0.2463091,-0.4099012,5.849205,0.006576538,-0.05608153,-0.002826266,-0.02808713,-0.2151156,0.9761805
634796821741520000,0.06256109,0.03519062,-0.7820137,-1.62,11.4,-44.64,28,290,5,0.01795952,-0.09837768,-0.2981576,5.84042,0.008210421,-0.0607897,-0.002669871,-0.03054924,-0.2193538,0.9751633
634796821741720000,0.05865103,0.06256109,-0.797654,-1.62,11.4,-44.64,28,290,5,0.0647817,0.02825457,-0.1289314,5.836561,0.009627818,-0.06148266,-0.00211471,-0.03103851,-0.2212092,0.97473
634796821741920000,0.05865103,0.03519062,-0.7937439,-1.62,11.4,-44.64,28,290,5,0.2776164,0.1410176,0.04241193,5.837116,0.01807427,-0.05705059,0.00250117,-0.02981194,-0.2208394,0.9748513
634796821742120000,0.04301075,-0.003910068,-0.801564,-1.62,11.4,-44.64,31,293,5,0.360626,0.1973492,-0.008673428,5.837348,0.02270174,-0.05459308,0.005032185,-0.02912454,-0.2206783,0.9748988
634796821742320000,0.02737048,-0.03128055,-0.8602151,-1.62,11.4,-44.64,27,289,5,0.1754508,0.01320504,-0.09805983,5.836783,0.02598214,-0.05422985,0.006663132,-0.02931129,-0.2209089,0.9748311
634796821742520000,0.03128055,-0.02346041,-0.9305963,-1.14,12.06,-45,13,275,5,0.1786214,-0.0006249857,-0.1916949,5.836037,0.02964568,-0.05393087,0.008470883,-0.02957342,-0.2212216,0.9747383
634796821742720000,0.04692082,0.01955034,-1.000978,-1.14,12.06,-45,13,275,5,0.2531172,0.03660597,-0.2161721,5.835986,0.03445959,-0.05315696,0.01090209,-0.02972892,-0.2211835,0.974718
634796821742920000,0.06256109,0.04301075,-1.067449,-1.14,12.06,-45,6,268,5,0.3914665,0.2962255,0.02966635,5.837803,0.03821015,-0.05245887,0.0128346,-0.0297919,-0.22025,0.9749039
634796821743120000,0.06256109,0.03910068,-1.11437,-1.14,12.06,-45,10,272,5,0.5532287,0.1248347,0.04774466,5.841095,0.04280018,-0.04636621,0.01579091,-0.02730213,-0.218656,0.9752921
634796821743320000,0.06647116,0.02737048,-1.176931,-1.14,12.06,-45,12,274,5,0.7660737,-0.2657339,0.02751789,5.847291,0.06306291,-0.04614853,0.02578586,-0.02933016,-0.2153505,0.9757556
634796821743530000,0.05474096,0.02346041,-1.282502,-1.08,12.12,-45.24,9,271,5,0.6436878,0.07906153,-0.01291554,5.848926,0.07305741,-0.0486741,0.03041365,-0.03161263,-0.2143525,0.9757708
634796821743720000,0.03128055,0.03910068,-1.302053,-1.08,12.12,-45.24,9,271,5,0.0753897,0.6505505,0.1403046,5.852761,0.08073591,-0.04354107,0.03477161,-0.0298657,-0.2124718,0.9760916
634796821743920000,0.06256109,0.07038123,-1.223851,-1.08,12.12,-45.24,9,271,5,-0.261934,0.5175223,0.1062117,5.859212,0.07874227,-0.0326376,0.03504409,-0.02422097,-0.2095835,0.9768624
634796821744120000,0.113392,0.08211143,-1.247312,-1.08,12.12,-45.24,2,264,5,-0.2842827,-0.138052,-0.02362175,5.864425,0.07234167,-0.02824652,0.03243607,-0.0213212,-0.2071975,0.9775288
634796821744320000,0.1016618,0.1055719,-1.391984,-1.08,12.12,-45.24,10,272,5,-0.01820796,-0.5105308,0.03493011,5.866618,0.0673306,-0.04219246,0.02856462,-0.02758551,-0.2059233,0.9777621
634796821744520000,0.06647116,0.1368524,-1.399804,-1.08,12.12,-45.24,10,272,5,0.4127951,0.2450691,0.2850223,5.8725,0.07346535,-0.04011309,0.03185906,-0.02710729,-0.2030031,0.9782842
634796821744720000,0.07820137,0.1329423,-1.200391,-1.08,12.12,-45.24,18,280,5,0.4170519,0.7229062,0.3541969,5.881018,0.07864523,-0.02868485,0.03565406,-0.02189319,-0.1990039,0.9791052
634796821744920000,0.113392,0.09775171,-1.012708,-1.26,12.6,-45,13,275,5,-0.1852992,0.3706476,0.3009857,5.88406,0.07855868,-0.02524388,0.03598663,-0.02014569,-0.197586,0.9794176
634796821745120000,0.1407625,0.07820137,-0.9501466,-1.26,12.6,-45,18,280,5,-0.4481628,-0.2082952,0.1615657,5.89161,0.06913614,-0.02216363,0.0317443,-0.01758648,-0.1940356,0.980323
634796821745320000,0.1446725,0.1016618,-0.9618768,-1.26,12.6,-45,18,280,5,-0.3555752,-0.3934704,0.1072885,5.892456,0.05739236,-0.02525306,0.0256942,-0.01795033,-0.1936736,0.9805886
634796821745520000,0.1251222,0.1368524,-0.9618768,-1.26,12.6,-45,36,298,5,-0.3140704,-0.3647363,0.1190054,5.891152,0.03998113,-0.03229654,0.01645952,-0.01972786,-0.194383,0.9805892
634796821745720000,0.09384164,0.1564027,-0.9462366,-0.42,12.6,-44.58,38,300,5,-0.3481256,-0.4158191,0.170091,5.891087,0.03694963,-0.03365814,0.0148398,-0.02010119,-0.1944301,0.9805982
634796821745920000,0.05083089,0.1329423,-0.9423265,-0.42,12.6,-44.58,37,299,5,-0.3981442,-0.4360394,0.2499079,5.89259,0.0218091,-0.0415945,0.006659433,-0.02251483,-0.1937823,0.9807636
634796821746120000,0.04301075,0.09775171,-0.9423265,-0.42,12.6,-44.58,37,299,5,-0.4183645,-0.3072682,0.1945682,5.894353,0.01014256,-0.0455476,0.0005751327,-0.02332205,-0.1930278,0.9809159
634796821746320000,0.04692082,0.06647116,-0.9188661,-0.42,12.6,-44.58,19,281,5,-0.4194287,-0.2221301,0.10518,5.898277,-0.001455068,-0.04861641,-0.005362873,-0.02371797,-0.1912291,0.9812442
634796821746520000,0.06256109,0.0742913,-0.8875855,-0.42,12.6,-44.58,12,274,5,-0.3481256,-0.07950801,-0.01077346,5.900701,-0.008895159,-0.05105674,-0.009216879,-0.02421487,-0.1901262,0.9814177
634796821746720000,0.0742913,0.08602151,-0.8406647,-0.42,12.6,-44.58,12,274,5,-0.1565465,-0.0380142,0.04571912,5.904123,-0.01703429,-0.05206955,-0.01326588,-0.02396066,-0.188546,0.9816824
634796821746930000,0.06647116,0.08211143,-0.801564,-0.42,12.6,-44.58,12,274,5,-0.08094084,-0.06567714,0.09148964,5.906153,-0.01952147,-0.05303025,-0.01455246,-0.02421254,-0.1875812,0.9818428
634796821747120000,0.05865103,0.06256109,-0.797654,-0.3,13.56,-44.28,22,284,5,-0.05748925,-0.02629228,0.1383055,5.908826,-0.02119136,-0.05429971,-0.01545796,-0.02469986,-0.1862921,0.9820622
634796821747320000,0.06256109,0.03519062,-0.797654,-0.3,13.56,-44.28,22,284,5,-0.05001371,0.1130959,0.1052939,5.911894,-0.02250767,-0.05384779,-0.01602496,-0.02437995,-0.1848003,0.982343
634796821747520000,0.07820137,0.01955034,-0.7820137,-0.3,13.56,-44.28,17,279,5,0.03513027,0.0566579,-0.05860549,5.912831,-0.02292514,-0.05318761,-0.01615789,-0.02402464,-0.184343,0.9824355
634796821747720000,0.08602151,0.02737048,-0.7702835,-0.3,13.56,-44.28,17,279,5,0.2479587,0.1098316,-0.1362765,5.912676,-0.01965952,-0.04971468,-0.01423633,-0.02261828,-0.1843717,0.9824932
634796821747920000,0.0742913,0.04692082,-0.7781036,-0.3,13.56,-44.28,16,278,5,0.2479587,0.03637015,-0.15221,5.910587,-0.01446652,-0.04838312,-0.01158627,-0.02243066,-0.1853361,0.9823508
634796821748120000,0.05865103,0.05865103,-0.8523949,-0.3,13.56,-44.28,23,285,5,0.1148938,-0.07536656,-0.1968946,5.907936,-0.01123643,-0.04927921,-0.01011332,-0.02315673,-0.1866023,0.9821106
634796821748320000,0.06256109,0.07038123,-0.9501466,-0.12,15.12,-43.62,17,279,5,0.04250343,-0.03918494,-0.2192434,5.906931,-0.01095939,-0.04953396,-0.01001269,-0.02330266,-0.1870925,0.9820148
634796821748520000,0.07038123,0.09384164,-1.004888,-0.12,15.12,-43.62,17,279,5,0.3159993,0.0640217,-0.193702,5.903783,-0.00841713,-0.05026042,-0.008869886,-0.02388323,-0.1886079,0.9817219
634796821748720000,0.06647116,0.113392,-1.016618,-0.12,15.12,-43.62,17,279,5,0.3894308,0.1650706,-0.1383515,5.902855,-0.003282309,-0.0465616,-0.00601134,-0.02254891,-0.1890068,0.9816985
634796821748920000,0.06256109,0.1290323,-1.024438,-0.12,15.12,-43.62,8,270,5,0.1957418,0.140537,-0.1627952,5.900719,-0.0001933575,-0.03812242,-0.00371769,-0.01869423,-0.1900373,0.9815919
634796821749120000,0.08993158,0.1681329,-1.102639,-0.12,15.12,-43.62,9,271,5,-0.0415744,0.004280886,-0.4139523,5.899004,-0.001315594,-0.03757751,-0.004232308,-0.01831654,-0.1908898,0.9814314
634796821749320000,0.1094819,0.2541544,-1.282502,-0.12,15.12,-43.62,9,271,5,-0.173481,-0.4480128,-0.5331455,5.888991,-0.008561611,-0.04305648,-0.008412366,-0.02027152,-0.1958666,0.9803849
634796821749520000,0.05865103,0.340176,-1.497556,0,15.9,-43.14,7,269,5,0.05428908,-0.4139576,-0.2809241,5.883436,-0.01017857,-0.05239058,-0.0101865,-0.02466041,-0.1986067,0.979716
634796821749720000,0.02346041,0.3636364,-1.509286,0,15.9,-43.14,15,277,5,0.3767338,0.2863101,0.2182074,5.88475,-0.006513357,-0.0537343,-0.008507554,-0.0256882,-0.1979154,0.9798455
634796821749920000,0.04692082,0.1994135,-1.251222,0,15.9,-43.14,15,277,5,-0.214982,0.8854689,0.7354209,5.899167,-0.007877111,-0.0385611,-0.007544582,-0.01817346,-0.1908693,0.9814183
634796821750120000,0.04301075,0.1094819,-1.14956,0,15.9,-43.14,358,4,5,-0.2756429,0.1191934,-0.02551107,5.921272,-0.03271651,-0.02656436,-0.01847899,-0.01011956,-0.1801442,0.9834145
634796821750320000,0.01564027,0.1446725,-1.176931,0,15.9,-43.14,358,4,5,0.5108196,-0.09468578,-0.2979527,5.921587,-0.03189135,-0.02668178,-0.0180822,-0.01025448,-0.1799863,0.9834495
634796821750520000,0.01173021,0.1955034,-1.259042,0.06,17.46,-42.78,359,5,5,0.7566555,0.1266731,-0.4214028,5.919092,-0.02158523,-0.0280317,-0.01315028,-0.01182929,-0.1811635,0.983294
634796821750720000,0.01564027,0.230694,-1.239492,0.06,17.46,-42.78,359,5,5,0.7385637,0.4768031,-0.3894761,5.915905,-0.008692265,-0.0241766,-0.006480037,-0.01109105,-0.1826463,0.9830948
634796821750920000,0.05083089,0.2189638,-1.075269,0.06,17.46,-42.78,359,5,5,0.3894978,0.3788944,-0.2223927,5.914577,-0.0009884834,-0.0184865,-0.002179789,-0.008996004,-0.1832592,0.9830211
634796821751120000,0.09384164,0.1564027,-0.9188661,0.06,17.46,-42.78,356,2,5,-0.1713311,-0.1915353,-0.1894017,5.915504,0.0003437996,-0.015679,-0.001264162,-0.007738733,-0.1828001,0.9831188
634796821751320000,0.07038123,0.1016618,-0.8836755,0.06,17.46,-42.78,5,267,5,-0.3192584,-0.6863999,-0.2021725,5.913512,-0.00641489,-0.02795172,-0.005721016,-0.01314786,-0.1838109,0.982857
634796821751520000,0.01564027,0.08211143,-0.9032258,0.06,17.46,-42.78,5,267,5,-0.05958269,-0.4543989,-0.3171088,5.910892,-0.009083748,-0.03601789,-0.007795482,-0.01685623,-0.1851218,0.9825401
634796821751720000,0,0.08993158,-0.911046,0.06,17.46,-42.78,5,267,5,0.1436577,-0.1191569,-0.3745769,5.90714,-0.00818634,-0.04040658,-0.007796197,-0.0190808,-0.1869582,0.9821516
634796821751940000,0.01564027,0.1173021,-0.8914956,0.12,17.82,-42.66,356,2,5,0.3213833,0.1107023,-0.2596406,5.905869,-0.003920555,-0.04005777,-0.005681114,-0.01930461,-0.1875418,0.9820505
634796821752120000,0.04301075,0.1212121,-0.8523949,0.12,17.82,-42.66,356,2,5,0.3171264,0.3309779,-0.1542679,5.90714,0.00139904,-0.03577769,-0.002656467,-0.01770334,-0.1868742,0.982391
634796821752320000,0.07038123,0.07820137,-0.8289345,0.12,17.82,-42.66,356,2,5,0.1840983,0.1777123,-0.07867911,5.910879,0.005325555,-0.03290641,-0.0004285769,-0.01666092,-0.1850115,0.982595
634796821752530000,0.07038123,0.05474096,-0.8602151,0.12,17.82,-42.66,357,3,5,0.4277793,-0.1851732,-0.2552877,5.910736,0.008894443,-0.03731406,0.0009154719,-0.0191565,-0.1850347,0.9825448
634796821752720000,0.05865103,0.07038123,-0.9266862,0.12,17.82,-42.66,5,267,5,0.3181641,-0.06383593,-0.308499,5.907968,0.01582336,-0.04009223,0.004032767,-0.02116772,-0.1863107,0.9822546
634796821752920000,0.04692082,0.09775171,-0.9657869,-0.36,17.88,-42.9,6,268,5,0.02655367,0.1766481,-0.1807919,5.905641,0.01860905,-0.03986787,0.005397084,-0.02132332,-0.1874255,0.9820325
634796821753120000,0.05474096,0.1290323,-0.9462366,-0.36,17.88,-42.9,6,268,5,0.2904756,0.5342277,0.06824929,5.906135,0.01896524,-0.03672683,0.005871758,-0.01981307,-0.1871991,0.9821046
634796821753320000,0.07820137,0.1368524,-0.8875855,-0.36,17.88,-42.9,4,266,5,0.4703296,0.5714757,0.09803644,5.910458,0.02101207,-0.02628696,0.007887968,-0.01486126,-0.1851243,0.9825711
634796821753520000,0.09775171,0.1016618,-0.8523949,-0.36,17.88,-42.9,7,269,5,0.2585488,0.1532197,0.1065335,5.918961,0.0270071,-0.0137943,0.01203057,-0.009227901,-0.1809945,0.9833673
634796821753720000,0.1094819,0.07820137,-0.911046,-0.36,17.88,-42.9,16,278,5,-0.08199166,-0.5523615,0.07990842,5.92064,0.0255928,-0.01974523,0.01080615,-0.01201668,-0.1801333,0.9835095
634796821753920000,0.1173021,0.08602151,-1.024438,-0.24,17.88,-43.5,16,278,5,-0.1021794,-0.5502331,-0.07865006,5.921117,0.02289677,-0.03123987,0.008447665,-0.01742399,-0.1798376,0.9835057
634796821754120000,0.1094819,0.1094819,-1.094819,-0.24,17.88,-43.5,16,278,5,-0.1383231,-0.3054613,-0.1275557,5.919656,0.02027964,-0.03853726,0.006488101,-0.02078165,-0.1805302,0.9833285
634796821754320000,0.1016618,0.1564027,-1.055718,-0.24,17.88,-43.5,13,275,5,-0.3756261,0.1638168,0.423729,5.920969,0.01391602,-0.03730714,0.003483372,-0.0196,-0.179956,0.9834732
634796821754520000,0.1094819,0.1212121,-0.969697,-0.24,17.88,-43.5,11,273,5,-0.2830386,-0.06181176,0.4120225,5.93697,-0.0001847744,-0.03472364,-0.003081317,-0.01708557,-0.1722201,0.9849055
634796821754720000,0.1094819,0.05083089,-0.9305963,-0.24,17.88,-43.5,13,275,5,-0.01377972,-0.1575848,0.2736733,5.941598,-0.0031178,-0.03558254,-0.004559706,-0.01726656,-0.1699647,0.9852883
634796821754920000,0.1016618,0.03910068,-0.9540567,-0.24,17.88,-43.5,13,275,5,-0.02335285,-0.3331819,0.07998057,5.946195,-0.005177259,-0.03815686,-0.005750692,-0.01837304,-0.1677166,0.9856473
634796821755120000,0.09775171,0.07820137,-1.004888,-0.42,18.24,-43.68,14,276,5,-0.07653824,-0.2852918,0.003385413,5.947513,-0.006323814,-0.04438889,-0.00682397,-0.02135261,-0.167077,0.985689
634796821755320000,0.1055719,0.1173021,-1.016618,-0.42,18.24,-43.68,11,273,5,-0.05310252,-0.01178956,0.1481104,5.949605,-0.00826478,-0.04505062,-0.007813241,-0.02152476,-0.1660659,0.9858488
634796821755520000,0.1251222,0.113392,-0.9970675,-0.42,18.24,-43.68,11,273,5,-0.03605778,0.0530987,0.2651752,5.960574,-0.01439428,-0.03905844,-0.01023853,-0.01811831,-0.1607112,0.9867821
634796821755720000,0.1290323,0.06647116,-0.9892473,-0.42,18.24,-43.68,11,273,5,-0.1094598,0.0445535,0.3598913,5.965175,-0.01747942,-0.03693783,-0.01155193,-0.01685063,-0.1584624,0.9871536
634796821755920000,0.113392,0.02737048,-0.9775171,-0.42,18.24,-43.68,13,275,5,-0.2658698,-0.05017456,0.2907166,5.970728,-0.02374887,-0.03494966,-0.01444644,-0.01541266,-0.1557644,0.9875683
634796821756120000,0.1094819,0.01564027,-0.9736071,-0.42,18.24,-43.68,15,277,5,-0.3925126,-0.1501973,0.1970648,5.974604,-0.03146767,-0.03481221,-0.01821842,-0.01477883,-0.1539073,0.9878067
634796821756320000,0.1251222,0.03519062,-0.9853373,-0.36,18.48,-44.22,11,273,5,-0.5755593,-0.2278857,0.009734367,5.976563,-0.04018688,-0.0352534,-0.02254448,-0.0143477,-0.1530065,0.9878638
634796821756520000,0.1173021,0.08211143,-1.016618,-0.36,18.48,-44.22,11,273,5,-0.4478523,-0.3130237,0.1023015,5.977912,-0.04932165,-0.03671693,-0.02715788,-0.01438995,-0.1524203,0.9878378
634796821756720000,0.1094819,0.1016618,-1.020528,-0.36,18.48,-44.22,11,273,5,-0.2147869,-0.0490814,0.2225454,5.980518,-0.05668163,-0.03903532,-0.03094886,-0.01501442,-0.1512141,0.9879023
634796821756920000,0.1290323,0.06256109,-1.024438,-0.36,18.48,-44.22,13,275,5,-0.158333,-0.0341715,0.06503502,5.986541,-0.06319928,-0.03582501,-0.03388805,-0.01303784,-0.1482412,0.9882845
634796821757120000,0.1368524,0.03910068,-1.043988,-0.36,18.48,-44.22,13,275,5,-0.1944992,-0.1256739,-0.04775742,5.98659,-0.06674313,-0.03492212,-0.03557253,-0.01232979,-0.1482261,0.9882366
634796821757320000,0.1251222,0.0742913,-1.043988,0,18.96,-44.4,12,274,5,-0.1870496,-0.1139542,-0.0722049,5.985842,-0.06965494,-0.03529346,-0.03704311,-0.01228361,-0.1486192,0.9881241
634796821757520000,0.1251222,0.1094819,-1.036168,0,18.96,-44.4,12,274,5,-0.1423084,-0.14055,-0.04025665,5.985469,-0.07181072,-0.03743219,-0.0382682,-0.01317313,-0.148852,0.9880309
634796821757720000,0.1368524,0.113392,-1.051808,0,18.96,-44.4,11,273,5,-0.149716,-0.1948254,0.1182898,5.987549,-0.07411026,-0.04068851,-0.03962908,-0.01465207,-0.1478942,0.9881003
634796821757920000,0.1173021,0.09775171,-1.059628,0,18.96,-44.4,11,273,5,-0.1188101,-0.1213877,0.1980914,5.993635,-0.07795309,-0.04059648,-0.04147705,-0.01444873,-0.1449133,0.9884691
634796821758120000,0.1016618,0.0742913,-1.028348,0,18.96,-44.4,14,276,5,0.07382304,0.09565067,0.1650839,5.997018,-0.077317,-0.03819406,-0.04096784,-0.01337643,-0.1431941,0.9887559
634796821758320000,0.09775171,0.05865103,-0.9853373,0,18.96,-44.4,14,276,5,0.05252354,-0.1289138,0.09480522,6.000282,-0.07584071,-0.03644526,-0.04009344,-0.01268279,-0.1415398,0.989039
634796821758520000,0.08993158,0.06647116,-0.9814272,0,18.96,-44.4,11,273,5,-0.009205994,-0.1895747,0.05753,6.002792,-0.07494235,-0.03689777,-0.03966463,-0.01301996,-0.1403005,0.9892285
634796821758720000,0.08993158,0.07820137,-0.9892473,-0.42,20.04,-43.86,9,271,5,-0.1166643,-0.2044738,0.05644119,6.004818,-0.07563686,-0.03815293,-0.04008145,-0.01363282,-0.1393244,0.9893414
634796821758920000,0.09384164,0.08602151,-0.9931574,-0.42,20.04,-43.86,8,270,5,-0.1102359,-0.0693186,0.04470449,6.006316,-0.07688284,-0.03889525,-0.04073855,-0.0139438,-0.1386048,0.9894113
634796821759120000,0.08993158,0.08602151,-1.000978,-0.42,20.04,-43.86,8,270,5,-0.07934099,-0.02887411,0.02446186,6.009516,-0.08002615,-0.03647268,-0.04210737,-0.01259466,-0.136999,0.9895957
634796821759320000,0.08602151,0.08211143,-0.9970675,-0.42,20.04,-43.86,9,271,5,-0.06655145,-0.01077951,0.02550597,6.010835,-0.08110284,-0.03459775,-0.04250541,-0.01162109,-0.1363174,0.9896847
634796821759520000,0.08993158,0.07820137,-0.9970675,-0.72,19.92,-43.98,9,271,5,-0.04099823,-0.1086813,0.00314096,6.011887,-0.08178543,-0.03426862,-0.04281494,-0.01143419,-0.1357949,0.9897454
634796821759720000,0.08993158,0.08602151,-1.008798,-0.72,19.92,-43.98,9,271,5,-0.06225219,-0.09589028,-0.001130627,6.012395,-0.08207654,-0.0343442,-0.04296114,-0.01146273,-0.1355459,0.9897729
634796821759920000,0.08993158,0.09775171,-1.020528,-0.72,19.92,-43.98,9,271,5,-0.04626668,-0.06927188,0.0509981,6.012892,-0.08262991,-0.03409624,-0.04321551,-0.01131325,-0.1352988,0.9897973
634796821760120000,0.07820137,0.08602151,-1.024438,-0.72,19.92,-43.98,9,271,5,0.05270137,0.02120174,0.0860789,6.016531,-0.08294939,-0.03130972,-0.04316901,-0.009990875,-0.1334452,0.9900652
634796821760320000,0.0742913,0.06256109,-1.020528,-0.72,19.92,-43.98,9,271,5,0.1175936,0.008422201,-0.01717276,6.017668,-0.08107209,-0.02907741,-0.04208689,-0.009034774,-0.1328302,0.9902036
634796821760520000,0.08211143,0.06256109,-1.016618,-0.72,19.92,-43.98,7,269,5,0.07287259,-0.008616999,-0.07038391,6.017523,-0.0792582,-0.0274663,-0.04108343,-0.008354434,-0.1328636,0.9902472
634796821760720000,0.08602151,0.08602151,-1.016618,-1.02,20.46,-42.66,6,268,5,-0.05801391,0.01904008,-0.0629305,6.017161,-0.079427,-0.02569234,-0.04105143,-0.007457304,-0.1330102,0.9902361
634796821760920000,0.08993158,0.09384164,-1.008798,-1.02,20.46,-42.66,6,268,5,-0.0590493,0.05946649,0.02219229,6.017386,-0.08009934,-0.02399921,-0.04127182,-0.006578829,-0.132869,0.9902521
634796821761120000,0.08993158,0.09384164,-0.9970675,-1.02,20.46,-42.66,8,270,5,0.08569235,0.02327613,0.0711026,6.018822,-0.08040643,-0.02134895,-0.04124516,-0.005275666,-0.1321087,0.9903627
634796821761320000,0.08993158,0.08993158,-1.004888,-1.02,20.46,-42.66,10,272,5,0.1420701,0.008409326,0.100863,6.023195,-0.07649922,-0.01696145,-0.03901485,-0.00344602,-0.1298515,0.9907596
634796821761520000,0.08993158,0.07820137,-1.008798,-1.02,20.46,-42.66,10,272,5,0.1729193,0.1115952,0.1114598,6.025674,-0.07361745,-0.01322663,-0.03734354,-0.001828987,-0.128552,0.9909977
634796821761720000,0.08993158,0.06256109,-0.9892473,-1.02,20.46,-42.66,10,272,5,0.1633116,0.08603796,0.08587351,6.027593,-0.07095957,-0.01023805,-0.03583458,-0.0005532241,-0.1275467,0.9911849
634796821761920000,0.07820137,0.05865103,-0.9892473,-1.2,21.06,-42.06,9,271,5,0.1026239,-0.04485333,0.03262968,6.02848,-0.06963325,-0.009500622,-0.0351303,-0.0002878722,-0.1270946,0.9912683
634796821762120000,0.06647116,0.06256109,-1.000978,-1.2,21.06,-42.06,9,271,5,0.0706807,-0.1129559,0.04217908,6.029916,-0.06816626,-0.009615421,-0.03441014,-0.000462726,-0.1263842,0.9913843
634796821762320000,0.06256109,0.06647116,-1.008798,-1.2,21.06,-42.06,7,269,5,0.1738457,0.08393525,0.05596803,6.031622,-0.06600714,-0.009367943,-0.03332381,-0.0005048863,-0.1255338,0.9915294
634796821762520000,0.0742913,0.06647116,-1.020528,-1.2,21.06,-42.06,6,268,5,0.2728187,0.2094756,0.1176634,6.035711,-0.05897498,-0.00237,-0.02940398,0.00246343,-0.1234027,0.9919179
634796821762720000,0.08993158,0.06256109,-1.020528,-1.2,21.06,-42.06,6,268,5,0.3696632,0.2360606,0.1495411,6.039047,-0.0529933,0.002999544,-0.02611377,0.004714124,-0.1216842,0.9922141
634796821762920000,0.09775171,0.04692082,-1.008798,-1.2,21.06,-42.06,5,267,5,0.2994243,0.1625775,0.05904492,6.040868,-0.04864144,0.006267428,-0.02376132,0.006048992,-0.1207502,0.9923801
634796821763120000,0.1016618,0.03128055,-1.008798,-1.08,21.48,-42.3,7,269,5,-0.01666164,0.008244897,-0.0005625449,6.042171,-0.04487347,0.009764791,-0.02168513,0.007542745,-0.1200754,0.9924992
634796821763320000,0.08993158,0.05083089,-1.012708,-1.08,21.48,-42.3,8,270,5,-0.1028284,-0.04178113,-0.02716296,6.042613,-0.04598784,0.01107705,-0.02216102,0.00825591,-0.1198364,0.992512
634796821763520000,0.08602151,0.0742913,-1.008798,-1.08,21.48,-42.3,8,270,5,0.210058,0.1284532,0.03030254,6.044766,-0.03978753,0.01715863,-0.01873043,0.01088228,-0.1187302,0.9926903
634796821763720000,0.08993158,0.08211143,-0.9931574,-1.08,21.48,-42.3,8,270,5,0.436738,0.2263352,0.1271109,6.04692,-0.0348537,0.02052617,-0.01609424,0.0122435,-0.1176564,0.9928485
634796821763920000,0.09384164,0.04692082,-0.9814272,-1.08,21.48,-42.3,7,269,5,0.3984259,0.1283692,0.3112022,6.052789,-0.02863669,0.02425539,-0.01282807,0.0136914,-0.1147508,0.9932171
634796821764120000,0.1055719,0.02737048,-0.9657869,-0.96,21.6,-41.76,8,270,5,0.3494715,0.0868094,0.3090737,6.059026,-0.02288032,0.02726388,-0.009842542,0.0148245,-0.1116724,0.9935858
634796821764320000,0.09775171,-0.003910068,-0.9579667,-0.96,21.6,-41.76,8,270,5,-0.02196382,0.02079871,0.05891881,6.062533,-0.02039766,0.02702379,-0.008648164,0.01455146,-0.1099498,0.993793
634796821764520000,0.09384164,-0.02737048,-0.9775171,-0.96,21.6,-41.76,8,270,5,-0.1123889,-0.06320261,-0.1209395,6.064095,-0.02056145,0.02790665,-0.008692613,0.01499235,-0.109167,0.9938723
634796821764720000,0.09384164,0.01955034,-0.9970675,-0.96,21.6,-41.76,7,269,5,-0.02935763,-0.01418067,-0.1049516,6.061818,-0.02204346,0.02807677,-0.009402485,0.01516846,-0.1102863,0.9937397
634796821764920000,0.1016618,0.05083089,-1.008798,-0.96,21.6,-41.76,7,269,5,0.07279394,0.01560008,0.02382492,6.062176,-0.02028084,0.03007424,-0.008419154,0.01606222,-0.11011,0.993754
634796821765120000,0.113392,0.03128055,-1.016618,-0.96,21.6,-41.76,7,269,5,0.1823936,-0.09720822,-0.01554492,6.063239,-0.0182898,0.03026235,-0.005506362,0.01582951,-0.1095348,0.9938416
634796821765320000,0.1251222,0.02346041,-1.028348,-0.24,21.36,-41.76,6,268,5,0.2952015,-0.03654813,-0.04213054,6.063426,-0.01441979,0.03026235,-0.005506362,0.01582951,-0.1095348,0.9938416
634796821765530000,0.1251222,0.02737048,-1.000978,-0.24,21.36,-41.76,6,268,5,-0.1123918,0.1496524,0.04194761,6.063352,-0.01105523,0.03097713,-0.003794669,0.01600055,-0.1095958,0.9938402
634796821765720000,0.1173021,0.01955034,-0.9657869,-0.24,21.36,-41.76,6,268,5,-0.382705,-0.1802343,0.06958819,6.064513,-0.01268768,0.0345,-0.004422784,0.01783792,-0.108991,0.9938728
634796821765920000,0.1173021,0.01955034,-0.9814272,-0.24,21.36,-41.76,7,269,5,-0.411439,-0.2504731,0.02699737,6.067374,-0.02767896,0.02905941,-0.01219254,0.01593358,-0.1074747,0.9940054
634796821766120000,0.1290323,0.02346041,-1.028348,-0.24,21.36,-41.76,8,270,5,-0.1592011,-0.1674636,-0.0262207,6.067427,-0.0302391,0.0274502,-0.01355204,0.01527104,-0.1074413,0.9940017
634796821766320000,0.1446725,0.03519062,-1.079179,0.24,20.46,-41.82,7,269,5,0.1292024,0.001772171,-0.1060198,6.066625,-0.02935171,0.02784932,-0.01308331,0.01542697,-0.1078436,0.9939621
634796821766520000,0.1603128,0.05865103,-1.079179,0.24,20.46,-41.82,7,269,5,0.4740113,0.2380202,-0.136847,6.064545,-0.02225256,0.03226209,-0.009298448,0.01724679,-0.1089036,0.9938592
