Timestamp,Acc.X,Acc.Y,Acc.Z,Comp.X,Comp.Y,Comp.Z,Comp.TrueHeading,Comp.MagneticHeading,Comp.HeadingAccuracy,Gyro.X,Gyro.Y,Gyro.Z,Motion.Yaw,Motion.Pitch,Motion.Roll,Motion.X,Motion.Y,Motion.Z,Motion.W
634796813184320000,0.1290323,0.0742913,-0.9423265,0,0,0,0,0,0,0,0,0,0,0,0,0,0,0,0
634796813184520000,0.1290323,0.05083089,-0.9618768,0,0,0,0,0,0,0,0,0,0,0,0,0,0,0,0
634796813184720000,0.1290323,0.07038123,-0.9970675,0,0,0,0,0,0,0,0,0,0,0,0,0,0,0,0
634796813184920000,0.1329423,0.08602151,-1.012708,0,0,0,0,0,0,0,0,0,0,0,0,0,0,0,0
634796813185120000,0.1407625,0.09384164,-1.012708,0,0,0,0,0,0,0,0,0,0,0,0,0,0,0,0
634796813185320000,0.1446725,0.1173021,-1.012708,0,0,0,0,0,0,0,0,0,0,0,0,0,0,0,0
634796813185520000,0.1407625,0.1251222,-1.016618,0,0,0,0,0,0,0.1647851,-0.1053026,0.09569012,0,0,0,0,0,0,0
634796813185720000,0.1368524,0.08993158,-1.012708,3.66,-8.76,-40.56,173,75,5,-0.1789656,-0.09996229,0.161664,0,0,0,0,0,0,0
634796813185920000,0.1485826,0.06647116,-0.9970675,-0.48,-10.32,-33.66,154,56,5,-0.3151864,-0.260645,0.1754863,0,0,0,0,0,0,0
634796813186120000,0.1290323,0.08602151,-1.008798,0.84,-17.58,-37.86,163,65,5,-0.3162507,-0.6043898,0.1307319,0,0,0,0,0,0,0
634796813186320000,0.08993158,0.1094819,-1.040078,0.84,-17.58,-37.86,163,65,5,-0.1502215,-0.392609,0.06148763,0,0,0,0,0,0,0
634796813186520000,0.08211143,0.1094819,-1.032258,0.84,-17.58,-37.86,163,65,5,0.06263032,0.008626041,0.01572711,0,0,0,0,0,0,0
634796813186720000,0.1055719,0.1055719,-0.9892473,0.84,-17.58,-37.86,167,69,5,0.2935543,0.1160945,0.006184311,0,0,0,0,0,0,0
634796813186920000,0.09775171,0.09775171,-0.9814272,0.84,-17.58,-37.86,168,70,5,0.3276095,0.05965862,0.04346412,0,0,0,0,0,0,0
634796813187130000,0.08993158,0.07820137,-0.9853373,0.72,-18.3,-37.98,166,68,5,-0.1587796,0.04039976,-0.05010585,0,0,0,0,0,0,0
634796813187320000,0.09775171,0.0742913,-0.9892473,0.72,-18.3,-37.98,166,68,5,-0.2439176,-0.0692332,-0.05646141,0,0,0,0,0,0,0
634796813187520000,0.1055719,0.09384164,-0.9892473,0.72,-18.3,-37.98,166,68,5,-0.113019,-0.04158219,-0.05538761,3.440707,-0.09745383,0.1042471,0.04420965,0.0558522,-0.9859442,0.1511303
634796813187720000,0.1094819,0.1094819,-0.9931574,0.72,-18.3,-37.98,165,67,5,0.1157217,0.07330071,-0.01706177,3.433666,-0.09337067,0.1021883,0.04369107,0.05353515,-0.9866413,0.1475277
634796813187920000,0.113392,0.1094819,-0.9970675,0.72,-18.3,-37.98,165,67,5,0.1571395,-0.02891269,0.04576412,3.424674,-0.08896112,0.103516,0.04490255,0.05125316,-0.9873723,0.1430175
634796813188120000,0.1173021,0.09384164,-1.008798,0.72,-18.3,-37.98,165,67,5,0.1368353,-0.0321226,0.07342003,3.421624,-0.08935618,0.1037924,0.04508927,0.05139865,-0.9875705,0.1415256
634796813188320000,0.1173021,0.07820137,-1.008798,0.48,-19.14,-37.98,164,66,5,0.09525904,0.04979017,-4.797331E-06,3.418819,-0.09045052,0.1055858,0.0459709,0.05199743,-0.9876887,0.1401989
634796813188520000,0.1212121,0.08211143,-0.9931574,0.48,-19.14,-37.98,164,66,5,0.005813999,0.03910918,-0.0361611,3.41643,-0.09076905,0.1076846,0.0470481,0.0522407,-0.9877845,0.139066
634796813188720000,0.1251222,0.08602151,-0.9892473,0.48,-19.14,-37.98,164,66,5,-0.08998958,-0.07471119,-0.02977075,3.415297,-0.09110069,0.1078818,0.0471522,0.05239101,-0.9878485,0.1385178
634796813188920000,0.1212121,0.07820137,-1.004888,0.48,-19.14,-37.98,164,66,5,-0.1878802,-0.1299701,-0.07660048,3.414762,-0.09243536,0.1069299,0.04660353,0.05297409,-0.9878791,0.1382666
634796813189120000,0.1173021,0.09775171,-1.016618,0.48,-19.14,-37.98,163,65,5,-0.09633502,-0.1288578,-0.08298637,3.41412,-0.09293342,0.1063787,0.04631367,0.05316848,-0.9879265,0.1379503
634796813189340000,0.113392,0.1212121,-0.9970675,0.48,-19.14,-37.98,163,65,5,0.03564103,0.01700682,-0.04997496,3.413591,-0.09030223,0.1091448,0.04787622,0.05204027,-0.9879504,0.1376795
634796813189520000,0.113392,0.1016618,-0.9657869,1.2,-18.66,-37.74,166,68,5,-0.02183223,-0.04151737,-0.0531389,3.411597,-0.09002709,0.1116151,0.04916806,0.05201931,-0.9880187,0.1367335
634796813189720000,0.1251222,0.08211143,-0.9736071,1.2,-18.66,-37.74,166,68,5,-0.1591153,-0.2522181,-0.04251985,3.40919,-0.09264326,0.1111399,0.04881836,0.05322167,-0.9881282,0.1355997
634796813189920000,0.1329423,0.08993158,-1.004888,1.2,-18.66,-37.74,166,68,5,-0.1878321,-0.2394474,-0.0371735,3.406095,-0.09750103,0.1078507,0.04694843,0.05533446,-0.9883049,0.1341216
634796813190120000,0.1212121,0.1094819,-1.028348,1.2,-18.66,-37.74,165,67,5,-0.1153971,-0.05957844,-0.02758664,3.405824,-0.09855103,0.1058148,0.04587884,0.05571587,-0.988354,0.1339698
634796813190320000,0.1055719,0.1173021,-1.024438,1.2,-18.66,-37.74,164,66,5,-0.02062965,0.05428514,-0.02439269,3.404108,-0.09909558,0.1107299,0.04832117,0.05625992,-0.9883064,0.1332369
634796813190530000,0.1055719,0.113392,-0.9775171,1.68,-19.14,-37.56,167,69,5,0.04321779,0.1394174,0.04904598,3.402564,-0.09899139,0.1132666,0.04962585,0.05633211,-0.9883325,0.1325247
634796813190720000,0.113392,0.08602151,-0.9657869,1.68,-19.14,-37.56,167,69,5,-0.01424504,-0.02658479,0.08409261,3.400275,-0.1002486,0.1137663,0.0498549,0.05692814,-0.9884325,0.1314353
634796813190920000,0.1173021,0.05865103,-0.9736071,1.68,-19.14,-37.56,168,70,5,-0.08657437,-0.09149604,-0.002138465,3.396575,-0.102942,0.1121933,0.04900749,0.05806983,-0.9886467,0.129639
634796813191120000,0.1212121,0.0742913,-0.9892473,1.68,-19.14,-37.56,168,70,5,-0.1727194,-0.07764238,-0.05321776,3.392717,-0.1049175,0.1108563,0.0483317,0.05887043,-0.9888787,0.1277497
634796813191320000,0.1212121,0.1016618,-1.016618,1.68,-19.14,-37.56,166,68,5,-0.1908113,-0.1893723,-0.02767146,3.390442,-0.1040959,0.1081771,0.04712455,0.05824703,-0.9891269,0.1265454
634796813191520000,0.1212121,0.1055719,-1.040078,1.68,-19.14,-37.56,166,68,5,-0.007696867,-0.08079109,0.04891561,3.389068,-0.1022506,0.1061522,0.04627847,0.05718007,-0.9893285,0.1257775
634796813191720000,0.1173021,0.09775171,-1.032258,1.68,-19.14,-37.56,166,68,5,0.08911581,0.01495969,0.04035551,3.38751,-0.1012969,0.1068894,0.04674749,0.05671626,-0.9894308,0.1250008
634796813191920000,0.113392,0.09775171,-1.000978,1.74,-18.78,-37.62,167,69,5,0.1710315,-0.02336422,0.07331871,3.385948,-0.09910488,0.1079311,0.04744357,0.05565707,-0.9895573,0.1241992
634796813192120000,0.113392,0.09775171,-0.9892473,1.74,-18.78,-37.62,167,69,5,0.1390846,-0.08823567,0.01478442,3.384694,-0.0957539,0.1080647,0.04775168,0.05397703,-0.9897241,0.1235014
634796813192320000,0.1055719,0.08602151,-1.008798,1.74,-18.78,-37.62,167,69,5,0.02516768,-0.07435211,-0.06500289,3.382932,-0.09440708,0.1071938,0.04745051,0.05321718,-0.9898937,0.1225796
634796813192520000,0.113392,0.08602151,-1.020528,1.74,-18.78,-37.62,167,69,5,-0.1621163,0.04587873,-0.06497053,3.379513,-0.09473657,0.1064585,0.04715725,0.0532565,-0.9901145,0.1208801
634796813192740000,0.1212121,0.1094819,-1.008798,2.1,-18.3,-37.56,169,71,5,-0.1812523,0.02030785,-0.02665119,3.373577,-0.0985136,0.1076361,0.04767575,0.05505316,-0.9903325,0.1180552
634796813192920000,0.1173021,0.113392,-0.9853373,2.1,-18.3,-37.56,168,70,5,0.002898027,-0.0009634547,0.02334015,3.37161,-0.09692287,0.1079529,0.04798003,0.05423614,-0.9904825,0.1170496
634796813193120000,0.1055719,0.1055719,-0.969697,2.1,-18.3,-37.56,167,69,5,0.1540094,0.02031615,-0.01178237,3.369903,-0.09507512,0.1087142,0.04851091,0.0533223,-0.990609,0.1161757
634796813193320000,0.1055719,0.1016618,-0.9814272,2.1,-18.3,-37.56,167,69,5,0.06247111,-0.04780555,-0.05431476,3.367032,-0.094738,0.1091192,0.04880757,0.05310774,-0.9907728,0.1147534
634796813193520000,0.113392,0.1016618,-1.004888,2.1,-18.3,-37.56,168,70,5,-0.1056833,-0.07331332,-0.09043786,3.363625,-0.09698604,0.1074873,0.04796176,0.05405034,-0.9909533,0.1130861
634796813193720000,0.1251222,0.113392,-1.004888,2.1,-18.3,-37.56,168,70,5,-0.06098262,0.01394718,-0.09470093,3.356304,-0.1021042,0.1060145,0.04714858,0.05633455,-0.9912626,0.1095479
634796813193930000,0.1212121,0.1251222,-0.9970675,2.16,-18,-37.8,168,70,5,0.0007501022,-0.06373519,-0.02443771,3.354497,-0.1028504,0.1061435,0.04722297,0.05666849,-0.9913377,0.1086727
634796813194120000,0.1212121,0.1212121,-1.004888,2.16,-18,-37.8,168,70,5,0.1007634,-0.1349968,2.489327E-05,3.353388,-0.1035345,0.1055447,0.04692047,0.05695067,-0.991397,0.1081254
634796813194320000,0.1173021,0.1094819,-1.028348,2.16,-18,-37.8,167,69,5,0.142227,-0.04770573,-0.105352,3.351979,-0.1033173,0.1045841,0.04649566,0.05676089,-0.9915052,0.1074
634796813194520000,0.1173021,0.1094819,-1.032258,2.16,-18,-37.8,167,69,5,0.07727832,0.05017447,-0.08825365,3.348991,-0.1038063,0.1057322,0.04712407,0.05699141,-0.9916167,0.1059563
634796813194720000,0.1212121,0.1173021,-1.012708,2.16,-18,-37.8,167,69,5,0.01872476,0.04906905,-0.03286094,3.346798,-0.1043472,0.107457,0.04801394,0.05729371,-0.991667,0.1049216
634796813194920000,0.113392,0.1094819,-0.9853373,2.16,-18,-37.8,168,70,5,-0.007901306,0.09478848,-0.003020387,3.3447,-0.105844,0.1107659,0.04963796,0.05814807,-0.991636,0.103995
634796813195120000,0.1055719,0.09775171,-0.9736071,2.16,-18,-37.8,168,70,5,-0.01961736,4.083999E-05,-0.00512468,3.343875,-0.107074,0.1109576,0.04969333,0.05874684,-0.9916373,0.103621
634796813195320000,0.1173021,0.1016618,-0.9931574,2.16,-17.4,-38.34,168,70,5,-0.01216374,-0.1617112,-0.06681781,3.34241,-0.107724,0.1084462,0.04845684,0.05891087,-0.9917678,0.1028505
634796813195520000,0.1212121,0.1290323,-1.024438,2.16,-17.4,-38.34,168,70,5,0.07508793,-0.102107,-0.07422024,3.340919,-0.1064606,0.1066716,0.04768453,0.05816271,-0.9919337,0.1020383
634796813195720000,0.1212121,0.1407625,-1.028348,2.16,-17.4,-38.34,167,69,5,0.07396901,0.0734331,-0.05821302,3.340176,-0.1049857,0.1065584,0.04772494,0.05740792,-0.9920164,0.101632
634796813195920000,0.1212121,0.1212121,-1.000978,2.16,-17.4,-38.34,168,70,5,0.009023068,-0.04577405,-0.01460054,3.338838,-0.1044202,0.1084064,0.04870904,0.05718362,-0.9920465,0.1009979
634796813196140000,0.113392,0.113392,-0.9970675,2.52,-17.64,-38.1,168,70,5,-0.005904818,-0.07767176,-0.08167184,3.336801,-0.1086147,0.1086822,0.04869442,0.05922768,-0.9920203,0.1000956
634796813196320000,0.1173021,0.1251222,-1.008798,2.52,-17.64,-38.1,168,70,5,-0.01656133,-0.0446745,-0.1253048,3.334152,-0.1107063,0.1083214,0.04849031,0.06018396,-0.992099,0.09882434
634796813196520000,0.1251222,0.1446725,-1.024438,2.52,-17.64,-38.1,169,71,5,0.02919993,-0.1681268,-0.06250621,3.332573,-0.1116593,0.1075324,0.04809957,0.06058217,-0.9921724,0.09804397
634796813196720000,0.1251222,0.1564027,-1.036168,2.52,-17.64,-38.1,169,71,5,0.1419778,-0.110659,0.003517679,3.331622,-0.1117136,0.1050823,0.04690947,0.060474,-0.9922886,0.09751172
634796813196920000,0.1212121,0.1407625,-1.024438,2.52,-17.64,-38.1,168,70,5,0.1973175,0.06701731,0.01523895,3.330909,-0.1120691,0.1061667,0.04745195,0.06068305,-0.9922798,0.09719404
634796813197120000,0.1173021,0.1212121,-0.9892473,2.52,-17.64,-38.1,168,70,5,0.08235712,0.1244286,0.03223505,3.329627,-0.11274,0.1104944,0.04960679,0.06118149,-0.9921936,0.09668416
634796813197330000,0.1094819,0.113392,-0.969697,2.52,-17.64,-38.1,169,71,5,-0.04215265,-0.2161192,0.01302174,3.329431,-0.1149533,0.1094002,0.04896278,0.06222511,-0.9921675,0.09661308
634796813197520000,0.1094819,0.1251222,-0.9853373,2.58,-18,-38.22,169,71,5,-0.04215265,-0.2161192,0.01302174,3.329357,-0.1167572,0.106273,0.04732574,0.06297699,-0.9922077,0.09653755
634796813197720000,0.113392,0.1290323,-1.008798,2.58,-18,-38.22,169,71,5,0.01740586,-0.02134041,-0.01144724,3.32904,-0.1165066,0.1040457,0.0462421,0.06274462,-0.9922945,0.09631541
634796813197920000,0.113392,0.1251222,-1.012708,2.58,-18,-38.22,169,71,5,0.02164595,0.03077725,-0.001907953,3.327887,-0.1168272,0.1042072,0.04634313,0.06288441,-0.9923365,0.09575519
634796813198120000,0.113392,0.1251222,-0.9970675,2.58,-18,-38.22,169,71,5,0.06527951,-0.004375174,0.03427836,3.326766,-0.11731,0.1052547,0.04687536,0.06314449,-0.9923434,0.095238
634796813198320000,0.113392,0.1212121,-0.9814272,2.58,-18,-38.22,169,71,5,0.07594463,-0.07567666,0.05237359,3.326419,-0.1164882,0.1054839,0.04703913,0.06273887,-0.9923786,0.09505288
634796813198520000,0.1055719,0.113392,-0.9853373,2.58,-18.36,-38.22,169,71,5,0.09296703,-0.09479918,0.0193641,3.326366,-0.1157825,0.1043906,0.04653155,0.06233874,-0.9924347,0.09498113
634796813198720000,0.1055719,0.113392,-0.9970675,2.58,-18.36,-38.22,169,71,5,0.05995465,0.006308702,-0.01792007,3.325414,-0.1151664,0.1043694,0.04657978,0.06200997,-0.9924994,0.09449386
634796813198920000,0.1094819,0.1173021,-0.9970675,2.58,-18.36,-38.22,169,71,5,-0.05711246,0.02968281,-0.03390069,3.323951,-0.1157081,0.1053411,0.04708229,0.06228736,-0.9925244,0.09380569
634796813199120000,0.1212121,0.1212121,-1.000978,2.58,-18.36,-38.22,170,72,5,-0.09966285,-0.08207967,-0.04134473,3.322815,-0.1169093,0.1050972,0.04694048,0.06284598,-0.9925462,0.09326404
634796813199320000,0.1290323,0.1368524,-1.012708,2.58,-18.36,-38.22,169,71,5,-0.0804656,-0.07992908,-0.03599828,3.320673,-0.119808,0.1027821,0.0457246,0.06413493,-0.9926214,0.09220544
634796813199540000,0.1290323,0.1446725,-1.028348,2.58,-18.36,-38.22,168,70,5,-0.03146847,-0.09693359,0.01935271,3.32124,-0.1205587,0.1019783,0.04527244,0.06448562,-0.992592,0.09248194
634796813199720000,0.1173021,0.1329423,-1.036168,2.58,-18.36,-38.22,168,70,5,0.03244144,0.0361219,0.04163802,3.322106,-0.1209917,0.1025187,0.04549275,0.06474347,-0.9925225,0.09293624
634796813199920000,0.1055719,0.1094819,-1.020528,2.58,-18.66,-38.04,168,70,5,0.02288247,0.05631557,0.01821474,3.322281,-0.1215444,0.1041858,0.04628922,0.06509417,-0.9924504,0.0930822
634796813200120000,0.1016618,0.1016618,-0.9931574,2.58,-18.66,-38.04,168,70,5,-0.01648343,-0.05437661,0.02885113,3.322026,-0.1221418,0.1060146,0.04717759,0.06546384,-0.9923884,0.09302095
634796813200320000,0.1016618,0.1016618,-0.9853373,2.58,-18.66,-38.04,170,72,5,-0.03987403,-0.06074983,0.05010244,3.322023,-0.1220777,0.1054636,0.04690731,0.06540821,-0.9924089,0.0930018
634796813200520000,0.1016618,0.1055719,-0.9853373,2.58,-18.66,-38.04,170,72,5,0.0005840812,-0.04370211,0.02665819,3.32219,-0.1200955,0.1036028,0.04607001,0.06434774,-0.9925178,0.09298737
634796813200730000,0.1055719,0.1016618,-0.9931574,3.06,-18.42,-37.86,171,73,5,0.03995584,-0.06390865,0.01177224,3.321778,-0.118644,0.1029022,0.0458026,0.06358744,-0.9926012,0.0927303
634796813200920000,0.113392,0.09384164,-1.008798,3.06,-18.42,-37.86,171,73,5,0.01437527,-0.06709271,0.01281709,3.320897,-0.1169636,0.1016387,0.04528071,0.06267883,-0.9927318,0.09222054
634796813201120000,0.113392,0.08993158,-1.020528,3.06,-18.42,-37.86,170,72,5,-0.03353849,-0.05324182,0.007482984,3.31992,-0.1161079,0.1006484,0.04485881,0.06218949,-0.9928325,0.09169
634796813201320000,0.113392,0.09384164,-1.016618,3.06,-18.42,-37.86,170,72,5,-0.02927957,-0.01067803,6.586642E-05,3.319026,-0.1150269,0.1006202,0.04492179,0.06163159,-0.9929064,0.09122141
634796813201520000,0.1173021,0.09775171,-1.008798,3.06,-18.42,-37.86,171,73,5,-0.01330714,0.05100787,-0.002048004,3.31814,-0.113266,0.1018333,0.0456318,0.06078903,-0.9929687,0.09077272
634796813201720000,0.1212121,0.09384164,-1.012708,3.06,-18.42,-37.86,171,73,5,0.06223337,-0.07564696,-0.02115265,3.316533,-0.1095967,0.1005822,0.04522387,0.05887756,-0.9931836,0.08986025
634796813201920000,0.1290323,0.1055719,-1.024438,3.06,-18.3,-37.98,170,72,5,0.07074429,-0.03414334,-0.00303752,3.315762,-0.1070516,0.1001732,0.04515721,0.05757883,-0.9933028,0.08940923
634796813202120000,0.1290323,0.1212121,-1.016618,3.06,-18.3,-37.98,170,72,5,0.01646498,-8.813607E-05,0.02888593,3.315369,-0.1050823,0.1007509,0.04554357,0.05661624,-0.9933645,0.08918337
634796813202320000,0.1212121,0.1094819,-1.004888,3.06,-18.3,-37.98,169,71,5,0.009023709,-0.04372073,0.04909802,3.315864,-0.1046574,0.1020253,0.04618172,0.05647004,-0.9933185,0.08945014
634796813202520000,0.1173021,0.1055719,-0.9931574,3.06,-18.3,-37.98,169,71,5,0.05694257,-0.02882084,-0.009409995,3.316171,-0.1047203,0.1024297,0.04637113,0.05652543,-0.9932905,0.08961383
634796813202720000,0.113392,0.1094819,-0.9892473,3.06,-18.3,-37.98,170,72,5,0.06542552,-0.03517022,-0.0359689,3.315963,-0.104337,0.103003,0.04667908,0.0563543,-0.9932951,0.08951484
634796813202920000,0.1212121,0.1212121,-0.9970675,3,-17.94,-37.74,170,72,5,0.0366495,-0.06066352,0.0002282672,3.314039,-0.103287,0.1032472,0.04690097,0.05579796,-0.9934022,0.08854053
634796813203120000,0.1251222,0.1290323,-1.000978,3,-17.94,-37.74,170,72,5,0.0206691,-0.07660573,0.06723614,3.314291,-0.1035111,0.1028366,0.04668009,0.05589815,-0.9933974,0.08866154
634796813203320000,0.1212121,0.1173021,-0.9970675,3,-17.94,-37.74,170,72,5,0.04089331,-0.01064696,0.09379111,3.315094,-0.103832,0.1032542,0.04685083,0.05609381,-0.9933412,0.08907754
634796813203520000,0.1173021,0.1016618,-0.9853373,3,-17.94,-37.74,169,71,5,0.1111075,0.02444352,0.09059928,3.316103,-0.1041036,0.1044081,0.04738359,0.05630087,-0.9932547,0.08961258
634796813203720000,0.113392,0.08993158,-0.9775171,3,-17.94,-37.74,169,71,5,0.1866106,0.01377945,0.075688,3.31709,-0.1029959,0.106147,0.04826972,0.0558478,-0.9931919,0.09011675
634796813203920000,0.1055719,0.07820137,-0.9736071,3,-17.94,-37.74,169,71,5,0.2366292,-0.07029296,0.03201135,3.317384,-0.09587692,0.1071795,0.04909557,0.05236324,-0.9933426,0.09011262
634796813204130000,0.1407625,0.05865103,-0.9540567,3,-17.94,-37.74,170,72,5,0.01206803,0.5916423,0.01707165,3.316424,-0.09635472,0.1158695,0.0534168,0.05294352,-0.9931111,0.08983488
634796813204320000,0.172043,0.05474096,-0.9305963,3,-17.94,-37.74,170,72,5,-1.073436,0.1020823,0.04468181,3.316424,-0.09635472,0.1158695,0.0534168,0.05294352,-0.9931111,0.08983488
634796813204520000,0.1876833,0.05865103,-0.9188661,3.42,-18.12,-37.74,167,69,5,-1.042573,-0.2171863,0.1170247,3.319856,-0.1257577,0.1202182,0.05413301,0.06781185,-0.9919329,0.09243705
634796813204720000,0.1564027,0.04692082,-0.9032258,3.42,-18.12,-37.74,167,69,5,-0.3689187,-0.03733347,0.1670043,3.325725,-0.1347017,0.1184912,0.05265001,0.07232858,-0.9913975,0.09553482
634796813204920000,0.1407625,0.01564027,-0.9462366,3.42,-18.12,-37.74,161,63,5,0.5218468,-0.1160908,-0.2768038,3.33041,-0.1312094,0.1179281,0.05237199,0.07069556,-0.9913143,0.09774799
634796813205120000,0.1524927,0.04301075,-1.004888,3.42,-18.12,-37.74,161,63,5,0.6176271,-0.1511878,-0.2831892,3.326677,-0.1105011,0.1136037,0.05134727,0.06013576,-0.9923089,0.09524184
634796813205320000,0.1329423,0.1055719,-1.008798,3.06,-17.88,-38.7,165,67,5,0.4941769,-0.2267478,0.02649718,3.327061,-0.0936408,0.1110215,0.05085605,0.05166258,-0.9928414,0.09494261
634796813205520000,0.1016618,0.04692082,-0.9345064,3.06,-17.88,-38.7,165,67,5,0.4941769,-0.2267478,0.02649718,3.330139,-0.08514451,0.1116616,0.05150371,0.04755248,-0.9928854,0.09626589
634796813205720000,0.1055719,-0.08602151,-0.8758553,3.06,-17.88,-38.7,168,70,5,-0.5423741,-0.4991897,0.04562577,3.333814,-0.08972907,0.1131356,0.05192307,0.04999115,-0.9925501,0.09823695
634796813205920000,0.1094819,-0.1524927,-0.8875855,3.06,-17.88,-38.7,168,70,5,-0.6743381,-0.7375762,-0.2342441,3.333896,-0.0961175,0.1056887,0.04790945,0.05281661,-0.9926003,0.09828457
634796813206120000,0.08993158,-0.1173021,-0.969697,3.06,-17.88,-38.7,168,70,5,-0.6253837,-0.788659,-0.5439336,3.32902,-0.1095562,0.07520759,0.03225406,0.05798471,-0.9932233,0.09541925
634796813206320000,0.07038123,-0.02346041,-1.079179,3.06,-17.88,-38.7,164,66,5,-0.3987038,-0.5460157,-0.5620254,3.323791,-0.1022193,0.0648427,0.02759401,0.0537941,-0.9938817,0.09245559
634796813206520000,0.06647116,0.03128055,-1.11828,3.3,-18.12,-38.46,172,74,5,-0.06666644,-0.03624946,-0.2512717,3.319591,-0.0909965,0.06375562,0.02767294,0.04810945,-0.9943777,0.09018857
634796813206720000,0.0742913,-0.003910068,-1.067449,3.3,-18.12,-38.46,176,78,5,0.2110724,0.3362179,0.03712495,3.317501,-0.0863409,0.06736493,0.0297259,0.04592119,-0.9945144,0.08915688
634796813206920000,0.08602151,-0.07820137,-0.9931574,3.3,-18.12,-38.46,176,78,5,0.2962104,0.29897,0.05303203,3.314769,-0.07968402,0.07307433,0.0329209,0.04281228,-0.994671,0.08780327
634796813207120000,0.09384164,-0.1212121,-0.9814272,3.3,-18.12,-38.46,176,78,5,-0.1326903,-0.2661943,-0.09813818,3.312145,-0.07272887,0.07524168,0.03435619,0.03940015,-0.9948881,0.0864188
634796813207320000,0.07820137,-0.1094819,-1.040078,3.3,-18.12,-38.46,173,75,5,-0.4274807,-0.4034793,-0.1141045,3.310441,-0.05456233,0.06585717,0.03049427,0.0299411,-0.995452,0.08514157
634796813207530000,0.05474096,-0.06647116,-1.090909,2.58,-18.12,-38.64,169,71,5,-0.542417,-0.1746709,-0.03218314,3.310619,-0.05230784,0.0621469,0.02874057,0.02866663,-0.9955403,0.08515242
634796813207720000,0.04692082,-0.04692082,-1.059628,2.58,-18.12,-38.64,169,71,5,-0.3210582,0.1179636,0.0592934,3.310548,-0.05199647,0.06076741,0.02806811,0.02845309,-0.9955727,0.08509658
634796813207920000,0.06256109,-0.07820137,-0.9736071,2.58,-18.12,-38.64,172,74,5,0.03651786,0.07534476,0.08370279,3.309696,-0.05305504,0.06272352,0.02900926,0.02904927,-0.9955595,0.08471046
634796813208120000,0.06647116,-0.1212121,-0.9188661,2.58,-18.12,-38.64,172,74,5,0.2067736,0.02850076,-0.0344708,3.308156,-0.04831528,0.06318319,0.02945935,0.02668626,-0.9956834,0.08387963
634796813208320000,0.06256109,-0.1329423,-0.8914956,2.58,-18.12,-38.64,174,76,5,0.1183933,0.0369987,-0.150459,3.305236,-0.03682232,0.06265509,0.02970851,0.0208991,-0.995952,0.08225094
634796813208520000,0.06256109,-0.1055719,-0.8758553,2.58,-18.12,-38.64,172,74,5,-0.1615109,0.03166576,-0.1536037,3.301617,-0.03103757,0.06230056,0.0298021,0.01795008,-0.9961582,0.08036001
634796813208720000,0.05865103,-0.08993158,-0.8758553,2.58,-18.12,-38.64,172,74,5,-0.308374,-0.08966091,-0.1194996,3.300341,-0.03218889,0.06001007,0.02862678,0.01841437,-0.9962381,0.07972575
634796813208920000,0.05083089,-0.09384164,-0.8875855,2.4,-18.06,-38.4,172,74,5,-0.2796399,-0.0747623,-0.08859963,3.299311,-0.03340483,0.0578829,0.02752832,0.01892208,-0.9962982,0.07921498
634796813209120000,0.04301075,-0.08993158,-0.8954057,2.4,-18.06,-38.4,172,74,5,-0.002938394,-0.1045612,-0.1066634,3.297369,-0.03048635,0.05559659,0.02652176,0.01735298,-0.9964368,0.07819249
634796813209320000,0.04301075,-0.08211143,-0.9188661,2.4,-18.06,-38.4,172,74,5,0.1779424,0.1550762,-0.2513552,3.294894,-0.02573275,0.05453359,0.0261963,0.01491105,-0.9965844,0.07689073
634796813209520000,0.05083089,-0.07820137,-0.9618768,2.4,-18.06,-38.4,176,78,5,-0.1221905,-0.02373918,-0.1108683,3.28506,-0.01599312,0.05689823,0.02779833,0.01001133,-0.996976,0.0718677
634796813209740000,0.05865103,-0.0742913,-1.004888,2.4,-18.06,-38.4,176,78,5,-0.2392552,-0.1929378,-0.06507248,3.282685,-0.0172677,0.05409252,0.02636634,0.01051523,-0.9970944,0.0706922
634796813209920000,0.03910068,-0.07038123,-1.079179,2.4,-18.06,-38.4,176,78,5,-0.07854702,-0.2738189,-0.0788426,3.280775,-0.01591349,0.04882383,0.0237965,0.009632285,-0.9972369,0.06970567
634796813210120000,0.01564027,-0.05083089,-1.13783,2.52,-17.46,-37.98,176,78,5,0.2204748,-0.0407486,-0.009634547,3.279637,-0.01052284,0.04660821,0.02288352,0.006854516,-0.9973295,0.06906947
634796813210320000,0.01955034,-0.04692082,-1.14565,2.52,-17.46,-37.98,176,78,5,0.306677,0.1752286,0.08400918,3.277907,-0.003856659,0.04708302,0.02335333,0.003526388,-0.9973949,0.06813066
634796813210520000,0.02346041,-0.07820137,-1.176931,2.52,-17.46,-37.98,180,82,5,0.112972,0.06660341,0.1467716,3.276251,0.00185895,0.04988539,0.0249461,0.0007508274,-0.9974243,0.06723437
634796813210720000,0.01955034,-0.08993158,-1.278592,2.52,-17.46,-37.98,179,81,5,-0.1796785,-0.2069119,-0.001156185,3.270456,0.0001580715,0.04518568,0.02254914,0.001375758,-0.9976705,0.06436869
634796813210930000,0.05474096,-0.007820137,-1.391984,2.52,-17.46,-37.98,179,81,5,-0.6607083,0.2793952,-0.1191817,3.265849,-0.004757165,0.04512346,0.02236862,0.003774093,-0.9978114,0.06212587
634796813211120000,0.08993158,0.1173021,-1.419355,2.58,-16.44,-38.64,180,82,5,-0.6607083,0.2793952,-0.1191817,3.260799,-0.01519561,0.04961121,0.02430588,0.009059393,-0.9978775,0.0597358
634796813211320000,0.1212121,0.1955034,-1.325513,2.58,-16.44,-38.64,176,78,5,0.07998965,0.4986256,0.2213513,3.261012,-0.02324939,0.05656957,0.02753529,0.01328667,-0.9977306,0.05997467
634796813211520000,0.1994135,0.1837732,-1.227762,2.58,-16.44,-38.64,174,76,5,0.7515157,0.2517254,0.2064521,3.263794,-0.02187443,0.06524694,0.03188737,0.01290241,-0.997522,0.06138255
634796813211720000,0.2619746,0.1368524,-1.235582,2.58,-16.44,-38.64,174,76,5,0.6206161,-0.1526906,0.06491762,3.267109,-0.011549,0.07013071,0.03462672,0.007958253,-0.9973918,0.06287948
634796813211920000,0.2541544,0.1407625,-1.286412,2.58,-16.44,-38.64,172,74,5,-0.2467275,-0.348508,0.1532717,3.275048,-0.006460667,0.0645014,0.03195793,0.005371448,-0.9972436,0.06674691
634796813212120000,0.2072336,0.1915933,-1.235582,2.58,-16.44,-38.64,166,68,5,-0.5702519,-0.2931683,0.4012362,3.285084,-0.0184505,0.05928588,0.02890012,0.01132187,-0.9969277,0.0719219
634796813212320000,0.1681329,0.1994135,-1.083089,3.48,-15.96,-39.3,164,66,5,-0.2690762,-0.315517,0.5821545,3.297204,-0.02839661,0.05459368,0.02610499,0.01627088,-0.9964722,0.07807654
634796813212520000,0.1485826,0.1446725,-0.9501466,3.48,-15.96,-39.3,164,66,5,0.2736814,-0.371921,0.580026,3.308752,-0.03035259,0.04914761,0.02321627,0.01716929,-0.9960653,0.08381876
634796813212720000,0.1368524,0.0742913,-0.9071358,3.48,-15.96,-39.3,167,69,5,0.4003242,-0.3708568,0.4182638,3.315434,-0.02804208,0.04500711,0.02119766,0.01591733,-0.9958469,0.08709501
634796813212920000,0.1251222,0.03128055,-0.9345064,3.48,-15.96,-39.3,168,70,5,-0.5191806,-0.5113345,-0.1404172,3.321496,-0.03374767,0.03373194,0.01527911,0.01831721,-0.9956483,0.09008797
634796813213140000,0.1055719,0.06256109,-0.9657869,3.48,-15.96,-39.3,166,68,5,-0.5191806,-0.5113345,-0.1404172,3.319831,-0.04639435,0.02519345,0.01047879,0.024222,-0.9956589,0.08926128
634796813213320000,0.09775171,0.1446725,-0.9618768,3.48,-15.96,-39.3,166,68,5,-0.7128696,-0.3048748,0.02993175,3.319348,-0.06214594,0.01917958,0.00678969,0.03179473,-0.9955023,0.08901052
634796813213520000,0.08211143,0.1798632,-0.8993157,3.18,-14.4,-39.66,170,72,5,-0.1243437,0.162304,0.1661435,3.319527,-0.07087373,0.01857591,0.00609754,0.03611251,-0.9953486,0.08911802
634796813213720000,0.07038123,0.1368524,-0.7781036,3.18,-14.4,-39.66,171,73,5,0.3141116,0.3208735,0.1331363,3.320673,-0.07806158,0.02521467,0.009057977,0.039988,-0.995115,0.08983512
634796813213920000,0.08602151,0.07038123,-0.6920821,3.18,-14.4,-39.66,172,74,5,0.5248282,0.2485062,-0.1095266,3.320011,-0.07488417,0.03135026,0.01226666,0.03867535,-0.9951496,0.08960185
634796813214120000,0.1016618,0.05474096,-0.7155425,3.18,-14.4,-39.66,166,68,5,0.1310537,-0.09418993,-0.2074293,3.311852,-0.06670737,0.0350759,0.01462881,0.0347119,-0.995622,0.08554883
634796813214330000,0.09775171,0.07820137,-0.7507331,3.18,-14.4,-39.66,166,68,5,-0.3276009,-0.0590506,-0.01160241,3.31139,-0.07048273,0.0339179,0.01389927,0.03653927,-0.9955859,0.08532732
634796813214520000,0.1016618,0.08211143,-0.7311828,2.88,-13.98,-40.2,161,63,5,-0.2424629,-0.1058679,0.1022859,3.313816,-0.07662582,0.03283286,0.01304903,0.03956738,-0.9953771,0.08655663
634796813214720000,0.09775171,0.05865103,-0.7038123,2.88,-13.98,-40.2,164,66,5,0.2502838,-0.0356236,0.1682276,3.317518,-0.07611322,0.03139412,0.01228237,0.03927353,-0.9952372,0.08836988
634796813214920000,0.08211143,0.01955034,-0.7272727,2.88,-13.98,-40.2,162,64,5,0.5482668,0.1186424,0.1117625,3.32084,-0.06907892,0.03347039,0.013567,0.03588617,-0.9952031,0.09001309
634796813215120000,0.08602151,0.007820137,-0.8484849,2.88,-13.98,-40.2,162,64,5,0.6706527,-0.1931805,-0.07231987,3.321762,-0.0580411,0.03220105,0.01341779,0.0303429,-0.9953564,0.09037854
634796813215320000,0.08993158,0.05083089,-0.9853373,2.88,-13.98,-40.2,165,67,5,0.1300155,-0.05589442,0.08948973,3.320252,-0.04435587,0.02168703,0.008819164,0.02305345,-0.9956884,0.08942315
634796813215520000,0.08993158,0.09775171,-1.032258,2.1,-13.5,-40.44,164,66,5,0.06294736,0.2346073,0.1468715,3.323288,-0.04240084,0.02290273,0.009478206,0.02214861,-0.9955649,0.09093837
634796813215720000,0.09384164,0.08993158,-1.051808,2.1,-13.5,-40.44,168,70,5,0.2438574,0.0281301,0.02444758,3.325724,-0.04166126,0.02753484,0.011791,0.02200443,-0.9954296,0.09219234
634796813215920000,0.08993158,0.1016618,-1.16129,2.1,-13.5,-40.44,168,70,5,0.5620607,-0.1942702,-0.2415866,3.324356,-0.0384078,0.02821588,0.01229382,0.02040786,-0.9955204,0.09149828
634796813216120000,0.07038123,0.1994135,-1.302053,2.1,-13.5,-40.44,168,70,5,0.6674191,-0.110183,-0.07766716,3.321241,-0.03171325,0.02581036,0.01142894,0.01694816,-0.9957418,0.08988868
634796813216320000,0.05083089,0.2815249,-1.407625,2.1,-13.5,-40.44,171,73,5,0.5322624,-0.1367534,0.3639725,3.324834,-0.01411724,0.02232945,0.0104716,0.008049903,-0.9957117,0.09156307
634796813216520000,0.04301075,0.2697947,-1.505376,2.1,-13.5,-40.44,173,75,5,0.3279312,0.2612829,0.238394,3.326496,-0.01142406,0.02701616,0.01292252,0.006934103,-0.9956172,0.09238666
634796813216720000,0.07038123,0.2463343,-1.544477,2.1,-13.5,-40.44,173,75,5,0.04589443,0.7987166,-0.0638366,3.322268,-0.01440525,0.04163348,0.02008025,0.009049438,-0.9956692,0.09034184
634796813216920000,0.1094819,0.2697947,-1.466276,1.62,-13.44,-40.5,174,76,5,-0.3425402,0.6348259,-0.1212401,3.318319,-0.02089548,0.05120182,0.02457525,0.01266225,-0.9956962,0.08848085
634796813217120000,0.1055719,0.2893451,-1.341154,1.62,-13.44,-40.5,174,76,5,-0.1573493,0.1175699,-0.008384297,3.315663,-0.0283823,0.05641258,0.0268599,0.0165826,-0.995684,0.08728053
634796813217320000,0.08211143,0.2580645,-1.223851,1.62,-13.44,-40.5,171,73,5,0.4971434,0.104699,-0.2946,3.313754,-0.02957225,0.05811941,0.02767428,0.01722236,-0.9957324,0.0863567
634796813217520000,0.06647116,0.2111437,-1.1261,1.62,-13.44,-40.5,171,73,5,0.1842612,-0.03686086,-0.3818665,3.300949,-0.02245569,0.06116092,0.02958353,0.01362029,-0.9962721,0.07989369
634796813217730000,0.0742913,0.172043,-1.000978,1.62,-13.44,-40.5,170,72,5,-0.2488738,0.07805428,-0.3531324,3.295273,-0.02516556,0.06168461,0.0297786,0.01490639,-0.9964673,0.07710873
634796813217920000,0.09775171,0.1524927,-0.9071358,1.62,-13.44,-40.5,171,73,5,-0.3989296,0.002480244,-0.3126918,3.288131,-0.03592587,0.06319594,0.03018863,0.02021711,-0.9966159,0.07372127
634796813218120000,0.1251222,0.1212121,-0.797654,1.74,-14.22,-41.22,166,68,5,-0.3414614,-0.2454806,-0.2456456,3.282377,-0.05067134,0.06239342,0.02932348,0.02745104,-0.9966615,0.07106557
634796813218320000,0.1251222,0.07820137,-0.7350929,1.74,-14.22,-41.22,158,60,5,-0.162652,-0.460454,-0.2201042,3.279529,-0.05844021,0.05673181,0.02626998,0.0310884,-0.9967384,0.0696829
634796813218520000,0.113392,0.04692082,-0.7311828,1.74,-14.22,-41.22,158,60,5,0.1821536,-0.5434636,-0.285022,3.278769,-0.0613184,0.04732084,0.02149132,0.03219452,-0.9968544,0.06920601
634796813218720000,0.1016618,0.04301075,-0.7311828,1.74,-14.22,-41.22,153,55,5,0.3268882,-0.07839129,-0.346747,3.276368,-0.05519032,0.03694486,0.01656483,0.02876764,-0.9971446,0.06780805
634796813218930000,0.1094819,0.06647116,-0.7077224,1.02,-14.46,-41.46,151,53,5,0.03740862,0.09930919,-0.1977555,3.275712,-0.05353999,0.03782761,0.01707012,0.0279687,-0.997182,0.06747839
634796813219120000,0.113392,0.06256109,-0.6959922,1.02,-14.46,-41.46,151,53,5,-0.255224,0.0130712,-0.03808831,3.278364,-0.0575583,0.03897011,0.01746435,0.03003334,-0.9970228,0.06885026
634796813219320000,0.09384164,0.05083089,-0.6920821,1.02,-14.46,-41.46,151,53,5,-0.2828939,-0.2316968,0.07997608,3.284106,-0.06467676,0.03594195,0.01561341,0.03352428,-0.9967401,0.07172709
634796813219520000,0.08211143,0.04692082,-0.6686217,1.02,-14.46,-41.46,150,52,5,0.2087869,-0.1061171,0.05863677,3.290244,-0.0663085,0.03266406,0.01381605,0.03426429,-0.9965171,0.07474632
634796813219720000,0.08602151,0.05865103,-0.6529814,1.02,-14.46,-41.46,153,55,5,0.5525316,0.2280147,-0.03712838,3.294864,-0.05206895,0.03848648,0.01718646,0.02742303,-0.9965042,0.07702008
634796813219920000,0.08211143,0.05083089,-0.6920821,1.02,-14.46,-41.46,154,56,5,0.2087869,0.04915599,0.09375153,3.298218,-0.04396605,0.04101669,0.01871986,0.02351325,-0.9964496,0.07864664
634796813220120000,0.05865103,0.02737048,-0.7663734,1.02,-14.46,-41.46,154,56,5,-0.03918569,-0.07428551,0.09051745,3.302849,-0.04314876,0.04162192,0.01899991,0.02317364,-0.9962676,0.08095223
634796813220320000,0.04301075,0.01564027,-0.8523949,0.84,-15,-42.48,155,57,5,0.0342633,-0.1551543,0.09053501,3.30705,-0.04466056,0.03959596,0.01787933,0.0238832,-0.9960999,0.08303796
634796813220520000,0.05474096,0.03519062,-0.9423265,0.84,-15,-42.48,163,65,5,0.362039,-0.1008523,0.02883187,3.310131,-0.04267001,0.03734207,0.01680413,0.02282506,-0.9960176,0.08453243
634796813220720000,0.05865103,0.05474096,-1.079179,0.84,-15,-42.48,168,70,5,0.4673973,-0.217909,0.002264873,3.310781,-0.03775596,0.03603768,0.01635552,0.02032849,-0.9960564,0.08480356
634796813220920000,0.02346041,0.06647116,-1.290323,0.84,-15,-42.48,168,70,5,0.4737827,-0.6808469,-0.06684431,3.311013,-0.0213058,0.02003109,0.009077675,0.01146128,-0.9963009,0.08470589
634796813221120000,-0.003910068,0.113392,-1.431085,0.84,-15,-42.48,168,70,5,0.4929387,-0.4445889,0.1087815,3.312177,-0.01304412,0.01444292,0.006639437,0.007113366,-0.9963157,0.0852313
634796813221320000,0.01955034,0.172043,-1.384164,-0.66,-15,-43.08,170,72,5,0.4578193,0.650483,0.1811488,3.315131,-0.005766868,0.02584195,0.0126221,0.003992098,-0.9961472,0.08668961
634796813221520000,0.07820137,0.1681329,-1.266862,-0.66,-15,-43.08,172,74,5,0.2024052,0.8409792,0.2630941,3.318789,-0.003509521,0.04067075,0.02009894,0.00354666,-0.9958671,0.08849963
634796813221720000,0.1251222,0.1524927,-1.270772,-0.66,-15,-43.08,172,74,5,0.08001295,-1.079963,-0.1614936,3.320877,-0.004616737,0.04424679,0.0218261,0.004278887,-0.995734,0.08955103
634796813221920000,0.1055719,0.2150538,-1.427175,-0.66,-15,-43.08,171,73,5,0.3833171,-0.7511178,-0.2987787,3.317642,-0.004142046,0.01166463,0.005627634,0.002575739,-0.9961082,0.08792156
634796813222120000,0.0742913,0.3128055,-1.528837,-0.66,-15,-43.08,166,68,5,0.3290417,0.07896611,-0.08378582,3.316152,-0.0002689362,0.008423686,0.004184094,0.0005011302,-0.9961854,0.08716846
634796813222320000,0.09384164,0.3167155,-1.411535,-2.64,-15.06,-42.84,163,65,5,-0.009383979,0.6461982,0.1779923,3.320101,-0.001748562,0.01864815,0.009208888,0.001701891,-0.9959753,0.08913992
634796813222520000,0.1368524,0.2072336,-1.188661,-2.64,-15.06,-42.84,163,65,5,-0.1359864,0.3184167,0.1407307,3.324959,-0.007202625,0.02831936,0.01376997,0.004882127,-0.9956893,0.09159545
634796813222720000,0.1446725,0.1173021,-1.040078,-2.64,-15.06,-42.84,165,67,5,-0.06783932,-0.02536435,-0.05612341,3.326612,-0.01104355,0.03039944,0.01462393,0.006901499,-0.9955884,0.09244891
634796813222920000,0.1173021,0.1212121,-0.9775171,-2.64,-15.06,-42.84,158,60,5,-0.104003,-0.2456482,-0.2189305,3.328041,-0.01536155,0.02889717,0.01367002,0.008991481,-0.9955157,0.09318699
634796813223120000,0.1016618,0.1603128,-0.9501466,-2.64,-15.06,-42.84,152,54,5,-0.3296044,-0.3403642,-0.2285085,3.328157,-0.02136683,0.02428567,0.01109403,0.01176699,-0.9955109,0.0932638
634796813223320000,0.1055719,0.1485826,-0.9305963,-2.64,-15.06,-42.84,152,54,5,-0.6776061,-0.3233367,-0.1422707,3.33093,-0.05374384,0.01914299,0.00698534,0.02765156,-0.9950942,0.09474497
634796813223520000,0.1016618,0.1173021,-0.8836755,-4.44,-15.9,-42.24,151,53,5,-0.7403954,-0.1392106,-0.04435564,3.334305,-0.06966567,0.0185318,0.005866828,0.03555363,-0.9946836,0.09646575
634796813223720000,0.09775171,0.09775171,-0.801564,-4.44,-15.9,-42.24,150,52,5,-0.2700078,0.1247045,-0.02728451,3.336699,-0.07680988,0.01902616,0.005721213,0.03913712,-0.9944311,0.09768577
634796813223920000,0.1094819,0.08211143,-0.7038123,-4.44,-15.9,-42.24,148,50,5,-0.0635308,0.0235733,0.02916572,3.341043,-0.08328389,0.02142012,0.00650298,0.04248605,-0.9940679,0.09991147
634796813224120000,0.1055719,0.06256109,-0.6451613,-4.44,-15.9,-42.24,137,39,5,0.03437771,-0.1211462,0.09091376,3.346688,-0.0861547,0.02238548,0.006715268,0.04397982,-0.9937132,0.1027462
634796813224320000,0.09384164,0.03128055,-0.6412512,-4.44,-15.9,-42.24,137,39,5,0.09289317,-0.162651,0.1047044,3.362177,-0.08674597,0.01829505,0.004310988,0.04410004,-0.9929046,0.1103548
634796813224520000,0.08993158,0.01173021,-0.6803519,-6.06,-16.38,-41.46,130,32,5,0.1428779,-0.04768635,-0.03263479,3.369037,-0.08529972,0.01744878,0.003821884,0.04334905,-0.9925574,0.1137393
634796813224720000,0.09775171,0.02346041,-0.7038123,-6.06,-16.38,-41.46,128,30,5,0.2067161,0.0299908,-0.09541312,3.37294,-0.08335876,0.0176419,0.003945398,0.0424044,-0.9923741,0.1156763
634796813224920000,0.1016618,0.04301075,-0.6999022,-6.06,-16.38,-41.46,129,31,5,0.3099459,0.1363709,0.008903617,3.379891,-0.07874917,0.01947224,0.00498055,0.04023989,-0.9920489,0.1191501
634796813225120000,0.09775171,0.01955034,-0.7077224,-6.06,-16.38,-41.46,129,31,5,0.3514507,0.2033578,0.1099779,3.38827,-0.073251,0.02288985,0.006845554,0.03774381,-0.9916212,0.1233516
634796813225320000,0.09384164,-0.02346041,-0.7468231,-6.06,-16.38,-41.46,132,34,5,0.3035606,0.09260992,-0.1561278,3.396022,-0.06803989,0.02707791,0.01052559,0.03307668,-0.9909188,0.129911
634796813225520000,0.09384164,-0.02346041,-0.8211144,-6.06,-16.38,-41.46,130,32,5,0.2258721,0.00213407,-0.2944771,3.404486,-0.05860853,0.02972972,0.01088988,0.03099158,-0.9907821,0.1314295
634796813225720000,0.1173021,0.03519062,-0.9618768,-6.66,-17.16,-40.5,129,31,5,0.04706029,-0.1617474,-0.1731365,3.406605,-0.05722427,0.02872825,0.0104526,0.03025145,-0.9906719,0.1324581
634796813225920000,0.1212121,0.08993158,-1.14174,-6.66,-17.16,-40.5,129,31,5,0.0300345,-0.1798392,0.08548005,3.412377,-0.05688906,0.02590954,0.008992118,0.02992596,-0.9903161,0.1352778
634796813226120000,0.1173021,0.1016618,-1.266862,-6.66,-17.16,-40.5,141,43,5,0.2524272,0.05113386,0.1545917,3.420864,-0.05518913,0.02736199,0.009702426,0.02922329,-0.9897454,0.1394901
634796813226320000,0.1329423,0.09384164,-1.317693,-6.66,-17.16,-40.5,141,43,5,0.464208,0.2181952,0.1076904,3.427814,-0.04953026,0.03041529,0.01151569,0.02667486,-0.9893055,0.1429352
634796813226520000,0.1290323,0.1055719,-1.368524,-6.66,-17.16,-40.5,152,54,5,0.2822255,-0.1564573,0.199161,3.442599,-0.03974962,0.02945566,0.01157855,0.02185443,-0.9883497,0.1501789
634796813226720000,0.09384164,0.1290323,-1.427175,-6.66,-17.16,-40.5,152,54,5,0.008701358,-0.3320545,0.1150535,3.446074,-0.04083371,0.02602398,0.00976266,0.02215044,-0.9881041,0.1518713
634796813226920000,0.09775171,0.1603128,-1.481916,-6.84,-18.84,-40.14,153,55,5,-0.3616452,0.1563676,-0.1062369,3.446583,-0.04709077,0.02623009,0.009382823,0.02525965,-0.9879885,0.1521547
634796813227120000,0.1055719,0.2150538,-1.470186,-6.84,-18.84,-40.14,154,56,5,-0.1594306,0.1467278,0.2204932,3.447361,-0.05436825,0.02907479,0.01022313,0.02907396,-0.987807,0.152607
634796813227320000,0.08211143,0.2424242,-1.348974,-6.84,-18.84,-40.14,158,60,5,0.3588476,0.3105982,0.4833568,3.453892,-0.05792975,0.0323801,0.01148239,0.03112143,-0.9872168,0.1558934
634796813227520000,0.06647116,0.1798632,-1.16911,-6.84,-18.84,-40.14,159,61,5,0.5716926,0.4159565,0.2832825,3.464308,-0.05277562,0.03890574,0.01495417,0.02916101,-0.9863972,0.1610788
634796813227720000,0.09775171,0.07038123,-1.024438,-6.84,-18.84,-40.14,159,61,5,0.3237282,0.1020008,-0.117884,3.470082,-0.04112434,0.04876471,0.02068594,0.02426342,-0.9859588,0.1639183
634796813227920000,0.1212121,0.05474096,-0.9853373,-6.84,-18.84,-40.14,159,61,5,-0.2977646,-0.4290405,-0.2860004,3.468218,-0.04453587,0.04506921,0.01860809,0.02562693,-0.9861176,0.163001
634796813228120000,0.1251222,0.08993158,-0.9618768,-6.6,-19.68,-40.32,157,59,5,-0.526573,-0.686583,-0.3370832,3.466388,-0.05453181,0.03558099,0.01314172,0.02977483,-0.9862412,0.1620778
634796813228320000,0.113392,0.1251222,-0.9305963,-6.6,-19.68,-40.32,146,48,5,-0.3722604,-0.6088946,-0.3562393,3.464314,-0.06365918,0.02639091,0.007904623,0.03352691,-0.986357,0.1609805
634796813228520000,0.1094819,0.1290323,-0.8641251,-6.6,-19.68,-40.32,146,48,5,-0.2083697,-0.2832417,-0.2902573,3.462614,-0.07050014,0.02187228,0.005156369,0.03653443,-0.9864119,0.1600937
634796813228720000,0.1290323,0.09384164,-0.7937439,-6.6,-19.68,-40.32,147,49,5,-0.1732154,-0.1704338,-0.2253396,3.461324,-0.07535695,0.01599896,0.001623773,0.0401247,-0.9863914,0.1594402
634796813228920000,0.1251222,0.05083089,-0.7585533,-6.6,-21.36,-39.42,142,44,5,-0.1604105,-0.4290405,-0.1326163,3.463127,-0.08376622,0.01000869,-0.001766966,0.04213078,-0.9861934,0.16014
634796813229130000,0.09384164,0.03519062,-0.742913,-6.6,-21.36,-39.42,138,40,5,-0.1252492,-0.2555718,-0.1123266,3.464888,-0.0878365,0.003359556,-0.005409848,0.04360178,-0.9859985,0.160862
634796813229320000,0.08211143,0.04692082,-0.7194526,-6.6,-21.36,-39.42,138,40,5,-0.1305295,0.06476349,-0.05798315,3.467307,-0.09111904,0.0009359121,-0.006923105,0.04501695,-0.9857405,0.1619912
634796813229540000,0.09775171,0.05083089,-0.6920821,-6.6,-21.36,-39.42,140,42,5,0.008892921,0.007299695,0.05912685,3.470118,-0.09330059,0.002344251,-0.006470622,0.04619709,-0.985457,0.1634005
634796813229720000,0.09775171,0.03128055,-0.6999022,-6.6,-21.36,-39.42,141,43,5,0.2429834,-0.1555152,0.1538058,3.47321,-0.09302688,0.002263665,-0.00655914,0.04604551,-0.9852091,0.1649234
634796813229920000,0.06647116,0.01173021,-0.7390029,-6.6,-21.36,-39.42,141,43,5,0.4217733,-0.05014984,0.1377578,3.485478,-0.08170699,-0.0002969503,-0.007134084,0.04021448,-0.9844335,0.1709478
634796813230120000,0.04692082,0,-0.7820137,-6.6,-21.36,-39.42,141,43,5,0.4015529,0.1764636,0.1366144,3.490691,-0.07461429,0.002738833,-0.00512976,0.0369693,-0.9841099,0.1735936
634796813230320000,0.04692082,0.01173021,-0.856305,-6.6,-21.36,-39.42,138,40,5,0.3398279,-0.07257786,0.1142478,3.495276,-0.06831622,0.0008896589,-0.005570339,0.03369708,-0.9838271,0.1758337
634796813230520000,0.04301075,0.02346041,-0.9931574,-6.54,-21.96,-39.54,146,48,5,0.2248916,-0.4259006,0.07269806,3.498008,-0.06510854,-0.00386703,-0.007671611,0.03169043,-0.9836512,0.1771093
634796813230730000,0.03910068,0.03128055,-1.11828,-6.54,-21.96,-39.54,149,51,5,0.1737297,0.01469383,0.2291282,3.502448,-0.06213427,-0.01184106,-0.01139561,0.02949548,-0.9833082,0.1791796
634796813230920000,0.02737048,0.03128055,-1.192571,-6.54,-21.96,-39.54,154,56,5,0.1737297,0.01469383,0.2291282,3.507606,-0.05843258,-0.01236796,-0.01139419,0.02759889,-0.9828956,0.1817281
634796813231120000,0.01173021,0.02346041,-1.266862,-6.54,-21.96,-39.54,154,56,5,0.6089978,-0.0938812,0.1077742,3.516146,-0.04368376,-0.01491308,-0.0113905,0.02006968,-0.9822837,0.1859742
634796813231320000,0.03128055,0.02346041,-1.341154,-6.3,-21.48,-38.4,159,61,5,0.5355663,0.2945351,0.07366364,3.517276,-0.03620934,-0.01451612,-0.01050975,0.01642966,-0.9822478,0.1865742
634796813231520000,0.1016618,0.03910068,-1.333333,-6.3,-21.48,-38.4,160,62,5,0.3014367,0.5233436,0.1715342,3.519619,-0.02747083,-0.006797552,-0.005918548,0.01285172,-0.9821011,0.1878249
634796813231720000,0.1524927,0.07820137,-1.262952,-6.3,-21.48,-38.4,160,62,5,-0.057221,0.2689937,0.1970757,3.523537,-0.02499533,0.001438022,-0.001666286,0.0124066,-0.9817418,0.1898074
634796813231920000,0.1564027,0.1212121,-1.266862,-6.3,-21.48,-38.4,160,62,5,-0.2349149,-0.2620872,0.2258097,3.528807,-0.02766562,0.004199862,-0.000600813,0.01397784,-0.9812152,0.1924098
634796813232120000,0.1524927,0.1485826,-1.337243,-6.3,-21.48,-38.4,157,59,5,-0.1156912,-0.4930241,0.2077179,3.534575,-0.03265429,-0.001705408,-0.004023597,0.01584585,-0.9806293,0.1970666
634796813232320000,0.1368524,0.172043,-1.337243,-6.3,-21.48,-38.4,155,57,5,0.2588952,-0.2333531,0.3460672,3.546515,-0.03083277,-0.01031518,-0.00815142,0.01406372,-0.9794609,0.2009764
634796813232520000,0.1368524,0.1407625,-1.196481,-6.18,-22.14,-37.56,157,59,5,0.4036299,0.4881926,0.5110221,3.556063,-0.02558613,-0.0008324384,-0.003039439,0.01243331,-0.9785248,0.205733
634796813232720000,0.1642229,0.05083089,-1.004888,-6.18,-22.14,-37.56,157,59,5,0.157779,0.6829458,0.4897376,3.564709,-0.02511263,0.01164246,0.003054445,0.01349815,-0.9775959,0.2100351
634796813232940000,0.1876833,0.01564027,-0.8758553,-6.18,-22.14,-37.56,158,60,5,-0.4285862,-0.4962257,0.2311309,3.571668,-0.03120589,0.01889098,0.005897495,0.01725758,-0.9767742,0.2134928
634796813233120000,0.1681329,0.04301075,-0.8523949,-6.18,-22.14,-37.56,155,57,5,-0.3104572,-0.7654747,0.08531924,3.575927,-0.03717852,0.01850498,0.005028582,0.020144,-0.9762642,0.2155858
634796813233320000,0.1251222,0.08211143,-0.9032258,-6.18,-22.14,-37.56,147,49,5,-0.2466037,-0.6484099,-0.03175617,3.584588,-0.0516181,-0.004976273,-0.008095914,0.02462919,-0.9752557,0.2195545
634796813233520000,0.09384164,0.1055719,-0.9227762,-6.18,-22.14,-37.56,147,49,5,-0.28598,-0.440886,-0.02430095,3.585579,-0.05773258,-0.01356125,-0.01296602,0.02666107,-0.9750749,0.2198867
634796813233720000,0.07820137,0.1016618,-0.856305,-6.18,-21.72,-37.56,140,42,5,-0.3328059,-0.2291051,0.09275509,3.587177,-0.06480908,-0.01847207,-0.01616123,0.02955717,-0.9747971,0.2205364
634796813233920000,0.0742913,0.08211143,-0.7350929,-6.18,-21.72,-37.56,147,49,5,-0.2317045,0.04012125,0.09061003,3.588505,-0.06905007,-0.01827776,-0.0165552,0.0316346,-0.9745857,0.2211524
634796813234130000,0.09384164,0.05083089,-0.6647117,-6.18,-21.72,-37.56,146,48,5,-0.2285119,0.02730373,0.01715732,3.58947,-0.07424808,-0.01643479,-0.0162486,0.03436398,-0.9743937,0.2216135
634796813234320000,0.1173021,0.02737048,-0.6999022,-6.18,-21.72,-37.56,139,41,5,-0.3434482,-0.2547189,-0.002005221,3.58966,-0.07999682,-0.01676309,-0.01704899,0.03712655,-0.9742699,0.2216521
634796813234520000,0.1368524,0.02737048,-0.7546432,-6.18,-21.72,-37.56,139,41,5,-0.3296133,-0.2376913,0.05972718,3.594638,-0.09280227,-0.02372181,-0.021962,0.04253543,-0.9734594,0.2237968
634796813234720000,0.1173021,0.03910068,-0.7585533,-5.88,-21.72,-37.14,137,39,5,-0.06353569,-0.08444024,0.1639876,3.597958,-0.09344172,-0.02411723,-0.02229694,0.04276521,-0.9730732,0.2253955
634796813234920000,0.08993158,0.02737048,-0.7272727,-5.88,-21.72,-37.14,138,40,5,0.2972302,0.06880158,0.2469972,3.603781,-0.08806371,-0.02118671,-0.02038294,0.04042118,-0.9725254,0.2283542
634796813235120000,0.1016618,-0.003910068,-0.742913,-5.88,-21.72,-37.14,142,44,5,0.2355051,0.1911716,0.01177841,3.607583,-0.07942057,-0.01480675,-0.01636375,0.0369181,-0.9722534,0.2304184
634796813235320000,0.1173021,-0.02737048,-0.8367546,-5.88,-21.72,-37.14,142,44,5,-0.2019041,-0.1440731,-0.08079513,3.60825,-0.07567047,-0.0111866,-0.01418374,0.03550829,-0.9722397,0.2308419
634796813235520000,0.1212121,-0.003910068,-0.9775171,-5.88,-21.72,-37.14,140,42,5,-0.1146282,-0.3079638,-0.05630337,3.608447,-0.07847071,-0.01318824,-0.01748633,0.03710677,-0.9720648,0.2311011
634796813235720000,0.1055719,0.05474096,-1.106549,-5.7,-21.96,-38.04,142,44,5,0.4845259,0.1347336,0.07773685,3.611321,-0.07328749,-0.01506054,-0.01584383,0.03387756,-0.9719297,0.23228
634796813235920000,0.09384164,0.08602151,-1.17302,-5.7,-21.96,-38.04,148,50,5,0.6728938,0.760498,0.2053844,3.614164,-0.06028366,-0.002163768,-0.008106266,0.02904671,-0.9717798,0.233955
634796813236120000,0.113392,0.05083089,-1.1652,-5.7,-21.96,-38.04,148,50,5,0.3887456,0.8541499,0.2926508,3.617828,-0.051759,0.01364767,0.0005255581,0.02675492,-0.9713944,0.235961
634796813236340000,0.1485826,-0.01564027,-1.13783,-5.7,-21.96,-38.04,157,59,5,0.06838577,0.5423319,0.1649175,3.620853,-0.04999995,0.02579689,0.006593134,0.02734143,-0.970965,0.2375625
634796813236520000,0.1524927,0.007820137,-1.184751,-5.7,-21.96,-38.04,155,57,5,0.1758431,-0.0355443,-0.02131037,3.621516,-0.0492599,0.03014958,0.008785454,0.0275006,-0.9708539,0.2379271
634796813236720000,0.113392,0.09384164,-1.313783,-5.7,-21.96,-38.04,150,52,5,0.1385756,-0.5868129,-0.05964291,3.621939,-0.04482913,0.0144577,0.001688327,0.02348784,-0.9709888,0.2379625
634796813236920000,0.07038123,0.1681329,-1.474096,-5.7,-21.96,-38.04,150,52,5,-0.1168445,-0.667694,-0.09691219,3.619709,-0.04915142,0.007393479,-0.002228082,0.02474928,-0.9712401,0.2368026
634796813237120000,0.08602151,0.2111437,-1.536657,-4.86,-21.84,-37.62,153,55,5,-0.2658361,0.4944144,-0.1330752,3.614292,-0.05579185,0.01354623,5.122533E-05,0.0287016,-0.9717543,0.2342427
634796813237320000,0.1016618,0.2228739,-1.446725,-4.86,-21.84,-37.62,164,66,5,0.1012983,0.3432944,0.2244725,3.612339,-0.05862379,0.01949501,0.002640085,0.03077045,-0.9718969,0.2333724
634796813237530000,0.07038123,0.1837732,-1.278592,-4.86,-21.84,-37.62,164,66,5,0.5025112,0.2900831,0.1978669,3.614344,-0.05658006,0.02669656,0.006348004,0.03062188,-0.9716294,0.234433
634796813237720000,0.06647116,0.1016618,-1.13392,-4.86,-21.84,-37.62,164,66,5,0.3098865,0.3305237,-0.1831686,3.615909,-0.04892206,0.03278685,0.01018349,0.027621,-0.9714941,0.235229
634796813237920000,0.1094819,0.05083089,-1.051808,-4.86,-21.84,-37.62,163,65,5,-0.1594296,0.1218965,-0.4300689,3.602117,-0.04824805,0.04109967,0.01449603,0.0281685,-0.9730048,0.2286008
634796813238120000,0.1368524,0.0742913,-0.9892473,-4.86,-21.84,-37.62,163,65,5,-0.6223676,-0.1250049,-0.5152069,3.595567,-0.05585909,0.03967476,0.01303644,0.03166642,-0.9736525,0.2254511
634796813238320000,0.1368524,0.113392,-0.911046,-3.48,-21.84,-37.5,157,59,5,-0.4946605,-0.1846015,-0.4268762,3.58646,-0.06766057,0.03697526,0.01056044,0.03706072,-0.974501,0.2210497
634796813238520000,0.1407625,0.1094819,-0.8406647,-3.48,-21.84,-37.5,154,56,5,-0.2147693,-0.2197209,-0.2821415,3.580424,-0.07428359,0.03483367,0.008905496,0.04002564,-0.975063,0.2181073
634796813238720000,0.1290323,0.07038123,-0.801564,-3.48,-21.84,-37.5,154,56,5,0.01404888,-0.08881271,-0.2236091,3.576142,-0.07575345,0.03251516,0.007701223,0.04047438,-0.9755264,0.2159871
634796813238920000,0.1173021,0.02346041,-0.7702835,-3.48,-21.84,-37.5,153,55,5,-0.1125666,0.09207354,-0.2001962,3.572101,-0.07783865,0.03310263,0.007846593,0.04292325,-0.9760965,0.2128983
634796813239120000,0.1173021,0,-0.7311828,-3.48,-21.84,-37.5,150,52,5,-0.06780504,-0.2474688,-0.2023246,3.566101,-0.08393382,0.03340089,0.007473473,0.04452225,-0.9764146,0.2111338
634796813239320000,0.1055719,0.01564027,-0.7194526,-2.7,-21.06,-38.1,148,50,5,0.115217,-0.3655978,-0.040582,3.5646,-0.08406162,0.02748954,0.004606127,0.04396101,-0.9766396,0.2102895
634796813239520000,0.08211143,0.03128055,-0.742913,-2.7,-21.06,-38.1,148,50,5,0.2439656,-0.1814868,0.02003935,3.565579,-0.08111835,0.02168441,0.002059365,0.04191741,-0.9766597,0.2106533
634796813239740000,0.07038123,0.01955034,-0.742913,-2.7,-21.06,-38.1,148,50,5,0.3578377,0.1781732,-0.02785185,3.565721,-0.07573152,0.02118075,0.002377986,0.03923397,-0.9767587,0.2107073
634796813239920000,0.08993158,0.01564027,-0.7233627,-2.7,-21.06,-38.1,146,48,5,0.2993053,0.3229078,0.006211873,3.564977,-0.07145309,0.02368808,0.004067429,0.03740609,-0.9768956,0.2103793
634796813240120000,0.09384164,0.01564027,-0.7116324,-2.34,-19.68,-38.58,148,50,5,0.1651877,0.06002748,0.03386704,3.564079,-0.06537127,0.02971005,0.007665139,0.03506283,-0.9770396,0.2100148
634796813240320000,0.06647116,0.003910068,-0.7468231,-2.34,-19.68,-38.58,147,49,5,0.1864451,-0.1804961,0.04871607,3.565594,-0.05853677,0.02781558,0.007433085,0.03153133,-0.9770131,0.2107034
634796813240520000,0.02737048,-0.01173021,-0.8289345,-2.34,-19.68,-38.58,147,49,5,0.2662619,-0.3848274,0.03696543,3.566209,-0.05533195,0.0234096,0.005608809,0.02950488,-0.977038,0.210938
634796813240720000,0.01173021,-0.01564027,-0.9462366,-2.34,-19.68,-38.58,152,54,5,0.2481701,-0.411433,0.02415939,3.566467,-0.04999566,0.01551342,0.002309987,0.02606746,-0.9771444,0.2109602
634796813240930000,0.02346041,-0.01564027,-1.086999,-2.34,-19.68,-38.58,161,63,5,0.2545555,-0.2996894,-0.07161896,3.564547,-0.04495239,0.00887537,-0.0003797162,0.0229046,-0.9774445,0.209947
634796813241120000,0.04692082,0.007820137,-1.13783,-2.34,-19.68,-38.58,165,67,5,0.3929047,0.06958316,-0.1088474,3.560649,-0.03805614,0.008074879,-9.105765E-06,0.0194503,-0.9779283,0.2080341
634796813241320000,0.06647116,0.03519062,-1.17302,-2.34,-19.68,-38.58,165,67,5,0.3396935,-0.1103304,0.04861061,3.55611,-0.02369809,0.01065743,0.002776092,0.01269149,-0.9785031,0.2058225
634796813241520000,0.05865103,0.02737048,-1.262952,-3,-19.02,-40.14,162,64,5,0.10445,-0.3923501,0.1592003,3.557464,-0.01970577,0.005773664,0.0007904881,0.01023642,-0.9784021,0.2064575
634796813241720000,0.05865103,0,-1.364614,-3,-19.02,-40.14,161,63,5,0.2289419,0.1110138,-0.01646421,3.558731,-0.01753354,0.0008772611,-0.001386086,0.008667473,-0.9782897,0.207056
634796813241920000,0.09775171,0.01564027,-1.380254,-3,-19.02,-40.14,163,65,5,0.09164622,0.8123381,-0.1963292,3.55635,-0.01347113,0.006943345,0.00201039,0.007305883,-0.9785414,0.2059125
634796813242120000,0.1681329,0.07820137,-1.290323,-3,-19.02,-40.14,163,65,5,-0.1700976,0.6175849,-0.1463139,3.551908,-0.01362228,0.02122283,0.009000972,0.00882961,-0.9789366,0.2037757
634796813242320000,0.230694,0.1290323,-1.247312,-3,-19.02,-40.14,161,63,5,-0.08490959,-0.2838167,0.08032674,3.550219,-0.01604939,0.02748,0.01182535,0.01117137,-0.9788855,0.2038996
634796813242520000,0.2150538,0.1603128,-1.321603,-3.96,-18.84,-41.04,155,57,5,0.3024749,-0.6296899,0.2590885,3.557816,-0.01488066,0.01247406,0.004565016,0.008568138,-0.9783673,0.2066483
634796813242720000,0.1642229,0.1524927,-1.329423,-3.96,-18.84,-41.04,152,54,5,0.4142185,-0.1422713,0.4389426,3.566698,-0.009396553,0.01096284,0.004366857,0.005748809,-0.977465,0.2109756
634796813242920000,0.1642229,0.1173021,-1.1652,-3.96,-18.84,-41.04,152,54,5,0.08856189,0.6069188,0.4868327,3.575812,-0.009365796,0.02218342,0.0098223,0.006961793,-0.9764421,0.215443
634796813243120000,0.1837732,0.08211143,-0.9736071,-3.96,-18.84,-41.04,155,57,5,-0.3807411,-0.09549287,0.3697679,3.581225,-0.01248789,0.02793026,0.01226701,0.009138008,-0.9758043,0.2181099
634796813243320000,0.172043,0.05865103,-0.9032258,-3.96,-18.84,-41.04,154,56,5,-0.3807411,-0.09549287,0.3697679,3.589173,-0.02050376,0.02968252,0.01219497,0.01328836,-0.9748707,0.2220391
634796813243520000,0.1485826,0.05474096,-0.8993157,-3.96,-18.84,-41.04,146,48,5,-0.2583552,-0.3392004,0.2324829,3.602611,-0.03573561,0.02276134,0.006995795,0.0199929,-0.9732853,0.2286199
634796813243720000,0.1290323,0.07038123,-0.8914956,-5.16,-19.5,-41.7,143,45,5,-0.2966673,-0.313659,0.1547809,3.60705,-0.04174184,0.01778328,0.003836931,0.02235618,-0.9727476,0.2307549
634796813243920000,0.1094819,0.08602151,-0.8641251,-5.16,-19.5,-41.7,143,45,5,-0.427567,-0.4403018,0.1962482,3.609621,-0.04706144,0.01354611,0.001130797,0.02445679,-0.9724148,0.2319697
634796813244120000,0.0742913,0.08211143,-0.8132942,-5.16,-19.5,-41.7,143,45,5,-0.3285941,-0.4520083,0.3409829,3.615805,-0.05581569,0.005622386,-0.003822921,0.02778343,-0.9716212,0.2348747
634796813244330000,0.04692082,0.02346041,-0.742913,-5.16,-19.5,-41.7,147,49,5,-0.1636171,-0.2838607,0.2760651,3.62234,-0.06170964,-0.0007756948,-0.007720832,0.02987072,-0.9707899,0.2379404
634796813244520000,0.05865103,-0.007820137,-0.7233627,-5.16,-19.5,-41.7,147,49,5,-0.09438917,-0.1891447,0.08977951,3.625679,-0.0646174,-0.004082561,-0.00972339,0.03087242,-0.9703575,0.2394971
634796813244720000,0.08602151,-0.01564027,-0.7311828,-5.16,-19.5,-41.7,147,49,5,-0.1624332,-0.2785396,0.08757924,3.628689,-0.06862736,-0.01130033,-0.01375308,0.03193229,-0.9699488,0.2408133
634796813244920000,0.08993158,0.003910068,-0.7507331,-5.16,-19.5,-41.7,147,49,5,-0.1922082,-0.3030168,0.09922525,3.632001,-0.07189536,-0.01691139,-0.01692165,0.03281235,-0.9695004,0.2422938
634796813245120000,0.07820137,0.01955034,-0.7663734,-6.78,-20.34,-42.24,138,40,5,-0.08360974,-0.1785024,0.1949592,3.637285,-0.07359123,-0.01970685,-0.0185698,0.03324591,-0.9688288,0.2447872
634796813245320000,0.05865103,-0.01173021,-0.7390029,-6.78,-20.34,-42.24,136,38,5,0.09518562,0.1545705,0.2471063,3.642666,-0.07222176,-0.01655817,-0.01696581,0.03292347,-0.9681889,0.2474639
634796813245520000,0.06256109,-0.05083089,-0.7194526,-6.78,-20.34,-42.24,136,38,5,0.2250154,0.1843208,0.03105802,3.646367,-0.06846261,-0.01186561,-0.01428777,0.03165915,-0.9677856,0.2493687
634796813245720000,0.07820137,-0.05083089,-0.7741935,-6.78,-20.34,-42.24,140,42,5,0.03134009,-0.197758,-0.1040277,3.64752,-0.06548095,-0.009436607,-0.01275818,0.02922772,-0.9677048,0.2500349
634796813245920000,0.09384164,-0.01564027,-0.8836755,-8.04,-20.04,-42.72,131,33,5,0.005811456,-0.2871529,-0.0443766,3.648856,-0.0631144,-0.01648593,-0.01589195,0.02847426,-0.9675583,0.2505355
634796813246120000,0.09775171,0.01955034,-0.9970675,-8.04,-20.04,-42.72,137,39,5,0.1537189,-0.05409535,-0.03370764,3.650452,-0.06130218,-0.01905107,-0.01692751,0.02726199,-0.9673823,0.251281
634796813246320000,0.08993158,0.03519062,-1.079179,-8.04,-20.04,-42.72,143,45,5,0.1686181,0.243869,-0.008149953,3.651638,-0.05792546,-0.0150454,-0.01458143,0.02612438,-0.9672793,0.2519438
634796813246520000,0.08993158,0.01955034,-1.1261,-8.04,-20.04,-42.72,143,45,5,0.06540222,0.08099271,0.02697576,3.652478,-0.0562458,-0.01076615,-0.01231124,0.02584679,-0.9671931,0.2524239
634796813246720000,0.1055719,-0.003910068,-1.180841,-8.04,-20.04,-42.72,147,49,5,0.1462837,-0.05100144,-0.06136823,3.653404,-0.05501151,-0.01023579,-0.01191065,0.02531134,-0.9670914,0.2528867
634796813246920000,0.1212121,-0.007820137,-1.266862,-8.04,-20.04,-42.72,148,50,5,0.2931467,-0.07123533,-0.1634765,3.652234,-0.05130482,-0.01080215,-0.01170207,0.02345413,-0.9672848,0.2523349
634796813247120000,0.1055719,0.02346041,-1.364614,-9.36,-19.68,-43.62,145,47,5,0.3069817,-0.3064291,-0.01553631,3.653218,-0.04104161,-0.01926577,-0.01450913,0.01741381,-0.9672598,0.2527753
634796813247320000,0.03910068,0.0742913,-1.427175,-9.36,-19.68,-43.62,145,47,5,0.2292932,-0.3841175,0.08445083,3.65581,-0.03905201,-0.02358949,-0.01636914,0.01588311,-0.9669362,0.2539967
634796813247520000,-0.01173021,0.1094819,-1.442815,-9.36,-19.68,-43.62,149,51,5,0.002608033,0.5949566,-0.08685302,3.658986,-0.03785086,-0.02476227,-0.01680757,0.01512649,-0.9665372,0.2555291
634796813247730000,0.01564027,0.1094819,-1.380254,-9.36,-19.68,-43.62,155,57,5,-0.1133464,0.6673239,-0.1719111,3.657976,-0.03817201,-0.0142796,-0.01177467,0.01662914,-0.9666876,0.2551477
634796813247920000,0.08993158,0.1016618,-1.235582,-9.36,-19.68,-43.62,158,60,5,-0.09521693,0.5108829,-0.1516442,3.654081,-0.04049492,-0.002503157,-0.006341833,0.0192679,-0.9671562,0.2533725
634796813248120000,0.1290323,0.1094819,-1.086999,-9.36,-19.68,-43.62,158,60,5,0.1091229,0.1139061,-0.2069748,3.648843,-0.04219341,0.009523629,-0.0006845721,0.02161458,-0.9677579,0.2509531
634796813248320000,0.1173021,0.1212121,-1.004888,-10.5,-20.46,-44.28,149,51,5,0.09742091,-0.1936683,-0.2793421,3.645625,-0.0407269,0.008083343,-0.001164234,0.02072633,-0.9681825,0.2493828
634796813248520000,0.09384164,0.1368524,-0.9853373,-10.5,-20.46,-44.28,143,45,5,-0.13134,-0.3564947,-0.4272694,3.64047,-0.04327678,0.003730178,-0.003534271,0.02142739,-0.9688127,0.2468408
634796813248720000,0.09775171,0.1446725,-0.9853373,-10.5,-20.46,-44.28,142,44,5,-0.4708279,-0.4033206,-0.444297,3.633968,-0.05275321,-0.0008761883,-0.006852204,0.02547157,-0.969514,0.2436123
634796813248920000,0.1094819,0.1368524,-0.9540567,-10.5,-20.46,-44.28,142,44,5,-0.570865,-0.395871,-0.3410671,3.628618,-0.06552553,-0.005827785,-0.01072453,0.03108816,-0.9699955,0.2408902
634796813249120000,0.113392,0.1055719,-0.8993157,-10.5,-20.46,-44.28,144,46,5,-0.5325529,-0.3075404,-0.2271951,3.626534,-0.07414985,-0.008399248,-0.0129736,0.03497421,-0.9701096,0.2397833
634796813249320000,0.113392,0.05865103,-0.8445748,-10.5,-20.46,-44.28,142,44,5,-0.3718549,-0.1351318,-0.2059105,3.622222,-0.09303141,-0.0112412,-0.01652008,0.04382567,-0.9702596,0.2374933
634796813249520000,0.1173021,0.01955034,-0.7898338,-10.14,-21.42,-45.18,140,42,5,-0.03865772,-0.127646,-0.2804063,3.619759,-0.09587669,-0.0131247,-0.01771609,0.04500369,-0.9704932,0.2362293
634796813249720000,0.1251222,0.003910068,-0.7663734,-10.14,-21.42,-45.18,136,38,5,0.01137884,-0.2404539,-0.3304249,3.616824,-0.09651375,-0.01637173,-0.0193007,0.04495659,-0.9708312,0.2347202
634796813249920000,0.1173021,0.01173021,-0.801564,-10.14,-21.42,-45.18,136,38,5,-0.1067206,-0.1031696,-0.2112317,3.61503,-0.09682607,-0.01936102,-0.02074797,0.04477486,-0.9710382,0.2337728
634796813250120000,0.113392,0.02346041,-0.8132942,-10.14,-21.42,-45.18,131,33,5,-0.0545763,0.06174301,-0.1111811,3.614296,-0.09906601,-0.02162862,-0.02209363,0.04560433,-0.9710749,0.2333358
634796813250320000,0.1055719,0.01173021,-0.7702835,-10.14,-21.42,-45.18,131,33,5,0.2359396,0.16915,-0.07389853,3.615932,-0.09616446,-0.01715958,-0.01962216,0.04470303,-0.9709446,0.2342714
634796813250520000,0.08993158,-0.003910068,-0.7390029,-9.36,-22.98,-46.38,135,37,5,0.5030602,0.08076071,-0.08128223,3.616402,-0.08796071,-0.01552451,-0.01787687,0.040908,-0.971063,0.2346146
634796813250720000,0.0742913,-0.01173021,-0.7702835,-9.36,-22.98,-46.38,135,37,5,0.4668765,-0.008622384,-0.100391,3.616626,-0.0822494,-0.01554835,-0.01722265,0.03813007,-0.9711495,0.2347727
634796813250920000,0.05474096,-0.01173021,-0.8367546,-9.36,-22.98,-46.38,133,35,5,0.1018537,0.01909249,-0.0833514,3.617188,-0.07867932,-0.01549256,-0.01678664,0.03639827,-0.9711499,0.2350772
634796813251130000,0.03910068,-0.003910068,-0.8797654,-9.36,-22.98,-46.38,132,34,5,-0.06735636,-0.04259554,-0.01732581,3.617984,-0.07976007,-0.01557255,-0.01696726,0.03690693,-0.9710365,0.2354531
634796813251320000,0.02737048,-0.003910068,-0.914956,-9.36,-22.98,-46.38,140,42,5,0.3104094,-0.0277116,0.05719401,3.619883,-0.07944584,-0.01645517,-0.01739349,0.03663366,-0.9708193,0.2363599
634796813251520000,0.03128055,-0.01564027,-0.969697,-9.36,-22.98,-46.38,140,42,5,0.6041356,0.02339164,0.06458887,3.623591,-0.06387186,-0.01639855,-0.01557886,0.02905073,-0.970635,0.2382891
634796813251720000,0.04301075,-0.03128055,-1.043988,-9.36,-22.98,-46.38,144,46,5,0.5966859,0.07450297,0.06239892,3.625225,-0.0519154,-0.01481187,-0.01340312,0.02342602,-0.9705971,0.2391926
634796813251920000,0.04692082,-0.02737048,-1.12219,-7.92,-24.42,-47.34,151,53,5,0.2380421,-0.05317808,0.04001049,3.62618,-0.04574418,-0.01489758,-0.01271632,0.02041472,-0.9705502,0.2396953
634796813252120000,0.05083089,0.01564027,-1.227762,-7.92,-24.42,-47.34,153,55,5,0.0495576,-0.1553208,0.07410656,3.626992,-0.04240823,-0.0164907,-0.01309709,0.01859935,-0.9704835,0.2400921
634796813252320000,0.06256109,0.03910068,-1.337243,-7.92,-24.42,-47.34,153,55,5,0.2134069,0.2182234,0.2773699,3.628847,-0.04116106,-0.01913321,-0.01424592,0.01766323,-0.9702671,0.240971
634796813252520000,0.08211143,0.02346041,-1.317693,-7.92,-24.42,-47.34,156,58,5,0.402839,0.6119867,0.2486359,3.631607,-0.0393734,-0.01789808,-0.01345477,0.01692651,-0.9699517,0.2423357
634796813252720000,0.1212121,0,-1.212121,-5.52,-25.86,-47.52,162,64,5,0.402839,0.6119867,0.2486359,3.637927,-0.02661133,0.001396537,-0.002591304,0.01306919,-0.9692759,0.2456146
634796813252920000,0.1759531,0.003910068,-1.192571,-5.52,-25.86,-47.52,160,62,5,0.02926783,-0.5458903,-0.1312015,3.636666,-0.02401733,-0.0008066893,-0.003333301,0.01154353,-0.9694499,0.2449941
634796813253120000,0.1837732,0.05474096,-1.286412,-5.52,-25.86,-47.52,152,54,5,0.03459129,-0.5863309,-0.06834977,3.634501,-0.02397919,-0.01189041,-0.008690079,0.01017653,-0.9697142,0.2438756
634796813253320000,0.1407625,0.1407625,-1.329423,-5.52,-25.86,-47.52,152,54,5,0.06755088,-0.1893748,0.1338346,3.634462,-0.02390861,-0.01807046,-0.01167756,0.009388485,-0.9697058,0.2438156
634796813253530000,0.1251222,0.1798632,-1.231672,-5.52,-25.86,-47.52,155,57,5,0.07922287,0.3416636,0.2806977,3.637393,-0.02348518,-0.01995897,-0.01255463,0.008934309,-0.9693435,0.2452262
634796813253720000,0.1446725,0.1368524,-1.079179,-5.52,-25.86,-47.52,159,61,5,-0.03038093,0.2320484,0.2583489,3.644603,-0.02521634,-0.008575439,-0.007290085,0.01114416,-0.9684664,0.2487878
634796813253920000,0.1642229,0.08211143,-0.9775171,-3.84,-27.54,-47.22,162,64,5,-0.1537819,-0.1244449,0.1157232,3.64539,-0.02949619,-0.01068544,-0.008849211,0.01295047,-0.9683412,0.2491364
634796813254120000,0.1524927,0.09775171,-0.969697,-3.84,-27.54,-47.22,162,64,5,-0.3070303,-0.5405569,-0.05032552,3.644438,-0.03405237,-0.01507556,-0.01153512,0.01461459,-0.9684238,0.2486147
634796813254320000,0.1290323,0.1251222,-0.9892473,-3.84,-27.54,-47.22,153,55,5,-0.4315446,-0.6980622,-0.04502036,3.642914,-0.04357624,-0.02311206,-0.01659559,0.01823848,-0.9685166,0.2477249
634796813254530000,0.08602151,0.1407625,-0.969697,-3.84,-27.54,-47.22,154,56,5,-0.2995807,-0.3713451,0.1039203,3.643028,-0.05272865,-0.0296936,-0.02091656,0.02185217,-0.9683882,0.2476069
634796813254720000,0.07038123,0.1055719,-0.8797654,-3.84,-27.54,-47.22,157,59,5,-0.2272134,-0.0744097,0.1751978,3.644311,-0.06018519,-0.03071463,-0.02235002,0.02532129,-0.9681377,0.248131
634796813254920000,0.0742913,0.06256109,-0.7663734,-3.84,-27.54,-47.22,157,59,5,-0.1974151,0.02563949,0.1720051,3.646333,-0.06951833,-0.02716374,-0.02182007,0.03025894,-0.9677671,0.2490686
634796813255120000,0.07820137,0.02737048,-0.7272727,-1.98,-28.32,-47.04,163,65,5,-0.2431768,-0.1850649,0.137937,3.646629,-0.07466674,-0.02988017,-0.02377996,0.03240705,-0.9676433,0.249101
634796813255320000,0.08211143,0.01173021,-0.7663734,-1.98,-28.32,-47.04,159,61,5,-0.1580224,-0.3393775,0.008117257,3.64554,-0.07793713,-0.03549957,-0.0268868,0.03330085,-0.9677072,0.2484173
634796813255520000,0.08602151,0.02737048,-0.801564,-1.98,-28.32,-47.04,156,58,5,-0.03880523,-0.2137989,0.02726256,3.644575,-0.07868146,-0.03922319,-0.02876421,0.03320985,-0.9677991,0.247861
634796813255720000,0.08993158,0.03519062,-0.7898338,-1.98,-28.32,-47.04,156,58,5,0.08999486,0.1873616,0.2240511,3.644618,-0.07753658,-0.03758597,-0.02783106,0.03285933,-0.9678198,0.2479327
634796813255920000,0.08211143,0.007820137,-0.7624633,-1.98,-28.32,-47.04,156,58,5,0.1431542,0.1575189,0.2368218,3.645762,-0.07658362,-0.03522074,-0.02658743,0.03267779,-0.9677029,0.2485487
634796813256120000,0.08211143,-0.03910068,-0.7624633,-1.98,-28.32,-47.04,157,59,5,0.1431542,0.1575189,0.2368218,3.649215,-0.07097983,-0.03078425,-0.02379747,0.03047938,-0.9673756,0.2503785
634796813256320000,0.08211143,-0.05474096,-0.8132942,-0.84,-28.74,-46.44,159,61,5,0.2495535,-0.03829575,-0.1324815,3.646915,-0.06615066,-0.03221536,-0.02385274,0.0279909,-0.9677284,0.249297
634796813256520000,0.07820137,-0.02737048,-0.8797654,-0.84,-28.74,-46.44,157,59,5,0.1793146,0.04049352,-0.1324271,3.642701,-0.06131339,-0.03300834,-0.0235794,0.02560078,-0.9683133,0.2473005
634796813256720000,0.0742913,0.01173021,-0.9384164,-0.84,-28.74,-46.44,157,59,5,0.08772656,0.05538756,0.009089958,3.640459,-0.05898308,-0.03263307,-0.02308208,0.02454508,-0.9686207,0.2462483
634796813256920000,0.08602151,0.02346041,-0.9970675,-0.84,-28.74,-46.44,159,61,5,0.09085646,-0.05105028,0.03457389,3.638507,-0.05678963,-0.03196788,-0.02246693,0.02358685,-0.9688903,0.2453383
634796813257120000,0.1016618,0,-1.079179,-0.84,-28.74,-46.44,162,64,5,0.2462102,-0.1585133,-0.07713856,3.636941,-0.05484891,-0.03310657,-0.02276272,0.02252428,-0.9690992,0.2445842
634796813257320000,0.1055719,0.003910068,-1.16129,0.06,-29.34,-46.8,166,68,5,0.3366694,0.06503636,-0.1632572,3.629944,-0.04505372,-0.03274918,-0.02132893,0.01789638,-0.9700502,0.2413047
634796813257520000,0.113392,0.04692082,-1.188661,0.06,-29.34,-46.8,166,68,5,0.254724,0.2054838,-0.05358567,3.625469,-0.03951693,-0.02900743,-0.01881109,0.0157057,-0.9706523,0.2392349
634796813257720000,0.09384164,0.09384164,-1.16911,0.06,-29.34,-46.8,167,69,5,0.1354694,0.04258547,0.2688767,3.62542,-0.03665018,-0.02680003,-0.01739658,0.01457939,-0.9706899,0.239261
634796813257930000,0.04692082,0.113392,-1.1652,0.06,-29.34,-46.8,167,69,5,0.2173976,0.08299069,0.2092801,3.627937,-0.03426551,-0.02592409,-0.01670323,0.01350595,-0.9704086,0.2405117
634796813258120000,0.05865103,0.09384164,-1.188661,0.06,-29.34,-46.8,171,73,5,0.1439511,0.1446635,-0.05674525,3.627353,-0.03123498,-0.02345669,-0.01513807,0.01233717,-0.9705085,0.2402757
634796813258320000,0.08602151,0.09775171,-1.243402,0.06,-29.34,-46.8,171,73,5,-0.1593322,-0.04579364,-0.3089666,3.61457,-0.03463316,-0.02278614,-0.0151307,0.01416386,-0.9720041,0.2340482
634796813258520000,0.06256109,0.1407625,-1.251222,1.08,-29.7,-47.04,172,74,5,-0.3264156,-0.06490532,-0.2344709,3.607445,-0.04064941,-0.02377021,-0.01625227,0.01703031,-0.9727812,0.2305266
634796813258720000,0.02737048,0.1642229,-1.16129,1.08,-29.7,-47.04,171,73,5,-0.1242052,0.07234907,-0.1098718,3.602088,-0.04276156,-0.02187252,-0.01552384,0.01831845,-0.9733825,0.2279251
634796813258920000,0.03519062,0.1251222,-1.059628,1.08,-29.7,-47.04,172,74,5,0.1854478,0.2319608,-0.2162409,3.594675,-0.04032469,-0.01774657,-0.01317284,0.01765251,-0.9742529,0.2243795
634796813259130000,0.06256109,0.113392,-1.106549,1.08,-29.7,-47.04,172,74,5,-0.02210349,-0.1650146,-0.4780403,3.587095,-0.04043126,-0.01881182,-0.01363696,0.01763653,-0.9750929,0.2206734
634796813259320000,0.08602151,0.1603128,-1.204301,1.08,-29.7,-47.04,173,75,5,-0.4978042,-0.6332737,-0.6217107,3.573025,-0.04703068,-0.02805722,-0.01873167,0.0240967,-0.977712,0.2070276
634796813259520000,0.07038123,0.2189638,-1.247312,1.62,-30.48,-47.04,172,74,5,-0.5542081,-0.5140805,-0.5365726,3.549793,-0.06670403,-0.04557061,-0.02905498,0.02802988,-0.9785988,0.201777
634796813259720000,0.05474096,0.2150538,-1.17302,1.62,-30.48,-47.04,171,73,5,-0.1199969,0.3723637,-0.1417062,3.543058,-0.07278562,-0.04390705,-0.02874967,0.03127164,-0.9791954,0.1984247
634796813259920000,0.07038123,0.1446725,-1.020528,1.62,-30.48,-47.04,171,73,5,0.04389624,0.3840702,-0.2225689,3.539079,-0.07439423,-0.03904843,-0.02646647,0.03259766,-0.9795944,0.1965514
634796813260120000,0.08602151,0.08211143,-0.9188661,1.62,-30.48,-47.04,172,74,5,-0.03909875,0.0009477712,-0.3257987,3.530648,-0.07470179,-0.03222847,-0.02301605,0.03352053,-0.9804443,0.1925526
634796813260320000,0.08993158,0.07820137,-0.8993157,1.62,-30.48,-47.04,171,73,5,-0.2029433,-0.1661356,-0.2023486,3.522774,-0.07743931,-0.03070414,-0.02239447,0.03509859,-0.9811539,0.1886908
634796813260520000,0.08211143,0.09775171,-0.8797654,1.62,-30.48,-47.04,169,71,5,-0.133749,-0.009658299,-0.1214306,3.514548,-0.0832212,-0.03455675,-0.02467449,0.03767086,-0.9817994,0.1845045
634796813260720000,0.07038123,0.09775171,-0.856305,1.62,-30.48,-47.04,169,71,5,0.04505347,0.09887809,-0.0554387,3.511063,-0.08394098,-0.03318011,-0.02399871,0.03819402,-0.9821121,0.1828149
634796813260920000,0.07820137,0.07820137,-0.8484849,2.1,-31.26,-46.98,169,71,5,0.1716368,0.02331001,-0.05647611,3.508016,-0.08211637,-0.03192365,-0.02315803,0.03744902,-0.9824293,0.1813674
634796813261120000,0.09384164,0.07820137,-0.8523949,2.1,-31.26,-46.98,169,71,5,0.150329,-0.0681792,-0.05966005,3.504982,-0.0793097,-0.03205383,-0.02291275,0.0360933,-0.9827544,0.1799063
634796813261330000,0.09384164,0.08211143,-0.856305,2.1,-31.26,-46.98,169,71,5,0.07898416,-0.0458343,0.03611585,3.502475,-0.07720566,-0.03341401,-0.02334788,0.0349654,-0.9830103,0.1786706
634796813261520000,0.0742913,0.09775171,-0.856305,2.1,-31.26,-46.98,168,70,5,0.03639664,0.02867807,0.152087,3.501992,-0.07658339,-0.0336498,-0.02339975,0.03464401,-0.9830632,0.1784355
634796813261720000,0.06647116,0.1016618,-0.856305,2.1,-31.26,-46.98,168,70,5,-0.0104431,0.07868356,0.279794,3.506128,-0.07720566,-0.03058564,-0.02202229,0.0351797,-0.9826951,0.1805235
634796813261920000,0.08211143,0.06256109,-0.8875855,2.4,-30.72,-46.38,168,70,5,0.1268041,0.0254658,0.2776656,3.508831,-0.07543492,-0.02952862,-0.0213897,0.03437675,-0.9824845,0.1818921
634796813262120000,0.09384164,0.04692082,-0.9345064,2.4,-30.72,-46.38,170,72,5,0.3896677,0.0382132,0.2052983,3.510154,-0.06854296,-0.02816593,-0.02011397,0.03110235,-0.9824825,0.1826393
634796813262320000,0.09775171,0.08211143,-0.969697,2.4,-30.72,-46.38,169,71,5,0.5833566,0.2308021,0.136087,3.510363,-0.06175923,-0.02561843,-0.01824591,0.02800161,-0.9825727,0.1828507
634796813262520000,0.09775171,0.1173021,-0.9931574,2.4,-30.72,-46.38,169,71,5,0.3811539,0.3755367,0.1733094,3.510953,-0.0527854,-0.01911366,-0.01423663,0.02418535,-0.9826542,0.1833121
634796813262720000,0.08602151,0.1329423,-1.024438,2.4,-30.72,-46.38,170,72,5,0.3098508,0.02219576,0.3276221,3.513055,-0.0489912,-0.01260626,-0.01071578,0.02290779,-0.9825156,0.1864469
634796813262920000,0.1055719,0.1329423,-1.047898,2.94,-31.56,-46.2,171,73,5,0.5610079,0.2201038,0.3318789,3.520683,-0.03741502,0.007101059,-3.817345E-05,0.01904019,-0.9819,0.1884434
634796813263120000,0.226784,0.09775171,-1.086999,2.94,-31.56,-46.2,171,73,5,-1.141744,-0.1608889,0.3691268,3.524338,-0.03801966,0.01945889,0.005934518,0.02051104,-0.9814852,0.1903447
634796813263320000,0.2541544,0.113392,-1.13783,2.94,-31.56,-46.2,171,73,5,-1.084276,-0.4865417,0.223328,3.529089,-0.0582943,0.01945793,0.003931847,0.0304688,-0.980772,0.1927257
634796813263520000,0.172043,0.1876833,-1.223851,2.94,-31.56,-46.2,171,73,5,0.06188686,-0.2832747,0.1147407,3.53232,-0.07584071,0.0119679,-0.00149349,0.03835024,-0.9802104,0.1942027
634796813263720000,0.172043,0.2111437,-1.282502,2.94,-31.56,-46.2,164,66,5,0.464164,-0.2758252,0.06152583,3.533648,-0.0757041,0.007161021,-0.00386137,0.03781489,-0.9801127,0.1947664
634796813263920000,0.172043,0.2346041,-1.305963,2.94,-31.56,-46.2,164,66,5,0.4141454,-0.1736596,0.05835539,3.532427,-0.06217766,0.0003767013,-0.005851074,0.0305288,-0.9804916,0.1940875
634796813264120000,0.1485826,0.2502444,-1.216031,2.94,-31.56,-46.2,164,66,5,0.4024389,0.2009097,0.2169324,3.533254,-0.05805826,0.003053307,-0.004150864,0.02876723,-0.9804633,0.1945426
634796813264320000,0.1368524,0.1955034,-1.040078,2.82,-32.34,-46.2,170,72,5,0.473742,-0.1705272,0.2988777,3.536047,-0.05138087,0.004298449,-0.002926664,0.02561062,-0.9802775,0.1959401
634796813264520000,0.1524927,0.1094819,-0.9188661,2.82,-32.34,-46.2,170,72,5,0.237484,0.08700249,0.1743634,3.537642,-0.04641556,0.004239916,-0.002487365,0.02316907,-0.9801811,0.1967281
634796813264720000,0.1603128,0.08211143,-0.9227762,2.82,-32.34,-46.2,169,71,5,-0.4202007,-0.5100482,0.047739,3.537312,-0.05203557,0.0006058216,-0.004816882,0.02556683,-0.9801561,0.1965123
634796813264920000,0.1290323,0.1251222,-0.9775171,2.82,-32.34,-46.2,169,71,5,-0.837377,-0.7665264,-0.1001258,3.535327,-0.06576466,-0.01218176,-0.01240042,0.03105002,-0.980175,0.1952923
634796813265120000,0.113392,0.1915933,-0.9853373,2.82,-32.34,-46.2,169,71,5,-0.1892639,-0.1428878,0.11601,3.532461,-0.08936882,-0.02329016,-0.02008563,0.04155716,-0.9800194,0.1934749
634796813265320000,0.1446725,0.226784,-0.9462366,2.52,-33.6,-46.08,168,70,5,0.2598225,0.09764357,0.163887,3.532897,-0.09143638,-0.0213145,-0.01932707,0.04275813,-0.9799357,0.193714
634796813265520000,0.1681329,0.2033236,-0.914956,2.52,-33.6,-46.08,168,70,5,0.3864653,0.09442387,0.253282,3.534305,-0.08818959,-0.0160557,-0.01646555,0.04166742,-0.9798684,0.1945539
634796813265720000,0.172043,0.1407625,-0.8954057,2.52,-33.6,-46.08,168,70,5,0.09379042,-0.06629467,0.2181625,3.536895,-0.08607721,-0.0109092,-0.01379207,0.04111696,-0.9796542,0.1959517
634796813265920000,0.1564027,0.1016618,-0.8954057,2.52,-33.6,-46.08,168,70,5,-0.1679948,-0.2684745,0.09790242,3.538493,-0.0895772,-0.009311557,-0.01338683,0.04297739,-0.9794205,0.1967459
634796813266120000,0.1368524,0.1094819,-0.9345064,2.52,-33.6,-46.08,165,67,5,-0.4202162,-0.4015026,-0.01274166,3.538337,-0.09561013,-0.01493311,-0.01672894,0.04537861,-0.9793118,0.1964931
634796813266320000,0.1329423,0.1485826,-0.9931574,2.04,-35.16,-46.14,164,66,5,-0.3914821,-0.2599607,-0.04035649,3.535671,-0.1086543,-0.02250028,-0.02164548,0.05104719,-0.9792612,0.1948667
634796813266520000,0.1446725,0.1994135,-1.040078,2.04,-35.16,-46.14,164,66,5,-0.1190291,-0.06519416,-0.002005653,3.533955,-0.1113856,-0.02058864,-0.02093073,0.05258989,-0.9793578,0.1940506
634796813266720000,0.1564027,0.2072336,-1.036168,2.04,-35.16,-46.14,167,69,5,0.3322034,0.5062804,0.1118564,3.533193,-0.1065254,-0.009665728,-0.01509112,0.05128076,-0.9795397,0.1940212
634796813266920000,0.1759531,0.1485826,-0.9931574,2.04,-35.16,-46.14,168,70,5,0.4918371,0.07737871,0.260848,3.534883,-0.09788346,0.0001199245,-0.009499717,0.04799103,-0.9795523,0.1951493
634796813267120000,0.1798632,0.0742913,-0.9853373,2.04,-35.16,-46.14,165,67,5,0.1416989,-0.3589493,0.03946688,3.537422,-0.09015393,0.002329946,-0.007719202,0.04441088,-0.979472,0.196477
634796813267320000,0.1681329,0.05474096,-1.047898,2.04,-35.16,-46.14,165,67,5,-0.1189945,-0.2408202,-0.1329203,3.537665,-0.08901072,0.0004225969,-0.00854632,0.04366261,-0.9794822,0.1965586
634796813267520000,0.1446725,0.1055719,-1.094819,0.48,-35.82,-46.2,162,64,5,-0.24883,-0.05881242,-0.1435082,3.531531,-0.09464693,-0.003262043,-0.01076317,0.04609386,-0.9799693,0.1934435
634796813267720000,0.1329423,0.1603128,-1.086999,0.48,-35.82,-46.2,164,66,5,-0.05403653,0.3657972,-0.1040622,3.527951,-0.09744906,9.870528E-05,-0.009302054,0.04780877,-0.980234,0.1917542
634796813267920000,0.1603128,0.1329423,-1.032258,0.48,-35.82,-46.2,166,68,5,0.1502773,0.3232282,-0.08377454,3.524365,-0.09630108,0.00638616,-0.006024454,0.04785962,-0.9805694,0.1901492
634796813268120000,0.1915933,0.08993158,-1.012708,0.48,-35.82,-46.2,165,67,5,0.2790486,0.2168057,-0.1954583,3.519581,-0.09215402,0.01055384,-0.003475909,0.04623027,-0.9810924,0.1879076
634796813268320000,0.1837732,0.08211143,-1.008798,0.48,-35.82,-46.2,165,67,5,0.166225,0.2231911,-0.2316419,3.515868,-0.08934093,0.01309454,-0.001881408,0.04509193,-0.9814855,0.1861449
634796813268520000,0.1446725,0.1055719,-0.9657869,0.18,-36.24,-46.08,162,64,5,-0.07854053,0.2285122,-0.184816,3.506939,-0.09219765,0.02540064,0.004104788,0.04761672,-0.9821308,0.1820268
634796813268720000,0.1173021,0.1016618,-0.9384164,0.18,-36.24,-46.08,162,64,5,-0.4456762,-0.0620564,-0.08145591,3.504843,-0.1008539,0.02894807,0.005113613,0.05218226,-0.9820662,0.1810971
634796813268920000,0.1251222,0.07038123,-0.9540567,0.18,-36.24,-46.08,164,66,5,-0.2679506,-0.06945883,-0.1569484,3.502008,-0.1083422,0.02927863,0.004677102,0.05588198,-0.9821161,0.1797316
634796813269120000,0.1329423,0.07820137,-0.9657869,0.18,-36.24,-46.08,164,66,5,0.01408506,0.09444451,-0.2005817,3.497674,-0.1113036,0.03021002,0.004992849,0.05740841,-0.9824086,0.1776341
634796813269320000,0.113392,0.1055719,-0.9462366,0.18,-36.24,-46.08,165,67,5,0.0907148,0.08801563,-0.08986765,3.494686,-0.1105087,0.03220499,0.00612917,0.0571844,-0.9826702,0.1762155
634796813269520000,0.08602151,0.08602151,-0.9384164,0.18,-36.24,-46.08,165,67,5,0.08858901,-0.0982376,-0.04307102,3.492172,-0.1084695,0.03490329,0.00770594,0.05640819,-0.9829131,0.1750422
634796813269720000,0.08602151,0.05865103,-0.9540567,0.6,-36.48,-46.68,166,68,5,-0.07528134,-0.1578142,-0.1941777,3.486335,-0.108073,0.03284931,0.00689439,0.05601562,-0.9834591,0.1721191
634796813269920000,0.1094819,0.05865103,-0.9853373,0.6,-36.48,-46.68,166,68,5,-0.2966211,-0.1119722,-0.276123,3.480591,-0.1128855,0.03137171,0.005920796,0.05823922,-0.9838295,0.1692716
634796813270120000,0.1212121,0.08602151,-0.9931574,0.6,-36.48,-46.68,168,70,5,-0.3785664,-0.09381479,-0.2303613,3.475553,-0.1185274,0.03013229,0.004986895,0.06089814,-0.9841,0.1667747
634796813270320000,0.1094819,0.1173021,-0.9931574,0.6,-36.48,-46.68,167,69,5,-0.1486739,-0.1363421,-0.2048199,3.472672,-0.1203287,0.02907789,0.004406589,0.06169119,-0.9842968,0.165331
634796813270520000,0.1055719,0.1173021,-1.008798,0.6,-36.48,-46.68,166,68,5,-0.1336702,-0.105378,-0.1547689,3.468348,-0.1205802,0.028059,0.0040177,0.06172312,-0.9846569,0.1631745
634796813270720000,0.113392,0.1055719,-1.008798,0.6,-36.36,-47.28,167,69,5,-0.1825701,-0.09471045,-0.09938151,3.461596,-0.1255326,0.02625608,0.002941971,0.06400602,-0.9850669,0.1598054
634796813270920000,0.1251222,0.08602151,-0.9892473,0.6,-36.36,-47.28,167,69,5,-0.117588,-0.04994084,-0.08974655,3.459128,-0.12781,0.02625895,0.002841802,0.06512447,-0.9851903,0.1585928
634796813271120000,0.1368524,0.0742913,-0.9814272,0.6,-36.36,-47.28,168,70,5,-0.05475967,-0.07655223,-0.1141586,3.456464,-0.1286266,0.02636683,0.00291747,0.06553121,-0.9853722,0.1572848
634796813271320000,0.1290323,0.07820137,-0.9931574,0.6,-36.36,-47.28,166,68,5,-0.01959693,-0.2180846,-0.05876185,3.454981,-0.1286893,0.02560222,0.002584291,0.06550073,-0.9854957,0.1565311
634796813271520000,0.1055719,0.09775171,-1.012708,0.6,-36.36,-47.28,165,67,5,-0.0142344,-0.1819009,-0.04274036,3.453899,-0.1281171,0.023332,0.001545304,0.06504203,-0.9856235,0.1559276
634796813271720000,0.09775171,0.1016618,-1.032258,0.6,-36.36,-47.28,165,67,5,0.02304988,-0.1670018,-0.02246251,3.453022,-0.127321,0.0215683,0.0007662878,0.06451322,-0.9857367,0.1554409
634796813271920000,0.1094819,0.08602151,-1.047898,0.6,-36.36,-47.28,166,68,5,0.1145909,-0.09565049,-0.03945521,3.450106,-0.1227195,0.02019751,0.0005386361,0.06213868,-0.9861209,0.1539605
634796813272120000,0.1251222,0.07038123,-1.040078,1.62,-36.18,-47.76,169,71,5,0.1422409,-0.01475777,-0.07559916,3.447952,-0.1204493,0.02050173,0.0009291872,0.0610416,-0.9863531,0.1529066
634796813272320000,0.1290323,0.07038123,-0.9931574,1.62,-36.18,-47.76,169,71,5,-0.05677701,-0.04879828,-0.03932718,3.446924,-0.120286,0.02049184,0.0009681036,0.0609598,-0.9864367,0.1523992
634796813272520000,0.1212121,0.0742913,-0.9775171,1.62,-36.18,-47.76,169,71,5,-0.05356731,-0.1892596,-0.07231316,3.445434,-0.1211004,0.01910138,0.0002657658,0.06125626,-0.9865382,0.151624
634796813272720000,0.1094819,0.08602151,-0.9892473,1.62,-36.18,-47.76,168,70,5,0.01669124,-0.1637182,-0.07978487,3.443767,-0.1211181,0.01722229,-0.0006117137,0.06112407,-0.9866804,0.150747
634796813272920000,0.1094819,0.08993158,-1.008798,1.62,-36.18,-47.76,167,69,5,-0.02370846,-0.1786174,-0.05635436,3.440469,-0.1201596,0.01379275,-0.002132115,0.06039796,-0.9869853,0.1490202
634796813273120000,0.1173021,0.08602151,-1.032258,1.92,-36,-48.18,169,71,5,-0.0001433166,0.03005515,0.0128853,3.438514,-0.1219072,0.01282048,-0.002682323,0.06119096,-0.9870852,0.1480243
634796813273320000,0.1212121,0.07820137,-1.036168,1.92,-36,-48.18,169,71,5,-0.0001433166,0.03005515,0.0128853,3.438514,-0.1219072,0.01282048,-0.002682323,0.06119096,-0.9870852,0.1480243
634796813273520000,0.113392,0.07820137,-1.016618,1.92,-36,-48.18,169,71,5,-0.0001433166,0.03005515,0.0128853,3.437777,-0.1216989,0.01454389,-0.001793635,0.06121572,-0.9871331,0.1477116
634796813273720000,0.1016618,0.07820137,-0.9892473,1.92,-36,-48.18,168,70,5,0.07113615,-0.0795727,0.007578226,3.437177,-0.120074,0.0154258,-0.001220158,0.0604788,-0.9872192,0.1474428
634796813273920000,0.1016618,0.0742913,-0.9814272,1.92,-36,-48.18,169,71,5,0.129625,-0.110401,0.03629804,3.436953,-0.1179912,0.01527023,-0.001136712,0.05943942,-0.9872999,0.1473288
634796813274120000,0.1016618,0.07038123,-0.9931574,1.68,-35.52,-47.82,169,71,5,0.006179884,-0.212545,0.06500413,3.437154,-0.1153476,0.01445436,-0.001350708,0.05807446,-0.9873683,0.1474069
634796813274340000,0.09775171,0.06256109,-1.016618,1.68,-35.52,-47.82,169,71,5,0.01259546,-0.2529855,0.0532685,3.437954,-0.1129341,0.009606957,-0.003588971,0.05652601,-0.9874136,0.1476702
634796813274520000,0.09775171,0.05865103,-1.024438,1.68,-35.52,-47.82,169,71,5,0.01364074,-0.09430382,-0.008487105,3.437228,-0.1109538,0.009165764,-0.003640416,0.05551715,-0.987526,0.1473031
634796813274720000,0.1055719,0.05865103,-1.016618,1.68,-35.52,-47.82,169,71,5,0.02640985,-0.1485513,-0.02979343,3.436651,-0.1102042,0.008692025,-0.00380332,0.05511335,-0.987591,0.1470068
634796813274920000,0.1094819,0.06256109,-1.020528,1.68,-35.52,-47.82,169,71,5,0.0274382,-0.1251105,-0.03830042,3.435536,-0.1088107,0.007370233,-0.00432332,0.05433075,-0.98772,0.1464237
634796813275120000,0.113392,0.06256109,-1.028348,1.68,-35.52,-47.82,169,71,5,0.01037112,-0.08253711,-0.01483478,3.434247,-0.1073284,0.006428003,-0.004645682,0.05353292,-0.9878588,0.1457653
634796813275320000,0.1094819,0.06256109,-1.020528,2.04,-35.04,-47.46,169,71,5,0.01674519,-0.03779804,-0.005232916,3.432438,-0.1049464,0.006984711,-0.004149663,0.05240058,-0.9880504,0.1448914
634796813275520000,0.1016618,0.06256109,-1.012708,2.04,-35.04,-47.46,169,71,5,0.08481921,-0.03248713,0.009688159,3.432018,-0.103549,0.007547021,-0.003759715,0.05175165,-0.9881147,0.1447009
634796813275720000,0.1055719,0.05865103,-1.004888,2.04,-35.04,-47.46,169,71,5,0.09543751,0.007996846,-0.003055299,3.431199,-0.1008911,0.008979559,-0.002838864,0.05054295,-0.9882329,0.1443366
634796813275920000,0.113392,0.04692082,-0.9970675,2.04,-35.04,-47.46,169,71,5,0.001799215,0.01862388,-0.02219134,3.430022,-0.09934998,0.01057279,-0.001911026,0.04989723,-0.9883467,0.143796
634796813276120000,0.1173021,0.05474096,-1.000978,2.04,-35.04,-47.46,169,71,5,-0.04824576,-0.05589774,-0.03498131,3.428684,-0.09923697,0.011361,-0.001479926,0.04989883,-0.9884412,0.1431539
634796813276320000,0.1251222,0.06647116,-1.008798,2.04,-35.04,-47.46,168,70,5,-0.05034388,-0.09739038,-0.0275047,3.427416,-0.09947681,0.01070786,-0.001788213,0.04997191,-0.988529,0.1425108
634796813276520000,0.1212121,0.0742913,-1.004888,1.74,-34.38,-46.62,168,70,5,0.03162157,-0.03566203,0.01404041,3.425781,-0.09783745,0.01243114,-0.0007792746,0.04928463,-0.9886745,0.1417454
634796813276720000,0.113392,0.0742913,-0.9892473,1.74,-34.38,-46.62,167,69,5,0.07735983,-0.1473632,0.06401579,3.425875,-0.09650087,0.01260591,-0.0006004371,0.04863615,-0.9887002,0.1417961
634796813276920000,0.1094819,0.05865103,-0.9931574,1.74,-34.38,-46.62,167,69,5,0.0869104,-0.1334674,0.06078491,3.426565,-0.09447884,0.01169681,-0.0009230052,0.04757211,-0.9887058,0.1421172
634796813277120000,0.1173021,0.05474096,-1.000978,1.74,-34.38,-46.62,168,70,5,-0.007838197,-0.04720514,0.04901873,3.427007,-0.09268642,0.01122439,-0.001039452,0.04665223,-0.9887192,0.1423256
634796813277320000,0.1173021,0.06256109,-1.004888,1.74,-34.38,-46.62,168,70,5,-0.03977602,-0.05573129,0.03725744,3.427163,-0.09223366,0.01157308,-0.0008384808,0.04645318,-0.9887169,0.1424107
634796813277530000,0.113392,0.06647116,-0.9970675,1.74,-34.08,-46.74,168,70,5,-0.01208797,-0.09717595,0.04148785,3.427314,-0.09233665,0.01224017,-0.0005194874,0.04655131,-0.9886997,0.1425003
634796813277740000,0.1055719,0.0742913,-1.004888,1.74,-34.08,-46.74,168,70,5,0.0390174,-0.121632,0.04679056,3.427771,-0.09131717,0.01185608,-0.0006472764,0.04602,-0.9886935,0.1427178
634796813277920000,0.1055719,0.07820137,-1.008798,1.74,-34.08,-46.74,168,70,5,0.05605214,-0.09178171,0.05847916,3.428173,-0.09000063,0.01148593,-0.0007454804,0.04534264,-0.9886959,0.142909
634796813278120000,0.1016618,0.07038123,-1.004888,1.74,-34.08,-46.74,168,70,5,0.05071239,0.004046981,0.08717791,3.428672,-0.08900429,0.01238644,-0.0002402339,0.04491413,-0.9886777,0.1431755
634796813278320000,0.1016618,0.05474096,-0.9892473,1.74,-34.08,-46.74,169,71,5,0.0443017,-0.03533382,0.05097179,3.42942,-0.08797789,0.0138489,0.000539555,0.04451122,-0.9886367,0.1435765
634796813278520000,0.1016618,0.06647116,-0.9892473,1.74,-34.08,-46.74,169,71,5,0.03045124,-0.05556973,0.04991939,3.429458,-0.08694624,0.01450837,0.0009388008,0.04404848,-0.9886533,0.1436089
634796813278720000,0.1055719,0.07038123,-0.9931574,1.74,-34.08,-46.74,169,71,5,0.02512969,-0.03213486,0.1276077,3.431422,-0.08533024,0.01584768,0.001674464,0.04334704,-0.9885384,0.1446065
634796813278920000,0.1055719,0.05474096,-0.9892473,1.74,-34.08,-46.74,169,71,5,0.05064608,-0.04809631,0.1211953,3.432798,-0.08417535,0.01638484,0.00199403,0.04281625,-0.9884592,0.1452963
634796813279120000,0.1016618,0.04692082,-1.000978,2.04,-34.2,-46.62,169,71,5,-0.03772537,-0.1417239,0.08923654,3.433755,-0.08440804,0.01546943,0.001504151,0.04286569,-0.9883909,0.1457509
634796813279320000,0.1016618,0.05083089,-1.028348,2.04,-34.2,-46.62,169,71,5,0.001589028,-0.01285482,0.04133162,3.434085,-0.08495665,0.0148145,0.001133347,0.04308957,-0.9883606,0.1459009
634796813279520000,0.1016618,0.05083089,-1.032258,2.04,-34.2,-46.62,169,71,5,0.08350223,0.00946762,0.07009337,3.433995,-0.08435559,0.01589882,0.001715013,0.04287115,-0.9883719,0.1458782
634796813279720000,0.1055719,0.05474096,-1.016618,2.04,-34.2,-46.62,169,71,5,0.08876737,-0.005427489,0.07967395,3.434209,-0.08306623,0.01683342,0.0022665,0.04230209,-0.9883771,0.1460013
634796813279920000,0.1094819,0.04692082,-1.012708,2.04,-34.62,-46.44,170,72,5,0.0706284,-0.04264238,0.07861079,3.435313,-0.07896423,0.01880682,0.003519013,0.04042014,-0.9883667,0.1465794
634796813280120000,0.1055719,0.03910068,-1.020528,2.04,-34.62,-46.44,170,72,5,0.01313693,-0.007524331,0.01470087,3.435159,-0.07616686,0.02028799,0.004459158,0.03914536,-0.9884219,0.1465251
634796813280320000,0.1055719,0.03910068,-1.020528,2.04,-34.62,-46.44,170,72,5,0.01313693,-0.007524331,0.01470087,3.435159,-0.07616686,0.02028799,0.004459158,0.03914536,-0.9884219,0.1465251
634796813280520000,0.1016618,0.04692082,-1.008798,2.04,-34.62,-46.44,169,71,5,0.03763497,-0.04584847,0.02111634,3.434813,-0.07561897,0.02083969,0.00477874,0.03891404,-0.9884546,0.1463626
634796813280720000,0.1016618,0.05865103,-1.004888,1.92,-35.46,-46.74,169,71,5,0.1451063,-0.04687139,0.04349539,3.434536,-0.07351756,0.02108729,0.005060122,0.03789272,-0.9885122,0.1462252
634796813280920000,0.1016618,0.05865103,-1.004888,1.92,-35.46,-46.74,169,71,5,0.1354813,-0.02875105,0.07325464,3.434771,-0.0703299,0.02147615,0.005481119,0.0363461,-0.9885513,0.1463397
634796813281130000,0.1055719,0.04692082,-0.9970675,1.92,-35.46,-46.74,169,71,5,0.05669588,0.02868444,0.07638346,3.435594,-0.06712126,0.02460802,0.007249749,0.03499109,-0.9885232,0.1467864
634796813281320000,0.1016618,0.04301075,-0.9892473,1.92,-35.46,-46.74,169,71,5,0.020492,-0.05536094,0.03905769,3.435519,-0.06677413,0.02498352,0.007462171,0.0348466,-0.9885308,0.146754
634796813281520000,0.09775171,0.04692082,-0.9931574,1.92,-35.46,-46.74,169,71,5,0.1300956,-0.1532711,0.02942283,3.435357,-0.06482267,0.02375459,0.007000578,0.03379176,-0.9885864,0.1466483
634796813281720000,0.1016618,0.04692082,-0.9970675,1.92,-35.46,-46.74,169,71,5,0.1045494,-0.1043173,0.03364461,3.435223,-0.06231927,0.02269983,0.006664862,0.03247704,-0.9886469,0.1465577
634796813281920000,0.1055719,0.05083089,-0.9931574,1.92,-35.46,-46.74,169,71,5,0.02792615,-0.02026194,0.0197868,3.43481,-0.06127834,0.02314377,0.00696722,0.03199339,-0.9886904,0.1463564
634796813282120000,0.1016618,0.05865103,-0.9931574,2.1,-35.7,-45.78,170,72,5,0.2641594,-0.1106532,0.08466612,3.434515,-0.05895233,0.02433586,0.00773139,0.03092917,-0.9887386,0.1462186
634796813282320000,0.09775171,0.05474096,-0.9814272,2.1,-35.7,-45.78,169,71,5,0.1917921,0.1415426,0.09316503,3.435198,-0.05341649,0.0241344,0.008026842,0.02818042,-0.9887717,0.1465323
634796813282520000,0.1094819,0.03519062,-0.9540567,2.1,-35.7,-45.78,169,71,5,-0.2924259,0.001062572,0.0175779,3.435838,-0.05405235,0.0277636,0.009765416,0.02876258,-0.9886861,0.1468956
634796813282720000,0.1212121,0.03519062,-0.9618768,2.1,-35.7,-45.78,170,72,5,-0.2487926,-0.1723635,-0.06440171,3.434601,-0.05920529,0.02833187,0.009687266,0.03134526,-0.9886937,0.1463167
634796813282920000,0.1251222,0.06647116,-1.016618,2.1,-35.7,-45.78,170,72,5,-0.1508658,-0.288364,0.002635431,3.433301,-0.0623405,0.02650273,0.008574795,0.03275655,-0.9887549,0.1456629
634796813283120000,0.1212121,0.0742913,-1.067449,1.32,-36,-46.02,167,69,5,0.02580547,-0.1808773,0.03033263,3.432791,-0.06417513,0.02318191,0.00680782,0.03342124,-0.9887894,0.1453687
634796813283320000,0.113392,0.0742913,-1.075269,1.32,-36,-46.02,167,69,5,0.275897,-0.1670423,-0.005859427,3.432163,-0.05882883,0.0191822,0.005228158,0.03048692,-0.9889504,0.1449844
